Depth: 1,10157,6625,10932,3,11027,11092,4994,11,11695,11124,5060,10300,3,5018,12,2,3,10564,5101,11062
Depth: 2,4,5,10862,4,3,3,7289,3,2,3,2,2,2,3,3,3,10964,3,3,3
Depth: 3,3,2,3,3,4,4,4,3,3,3,3,6,2,2,2,3,2,3,2,2
Depth: 4,3,3,2,2,3,2,2,2,3,2,2,2,2,2,2,2,2,11364,2,2
Depth: 5,3,3,3,3,4,3,4,3,2,2,3,3,3,2,2,3,2,2,2,2
Depth: 6,1,2,2,2,2,3,2,2,2,2,2,2,2,2,2,3,2,2,2,2
Depth: 7,2,2,2,2,2,2,2,1,2,2,2,2,1,1,1,8994,2,2,1,1
Depth: 8,2,3,3,1,1,2,1,1,1,1,1,1,2,1,3,2,1,2,2,2
Depth: 9,1,1,2,1,1,2,2,2,2,1,2,2,2,2,2,2,2,2,2,2
Depth: 10,2,2,2,2,2,2,2,2,2,2,1,2,2,1,2,2,2,2,2,1
Depth: 11,2,2,2,2,2,2,2,2,2,2,2,2,2,2,2,1,2,2,2,2
Depth: 12,2,2,2,2,2,2,2,2,2,2,2,1,2,2,2,2,2,2,2,2
Depth: 13,2,1,2,2,1,2,2,2,2,2,2,2,1,2,2,2,2,2,12,1
Depth: 14,2,2,2,2,1,2,2,2,2,2,1,2,2,2,2,2,2,2,1,1
Depth: 15,1,2,2,2,1,2,1,2,1,2,2,3,1,1,1,1,2,2,2,2
Depth: 16,2,2,1,1,1,2,1,1,1,1,1,1,1,1,1,1,1,1,2,2
Depth: 17,2,1,2,2,1,2,1,2,2,2,2,2,1,1,1,1,1,1,1,1
Depth: 18,1,1,1,1,1,1,1,2,11,1,2,1,2,2,1,1,1,1,2,1
Depth: 19,2,2,1,2,2,2,2,2,2,2,2,2,1,1,2,2,2,1,2,2
Depth: 20,2,2,2,2,2,2,2,1,1,2,2,1,1,1,2,2,1,1,1,1
Depth: 21,1,2,1,2,2,1,1,1,1,1,1,1,1,1,1,1,2,2,1,2
Depth: 22,2,1,13,1,1,1,1,1,1,2,1,1,1,1,2,1,2,2,1,1
Depth: 23,1,1,1,1,1,1,1,1,2,1,1,1,1,1,1,1,2,1,2,1
Depth: 24,1,1,1,1,1,1,1,1,1,1,1,1,1,2,1,1,1,1,1,1
Depth: 25,1,1,1,2,13,1,2,1,1,1,2,1,1,1,1,1,2,1,1,1
Depth: 26,1,1,1,1,2,1,2,1,1,1,1,1,2,1,1,1,2,2,2,2
Depth: 27,2,2,2,2,2,2,2,2,2,2,2,2,2,2,1,1,1,1,1,2
Depth: 28,11,1,1,2,1,2,2,3,2,2,2,1,2,2,2,2,2,2,2,2
Depth: 29,2,2,2,2,2,2,2,2,2,2,2,2,1,2,2,2,2,2,2,2
Depth: 30,1,2,2,2,2,2,1,2,2,2,2,12,1,1,1,1,2,2,2,2
Depth: 31,2,2,2,2,2,2,2,1,1,2,1,1,1,2,2,2,2,2,2,2
Depth: 32,2,2,2,2,2,2,2,2,2,2,2,2,3,2,2,2,2,2,2,12
Depth: 33,1,2,2,2,2,2,3,2,2,2,2,2,2,2,2,2,2,2,2,2
Depth: 34,2,2,2,2,2,2,2,2,2,2,2,2,3,2,2,2,2,2,2,2
Depth: 35,2,2,2,11,1,1,2,2,5,5,3,3,3,3,2,2,2,2,2,2
Depth: 36,2,2,2,2,2,2,2,2,2,2,2,2,2,2,2,2,2,2,2,2
Depth: 37,2,2,2,2,13,1,2,2,2,2,2,2,2,2,2,2,2,3,2,3
Depth: 38,3,2,3,2,2,2,3,2,2,2,2,2,2,2,2,2,2,2,3,2
Depth: 39,3,2,3,2,11,2,2,2,2,3,2,3,2,3,2,3,2,2,2,3
Depth: 40,2,2,2,3,3,2,3,2,3,3,2,3,2,2,3,2,3,2,2,3
Depth: 41,2,13,1,1,3,3,2,2,3,3,2,2,3,2,3,2,2,3,3,3
Depth: 42,2,2,2,2,1,3,3,2,2,3,2,2,3,3,3,2,3,14,2,2
Depth: 43,2,3,3,2,3,3,3,2,3,3,2,3,3,3,2,3,3,3,3,3
Depth: 44,3,2,2,2,3,2,3,3,2,3,3,12,2,2,3,3,3,3,2,2
Depth: 45,3,3,3,3,2,3,3,3,3,3,3,3,3,3,2,2,2,2,2,3
Depth: 46,2,3,2,2,11,2,2,2,3,3,3,3,3,3,3,3,3,3,3,3
Depth: 47,3,3,3,2,2,3,3,3,3,3,3,3,3,3,3,2,12,2,2,2
Depth: 48,3,3,3,3,3,3,3,3,3,3,3,3,3,3,3,3,3,3,3,3
Depth: 49,3,3,3,3,3,3,3,13,2,2,3,3,3,3,3,3,3,3,3,3
Depth: 50,3,3,3,3,3,3,3,3,3,3,3,3,3,3,3,3,3,13,2,2
