Depth: 1,15,7,15,9,16,14,9,9,15,9,9,15,10,14,9,7,8,14,8,10
Depth: 2,7,6,10,6,7,6,7,5,6,5,7,8,6,5,5,5,12,6,6,6
Depth: 3,7,8,8,5,5,6,7,14,5,5,6,6,6,5,5,5,6,5,8,9
Depth: 4,7,6,6,6,12,7,6,8,13,7,8,7,6,12,7,7,5,8,8,8
Depth: 5,5,5,5,5,6,6,6,6,7,5,5,6,6,6,4,5,6,5,6,6
Depth: 6,5,6,5,5,7,9,4,6,5,6,5,7,5,6,7,5,10,6,6,5
Depth: 7,6,6,6,6,5,5,7,6,7,5,6,6,6,7,4,4,5,4,4,5
Depth: 8,4,8,5,4,5,4,6,7,6,7,7,6,7,8,6,5,7,5,7,5
Depth: 9,6,7,6,6,5,4,4,6,4,4,4,4,4,4,6,4,4,5,3,4
Depth: 10,6,4,4,5,3,4,4,4,4,4,4,3,3,5,6,6,7,6,7,7
Depth: 11,7,6,6,7,7,7,6,8,7,6,7,6,6,6,6,6,6,7,7,6
Depth: 12,8,6,6,7,7,6,6,6,6,7,6,6,7,7,5,6,7,6,7,7
Depth: 13,7,6,6,6,6,7,7,6,4,6,5,6,6,7,7,6,6,7,6,6
Depth: 14,6,6,6,6,7,6,7,6,7,6,7,6,6,6,7,6,6,6,6,6
Depth: 15,8,6,6,6,6,6,6,6,6,7,7,4,3,3,5,5,5,5,4,4
Depth: 16,7,3,3,3,6,5,6,6,6,6,6,7,6,6,6,6,6,6,6,6
Depth: 17,6,7,6,6,6,6,6,6,7,6,7,4,4,3,3,3,3,3,3,4
Depth: 18,4,5,6,6,6,6,6,6,6,7,6,6,6,5,6,6,6,6,7,7
Depth: 19,6,6,6,6,6,6,6,7,6,6,6,6,6,6,6,6,7,6,6,6
Depth: 20,6,6,6,6,6,8,6,5,5,6,6,6,6,10,6,6,6,6,6,6
Depth: 21,6,7,5,6,6,6,6,5,5,7,6,6,6,6,4,6,6,6,7,6
Depth: 22,6,6,6,6,6,9,5,5,6,6,6,6,6,7,6,6,6,7,6,6
Depth: 23,6,6,6,5,4,6,7,6,7,6,6,6,6,6,6,6,7,6,6,6
Depth: 24,6,6,6,8,6,6,5,6,6,6,8,6,7,6,6,6,7,6,7,6
Depth: 25,6,6,6,6,6,7,5,6,6,6,6,6,7,6,7,6,6,7,6,7
Depth: 26,4,4,5,6,6,7,6,6,8,5,6,6,8,6,6,6,6,6,6,8
Depth: 27,6,6,6,6,6,7,6,6,6,6,6,6,7,6,6,6,7,6,7,6
Depth: 28,6,4,6,6,6,7,6,6,5,6,6,8,6,6,6,6,6,7,6,6
Depth: 29,6,5,6,6,8,6,6,6,6,6,8,6,6,6,6,6,7,6,6,7
Depth: 30,6,6,7,6,7,6,5,6,7,7,6,6,7,7,8,6,6,6,6,6
Depth: 31,8,6,6,6,7,5,7,7,6,6,6,7,6,6,6,6,6,8,6,6
Depth: 32,6,6,7,8,7,6,6,7,7,5,5,5,4,5,8,6,6,6,6,7
Depth: 33,8,6,7,6,6,7,6,6,6,6,6,10,6,6,6,6,8,6,6,6
Depth: 34,7,6,8,5,3,6,6,8,6,7,6,6,8,7,6,7,6,7,7,6
Depth: 35,6,6,6,8,7,6,7,6,8,7,6,6,7,8,6,6,6,7,8,6
Depth: 36,6,6,7,7,6,6,6,6,8,6,7,6,7,7,6,6,7,6,7,8
Depth: 37,7,6,6,8,7,7,6,6,8,6,6,6,7,8,7,6,7,6,10,7
Depth: 38,6,6,7,8,6,7,6,6,8,7,7,6,7,8,6,6,6,6,8,6
Depth: 39,6,7,7,7,6,7,7,8,7,6,6,6,8,7,7,6,8,6,6,7
Depth: 40,7,8,7,7,6,7,8,7,6,7,7,7,7,7,7,8,7,6,6,8
Depth: 41,6,6,5,6,8,7,6,7,8,7,7,6,6,9,6,6,7,8,7,6
Depth: 42,6,7,7,7,7,7,8,6,6,5,6,7,5,6,7,8,7,6,7,8
Depth: 43,7,7,7,7,8,6,7,6,8,7,7,7,8,7,7,7,7,7,7,7
Depth: 44,7,8,6,7,7,8,7,7,7,8,7,6,7,7,9,7,7,7,8,6
Depth: 45,7,7,10,7,7,7,8,7,7,7,7,7,6,7,8,7,8,7,9,6
Depth: 46,7,5,7,7,7,7,8,7,7,7,8,7,7,7,8,7,7,7,7,8
Depth: 47,7,7,7,8,7,7,5,6,7,7,8,6,7,7,8,7,6,7,10,7
Depth: 48,6,7,8,6,7,7,9,7,7,7,8,7,7,7,8,7,7,7,8,7
Depth: 49,7,7,7,7,7,8,8,7,7,9,7,7,7,9,7,7,6,8,7,7
Depth: 50,6,8,7,7,9,7,7,7,8,7,7,7,8,7,7,7,9,7,7,8
Depth: 1,452,108,188,99,171,170,99,95,146,113,85,181,90,104,91,93,84,104,90,175
Depth: 2,96,112,185,90,110,122,122,123,96,97,138,98,109,102,110,104,199,96,117,109
Depth: 3,91,118,104,126,136,110,125,212,122,110,145,109,117,99,106,100,129,133,120,113
Depth: 4,123,121,125,143,190,137,113,128,235,141,165,141,127,261,110,151,116,163,129,150
Depth: 5,139,138,125,133,157,145,142,125,119,132,117,148,135,118,119,110,155,130,130,162
Depth: 6,144,133,153,119,130,149,143,133,149,151,132,145,145,152,139,140,133,148,133,160
Depth: 7,167,197,147,145,153,145,128,182,140,121,132,148,156,150,127,140,140,161,128,167
Depth: 8,160,276,123,198,186,194,133,244,210,168,144,161,151,172,219,154,168,179,193,196
Depth: 9,167,201,208,178,179,158,192,182,203,173,200,162,169,172,155,169,158,127,202,180
Depth: 10,185,180,175,192,165,149,174,202,130,183,229,196,166,159,154,175,155,204,203,215
Depth: 11,203,207,160,185,203,189,194,190,189,206,194,197,197,156,201,155,158,228,209,186
Depth: 12,218,211,138,217,194,210,227,215,209,195,179,226,168,217,203,233,215,199,218,205
Depth: 13,199,205,184,231,219,166,201,193,177,208,218,233,232,247,194,188,184,199,233,224
Depth: 14,199,262,247,245,226,199,214,237,277,246,206,200,202,188,186,228,231,217,198,241
Depth: 15,182,218,191,215,245,232,203,270,250,258,236,214,226,230,257,282,234,201,205,230
Depth: 16,242,264,239,248,223,258,251,208,265,242,256,244,246,248,237,225,229,218,235,237
Depth: 17,219,189,220,229,263,235,269,221,216,270,246,260,232,245,225,213,283,298,280,266
Depth: 18,268,268,314,250,258,251,267,224,264,251,225,295,232,233,291,281,264,341,235,218
Depth: 19,215,250,260,265,272,263,284,251,306,261,225,239,258,254,269,262,286,249,256,264
Depth: 20,256,299,322,259,235,319,262,273,271,278,250,296,246,252,345,260,256,291,284,222
Depth: 21,281,246,275,277,266,335,323,307,328,252,272,321,291,296,343,276,320,306,281,331
Depth: 22,263,223,258,283,267,321,346,255,306,307,244,296,278,302,261,347,288,284,358,281
Depth: 23,362,346,348,351,346,267,278,290,294,277,277,342,314,291,285,335,282,283,341,358
Depth: 24,278,324,314,276,301,302,320,368,338,331,319,317,285,303,351,289,292,302,330,286
Depth: 25,292,343,324,314,250,314,352,353,372,327,375,295,299,291,298,265,312,321,299,292
Depth: 26,303,365,371,335,341,304,284,361,286,297,358,338,339,319,342,367,340,316,356,330
Depth: 27,295,304,369,371,320,359,334,240,376,286,342,348,268,372,347,317,323,306,340,296
Depth: 28,372,319,322,351,377,380,354,362,365,363,356,369,366,343,297,269,246,353,332,315
Depth: 29,333,363,355,388,436,343,345,332,411,385,368,325,348,379,319,314,362,399,368,309
Depth: 30,354,392,446,383,326,367,393,397,384,328,313,328,391,308,366,385,334,366,330,421
Depth: 31,358,363,391,366,371,367,391,369,361,343,380,414,347,368,391,364,322,394,424,374
Depth: 32,401,422,353,418,323,366,313,391,399,334,375,372,382,366,418,429,396,377,450,367
Depth: 33,400,365,460,372,395,361,377,442,436,437,433,341,468,343,423,381,451,411,378,415
Depth: 34,449,425,396,378,369,349,390,379,407,451,409,429,399,412,466,380,404,430,383,400
Depth: 35,411,357,369,411,350,415,426,383,403,470,423,427,412,460,377,438,409,417,500,369
Depth: 36,445,361,447,420,399,417,429,422,452,467,411,399,399,414,378,449,417,494,412,438
Depth: 37,450,366,400,448,485,520,458,517,458,440,428,428,469,483,504,470,482,431,457,502
Depth: 38,428,434,421,496,399,506,383,454,487,458,375,459,479,524,396,408,430,403,426,414
Depth: 39,454,406,439,434,432,458,422,523,442,513,440,471,424,342,471,480,394,428,495,459
Depth: 40,458,436,452,502,563,496,427,476,498,441,458,436,488,523,372,436,429,517,509,472
Depth: 41,444,509,476,484,486,514,507,534,469,455,521,432,456,466,437,472,514,453,464,499
Depth: 42,409,473,480,464,512,495,498,490,481,548,475,505,503,498,529,552,485,484,536,473
Depth: 43,492,461,479,525,488,451,484,490,470,581,482,518,407,472,437,481,499,537,492,487
Depth: 44,540,470,580,540,459,616,418,476,567,531,481,557,466,561,456,533,522,478,536,462
Depth: 45,539,540,497,638,548,623,528,496,539,499,496,461,497,493,503,633,509,508,557,529
Depth: 46,502,495,534,503,543,521,526,540,601,527,509,506,544,517,536,538,564,545,538,480
Depth: 47,553,521,535,496,565,510,503,541,474,540,544,622,511,565,523,590,498,501,619,563
Depth: 48,508,611,526,543,615,546,533,503,571,484,522,609,587,574,540,587,565,550,549,576
Depth: 49,518,487,546,524,523,517,578,486,533,526,459,473,511,492,588,558,644,534,498,520
Depth: 50,646,599,539,562,572,555,525,615,575,537,531,517,527,570,544,572,511,576,583,539
