Depth: 1,3,1,1
Depth: 2,6,1,1
Depth: 3,2,1,1
Depth: 4,1,3,1
Depth: 5,1,2,2
Depth: 6,1,2,2
Depth: 7,2,3,2
Depth: 8,2,2,2
Depth: 9,2,2,3
Depth: 10,2,2,2
Depth: 11,3,4,4
Depth: 12,3,2,3
Depth: 13,3,2,3
Depth: 14,1,1,2
Depth: 15,1,2,4
Depth: 16,2,2,2
Depth: 17,2,2,4
Depth: 18,2,2,2
Depth: 19,2,3,2
Depth: 20,2,2,2
Depth: 21,3,2,2
Depth: 22,3,6,3
Depth: 23,2,2,2
Depth: 24,5,2,2
Depth: 25,3,4,2
Depth: 1,0,1,0
Depth: 2,1,1,0
Depth: 3,1,1,1
Depth: 4,1,1,1
Depth: 5,1,2,1
Depth: 6,1,1,2
Depth: 7,1,2,1
Depth: 8,1,1,2
Depth: 9,1,1,1
Depth: 10,1,1,2
Depth: 11,1,2,2
Depth: 12,3,1,2
Depth: 13,2,2,2
Depth: 14,1,2,2
Depth: 15,2,2,2
Depth: 16,2,2,1
Depth: 17,1,1,1
Depth: 18,2,2,3
Depth: 19,2,2,1
Depth: 20,2,1,2
Depth: 21,1,2,2
Depth: 22,1,1,1
Depth: 23,1,3,1
Depth: 24,1,2,2
Depth: 25,1,3,2
