Depth: 1,8,3,2
Depth: 2,4,4,3
Depth: 3,9,3,3
Depth: 4,5,4,4
Depth: 5,6,5,4
Depth: 6,4,5,14
Depth: 7,5,5,5
Depth: 8,5,4,5
Depth: 9,12,5,6
Depth: 10,5,5,13
Depth: 11,6,6,5
Depth: 12,7,14,6
Depth: 13,6,6,15
Depth: 14,7,7,6
Depth: 15,15,7,5
Depth: 16,14,7,7
Depth: 17,12,7,9
Depth: 18,14,7,9
Depth: 19,18,8,7
Depth: 20,16,8,16
Depth: 21,8,7,14
Depth: 22,8,16,8
Depth: 23,7,16,8
Depth: 24,13,9,14
Depth: 25,8,13,9
Depth: 1,0,0,1
Depth: 2,1,1,1
Depth: 3,2,7,2
Depth: 4,2,3,2
Depth: 5,3,3,3
Depth: 6,3,2,3
Depth: 7,10,3,2
Depth: 8,4,3,3
Depth: 9,9,4,5
Depth: 10,6,5,4
Depth: 11,10,4,4
Depth: 12,5,17,5
Depth: 13,4,5,11
Depth: 14,5,6,5
Depth: 15,12,6,7
Depth: 16,15,6,6
Depth: 17,7,12,8
Depth: 18,8,14,6
Depth: 19,12,7,7
Depth: 20,14,7,7
Depth: 21,15,7,13
Depth: 22,9,19,9
Depth: 23,9,15,7
Depth: 24,13,9,14
Depth: 25,10,15,14
