Depth: 1,5,5,4
Depth: 2,5,5,5
Depth: 3,5,5,3
Depth: 4,5,4,3
Depth: 5,4,3,4
Depth: 6,4,4,4
Depth: 7,4,4,5
Depth: 8,4,4,6
Depth: 9,5,5,5
Depth: 10,4,4,5
Depth: 11,5,5,6
Depth: 12,6,5,4
Depth: 13,5,5,5
Depth: 14,6,5,5
Depth: 15,7,4,4
Depth: 16,4,4,4
Depth: 17,4,4,3
Depth: 18,4,4,4
Depth: 19,4,3,7
Depth: 20,4,5,4
Depth: 21,5,4,4
Depth: 22,5,5,6
Depth: 23,5,4,3
Depth: 24,3,3,3
Depth: 25,4,4,4
Depth: 26,3,6,3
Depth: 27,3,3,3
Depth: 28,3,3,3
Depth: 29,3,3,2
Depth: 30,3,3,3
Depth: 31,4,2,3
Depth: 32,5,2,3
Depth: 33,4,4,4
Depth: 34,4,3,5
Depth: 35,2,3,2
Depth: 36,3,2,2
Depth: 37,3,3,2
Depth: 38,4,5,4
Depth: 39,4,3,4
Depth: 40,4,4,4
Depth: 41,8,4,4
Depth: 42,4,5,5
Depth: 43,5,4,4
Depth: 44,4,4,4
Depth: 45,4,4,4
Depth: 46,5,5,4
Depth: 47,4,4,7
Depth: 48,3,6,3
Depth: 49,5,5,4
Depth: 50,4,5,5
Depth: 1,2,1,1
Depth: 2,2,2,2
Depth: 3,2,2,2
Depth: 4,2,2,1
Depth: 5,3,2,2
Depth: 6,1,2,2
Depth: 7,2,2,2
Depth: 8,2,2,2
Depth: 9,2,2,2
Depth: 10,2,3,2
Depth: 11,2,2,2
Depth: 12,2,2,2
Depth: 13,2,2,2
Depth: 14,2,2,2
Depth: 15,3,2,2
Depth: 16,2,1,2
Depth: 17,2,2,2
Depth: 18,2,2,1
Depth: 19,3,3,6
Depth: 20,2,2,2
Depth: 21,2,2,2
Depth: 22,2,2,2
Depth: 23,2,2,2
Depth: 24,2,2,2
Depth: 25,2,2,2
Depth: 26,2,3,2
Depth: 27,2,2,3
Depth: 28,2,3,3
Depth: 29,2,3,2
Depth: 30,2,2,2
Depth: 31,3,3,3
Depth: 32,6,2,2
Depth: 33,3,3,3
Depth: 34,3,3,3
Depth: 35,3,2,3
Depth: 36,3,3,3
Depth: 37,3,3,3
Depth: 38,3,3,3
Depth: 39,3,3,3
Depth: 40,3,3,4
Depth: 41,8,2,3
Depth: 42,2,2,3
Depth: 43,2,2,2
Depth: 44,1,2,2
Depth: 45,3,3,2
Depth: 46,3,3,3
Depth: 47,2,2,3
Depth: 48,3,6,3
Depth: 49,3,2,3
Depth: 50,2,3,3
