Bacillus amyloliquefaciens DSM 7,5.0000,5.0000,0.0000,0.0000,2.9463,3.2100,0.0000,0.0000,2.9463,4.1565,2.9463,0.0000,2.9463,5.0000,5.0000,0.0000,0.0000,0.0000,0.0000,0.0000,0.0000,0.0000,0.0000,0.0000,1.4142,0.0524,0.0524,0.0571,0.0416,0.0000,0.0524,0.0524,1.4142,0.0000,0.0571,0.0000,0.0524,0.0571,1.4142,0.0571,0.0000,0.0000,0.0000,0.0571,0.0000,1.4142,0.0524,1.4142,0.0524,0.0000,0.0000,0.0000,0.0000,0.0000,0.0000,0.0524,1.4142,0.0000,0.0571,0.0000,0.0571,0.0000,0.0000,0.0000,0.0000,0.0000,0.0000,0.0000,0.0000,0.0000,0.0000,0.0000,0.0000,0.0000,0.0000,0.0000,0.0131,0.0000,0.0000,0.0000,0.0000,0.0000,0.0000,0.0000,0.0000,0.0000,0.0000,0.0000,0.0000,0.0000,0.0000,0.0000,0.0000,0.0131,0.0000,0.0000,0.0000,0.0000,0.0000,0.0000,0.0000,0.0000,0.0000,0.0000,0.0000,0.0000,
Bacillus amyloliquefaciens FZB42,5.0000,5.0000,0.0000,0.0000,3.2100,3.2100,0.0000,0.0000,3.2100,4.1565,2.9463,0.0000,3.2100,5.0000,5.0000,0.0000,0.0000,0.0000,0.0000,0.0000,0.0000,0.0000,0.0000,0.0000,1.4142,0.0524,0.0524,0.0571,0.0416,0.0000,0.0571,0.0571,1.4142,0.0000,0.0571,0.0000,0.0524,0.0571,1.4142,0.0571,0.0000,0.0000,0.0000,0.0571,0.0000,1.4142,0.0524,1.4142,0.0571,0.0000,0.0000,0.0000,0.0000,0.0000,0.0000,0.0571,1.4142,0.0000,0.0571,0.0000,0.0571,0.0000,0.0000,0.0000,0.0000,0.0000,0.0000,0.0000,0.0000,0.0000,0.0000,0.0000,0.0000,0.0000,0.0000,0.0000,0.0000,0.0000,0.0000,0.0000,0.0000,0.0000,0.0000,0.0000,0.0000,0.0000,0.0000,0.0000,0.0000,0.0000,0.0000,0.0000,0.0000,0.0131,0.0000,0.0000,0.0000,0.0000,0.0000,0.0000,0.0000,0.0000,0.0000,0.0000,0.0000,0.0000,
Bacillus amyloliquefaciens IT-45,0.1925,0.1925,5.0000,0.0000,0.0000,0.0000,0.0000,0.0000,0.0000,0.0000,0.0000,0.0000,0.0000,0.0000,0.0000,0.0000,0.0000,0.0000,0.0000,0.0000,0.0000,0.0000,0.0000,0.0000,0.0000,0.0000,0.0000,0.0000,0.0000,0.0000,0.0000,0.0000,0.0000,0.0000,0.0000,0.0000,0.0000,0.0000,0.0000,0.0000,0.0000,0.0000,0.0000,0.0000,0.0000,0.0000,0.0000,0.0000,0.0000,0.0000,0.0000,0.0000,0.0000,0.0000,0.0000,0.0000,0.0000,0.0000,0.0000,0.0000,0.0000,0.0000,0.0000,0.0000,0.0000,0.3536,0.0000,0.0000,0.0000,0.0000,0.0000,0.6124,0.1925,0.0000,0.0000,0.0000,0.0000,0.0000,0.2722,0.1925,0.7698,0.0000,0.0000,0.0000,0.0000,0.0000,0.0000,0.0000,0.0000,0.0000,0.0000,0.3536,0.3536,0.0000,0.0000,1.0000,0.0000,0.0680,0.0000,0.0000,0.0000,0.0000,0.0000,0.0000,0.0000,0.0000,
Bacillus anthracis str. 'Ames Ancestor',0.3920,0.0000,0.0000,5.0000,4.6080,5.0000,0.2880,5.0000,5.0000,5.0000,4.6080,5.0000,0.0080,0.0000,0.0000,0.0000,0.0000,0.0000,0.0000,0.0000,0.0000,0.0000,0.1280,0.0000,0.2880,0.0000,0.0000,0.0000,0.0000,0.0000,0.0000,0.0000,0.2880,0.0000,0.0000,0.0000,0.0000,0.0000,2.8284,0.0000,0.0000,0.0000,0.0000,0.0000,0.0000,2.8284,0.0000,0.2880,0.0000,0.0000,0.0000,0.0000,0.0000,0.0000,0.0000,0.0000,2.8284,0.0000,0.0000,0.0000,0.0000,0.0000,0.0000,0.0000,0.0000,0.0000,0.0000,0.0000,0.0720,0.0000,0.0000,0.0000,1.5680,0.8000,0.0000,0.0000,0.0000,0.0000,0.0000,0.0000,0.0000,0.2880,0.0000,0.0000,0.0000,0.0000,0.0000,0.0000,0.0000,0.0000,0.0000,0.0000,0.0000,0.0080,0.0000,0.0000,0.0000,0.0000,0.0000,0.0000,0.0000,0.0000,0.0000,0.0000,0.0000,0.0000,
Bacillus anthracis str. A0248,0.3920,0.0000,0.0000,5.0000,5.0000,5.0000,0.2880,5.0000,5.0000,5.0000,4.6080,5.0000,0.0000,0.0000,0.0000,0.0000,0.0000,0.0000,0.0000,0.0000,0.0000,0.0000,0.1280,0.0000,0.2880,0.0000,0.0000,0.0000,0.0000,0.0000,0.0000,0.0000,0.2880,0.0000,0.0000,0.0000,0.0000,0.0000,2.8284,0.0000,0.0000,0.0000,0.0000,0.0000,0.0000,2.8284,0.0000,0.2880,0.0000,0.0000,0.0000,0.0000,0.0000,0.0000,0.0000,0.0000,2.8284,0.0000,0.0000,0.0000,0.0000,0.0000,0.0000,0.0000,0.0000,0.0000,0.0000,0.0000,0.0720,0.0000,0.0000,0.0000,1.5680,0.8000,0.0000,0.0000,0.0000,0.0000,0.0000,0.0000,0.0000,0.2880,0.0000,0.0000,0.0000,0.0000,0.0000,0.0000,0.0000,0.0000,0.0000,0.0000,0.0000,0.0080,0.0000,0.0000,0.0000,0.0000,0.0000,0.0000,0.0000,0.0000,0.0000,0.0000,0.0000,0.0000,
Bacillus anthracis str. Ames,0.3920,0.0000,0.0000,5.0000,4.6080,5.0000,0.2880,5.0000,5.0000,5.0000,4.6080,5.0000,0.0080,0.0000,0.0000,0.0000,0.0000,0.0000,0.0000,0.0000,0.0000,0.0000,0.1280,0.0000,0.2880,0.0000,0.0000,0.0000,0.0000,0.0000,0.0000,0.0000,0.2880,0.0000,0.0000,0.0000,0.0000,0.0000,2.8284,0.0000,0.0000,0.0000,0.0000,0.0000,0.0000,2.8284,0.0000,0.2880,0.0000,0.0000,0.0000,0.0000,0.0000,0.0000,0.0000,0.0000,2.8284,0.0000,0.0000,0.0000,0.0000,0.0000,0.0000,0.0000,0.0000,0.0000,0.0000,0.0000,0.0720,0.0000,0.0000,0.0000,1.5680,0.8000,0.0000,0.0000,0.0000,0.0000,0.0000,0.0000,0.0000,0.2880,0.0000,0.0000,0.0000,0.0000,0.0000,0.0000,0.0000,0.0000,0.0000,0.0000,0.0000,0.0080,0.0000,0.0000,0.0000,0.0000,0.0000,0.0000,0.0000,0.0000,0.0000,0.0000,0.0000,0.0000,
Bacillus anthracis str. CDC 684,0.3920,0.0000,0.0000,5.0000,5.0000,5.0000,5.0000,5.0000,5.0000,5.0000,4.6080,5.0000,0.0000,0.0000,0.0000,0.0000,0.0000,0.0000,0.0000,0.0000,0.0000,0.0000,0.1280,0.0000,0.2880,0.0000,0.0000,0.0000,0.0000,0.0000,0.0000,0.0000,0.2880,0.0000,0.0000,0.0000,0.0000,0.0000,2.8284,0.0000,0.0000,0.0000,0.0000,0.0000,0.0000,2.8284,0.0000,0.2880,0.0000,0.0000,0.0000,0.0000,0.0000,0.0000,0.0000,0.0000,2.8284,0.0000,0.0000,0.0000,0.0000,0.0000,0.0000,0.0000,0.0000,0.0000,0.0000,0.0000,0.0720,0.0000,0.0000,0.0000,1.5680,0.8000,0.0000,0.0000,0.0000,0.0000,0.0000,0.0000,0.0000,0.2880,0.0000,0.0000,0.0000,0.0000,0.0000,0.0000,0.0000,0.0000,0.0000,0.0000,0.0000,0.0080,0.0000,0.0000,0.0000,0.0000,0.0000,0.0000,0.0000,0.0000,0.0000,0.0000,0.0000,0.0000,
Bacillus anthracis str. H9401 (Bacillus anthracis NCCP 12889),0.3920,0.0000,0.0000,5.0000,4.6080,5.0000,0.2880,5.0000,5.0000,5.0000,4.6080,5.0000,0.0080,0.0000,0.0000,0.0000,0.0000,0.0000,0.0000,0.0000,0.0000,0.0000,0.1280,0.0000,0.2880,0.0000,0.0000,0.0000,0.0000,0.0000,0.0000,0.0000,0.2880,0.0000,0.0000,0.0000,0.0000,0.0000,2.8284,0.0000,0.0000,0.0000,0.0000,0.0000,0.0000,2.8284,0.0000,0.2880,0.0000,0.0000,0.0000,0.0000,0.0000,0.0000,0.0000,0.0000,2.8284,0.0000,0.0000,0.0000,0.0000,0.0000,0.0000,0.0000,0.0000,0.0000,0.0000,0.0000,0.0720,0.0000,0.0000,0.0000,1.5680,0.8000,0.0000,0.0000,0.0000,0.0000,0.0000,0.0000,0.0000,0.2880,0.0000,0.0000,0.0000,0.0000,0.0000,0.0000,0.0000,0.0000,0.0000,0.0000,0.0000,0.0080,0.0000,0.0000,0.0000,0.0000,0.0000,0.0000,0.0000,0.0000,0.0000,0.0000,0.0000,0.0000,
Bacillus anthracis str. Sterne,0.3920,0.0000,0.0000,5.0000,4.6080,5.0000,0.2880,4.6080,5.0000,5.0000,4.6080,5.0000,0.0080,0.0000,0.0000,0.0000,0.0000,0.0000,0.0000,0.0000,0.0000,0.0000,0.1280,0.0000,0.2880,0.0000,0.0000,0.0000,0.0000,0.0000,0.0000,0.0000,0.2880,0.0000,0.0000,0.0000,0.0000,0.0000,2.8284,0.0000,0.0000,0.0000,0.0000,0.0000,0.0000,2.8284,0.0000,0.2880,0.0000,0.0000,0.0000,0.0000,0.0000,0.0000,0.0000,0.0000,2.8284,0.0000,0.0000,0.0000,0.0000,0.0000,0.0000,0.0000,0.0000,0.0000,0.0000,0.0000,0.0720,0.0000,0.0000,0.0000,1.5680,0.8000,0.0000,0.0000,0.0000,0.0000,0.0000,0.0000,0.0000,0.2880,0.0000,0.0000,0.0000,0.0000,0.0000,0.0000,0.0000,0.0000,0.0000,0.0000,0.0000,0.0080,0.0000,0.0000,0.0000,0.0000,0.0000,0.0000,0.0000,0.0000,0.0000,0.0000,0.0000,0.0000,
Bacillus cereus 03BB102,0.8000,0.0000,0.0000,5.0000,0.0000,5.0000,0.0320,1.1520,0.0000,5.0000,4.6080,5.0000,5.0000,0.6480,0.0000,0.0000,0.0000,0.0000,0.0000,0.0000,0.1280,0.0000,0.1280,0.0000,0.3920,0.0000,0.0000,0.0000,0.0000,0.0000,0.0000,0.0000,0.3920,0.0000,0.0000,0.0000,0.0000,0.0000,2.6458,0.0000,0.0000,0.0000,0.0000,0.0000,0.0000,2.6458,0.0000,0.3920,0.0000,0.0000,0.0000,0.0000,0.0000,0.0000,0.0000,0.0000,2.6458,0.0000,0.0000,0.0000,0.0000,0.0000,0.0000,0.0000,0.0000,0.0000,0.0000,0.0000,0.0320,0.0000,0.0000,0.0000,0.9680,0.9680,0.0000,0.0000,0.0000,0.0000,0.0000,0.0000,0.0000,0.2880,0.0000,0.0000,0.0000,0.0000,0.0000,0.0000,0.0000,0.0000,0.0000,0.0000,0.0000,0.0080,0.0000,0.0000,0.0000,0.0000,0.0000,0.0000,0.0000,0.0000,0.0000,0.0000,0.0000,0.0000,
Bacillus cereus AH187,0.8000,0.0000,0.0000,5.0000,0.0000,5.0000,0.0000,2.0480,0.0000,5.0000,5.0000,5.0000,5.0000,0.0720,0.0000,0.0000,0.0000,0.0000,0.0000,0.0000,0.0720,0.0000,0.1280,0.0000,0.0853,0.0000,0.0000,0.0000,0.0000,0.0000,0.0000,0.0000,0.0853,0.0000,0.0000,0.0000,0.0000,0.0000,1.4142,0.0000,0.0000,0.0000,0.0000,0.0000,0.0000,1.4142,0.0000,0.0853,0.0000,0.0000,0.0000,0.0000,0.0000,0.0000,0.0000,0.0000,1.4142,0.0000,0.0000,0.0000,0.0000,0.0000,0.0000,0.0000,0.0000,0.0720,0.0000,0.0000,1.0454,0.0000,0.0000,0.0000,0.9680,0.5334,0.0000,0.0000,0.0000,0.0000,0.0000,0.0000,0.0000,0.0000,0.0000,0.0000,0.0000,0.0000,0.0000,0.0000,0.0000,0.0000,0.0000,0.0000,0.0000,0.0000,0.0000,0.0000,0.0000,0.0000,0.0000,0.0000,0.0000,0.0000,0.0000,0.0000,0.0000,0.0000,
Bacillus cereus AH820,0.3920,0.0000,0.0000,5.0000,0.0000,5.0000,0.2880,5.0000,0.0000,5.0000,4.6080,5.0000,5.0000,0.0000,0.0000,0.0000,0.0000,0.0000,0.0000,0.0000,0.0000,0.0000,0.1280,0.0000,0.2880,0.0000,0.0000,0.0000,0.0000,0.0000,0.0000,0.0000,0.2880,0.0000,0.0000,0.0000,0.0000,0.0000,2.8284,0.0000,0.0000,0.0000,0.0000,0.0000,0.0000,2.8284,0.0000,0.2880,0.0000,0.0000,0.0000,0.0000,0.0000,0.0000,0.0000,0.0000,2.8284,0.0000,0.0000,0.0000,0.0000,0.0000,0.0000,0.0000,0.0000,0.0000,0.0000,0.0000,0.0720,0.0000,0.0000,0.0000,1.5680,0.8000,0.0000,0.0000,0.0000,0.0000,0.0000,0.0000,0.0000,0.2880,0.0000,0.0000,0.0000,0.0000,0.0000,0.0000,0.0000,0.0000,0.0000,0.0000,0.0000,0.0080,0.0000,0.0000,0.0000,0.0000,0.0000,0.0000,0.0000,0.0000,0.0000,0.0000,0.0000,0.0000,
Bacillus cereus biovar anthracis str. CI,0.3920,0.0000,0.0000,5.0000,0.0000,5.0000,5.0000,5.0000,0.0000,5.0000,4.6080,5.0000,5.0000,0.0000,0.0000,0.0000,0.0000,0.0000,0.0000,0.0000,0.0000,0.0000,0.1280,0.0000,0.2880,0.0000,0.0000,0.0000,0.0000,0.0000,0.0000,0.0000,0.2880,0.0000,0.0000,0.0000,0.0000,0.0000,2.8284,0.0000,0.0000,0.0000,0.0000,0.0000,0.0000,2.8284,0.0000,0.2880,0.0000,0.0000,0.0000,0.0000,0.0000,0.0000,0.0000,0.0000,2.8284,0.0000,0.0000,0.0000,0.0000,0.0000,0.0000,0.0000,0.0000,0.0000,0.0000,0.0000,0.0720,0.0000,0.0000,0.0000,1.5680,0.8000,0.0000,0.0000,0.0000,0.0000,0.0000,0.0000,0.0000,0.2880,0.0000,0.0000,0.0000,0.0000,0.0000,0.0000,0.0000,0.0000,0.0000,0.0000,0.0000,0.0080,0.0000,0.0000,0.0000,0.0000,0.0000,0.0000,0.0000,0.0000,0.0000,0.0000,0.0000,0.0000,
Bacillus sp. 1NLA3E,3.8720,3.2000,0.0000,0.2000,0.8417,0.6480,0.0000,0.0000,0.8417,1.5680,0.6480,0.6480,0.8417,5.0000,1.5680,0.0080,0.0000,0.0080,0.0000,0.0000,0.0000,0.0080,0.0080,0.0000,1.6100,1.1520,1.1520,1.1520,1.1520,0.0000,1.4964,1.4964,1.6100,0.0000,1.1520,0.0000,1.1520,1.1520,3.4641,1.1520,0.0000,0.5092,0.0000,1.1520,0.0000,3.4641,1.1520,1.6100,1.4964,0.0000,0.0000,0.0000,0.0000,0.0000,0.0000,1.4964,3.4641,0.0000,1.1520,0.0000,1.1520,0.0000,0.0000,0.0000,0.0000,0.0000,0.0000,0.0000,0.2795,0.0080,0.5120,0.0320,0.0320,1.8895,0.0000,0.0080,0.0000,0.0000,0.1280,0.0000,0.0000,0.1789,0.0000,0.0320,0.0000,0.0000,0.0000,0.0000,0.0000,0.0000,0.0000,0.0000,0.0000,0.0000,0.0000,0.0000,0.0000,0.0320,0.0000,0.0000,0.0000,0.0000,0.0000,0.0000,0.0000,0.0000,
Bacillus sp. JS,3.8720,4.6080,0.0000,0.0000,1.1520,4.2320,0.8000,0.5120,1.1520,3.2000,2.0480,0.0000,1.1520,1.8000,5.0000,0.0000,0.0000,0.0000,0.0000,0.0000,0.0000,0.0000,0.0000,0.0000,0.9259,0.0000,0.0000,0.0000,0.2000,0.0000,0.0000,0.0000,0.9259,0.0000,0.0000,0.0000,0.0000,0.0000,2.2361,0.0000,0.0000,0.0720,0.0000,0.0000,0.0000,2.2361,0.0000,0.9259,0.0000,0.0000,0.0000,0.0000,0.0000,0.0000,0.0000,0.0000,2.2361,0.0000,0.0000,0.0000,0.0000,0.0000,0.0000,0.0000,0.0000,0.0000,0.0000,0.0000,1.8148,0.0000,0.0080,0.0000,0.0720,0.9259,0.0000,0.0000,0.0000,0.0000,0.0000,0.0000,0.0000,0.0000,0.0000,0.0000,0.0000,0.0000,0.0000,0.0000,0.0000,0.0000,0.0080,0.0000,0.0000,0.5120,0.0080,0.8000,0.0000,0.0080,0.0000,0.0000,0.0000,0.0000,0.0000,0.0000,0.0000,0.0080,
Enterococcus faecalis 62,0.0000,0.0000,0.0000,0.0000,0.0000,0.0000,0.0000,0.0000,0.0000,0.0000,0.0000,0.0000,0.0000,0.0000,0.0000,5.0000,0.0720,0.0000,0.0080,0.0720,1.7321,1.7321,0.0000,2.5920,0.0000,0.0000,0.0000,0.0000,0.0000,0.0000,0.0000,0.0000,0.0000,0.0000,0.0000,0.0000,0.0000,0.0000,0.0000,0.0000,0.0000,0.0000,0.0000,0.0000,0.0000,0.0000,0.0000,0.0000,0.0000,0.0000,0.0000,0.0000,0.0000,0.0000,0.0000,0.0000,0.0000,0.0000,0.0000,0.0000,0.0000,0.0000,0.0000,0.0000,0.0000,0.0000,0.0000,0.0000,0.0000,0.0000,0.0000,0.0000,0.0000,0.0000,0.0000,0.0000,0.0000,0.0000,0.0000,0.0000,0.0000,0.0000,0.0000,0.0000,0.0000,0.0000,0.0000,0.0000,0.0000,0.0000,0.0000,0.0000,0.0000,0.0000,0.0000,0.0000,0.0000,0.0000,0.0000,0.0000,0.0000,0.0000,0.0000,0.0000,0.0000,0.0000,
Enterococcus faecalis D32,0.0000,0.0000,0.0000,2.6458,1.1788,2.6458,0.0320,0.0000,1.1788,0.0000,1.0000,0.0720,1.1788,0.0000,0.1280,2.0480,5.0000,0.6480,0.0000,0.0000,4.2320,1.8000,0.0000,0.0000,0.0000,0.0000,0.0000,0.0000,0.0000,0.0000,0.0000,0.0000,0.0000,0.0000,0.0000,0.0000,0.0000,0.0000,0.0000,0.0000,0.0000,0.0241,0.0000,0.0000,0.0000,0.0000,0.0000,0.0000,0.0000,0.0000,0.0000,0.0000,0.0000,0.0000,0.0000,0.0000,0.0000,0.0000,0.0000,0.0000,0.0000,0.0000,0.0000,0.0000,0.0000,0.0000,0.0000,0.0000,0.0000,0.0000,0.0000,0.0000,0.0000,0.0000,0.0000,0.0000,0.3849,0.0000,0.8639,0.0000,0.0000,2.6458,0.0000,0.0000,0.0000,0.0000,0.0000,0.0000,0.0720,0.0000,0.0000,0.0000,0.0000,0.0000,0.0000,0.0000,0.0000,0.0000,0.0000,0.0000,0.0000,0.0000,0.0000,0.0000,0.0000,0.0000,
Enterococcus faecalis OG1RF,0.0000,0.0000,0.0000,2.6458,1.1788,2.6458,0.0320,0.0000,1.1788,0.0000,1.0000,0.0720,1.1788,0.0000,0.1280,0.0000,0.0000,5.0000,5.0000,0.0000,4.2320,1.8000,0.0000,0.0000,0.0000,0.0000,0.0000,0.0000,0.0000,0.0000,0.0000,0.0000,0.0000,0.0000,0.0000,0.0000,0.0000,0.0000,0.0000,0.0000,0.0000,0.0241,0.0000,0.0000,0.0000,0.0000,0.0000,0.0000,0.0000,0.0000,0.0000,0.0000,0.0000,0.0000,0.0000,0.0000,0.0000,0.0000,0.0000,0.0000,0.0000,0.0000,0.0000,0.0000,0.0000,0.0000,0.0000,0.0000,0.0000,0.0000,0.0000,0.0000,0.0000,0.0000,0.0000,0.0000,0.3849,0.0000,0.8639,0.0000,0.0000,2.6458,0.0000,0.0000,0.0000,0.0000,0.0000,0.0000,0.0720,0.0000,0.0000,0.0000,0.0000,0.0000,0.0000,0.0000,0.0000,0.0000,0.0000,0.0000,0.0000,0.0000,0.0000,0.0000,0.0000,0.0000,
Enterococcus faecalis V583,0.0000,0.0000,0.0000,2.6458,1.1788,2.6458,0.0720,0.0000,1.1788,0.0000,1.0000,0.0720,1.1788,0.0000,0.1280,0.3920,0.0000,2.5920,5.0000,0.0000,3.8720,1.5680,0.0000,0.0000,0.0000,0.0000,0.0000,0.0000,0.0000,0.0000,0.0000,0.0000,0.0000,0.0000,0.0000,0.0000,0.0000,0.0000,0.0000,0.0000,0.0000,0.0241,0.0000,0.0000,0.0000,0.0000,0.0000,0.0000,0.0000,0.0000,0.0000,0.0000,0.0000,0.0000,0.0000,0.0000,0.0000,0.0000,0.0000,0.0000,0.0000,0.0000,0.0000,0.0000,0.0000,0.0000,0.0000,0.0000,0.0000,0.0000,0.0000,0.0000,0.0000,0.0000,0.0000,0.0000,0.3849,0.0000,0.8639,0.0000,0.0000,2.6458,0.0000,0.0000,0.0000,0.0000,0.0000,0.0000,0.1280,0.0000,0.0000,0.0000,0.0000,0.0000,0.0000,0.0000,0.0000,0.0000,0.0000,0.0000,0.0000,0.0000,0.0000,0.0000,0.0000,0.0000,
Enterococcus faecalis str. Symbioflor 1,0.0000,0.0000,0.0000,2.6458,1.1788,2.6458,0.0320,0.0000,1.1788,0.0000,1.0000,0.0720,1.1788,0.0000,0.1280,0.2880,0.0000,2.8880,0.0000,5.0000,4.2320,1.8000,0.0000,0.2000,0.0000,0.0000,0.0000,0.0000,0.0000,0.0000,0.0000,0.0000,0.0000,0.0000,0.0000,0.0000,0.0000,0.0000,0.0000,0.0000,0.0000,0.0241,0.0000,0.0000,0.0000,0.0000,0.0000,0.0000,0.0000,0.0000,0.0000,0.0000,0.0000,0.0000,0.0000,0.0000,0.0000,0.0000,0.0000,0.0000,0.0000,0.0000,0.0000,0.0000,0.0000,0.0000,0.0000,0.0000,0.0000,0.0000,0.0000,0.0000,0.0000,0.0000,0.0000,0.0000,0.3849,0.0000,0.8639,0.0000,0.0000,2.6458,0.0000,0.0000,0.0000,0.0000,0.0000,0.0000,0.0720,0.0000,0.0000,0.0000,0.0000,0.0000,0.0000,0.0000,0.0000,0.0000,0.0000,0.0000,0.0000,0.0000,0.0000,0.0000,0.0000,0.0000,
Enterococcus faecium Aus0004,0.0000,0.0000,0.0000,1.1049,1.1049,0.6853,0.0000,0.0000,1.1049,0.8000,1.5463,0.0000,1.5910,0.0000,0.0000,1.1520,0.0000,1.3520,0.0000,0.0000,5.0000,5.0000,5.0000,0.0000,0.3536,0.0191,0.0191,0.0274,0.0080,0.0442,0.0442,0.0442,0.3536,0.0000,0.0274,0.0000,0.0191,0.0274,0.3536,0.0274,0.0000,0.0442,0.0000,0.0274,0.0000,0.3536,0.0191,0.3536,0.0442,0.0000,0.0000,0.0000,0.0000,0.0000,0.0000,0.0442,0.3536,0.0000,0.0274,0.0000,0.0274,0.0000,0.0000,0.0442,0.0000,0.0000,0.0000,0.0000,0.3536,0.0000,0.0764,0.0000,0.0000,0.0000,0.0000,0.0764,0.0442,0.0000,0.1096,0.0000,0.1768,0.0000,0.0000,0.0000,0.0000,0.0000,0.0000,0.3536,0.0000,0.0000,0.0000,0.0000,0.0000,0.0000,0.0274,0.0000,0.0000,0.1096,0.0000,0.0000,0.0000,0.0000,0.0000,0.0274,0.0080,0.0000,
Enterococcus faecium DO,0.0000,0.0000,0.0000,1.1049,1.1049,0.6853,0.0000,0.0000,1.1049,0.8000,1.5463,0.0000,1.5910,0.0000,0.0000,1.1520,0.0000,1.3520,0.0000,0.0000,5.0000,5.0000,5.0000,0.0000,0.3536,0.0191,0.0191,0.0274,0.0080,0.0442,0.0442,0.0442,0.3536,0.0000,0.0274,0.0000,0.0191,0.0274,0.3536,0.0274,0.0000,0.0442,0.0000,0.0274,0.0000,0.3536,0.0191,0.3536,0.0442,0.0000,0.0000,0.0000,0.0000,0.0000,0.0000,0.0442,0.3536,0.0000,0.0274,0.0000,0.0274,0.0000,0.0000,0.0442,0.0000,0.0000,0.0000,0.0000,0.3536,0.0000,0.0764,0.0000,0.0000,0.0000,0.0000,0.0764,0.0442,0.0000,0.1096,0.0000,0.1768,0.0000,0.0000,0.0000,0.0000,0.0000,0.0000,0.3536,0.0000,0.0000,0.0000,0.0000,0.0000,0.0000,0.0274,0.0000,0.0000,0.1096,0.0000,0.0000,0.0000,0.0000,0.0000,0.0274,0.0080,0.0000,
Enterococcus faecium NRRL B-2354,0.0000,0.0000,0.0000,1.1049,1.1049,0.6853,0.0000,0.0000,1.1049,0.8000,1.5463,0.0000,1.5910,0.0000,0.0000,1.1520,0.0000,1.3520,0.0000,0.0000,5.0000,5.0000,5.0000,0.0000,0.3536,0.0191,0.0191,0.0274,0.0080,0.0442,0.0442,0.0442,0.3536,0.0000,0.0274,0.0000,0.0191,0.0274,0.3536,0.0274,0.0000,0.0442,0.0000,0.0274,0.0000,0.3536,0.0191,0.3536,0.0442,0.0000,0.0000,0.0000,0.0000,0.0000,0.0000,0.0442,0.3536,0.0000,0.0274,0.0000,0.0274,0.0000,0.0000,0.0442,0.0000,0.0000,0.0000,0.0000,0.3536,0.0000,0.0764,0.0000,0.0000,0.0000,0.0000,0.0764,0.0442,0.0000,0.1096,0.0000,0.1768,0.0000,0.0000,0.0000,0.0000,0.0000,0.0000,0.3536,0.0000,0.0000,0.0000,0.0000,0.0000,0.0000,0.0274,0.0000,0.0000,0.1096,0.0000,0.0000,0.0000,0.0000,0.0000,0.0274,0.0080,0.0000,
Enterococcus sp. 7L76,0.0000,1.3520,1.1520,0.6480,0.0000,4.2320,0.0000,0.0000,0.0000,0.0000,0.8000,0.0000,0.0000,0.0080,0.0000,5.0000,0.0000,0.6480,0.0000,0.0000,4.6080,5.0000,0.0000,5.0000,0.0000,0.0000,0.0080,0.0000,0.0000,0.0080,0.0000,0.0000,0.0000,0.0000,0.0000,0.0000,0.0000,0.0000,0.0000,0.0000,0.0000,0.0000,0.0000,0.0000,0.0000,0.0000,0.0000,0.0000,0.0000,0.0000,0.0000,0.0000,0.0000,0.0000,0.0000,0.0000,0.0000,0.0000,0.0000,0.0000,0.0000,0.0000,0.0000,0.0000,0.0080,0.0000,0.0000,0.0000,0.0080,0.0000,0.0320,0.0320,0.0000,0.0000,0.0000,0.0000,0.0320,0.0000,0.0000,0.0000,0.0000,4.6080,0.0000,0.0000,2.3120,2.8880,0.0000,0.5120,0.0000,0.0000,0.0000,0.0000,0.0000,0.0000,0.0000,0.1280,0.0080,0.0000,0.0000,0.0000,0.0000,0.0000,0.0000,0.0000,0.0000,0.0000,
Staphylococcus aureus 04-02981,0.0000,0.0000,0.0000,0.0000,0.0000,0.0000,0.0000,0.0000,0.0000,0.0000,0.0000,0.0000,0.0000,0.0000,0.0000,0.0000,0.0000,0.0000,0.0000,0.0000,0.0000,0.0000,0.0000,0.0000,5.0000,0.0000,0.0000,0.0000,5.0000,0.6480,0.0080,5.0000,0.0000,5.0000,1.1520,5.0000,5.0000,0.0000,0.0000,0.0000,0.0000,0.0000,4.2320,1.3520,5.0000,5.0000,5.0000,0.0000,4.6080,0.0000,0.0000,0.0000,0.0000,0.0000,0.0000,0.0000,0.0000,0.0000,0.0000,0.0000,0.0000,0.0000,0.0320,2.0480,0.0000,0.0000,0.0000,0.0000,0.0000,0.0000,0.0000,0.0000,0.0000,0.0000,0.0000,0.0000,0.0000,0.0000,0.0000,0.0000,0.0000,0.0000,0.0000,0.0000,0.0000,0.0000,0.0000,0.0000,0.0000,0.0000,0.0000,0.0000,0.0000,0.0000,0.0000,0.0000,0.0000,0.0000,0.0000,0.0000,0.0000,0.0000,0.0000,0.0000,0.0000,0.0000,
Staphylococcus aureus 08BA02176,0.0000,0.0000,0.0000,0.0000,0.0000,0.0000,0.0000,0.0000,0.0000,0.0000,0.0000,0.0000,0.0000,0.0000,0.0000,0.0000,0.0000,0.0000,0.0000,0.0000,0.0000,0.0000,0.0000,0.0000,0.0320,5.0000,0.0000,0.2880,5.0000,3.5280,0.0000,0.0000,2.8880,0.0000,0.0000,0.0000,0.0000,0.0320,0.2880,0.0000,5.0000,0.0000,1.5680,0.0000,3.5280,0.6480,0.0000,0.1280,0.0000,0.0000,0.0000,0.0000,0.0000,0.0000,0.0000,5.0000,0.8000,0.0000,2.3120,0.0000,0.0000,0.0000,0.9680,0.1280,0.0000,0.0000,0.0000,0.0080,0.0000,0.0000,0.0000,0.0000,0.0720,0.0000,0.0000,0.0000,0.0000,0.0000,0.0000,0.0000,0.0000,0.0000,0.0000,0.0000,0.0000,0.0000,0.0000,0.0000,0.0000,0.0000,0.0000,0.0000,0.0000,0.0000,0.0000,0.0000,0.0000,0.0000,0.0000,0.0000,0.0000,0.0000,0.0000,0.0000,0.0000,0.0000,
Staphylococcus aureus M1,0.0000,0.0000,0.0000,0.0000,0.0000,0.0000,0.0000,0.0000,0.0000,0.0000,0.0000,0.0000,0.0000,0.0000,0.0000,0.0000,0.0000,0.0000,0.0000,0.0000,0.0000,0.0000,0.0000,0.0000,0.0000,0.0000,5.0000,0.0000,5.0000,0.0000,5.0000,0.0000,0.0000,0.0000,0.0000,0.0000,0.0000,0.0000,0.0000,0.0000,5.0000,0.0000,3.5280,0.0000,0.0080,4.2320,0.0000,5.0000,0.0000,0.0000,0.0000,0.0000,0.0000,0.0000,0.0000,0.0000,0.0320,0.0000,0.0000,4.6080,5.0000,5.0000,0.1280,5.0000,0.0000,0.0000,0.0000,0.0000,0.0000,0.0000,0.0000,0.0000,0.0000,0.0000,0.0000,0.0000,0.0000,0.0000,0.0000,0.0000,0.0000,0.0000,0.0000,0.0000,0.0000,0.0000,0.0000,0.0000,0.0000,0.0000,0.0000,0.0000,0.0000,0.0000,0.0000,0.0000,0.0000,0.0000,0.0000,0.0000,0.0000,0.0000,0.0000,0.0000,0.0000,0.0000,
Staphylococcus aureus RF122,0.0000,0.0000,0.0000,0.0000,0.0000,0.0000,0.0000,0.0000,0.0000,0.0000,0.0000,0.0000,0.0000,0.0000,0.0000,0.0000,0.0000,0.0000,0.0000,0.0000,0.0000,0.0000,0.0000,0.0000,0.5120,3.2000,0.2000,5.0000,5.0000,0.6480,0.2000,0.0000,1.8000,0.0000,0.0000,0.0000,0.0000,0.0000,0.0080,0.0000,5.0000,0.0720,1.5680,0.0000,3.2000,2.0480,0.0000,0.0320,0.0000,0.0000,0.0000,0.0000,0.0000,0.0000,0.0000,2.3120,0.5120,0.0000,0.0000,0.0000,0.0000,0.0000,0.9680,2.0480,0.0000,0.0000,0.0000,0.0320,0.0000,0.0000,0.0000,0.0000,0.0720,0.0000,0.0000,0.0000,0.0000,0.0000,0.0000,0.0000,0.0000,0.0000,0.0000,0.0000,0.0000,0.0000,0.0000,0.0000,0.0000,0.0000,0.0000,0.0000,0.0000,0.0000,0.0000,0.0000,0.0000,0.0000,0.0000,0.0000,0.0000,0.0000,0.0000,0.0000,0.0000,0.0000,
Staphylococcus aureus subsp. aureus 11819-97,0.0000,0.0000,0.0000,0.0000,0.0000,0.0000,0.0000,0.0000,0.0000,0.0000,0.0000,0.0000,0.0000,0.0000,0.0000,0.0000,0.0000,0.0000,0.0000,0.0000,0.0000,0.0000,0.0000,0.0000,2.8880,0.2880,2.8880,0.0000,5.0000,0.3920,2.5920,0.0000,0.0000,0.0000,0.6480,0.0000,0.0000,0.0720,0.0000,0.0000,5.0000,0.2000,2.8880,0.8000,5.0000,4.6080,0.0000,0.2880,0.0000,0.0000,0.0000,0.0000,0.0000,0.0000,0.0000,0.0320,0.0080,0.0000,0.0000,0.0000,0.0720,0.0000,0.2880,2.5920,0.0000,0.0000,0.0000,0.0000,0.0000,0.0000,0.0000,0.0000,0.0000,0.0000,0.0000,0.0000,0.0000,0.0000,0.0000,0.0000,0.0000,0.0000,0.0000,0.0000,0.0000,0.0000,0.0000,0.0000,0.0000,0.0000,0.0000,0.0000,0.0000,0.0000,0.0000,0.0000,0.0000,0.0000,0.0000,0.0000,0.0000,0.0000,0.0000,0.0000,0.0000,0.0000,
Staphylococcus aureus subsp. aureus 71193,0.0000,0.0000,0.0000,0.0000,0.0000,0.0000,0.0000,0.0000,0.0000,0.0000,0.0000,0.0000,0.0000,0.0000,0.0000,0.0000,0.0000,0.0000,0.0000,0.0000,0.0000,0.0000,0.0000,0.0000,0.0320,5.0000,0.0000,0.2880,5.0000,5.0000,0.0000,0.0000,2.8880,0.0000,0.0000,0.0000,0.0000,0.0320,0.2000,0.0000,5.0000,0.0000,1.3520,0.0000,3.8720,0.6480,0.0000,0.1280,0.0000,0.0000,0.0000,0.0000,0.0000,0.0000,0.0000,5.0000,0.9680,0.0000,2.3120,0.0000,0.0000,0.0000,1.1520,0.0000,0.0000,0.0000,0.0000,0.0080,0.0000,0.0000,0.0000,0.0000,0.0320,0.0000,0.0000,0.0000,0.0000,0.0000,0.0000,0.0000,0.0000,0.0000,0.0000,0.0000,0.0000,0.0000,0.0000,0.0000,0.0000,0.0000,0.0000,0.0000,0.0000,0.0000,0.0000,0.0000,0.0000,0.0000,0.0000,0.0000,0.0000,0.0000,0.0000,0.0000,0.0000,0.0000,
Staphylococcus aureus subsp. aureus COL,0.0000,0.0000,0.0000,0.0000,0.0000,0.0000,0.0000,0.0000,0.0000,0.0000,0.0000,0.0000,0.0000,0.0000,0.0000,0.0000,0.0000,0.0000,0.0000,0.0000,0.0000,0.0000,0.0000,0.0000,0.0000,0.0000,5.0000,0.0000,5.0000,0.0080,5.0000,0.0000,0.0000,0.0000,0.0000,0.0080,0.0000,0.0000,0.0080,0.0000,4.6080,0.0000,3.8720,0.0000,0.0000,3.2000,0.0000,5.0000,0.0000,0.0000,0.0000,0.0000,0.0000,0.0000,0.0000,0.0000,0.1280,0.0000,0.0000,5.0000,5.0000,0.2880,0.0720,4.6080,0.0000,0.0000,0.0000,0.0000,0.0000,0.0000,0.0000,0.0000,0.0000,0.0000,0.0000,0.0000,0.0000,0.0000,0.0000,0.0000,0.0000,0.0000,0.0000,0.0000,0.0000,0.0000,0.0000,0.0000,0.0000,0.0000,0.0000,0.0000,0.0000,0.0000,0.0000,0.0000,0.0000,0.0000,0.0000,0.0000,0.0000,0.0000,0.0000,0.0000,0.0000,0.0000,
Staphylococcus aureus subsp. aureus ECT-R 2,0.0000,0.0000,0.0000,0.0000,0.0000,0.0000,0.0000,0.0000,0.0000,0.0000,0.0000,0.0000,0.0000,0.0000,0.0000,0.0000,0.0000,0.0000,0.0000,0.0000,0.0000,0.0000,0.0000,0.0000,5.0000,0.0000,0.0000,0.0000,5.0000,0.6480,0.0080,5.0000,0.0000,5.0000,1.1520,5.0000,5.0000,0.0000,0.0000,0.0000,0.0000,0.0000,4.2320,1.3520,5.0000,5.0000,5.0000,0.0000,4.6080,0.0000,0.0000,0.0000,0.0000,0.0000,0.0000,0.0000,0.0000,0.0000,0.0000,0.0000,0.0000,0.0000,0.0320,2.0480,0.0000,0.0000,0.0000,0.0000,0.0000,0.0000,0.0000,0.0000,0.0000,0.0000,0.0000,0.0000,0.0000,0.0000,0.0000,0.0000,0.0000,0.0000,0.0000,0.0000,0.0000,0.0000,0.0000,0.0000,0.0000,0.0000,0.0000,0.0000,0.0000,0.0000,0.0000,0.0000,0.0000,0.0000,0.0000,0.0000,0.0000,0.0000,0.0000,0.0000,0.0000,0.0000,
Staphylococcus aureus subsp. aureus ED133,0.0000,0.0000,0.0000,0.0000,0.0000,0.0000,0.0000,0.0000,0.0000,0.0000,0.0000,0.0000,0.0000,0.0000,0.0000,0.0000,0.0000,0.0000,0.0000,0.0000,0.0000,0.0000,0.0000,0.0000,0.0000,4.6080,0.0080,0.0000,5.0000,1.1520,0.0080,0.0000,5.0000,0.0000,0.9680,0.0000,0.0000,0.0720,3.5280,0.0000,5.0000,0.1280,0.8000,0.0000,3.8720,0.0080,0.0000,0.0000,0.0000,0.0000,0.0000,0.0000,0.0000,0.0000,0.0000,3.2000,0.0720,0.0000,0.9680,0.0000,0.0000,0.0000,1.8000,1.3520,0.0000,0.0000,0.0000,0.0000,0.0000,0.0000,0.0000,0.0000,0.0720,0.0000,0.0000,0.0000,0.0000,0.0000,0.0000,0.0000,0.0000,0.0000,0.0000,0.0000,0.0000,0.0000,0.0000,0.0000,0.0000,0.0000,0.0000,0.0000,0.0000,0.0000,0.0000,0.0000,0.0000,0.0000,0.0000,0.0000,0.0000,0.0000,0.0000,0.0000,0.0000,0.0000,
Staphylococcus aureus subsp. aureus ED98,0.0000,0.0000,0.0000,0.0000,0.0000,0.0000,0.0000,0.0000,0.0000,0.0000,0.0000,0.0000,0.0000,0.0000,0.0000,0.0000,0.0000,0.0000,0.0000,0.0000,0.0000,0.0000,0.0000,0.0000,5.0000,0.0000,0.0000,0.0000,5.0000,0.6480,0.0080,5.0000,0.0000,5.0000,1.1520,5.0000,5.0000,0.0000,0.0000,0.0000,0.0000,0.0000,4.2320,1.3520,5.0000,5.0000,5.0000,0.0000,4.6080,0.0000,0.0000,0.0000,0.0000,0.0000,0.0000,0.0000,0.0000,0.0000,0.0000,0.0000,0.0000,0.0000,0.0320,2.0480,0.0000,0.0000,0.0000,0.0000,0.0000,0.0000,0.0000,0.0000,0.0000,0.0000,0.0000,0.0000,0.0000,0.0000,0.0000,0.0000,0.0000,0.0000,0.0000,0.0000,0.0000,0.0000,0.0000,0.0000,0.0000,0.0000,0.0000,0.0000,0.0000,0.0000,0.0000,0.0000,0.0000,0.0000,0.0000,0.0000,0.0000,0.0000,0.0000,0.0000,0.0000,0.0000,
Staphylococcus aureus subsp. aureus HO 5096 0412,0.0000,0.0000,0.0000,0.0000,0.0000,0.0000,0.0000,0.0000,0.0000,0.0000,0.0000,0.0000,0.0000,0.0000,0.0000,0.0000,0.0000,0.0000,0.0000,0.0000,0.0000,0.0000,0.0000,0.0000,0.9680,4.2320,0.0320,0.0000,5.0000,0.6480,0.0320,0.0000,0.6480,0.0000,5.0000,0.0000,0.0000,0.0000,0.1280,0.0000,5.0000,0.9680,1.1520,0.0000,4.2320,2.5920,0.0000,0.2000,0.0000,0.0000,0.0000,0.0000,0.0000,0.0000,0.0000,1.1520,0.0720,0.0000,0.0000,0.0000,0.0000,0.0000,1.1520,2.0480,0.0000,0.0080,0.0000,0.0000,0.0000,0.0000,0.0000,0.0000,0.0320,0.0000,0.0000,0.0000,0.0000,0.0000,0.0000,0.0000,0.0000,0.0000,0.0000,0.0000,0.0000,0.0000,0.0000,0.0000,0.0000,0.0000,0.0000,0.0000,0.0000,0.0000,0.0000,0.0000,0.0000,0.0000,0.0000,0.0000,0.0000,0.0000,0.0000,0.0000,0.0000,0.0000,
Staphylococcus aureus subsp. aureus JH1,0.0000,0.0000,0.0000,0.0000,0.0000,0.0000,0.0000,0.0000,0.0000,0.0000,0.0000,0.0000,0.0000,0.0000,0.0000,0.0000,0.0000,0.0000,0.0000,0.0000,0.0000,0.0000,0.0000,0.0000,5.0000,0.0080,0.0720,0.0000,5.0000,0.3920,2.8880,0.2880,0.0000,0.2880,1.3520,5.0000,4.6080,0.0000,0.0000,0.0000,0.0000,0.0000,3.2000,1.1520,4.2320,5.0000,3.8720,0.0000,0.2880,0.0000,0.0000,0.0000,0.0000,0.0000,0.0000,0.0000,0.0000,0.0000,0.0000,0.0320,0.0000,0.0000,0.2000,2.5920,0.0000,0.0000,0.0000,0.0000,0.0000,0.0000,0.0000,0.0000,0.0000,0.0000,0.0000,0.0000,0.0000,0.0000,0.0000,0.0000,0.0000,0.0000,0.0000,0.0000,0.0000,0.0000,0.0000,0.0000,0.0000,0.0000,0.0000,0.0000,0.0000,0.0000,0.0000,0.0000,0.0000,0.0000,0.0000,0.0000,0.0000,0.0000,0.0000,0.0000,0.0000,0.0000,
Staphylococcus aureus subsp. aureus JH9,0.0000,0.0000,0.0000,0.0000,0.0000,0.0000,0.0000,0.0000,0.0000,0.0000,0.0000,0.0000,0.0000,0.0000,0.0000,0.0000,0.0000,0.0000,0.0000,0.0000,0.0000,0.0000,0.0000,0.0000,5.0000,0.0000,0.0320,0.0000,5.0000,0.5120,2.8880,0.2880,0.0000,0.2880,1.1520,5.0000,5.0000,0.0000,0.0000,0.0000,0.0000,0.0000,3.8720,1.3520,4.6080,5.0000,4.2320,0.0000,0.2880,0.0000,0.0000,0.0000,0.0000,0.0000,0.0000,0.0000,0.0000,0.0000,0.0000,0.0080,0.0000,0.0000,0.0720,2.3120,0.0000,0.0000,0.0000,0.0000,0.0000,0.0000,0.0000,0.0000,0.0000,0.0000,0.0000,0.0000,0.0000,0.0000,0.0000,0.0000,0.0000,0.0000,0.0000,0.0000,0.0000,0.0000,0.0000,0.0000,0.0000,0.0000,0.0000,0.0000,0.0000,0.0000,0.0000,0.0000,0.0000,0.0000,0.0000,0.0000,0.0000,0.0000,0.0000,0.0000,0.0000,0.0000,
Staphylococcus aureus subsp. aureus JKD6159,0.0000,0.0000,0.0000,0.0000,0.0000,0.0000,0.0000,0.0000,0.0000,0.0000,0.0000,0.0000,0.0000,0.0000,0.0000,0.0000,0.0000,0.0000,0.0000,0.0000,0.0000,0.0000,0.0000,0.0000,0.2880,4.6080,0.0080,0.0000,5.0000,1.3520,0.0080,0.0000,1.5680,0.0000,0.0000,0.0000,0.0000,5.0000,0.9680,0.0000,4.6080,0.0320,0.6480,0.0000,3.5280,0.5120,0.0000,0.2000,0.0000,0.0000,0.0000,0.0000,0.0000,0.0000,0.0000,3.8720,0.2880,0.0000,0.0000,0.0000,0.0000,0.0000,2.0480,1.1520,0.0000,0.0000,0.0000,0.0000,0.0000,0.0080,0.0000,0.0000,0.1280,0.0000,0.0000,0.0000,0.0000,0.0000,0.0000,0.0000,0.0000,0.0000,0.0000,0.0000,0.0000,0.0000,0.0000,0.0000,0.0000,0.0000,0.0000,0.0000,0.0000,0.0000,0.0000,0.0000,0.0000,0.0000,0.0000,0.0000,0.0000,0.0000,0.0000,0.0000,0.0000,0.0000,
Staphylococcus aureus subsp. aureus LGA251,0.0000,0.0000,0.0000,0.0000,0.0000,0.0000,0.0000,0.0000,0.0000,0.0000,0.0000,0.0000,0.0000,0.0000,0.0000,0.0000,0.0000,0.0000,0.0000,0.0000,0.0000,0.0000,0.0000,0.0000,0.0000,5.0000,0.0000,0.0000,5.0000,1.3520,0.0000,0.0000,4.2320,0.0000,1.1520,0.0000,0.0000,0.0720,5.0000,0.0000,5.0000,0.0000,0.8000,0.0000,3.5280,0.0000,0.0000,0.0320,0.0000,0.0000,0.0000,0.0000,0.0000,0.0000,0.0000,5.0000,0.0000,0.0000,0.8000,0.0000,0.0000,0.0000,1.8000,1.1520,0.0000,0.0000,0.0000,0.0000,0.0000,0.0000,0.0000,0.0000,0.1280,0.0000,0.0000,0.0000,0.0000,0.0000,0.0000,0.0000,0.0000,0.0000,0.0000,0.0000,0.0000,0.0000,0.0000,0.0000,0.0000,0.0000,0.0000,0.0000,0.0000,0.0000,0.0000,0.0000,0.0000,0.0000,0.0000,0.0000,0.0000,0.0000,0.0000,0.0000,0.0000,0.0000,
Staphylococcus aureus subsp. aureus M013,0.0000,0.0000,0.0000,0.0000,0.0000,0.0000,0.0000,0.0000,0.0000,0.0000,0.0000,0.0000,0.0000,0.0000,0.0000,0.0000,0.0000,0.0000,0.0000,0.0000,0.0000,0.0000,0.0000,0.0000,0.0720,0.1280,3.5280,0.0000,5.0000,0.6480,3.8720,0.0000,0.2880,0.0000,0.0000,0.0320,0.0000,0.0000,0.0320,5.0000,3.5280,0.0320,0.3920,0.0000,0.8000,0.0320,0.0000,2.0480,0.0000,0.0000,0.0000,0.0000,0.0000,0.0000,0.0000,0.0080,3.5280,0.0000,0.0000,1.5680,0.0000,0.0000,2.5920,2.0480,0.0000,0.0000,0.0000,0.0000,0.0000,0.0320,0.0000,0.0000,0.0080,0.0000,0.0000,0.0000,0.0000,0.0000,0.0000,0.0000,0.0000,0.0000,0.0000,0.0000,0.0000,0.0000,0.0000,0.0000,0.0000,0.0000,0.0000,0.0000,0.0000,0.0000,0.0000,0.0000,0.0000,0.0000,0.0000,0.0000,0.0000,0.0000,0.0000,0.0000,0.0000,0.0000,
Staphylococcus aureus subsp. aureus MRSA252,0.0000,0.0000,0.0000,0.0000,0.0000,0.0000,0.0000,0.0000,0.0000,0.0000,0.0000,0.0000,0.0000,0.0000,0.0000,0.0000,0.0000,0.0000,0.0000,0.0000,0.0000,0.0000,0.0000,0.0000,0.0320,4.6080,0.0080,0.0000,5.0000,1.3520,0.0080,0.0000,2.3120,0.0000,0.0000,0.0000,0.0000,0.0000,0.0000,0.0000,5.0000,0.1280,0.0320,0.0000,3.8720,0.0080,0.0000,0.2880,0.0000,0.0000,0.0000,0.0000,0.0000,0.0000,0.0000,3.2000,4.6080,0.0000,5.0000,0.0000,0.0000,0.0000,4.2320,1.1520,0.0000,0.0000,0.0000,0.0000,0.0000,0.0000,0.0000,0.0000,0.0720,0.0000,0.0000,0.0000,0.0000,0.0000,0.0000,0.0000,0.0000,0.0000,0.0000,0.0000,0.0000,0.0000,0.0000,0.0000,0.0000,0.0000,0.0000,0.0000,0.0000,0.0000,0.0000,0.0000,0.0000,0.0000,0.0000,0.0000,0.0000,0.0000,0.0000,0.0000,0.0000,0.0000,
Staphylococcus aureus subsp. aureus MSHR1132,0.0000,0.0000,0.0080,0.0000,0.0000,0.0000,0.0000,0.0000,0.0000,0.0000,0.0000,0.0000,0.0000,0.0000,0.0000,0.0000,0.0000,0.0000,0.0000,0.0000,0.0000,0.0000,0.0000,0.0000,0.0720,0.2880,0.5120,0.0720,5.0000,0.2000,0.0000,0.0000,0.2880,0.0000,0.2000,0.0000,0.0000,0.2000,0.0000,0.0000,1.3520,5.0000,3.2000,0.0000,0.2000,3.8720,0.0000,0.0720,0.0000,0.0000,0.0000,0.0000,0.0000,0.0000,0.0000,0.0000,0.0720,0.0000,0.1280,0.0000,0.5120,0.0000,0.0320,3.2000,0.0000,0.0720,0.0000,1.3520,0.9680,1.1520,0.6480,0.0000,0.3920,0.0320,0.0000,0.0080,0.0000,0.0000,0.0000,0.0000,0.0000,0.0000,0.0000,0.0000,0.0000,0.0000,0.0000,0.0000,0.0000,0.0000,0.0000,0.0000,0.0000,0.0000,0.0000,0.0000,0.0000,0.0000,0.0000,0.0000,0.0000,0.0000,0.0000,0.0000,0.0000,0.0000,
Staphylococcus aureus subsp. aureus MSSA476,0.0000,0.0000,0.0000,0.0000,0.0000,0.0000,0.0000,0.0000,0.0000,0.0000,0.0000,0.0000,0.0000,0.0000,0.0000,0.0000,0.0000,0.0000,0.0000,0.0000,0.0000,0.0000,0.0000,0.0000,2.3120,0.0000,5.0000,0.0000,5.0000,0.2000,5.0000,0.0000,0.0000,0.0000,0.0000,0.0000,0.0000,0.0000,0.0000,0.0000,5.0000,0.0000,5.0000,5.0000,5.0000,5.0000,0.0000,0.5120,0.0000,0.0000,0.0000,0.0000,0.0000,0.0000,0.0000,0.0000,0.0000,0.0000,0.0000,0.0000,0.0000,0.0000,0.0000,3.2000,0.0000,0.0000,0.0000,0.0000,0.0000,0.0000,0.0000,0.0000,0.0000,0.0000,0.0000,0.0000,0.0000,0.0000,0.0000,0.0000,0.0000,0.0000,0.0000,0.0000,0.0000,0.0000,0.0000,0.0000,0.0000,0.0000,0.0000,0.0000,0.0000,0.0000,0.0000,0.0000,0.0000,0.0000,0.0000,0.0000,0.0000,0.0000,0.0000,0.0000,0.0000,0.0000,
Staphylococcus aureus subsp. aureus MW2,0.0000,0.0000,0.0000,0.0000,0.0000,0.0000,0.0000,0.0000,0.0000,0.0000,0.0000,0.0000,0.0000,0.0000,0.0000,0.0000,0.0000,0.0000,0.0000,0.0000,0.0000,0.0000,0.0000,0.0000,2.3120,0.0000,5.0000,0.0000,5.0000,0.2000,5.0000,0.0000,0.0000,0.0000,0.0000,0.0000,0.0000,0.0000,0.0000,0.0000,5.0000,0.0000,5.0000,5.0000,5.0000,5.0000,0.0000,0.5120,0.0000,0.0000,0.0000,0.0000,0.0000,0.0000,0.0000,0.0000,0.0000,0.0000,0.0000,0.0000,0.0000,0.0000,0.0000,3.2000,0.0000,0.0000,0.0000,0.0000,0.0000,0.0000,0.0000,0.0000,0.0000,0.0000,0.0000,0.0000,0.0000,0.0000,0.0000,0.0000,0.0000,0.0000,0.0000,0.0000,0.0000,0.0000,0.0000,0.0000,0.0000,0.0000,0.0000,0.0000,0.0000,0.0000,0.0000,0.0000,0.0000,0.0000,0.0000,0.0000,0.0000,0.0000,0.0000,0.0000,0.0000,0.0000,
Staphylococcus aureus subsp. aureus Mu3,0.0000,0.0000,0.0000,0.0000,0.0000,0.0000,0.0000,0.0000,0.0000,0.0000,0.0000,0.0000,0.0000,0.0000,0.0000,0.0000,0.0000,0.0000,0.0000,0.0000,0.0000,0.0000,0.0000,0.0000,5.0000,0.0000,0.0000,0.0000,5.0000,0.6480,0.0080,5.0000,0.0000,5.0000,1.1520,5.0000,5.0000,0.0000,0.0000,0.0000,0.0000,0.0000,4.2320,1.3520,5.0000,5.0000,5.0000,0.0000,4.6080,0.0000,0.0000,0.0000,0.0000,0.0000,0.0000,0.0000,0.0000,0.0000,0.0000,0.0000,0.0000,0.0000,0.0320,2.0480,0.0000,0.0000,0.0000,0.0000,0.0000,0.0000,0.0000,0.0000,0.0000,0.0000,0.0000,0.0000,0.0000,0.0000,0.0000,0.0000,0.0000,0.0000,0.0000,0.0000,0.0000,0.0000,0.0000,0.0000,0.0000,0.0000,0.0000,0.0000,0.0000,0.0000,0.0000,0.0000,0.0000,0.0000,0.0000,0.0000,0.0000,0.0000,0.0000,0.0000,0.0000,0.0000,
Staphylococcus aureus subsp. aureus Mu50,0.0000,0.0000,0.0000,0.0000,0.0000,0.0000,0.0000,0.0000,0.0000,0.0000,0.0000,0.0000,0.0000,0.0000,0.0000,0.0000,0.0000,0.0000,0.0000,0.0000,0.0000,0.0000,0.0000,0.0000,5.0000,0.0000,0.0000,0.0000,5.0000,0.6480,0.0080,5.0000,0.0000,5.0000,1.1520,5.0000,5.0000,0.0000,0.0000,0.0000,0.0000,0.0000,4.2320,1.3520,5.0000,5.0000,5.0000,0.0000,4.6080,0.0000,0.0000,0.0000,0.0000,0.0000,0.0000,0.0000,0.0000,0.0000,0.0000,0.0000,0.0000,0.0000,0.0320,2.0480,0.0000,0.0000,0.0000,0.0000,0.0000,0.0000,0.0000,0.0000,0.0000,0.0000,0.0000,0.0000,0.0000,0.0000,0.0000,0.0000,0.0000,0.0000,0.0000,0.0000,0.0000,0.0000,0.0000,0.0000,0.0000,0.0000,0.0000,0.0000,0.0000,0.0000,0.0000,0.0000,0.0000,0.0000,0.0000,0.0000,0.0000,0.0000,0.0000,0.0000,0.0000,0.0000,
Staphylococcus aureus subsp. aureus N315,0.0000,0.0000,0.0000,0.0000,0.0000,0.0000,0.0000,0.0000,0.0000,0.0000,0.0000,0.0000,0.0000,0.0000,0.0000,0.0000,0.0000,0.0000,0.0000,0.0000,0.0000,0.0000,0.0000,0.0000,5.0000,0.0000,0.0000,0.0000,5.0000,0.6480,0.0080,5.0000,0.0000,5.0000,1.1520,5.0000,5.0000,0.0000,0.0000,0.0000,0.0000,0.0000,4.2320,1.3520,5.0000,5.0000,5.0000,0.0000,4.6080,0.0000,0.0000,0.0000,0.0000,0.0000,0.0000,0.0000,0.0000,0.0000,0.0000,0.0000,0.0000,0.0000,0.0320,2.0480,0.0000,0.0000,0.0000,0.0000,0.0000,0.0000,0.0000,0.0000,0.0000,0.0000,0.0000,0.0000,0.0000,0.0000,0.0000,0.0000,0.0000,0.0000,0.0000,0.0000,0.0000,0.0000,0.0000,0.0000,0.0000,0.0000,0.0000,0.0000,0.0000,0.0000,0.0000,0.0000,0.0000,0.0000,0.0000,0.0000,0.0000,0.0000,0.0000,0.0000,0.0000,0.0000,
Staphylococcus aureus subsp. aureus NCTC 8325,0.0000,0.0000,0.0000,0.0000,0.0000,0.0000,0.0000,0.0000,0.0000,0.0000,0.0000,0.0000,0.0000,0.0000,0.0000,0.0000,0.0000,0.0000,0.0000,0.0000,0.0000,0.0000,0.0000,0.0000,0.0000,0.0000,5.0000,0.0000,5.0000,0.0080,5.0000,0.0000,0.0000,0.0000,0.0000,0.0000,0.0000,0.0000,0.0080,0.0000,5.0000,0.0000,3.8720,0.0000,0.0080,3.5280,0.0000,5.0000,0.0000,0.0000,0.0000,0.0000,0.0000,0.0000,0.0000,0.0000,0.0720,0.0000,0.0000,4.6080,5.0000,5.0000,0.0720,4.6080,0.0000,0.0000,0.0000,0.0000,0.0000,0.0000,0.0000,0.0000,0.0000,0.0000,0.0000,0.0000,0.0000,0.0000,0.0000,0.0000,0.0000,0.0000,0.0000,0.0000,0.0000,0.0000,0.0000,0.0000,0.0000,0.0000,0.0000,0.0000,0.0000,0.0000,0.0000,0.0000,0.0000,0.0000,0.0000,0.0000,0.0000,0.0000,0.0000,0.0000,0.0000,0.0000,
Staphylococcus aureus subsp. aureus ST228,0.0000,0.0000,0.0000,0.0000,0.0000,0.0000,0.0000,0.0000,0.0000,0.0000,0.0000,0.0000,0.0000,0.0000,0.0000,0.0000,0.0000,0.0000,0.0000,0.0000,0.0000,0.0000,0.0000,0.0000,5.0000,0.0000,0.0000,0.0000,5.0000,0.5120,0.0000,0.2000,0.0000,5.0000,1.1520,5.0000,5.0000,0.0000,0.0000,0.0000,0.0000,0.0000,3.8720,1.3520,5.0000,5.0000,5.0000,0.0000,5.0000,0.0000,0.0000,0.0000,0.0000,0.0000,0.0000,0.0000,0.0000,0.0000,0.0000,0.0000,0.0000,0.0000,0.0720,2.3120,0.0000,0.0000,0.0000,0.0000,0.0000,0.0000,0.0000,0.0000,0.0000,0.0000,0.0000,0.0000,0.0000,0.0000,0.0000,0.0000,0.0000,0.0000,0.0000,0.0000,0.0000,0.0000,0.0000,0.0000,0.0000,0.0000,0.0000,0.0000,0.0000,0.0000,0.0000,0.0000,0.0000,0.0000,0.0000,0.0000,0.0000,0.0000,0.0000,0.0000,0.0000,0.0000,
Staphylococcus aureus subsp. aureus ST228,0.0000,0.0000,0.0000,0.0000,0.0000,0.0000,0.0000,0.0000,0.0000,0.0000,0.0000,0.0000,0.0000,0.0000,0.0000,0.0000,0.0000,0.0000,0.0000,0.0000,0.0000,0.0000,0.0000,0.0000,0.0000,0.0000,0.0000,0.0000,0.0000,0.0000,0.0000,0.0000,0.0000,0.0000,0.0000,0.0000,0.0000,0.0000,0.0000,0.0000,0.0000,0.0000,0.0000,0.0000,0.0000,0.0000,0.0000,0.0000,0.0000,0.0000,0.0000,0.0000,0.0000,0.0000,0.0000,0.0000,0.0000,0.0000,0.0000,0.0000,0.0000,0.0000,0.0000,0.0000,0.0000,0.0000,0.0000,0.0000,0.0000,0.0000,0.0000,0.0000,0.0000,0.0000,0.0000,0.0000,0.0000,0.0000,0.0000,0.0000,0.0000,0.0000,0.0000,0.0000,0.0000,0.0000,0.0000,0.0000,0.0000,0.0000,0.0000,0.0000,0.0000,0.0000,0.0000,0.0000,0.0000,0.0000,0.0000,0.0000,0.0000,0.0000,0.0000,0.0000,0.0000,0.0000,
Staphylococcus aureus subsp. aureus ST228,0.0000,0.0000,0.0000,0.0000,0.0000,0.0000,0.0000,0.0000,0.0000,0.0000,0.0000,0.0000,0.0000,0.0000,0.0000,0.0000,0.0000,0.0000,0.0000,0.0000,0.0000,0.0000,0.0000,0.0000,0.0000,0.0000,0.0000,0.0000,0.0000,0.0000,0.0000,0.0000,0.0000,0.0000,0.0000,0.0000,0.0000,0.0000,0.0000,0.0000,0.0000,0.0000,0.0000,0.0000,0.0000,0.0000,0.0000,0.0000,0.0000,0.0000,0.0000,0.0000,0.0000,0.0000,0.0000,0.0000,0.0000,0.0000,0.0000,0.0000,0.0000,0.0000,0.0000,0.0000,0.0000,0.0000,0.0000,0.0000,0.0000,0.0000,0.0000,0.0000,0.0000,0.0000,0.0000,0.0000,0.0000,0.0000,0.0000,0.0000,0.0000,0.0000,0.0000,0.0000,0.0000,0.0000,0.0000,0.0000,0.0000,0.0000,0.0000,0.0000,0.0000,0.0000,0.0000,0.0000,0.0000,0.0000,0.0000,0.0000,0.0000,0.0000,0.0000,0.0000,0.0000,0.0000,
Staphylococcus aureus subsp. aureus ST228,0.0000,0.0000,0.0000,0.0000,0.0000,0.0000,0.0000,0.0000,0.0000,0.0000,0.0000,0.0000,0.0000,0.0000,0.0000,0.0000,0.0000,0.0000,0.0000,0.0000,0.0000,0.0000,0.0000,0.0000,0.0000,0.0000,0.0000,0.0000,0.0000,0.0000,0.0000,0.0000,0.0000,0.0000,0.0000,0.0000,0.0000,0.0000,0.0000,0.0000,0.0000,0.0000,0.0000,0.0000,0.0000,0.0000,0.0000,0.0000,0.0000,0.0000,0.0000,0.0000,0.0000,0.0000,0.0000,0.0000,0.0000,0.0000,0.0000,0.0000,0.0000,0.0000,0.0000,0.0000,0.0000,0.0000,0.0000,0.0000,0.0000,0.0000,0.0000,0.0000,0.0000,0.0000,0.0000,0.0000,0.0000,0.0000,0.0000,0.0000,0.0000,0.0000,0.0000,0.0000,0.0000,0.0000,0.0000,0.0000,0.0000,0.0000,0.0000,0.0000,0.0000,0.0000,0.0000,0.0000,0.0000,0.0000,0.0000,0.0000,0.0000,0.0000,0.0000,0.0000,0.0000,0.0000,
Staphylococcus aureus subsp. aureus ST228,0.0000,0.0000,0.0000,0.0000,0.0000,0.0000,0.0000,0.0000,0.0000,0.0000,0.0000,0.0000,0.0000,0.0000,0.0000,0.0000,0.0000,0.0000,0.0000,0.0000,0.0000,0.0000,0.0000,0.0000,0.0000,0.0000,0.0000,0.0000,0.0000,0.0000,0.0000,0.0000,0.0000,0.0000,0.0000,0.0000,0.0000,0.0000,0.0000,0.0000,0.0000,0.0000,0.0000,0.0000,0.0000,0.0000,0.0000,0.0000,0.0000,0.0000,0.0000,0.0000,0.0000,0.0000,0.0000,0.0000,0.0000,0.0000,0.0000,0.0000,0.0000,0.0000,0.0000,0.0000,0.0000,0.0000,0.0000,0.0000,0.0000,0.0000,0.0000,0.0000,0.0000,0.0000,0.0000,0.0000,0.0000,0.0000,0.0000,0.0000,0.0000,0.0000,0.0000,0.0000,0.0000,0.0000,0.0000,0.0000,0.0000,0.0000,0.0000,0.0000,0.0000,0.0000,0.0000,0.0000,0.0000,0.0000,0.0000,0.0000,0.0000,0.0000,0.0000,0.0000,0.0000,0.0000,
Staphylococcus aureus subsp. aureus ST228,0.0000,0.0000,0.0000,0.0000,0.0000,0.0000,0.0000,0.0000,0.0000,0.0000,0.0000,0.0000,0.0000,0.0000,0.0000,0.0000,0.0000,0.0000,0.0000,0.0000,0.0000,0.0000,0.0000,0.0000,0.0000,0.0000,0.0000,0.0000,0.0000,0.0000,0.0000,0.0000,0.0000,0.0000,0.0000,0.0000,0.0000,0.0000,0.0000,0.0000,0.0000,0.0000,0.0000,0.0000,0.0000,0.0000,0.0000,0.0000,0.0000,0.0000,0.0000,0.0000,0.0000,0.0000,0.0000,0.0000,0.0000,0.0000,0.0000,0.0000,0.0000,0.0000,0.0000,0.0000,0.0000,0.0000,0.0000,0.0000,0.0000,0.0000,0.0000,0.0000,0.0000,0.0000,0.0000,0.0000,0.0000,0.0000,0.0000,0.0000,0.0000,0.0000,0.0000,0.0000,0.0000,0.0000,0.0000,0.0000,0.0000,0.0000,0.0000,0.0000,0.0000,0.0000,0.0000,0.0000,0.0000,0.0000,0.0000,0.0000,0.0000,0.0000,0.0000,0.0000,0.0000,0.0000,
Staphylococcus aureus subsp. aureus ST228,0.0000,0.0000,0.0000,0.0000,0.0000,0.0000,0.0000,0.0000,0.0000,0.0000,0.0000,0.0000,0.0000,0.0000,0.0000,0.0000,0.0000,0.0000,0.0000,0.0000,0.0000,0.0000,0.0000,0.0000,0.0000,0.0000,0.0000,0.0000,0.0000,0.0000,0.0000,0.0000,0.0000,0.0000,0.0000,0.0000,0.0000,0.0000,0.0000,0.0000,0.0000,0.0000,0.0000,0.0000,0.0000,0.0000,0.0000,0.0000,0.0000,0.0000,0.0000,0.0000,0.0000,0.0000,0.0000,0.0000,0.0000,0.0000,0.0000,0.0000,0.0000,0.0000,0.0000,0.0000,0.0000,0.0000,0.0000,0.0000,0.0000,0.0000,0.0000,0.0000,0.0000,0.0000,0.0000,0.0000,0.0000,0.0000,0.0000,0.0000,0.0000,0.0000,0.0000,0.0000,0.0000,0.0000,0.0000,0.0000,0.0000,0.0000,0.0000,0.0000,0.0000,0.0000,0.0000,0.0000,0.0000,0.0000,0.0000,0.0000,0.0000,0.0000,0.0000,0.0000,0.0000,0.0000,
Staphylococcus aureus subsp. aureus ST398,0.0000,0.0000,0.0000,0.0000,0.0000,0.0000,0.0000,0.0000,0.0000,0.0000,0.0000,0.0000,0.0000,0.0000,0.0000,0.0000,0.0000,0.0000,0.0000,0.0000,0.0000,0.0000,0.0000,0.0000,0.0320,5.0000,0.0000,0.2880,5.0000,3.5280,0.0000,0.0000,2.8880,0.0000,0.0000,0.0000,0.0000,0.0320,0.2880,0.0000,5.0000,0.0000,1.5680,0.0000,3.5280,0.6480,0.0000,0.1280,0.0000,0.0000,0.0000,0.0000,0.0000,0.0000,0.0000,5.0000,0.8000,0.0000,2.3120,0.0000,0.0000,0.0000,0.9680,0.1280,0.0000,0.0000,0.0000,0.0080,0.0000,0.0000,0.0000,0.0000,0.0720,0.0000,0.0000,0.0000,0.0000,0.0000,0.0000,0.0000,0.0000,0.0000,0.0000,0.0000,0.0000,0.0000,0.0000,0.0000,0.0000,0.0000,0.0000,0.0000,0.0000,0.0000,0.0000,0.0000,0.0000,0.0000,0.0000,0.0000,0.0000,0.0000,0.0000,0.0000,0.0000,0.0000,
Staphylococcus aureus subsp. aureus T0131,0.0000,0.0000,0.0000,0.0000,0.0000,0.0000,0.0000,0.0000,0.0000,0.0000,0.0000,0.0000,0.0000,0.0000,0.0000,0.0000,0.0000,0.0000,0.0000,0.0000,0.0000,0.0000,0.0000,0.0000,0.0080,5.0000,0.0000,0.0000,5.0000,0.9680,0.0000,0.0000,2.5920,0.0000,0.0000,0.0000,0.0000,0.0000,0.0000,0.0000,5.0000,0.1280,0.0320,0.0000,3.8720,0.0000,0.0000,0.2880,0.0000,0.0000,0.0000,0.0000,0.0000,0.0000,0.0000,3.5280,5.0000,0.0000,5.0000,0.0000,0.0000,0.0000,4.2320,1.5680,0.0000,0.0000,0.0000,0.0000,0.0000,0.0000,0.0000,0.0000,0.0720,0.0000,0.0000,0.0000,0.0000,0.0000,0.0000,0.0000,0.0000,0.0000,0.0000,0.0000,0.0000,0.0000,0.0000,0.0000,0.0000,0.0000,0.0000,0.0000,0.0000,0.0000,0.0000,0.0000,0.0000,0.0000,0.0000,0.0000,0.0000,0.0000,0.0000,0.0000,0.0000,0.0000,
Staphylococcus aureus subsp. aureus TCH60,0.0000,0.0000,0.0000,0.0000,0.0000,0.0000,0.0000,0.0000,0.0000,0.0000,0.0000,0.0000,0.0000,0.0000,0.0000,0.0000,0.0000,0.0000,0.0000,0.0000,0.0000,0.0000,0.0000,0.0000,0.0000,5.0000,0.0000,5.0000,0.0000,0.2880,2.3120,0.0000,3.5280,0.0000,0.0000,0.0000,0.0000,0.0000,0.3920,0.0000,5.0000,0.5120,2.3120,0.0000,0.0000,0.0000,0.0000,0.1280,0.0000,0.0000,0.0000,0.0000,0.0000,0.0000,0.0000,1.5680,2.5920,5.0000,0.0000,0.9680,0.0000,4.6080,4.6080,2.8880,0.0000,0.0080,0.0000,0.0080,0.0000,0.0000,0.0000,0.0000,0.0000,0.0000,0.0000,0.0000,0.0000,0.0000,0.0000,0.0000,0.0000,0.0000,0.0000,0.0000,0.0000,0.0000,0.0000,0.0000,0.0000,0.0000,0.0000,0.0000,0.0000,0.0000,0.0000,0.0000,0.0000,0.0000,0.0000,0.0000,0.0000,0.0000,0.0000,0.0000,0.0000,0.0000,
Staphylococcus aureus subsp. aureus TW20,0.0000,0.0000,0.0000,0.0000,0.0000,0.0000,0.0000,0.0000,0.0000,0.0000,0.0000,0.0000,0.0000,0.0000,0.0000,0.0000,0.0000,0.0000,0.0000,0.0000,0.0000,0.0000,0.0000,0.0000,0.0080,4.6080,0.0080,0.0000,5.0000,1.5680,0.0080,0.0000,2.5920,0.0000,0.0000,0.0000,0.0000,0.0000,0.0000,0.0000,5.0000,0.1280,0.0320,0.0000,3.8720,0.0000,0.0000,0.2880,0.0000,0.0000,0.0000,0.0000,0.0000,0.0000,0.0000,3.2000,5.0000,0.0000,5.0000,0.0000,0.0000,0.0000,4.2320,0.9680,0.0000,0.0000,0.0000,0.0000,0.0000,0.0000,0.0000,0.0000,0.0720,0.0000,0.0000,0.0000,0.0000,0.0000,0.0000,0.0000,0.0000,0.0000,0.0000,0.0000,0.0000,0.0000,0.0000,0.0000,0.0000,0.0000,0.0000,0.0000,0.0000,0.0000,0.0000,0.0000,0.0000,0.0000,0.0000,0.0000,0.0000,0.0000,0.0000,0.0000,0.0000,0.0000,
Staphylococcus aureus subsp. aureus USA300_FPR3757,0.0000,0.0000,0.0000,0.0000,0.0000,0.0000,0.0000,0.0000,0.0000,0.0000,0.0000,0.0000,0.0000,0.0000,0.0000,0.0000,0.0000,0.0000,0.0000,0.0000,0.0000,0.0000,0.0000,0.0000,0.0000,0.0000,5.0000,0.0000,5.0000,0.0080,5.0000,0.0000,0.0000,0.0000,0.0000,0.0080,0.0000,0.0000,0.0080,0.0000,4.6080,0.0000,3.5280,0.0000,0.0000,3.5280,0.0000,5.0000,0.0000,0.0000,0.0000,0.0000,0.0000,0.0000,0.0000,0.0000,0.0720,0.0000,0.0000,5.0000,5.0000,0.0000,0.1280,4.6080,0.0000,0.0000,0.0000,0.0000,0.0000,0.0000,0.0000,0.0000,0.0000,0.0000,0.0000,0.0000,0.0000,0.0000,0.0000,0.0000,0.0000,0.0000,0.0000,0.0000,0.0000,0.0000,0.0000,0.0000,0.0000,0.0000,0.0000,0.0000,0.0000,0.0000,0.0000,0.0000,0.0000,0.0000,0.0000,0.0000,0.0000,0.0000,0.0000,0.0000,0.0000,0.0000,
Staphylococcus aureus subsp. aureus USA300_TCH1516,0.0000,0.0000,0.0000,0.0000,0.0000,0.0000,0.0000,0.0000,0.0000,0.0000,0.0000,0.0000,0.0000,0.0000,0.0000,0.0000,0.0000,0.0000,0.0000,0.0000,0.0000,0.0000,0.0000,0.0000,0.0000,0.0000,5.0000,0.0000,5.0000,0.0000,5.0000,0.0000,0.0000,0.0000,0.0000,0.0320,0.0000,0.0000,0.0080,0.0000,4.2320,0.0000,3.5280,0.0000,0.0000,3.5280,0.0000,5.0000,0.0000,0.0000,0.0000,0.0000,0.0000,0.0000,0.0000,0.0000,0.0720,0.0000,0.0000,5.0000,5.0000,0.2880,0.1280,5.0000,0.0000,0.0000,0.0000,0.0000,0.0000,0.0000,0.0000,0.0000,0.0000,0.0000,0.0000,0.0000,0.0000,0.0000,0.0000,0.0000,0.0000,0.0000,0.0000,0.0000,0.0000,0.0000,0.0000,0.0000,0.0000,0.0000,0.0000,0.0000,0.0000,0.0000,0.0000,0.0000,0.0000,0.0000,0.0000,0.0000,0.0000,0.0000,0.0000,0.0000,0.0000,0.0000,
Staphylococcus aureus subsp. aureus VC40,0.0000,0.0000,0.0000,0.0000,0.0000,0.0000,0.0000,0.0000,0.0000,0.0000,0.0000,0.0000,0.0000,0.0000,0.0000,0.0000,0.0000,0.0000,0.0000,0.0000,0.0000,0.0000,0.0000,0.0000,0.0000,0.0000,5.0000,0.0000,5.0000,0.0080,5.0000,0.0000,0.0000,0.0000,0.0000,0.0000,0.0000,0.0000,0.0080,0.0000,5.0000,0.0000,3.8720,0.0000,0.0080,3.5280,0.0000,5.0000,0.0000,0.0000,0.0000,0.0000,0.0000,0.0000,0.0000,0.0000,0.0720,0.0000,0.0000,4.6080,5.0000,5.0000,0.0720,4.6080,0.0000,0.0000,0.0000,0.0000,0.0000,0.0000,0.0000,0.0000,0.0000,0.0000,0.0000,0.0000,0.0000,0.0000,0.0000,0.0000,0.0000,0.0000,0.0000,0.0000,0.0000,0.0000,0.0000,0.0000,0.0000,0.0000,0.0000,0.0000,0.0000,0.0000,0.0000,0.0000,0.0000,0.0000,0.0000,0.0000,0.0000,0.0000,0.0000,0.0000,0.0000,0.0000,
Staphylococcus aureus subsp. aureus str. JKD6008,0.0000,0.0000,0.0000,0.0000,0.0000,0.0000,0.0000,0.0000,0.0000,0.0000,0.0000,0.0000,0.0000,0.0000,0.0000,0.0000,0.0000,0.0000,0.0000,0.0000,0.0000,0.0000,0.0000,0.0000,0.2000,4.6080,0.0080,0.0000,5.0000,1.5680,0.0080,0.0000,1.8000,0.0000,0.0000,0.0000,0.0000,0.0000,0.0080,0.0000,5.0000,0.0720,0.0000,0.0000,3.5280,0.0000,0.0000,0.2000,0.0000,0.0000,0.0000,0.0000,0.0000,0.0000,0.0000,3.5280,4.6080,0.0000,5.0000,0.0000,0.0000,0.0000,5.0000,0.9680,0.0000,0.0000,0.0000,0.0000,0.0000,0.0000,0.0000,0.0000,0.1280,0.0000,0.0000,0.0000,0.0000,0.0000,0.0000,0.0000,0.0000,0.0000,0.0000,0.0000,0.0000,0.0000,0.0000,0.0000,0.0000,0.0000,0.0000,0.0000,0.0000,0.0000,0.0000,0.0000,0.0000,0.0000,0.0000,0.0000,0.0000,0.0000,0.0000,0.0000,0.0000,0.0000,
Staphylococcus aureus subsp. aureus str. Newman,0.0000,0.0000,0.0000,0.0000,0.0000,0.0000,0.0000,0.0000,0.0000,0.0000,0.0000,0.0000,0.0000,0.0000,0.0000,0.0000,0.0000,0.0000,0.0000,0.0000,0.0000,0.0000,0.0000,0.0000,0.0000,0.0000,5.0000,0.0000,5.0000,0.0000,5.0000,0.0000,0.0000,0.0000,0.0000,0.0000,0.0000,0.0000,0.0080,0.0000,5.0000,0.0000,2.8880,0.0000,0.0000,3.5280,0.0000,5.0000,0.0000,0.0000,0.0000,0.0000,0.0000,0.0000,0.0000,0.0000,0.0720,0.0000,0.0000,5.0000,5.0000,5.0000,0.2880,5.0000,0.0000,0.0000,0.0000,0.0000,0.0000,0.0000,0.0000,0.0000,0.0000,0.0000,0.0000,0.0000,0.0000,0.0000,0.0000,0.0000,0.0000,0.0000,0.0000,0.0000,0.0000,0.0000,0.0000,0.0000,0.0000,0.0000,0.0000,0.0000,0.0000,0.0000,0.0000,0.0000,0.0000,0.0000,0.0000,0.0000,0.0000,0.0000,0.0000,0.0000,0.0000,0.0000,
Staphylococcus carnosus subsp. carnosus TM300,0.0000,0.0000,0.0000,0.0000,0.0000,0.0000,1.0000,0.0000,0.0000,0.0000,0.0000,0.0000,0.0000,0.0000,0.0000,0.0000,0.0000,0.0000,0.0000,0.0000,0.0000,0.0000,1.1250,0.0000,0.0000,0.0000,0.0000,0.0000,0.0000,0.0000,0.0000,0.0000,0.0000,0.0000,0.0000,0.0000,0.0000,0.0000,0.0000,0.0000,0.0000,0.1925,0.0000,0.0000,0.0000,0.0000,0.0000,0.0000,0.0000,0.0000,0.0000,0.0000,0.0000,0.0000,0.0000,0.0000,0.0000,4.6080,0.0000,0.0000,0.0000,0.0000,0.0000,0.0000,5.0000,0.0000,0.0000,0.0000,0.0000,0.0000,1.0000,5.0000,0.0000,1.0000,0.0000,0.0000,0.0000,0.0000,0.0000,0.1250,0.0000,0.0000,0.0000,0.0000,0.0000,0.0000,0.0000,0.0000,0.0000,0.0080,0.0000,0.0000,0.0000,0.0000,0.0000,0.7698,0.0000,0.0000,0.0000,0.0000,0.0000,0.0000,0.0000,0.0000,0.0000,0.0000,
Staphylococcus epidermidis ATCC 12228,0.0000,0.0000,0.0000,0.0320,0.0000,0.0320,0.0000,0.0000,0.0000,0.0000,0.2000,0.0000,0.0000,0.0000,0.0000,0.0000,0.0000,0.0000,0.0000,0.0000,0.0000,0.0000,0.0000,0.0000,0.0080,0.6480,0.0000,0.3920,5.0000,2.8880,0.0000,0.0000,0.0080,0.0000,2.0480,0.0000,0.0000,0.9680,4.2320,0.2000,0.0320,5.0000,0.0000,0.0320,0.0080,0.6480,0.0000,0.0000,0.0000,0.0000,0.0000,0.0000,0.0000,0.0000,0.0000,0.0000,3.2000,0.0000,0.3920,0.0000,0.0320,0.0000,0.0000,0.0000,0.0320,5.0000,0.0000,2.0480,1.1520,4.2320,0.9680,0.0000,0.5120,0.9680,0.0000,0.0000,0.0000,0.0000,0.0000,0.0000,0.0000,0.0000,0.0000,0.0000,0.0000,0.0000,0.0000,0.0000,0.0000,0.0000,0.0000,0.0000,0.0000,0.0000,0.0000,0.0000,0.0000,0.0000,0.0320,0.0000,0.0000,0.0000,0.0000,0.0000,0.0000,0.0080,
Staphylococcus epidermidis RP62A,0.0000,0.0000,0.0000,0.0000,0.0000,0.0000,0.0080,0.0000,0.0000,0.0000,0.0000,0.0000,0.0000,0.0000,0.0000,0.0000,0.0000,0.0000,0.0000,0.0000,0.0000,0.0000,0.0000,0.0000,0.0000,0.0000,0.0000,0.0000,4.6080,4.2320,0.0000,0.0000,0.0000,0.0000,0.0000,2.8880,0.0000,0.0000,0.0000,0.0000,3.5280,0.0000,0.0000,0.0000,0.0000,0.0320,0.0000,0.0000,0.0000,0.0000,0.0000,0.0000,0.0000,0.0000,0.0000,0.0000,4.2320,0.0080,0.0000,0.0080,0.0000,0.0000,3.5280,0.0000,0.0000,0.2880,5.0000,4.6080,4.6080,0.1280,5.0000,5.0000,0.0000,0.0080,0.0000,0.0000,0.0000,0.0000,0.0000,0.0000,0.0000,0.0000,0.0000,0.0000,0.0000,0.0000,0.0000,0.0000,0.0000,0.0000,0.0000,0.0000,0.0000,0.0000,0.0000,0.0000,0.0320,0.0000,0.0000,0.0000,0.0000,0.0000,0.0000,0.0000,0.0000,0.0000,
Staphylococcus haemolyticus JCSC1435,0.0000,0.0000,0.0000,0.0000,0.0000,0.0000,0.0000,0.0000,0.0000,0.0000,0.0000,0.0000,0.0000,0.0000,0.0000,0.0000,0.0000,0.0000,0.0000,0.0000,0.0000,0.0000,0.0000,0.0000,0.0080,0.1280,0.5120,2.3120,5.0000,1.8000,0.0080,0.0000,0.0000,0.0000,0.2880,0.0000,0.3920,0.1280,4.2320,0.2880,0.0000,4.6080,0.0000,0.1280,0.0000,4.2320,0.3920,0.0080,0.0000,0.0000,0.0000,0.0000,0.0000,0.0000,0.0000,0.0000,3.5280,0.0000,0.1280,0.0000,0.3920,0.0000,0.0000,3.5280,0.0000,5.0000,0.0000,5.0000,2.3120,5.0000,0.9680,0.0000,0.0000,0.2880,0.0000,0.0000,0.0000,0.0000,0.0000,0.0000,0.0000,0.0000,0.0000,0.0000,0.0000,0.0000,0.0000,0.0000,0.0000,0.0000,0.0000,0.0000,0.0000,0.0000,0.0000,0.0000,0.0000,0.0000,0.0000,0.0000,0.0000,0.0000,0.0000,0.0080,0.0000,0.0000,
Staphylococcus lugdunensis HKU09-01,0.0000,0.0000,0.0000,0.0000,0.0000,0.0000,0.0000,0.0000,0.0000,0.0000,0.0000,0.0000,0.0000,0.0000,0.0000,0.0000,0.0080,0.0000,0.0000,0.0000,0.2880,0.0000,0.2000,0.0000,0.0000,1.3520,0.1280,0.0080,4.6080,4.2320,0.0000,0.0000,0.0000,0.0000,0.0720,0.0000,1.1520,0.2880,3.8720,1.1520,0.0000,4.6080,0.0000,0.0080,0.0720,3.2000,1.1520,0.0000,0.0000,0.0000,0.0000,0.0000,0.0000,0.0000,0.0000,0.0080,5.0000,0.0080,0.2880,0.0000,0.0000,0.0000,0.2880,0.8000,0.0080,1.3520,0.0000,0.2000,5.0000,5.0000,0.5120,0.0000,0.9680,0.0000,0.0000,0.0000,0.0000,0.0000,0.0000,0.0000,0.0080,0.0000,0.0000,0.0000,0.0000,0.0000,0.0000,0.0000,0.0000,0.0000,0.0000,0.0000,0.0000,0.0000,0.0000,0.0000,0.0000,0.0000,0.0000,0.0000,0.0000,0.0000,0.0000,0.0000,0.0000,0.2000,
Staphylococcus lugdunensis N920143,0.0000,0.0000,0.0000,0.2000,0.0000,0.2000,0.0000,0.0080,0.0000,0.0000,0.2880,0.0000,0.0000,0.0080,0.0000,0.0000,0.0000,0.0000,0.0000,0.0000,0.0000,0.0000,0.0000,0.0000,0.0000,0.0000,0.0000,0.1280,5.0000,0.5120,0.0000,0.0000,0.0000,0.0000,0.9680,0.0000,0.0000,0.2880,4.2320,0.6480,0.0000,4.2320,0.0000,0.6480,0.0000,3.2000,0.0000,0.0000,0.0000,0.0000,0.0000,0.0000,0.0000,0.0000,0.0000,0.0000,3.2000,0.0000,0.6480,0.0000,0.5120,0.0000,0.0000,1.3520,0.0000,4.2320,0.0000,2.3120,5.0000,5.0000,2.5920,0.0000,0.5120,0.0000,0.0000,0.0000,0.0000,0.0000,0.2000,0.0000,0.2000,0.0000,0.0000,0.0000,0.0320,0.0000,0.0000,0.0000,0.0000,0.0000,0.0080,0.0000,0.0000,0.0080,0.1280,0.0320,0.0000,0.0080,0.0000,0.0000,0.0000,0.0000,0.0000,0.0000,0.0000,0.0000,
Staphylococcus pseudintermedius ED99,0.0000,0.0000,0.0000,0.0080,0.0000,0.0080,0.0000,0.0000,0.0000,0.0000,0.0000,0.0000,0.0000,0.0080,0.0000,0.0000,0.0000,0.0000,0.0000,0.0000,0.0080,0.0080,0.0080,0.0000,0.0000,0.0000,0.0000,2.3120,4.6080,4.6080,0.0000,0.0000,0.0000,0.0000,3.2000,0.0000,0.0000,1.8000,4.2320,2.3120,0.2880,5.0000,0.1280,2.3120,0.0080,2.5920,0.0000,0.0000,0.0000,0.0000,0.0000,0.0000,0.0000,0.0000,0.0000,0.0000,4.6080,0.0080,4.6080,0.0000,4.2320,0.0000,0.9680,4.6080,0.0000,1.1520,0.0000,0.0320,0.6480,2.5920,5.0000,0.0000,3.5280,1.8000,0.0000,0.0000,0.0000,0.0000,0.0000,0.0000,0.0000,0.0080,0.0000,0.0000,0.0000,0.0000,0.0000,0.0000,0.0000,0.0000,0.0000,0.0000,0.0000,0.0000,0.0000,0.0000,0.0000,0.0000,0.0000,0.0000,0.0000,0.0000,0.0000,0.0000,0.0000,0.0000,
Staphylococcus pseudintermedius HKU10-03,0.0000,0.0000,0.0000,0.0000,0.0000,0.0000,0.0000,0.0000,0.0000,0.0000,0.0000,0.0000,0.0000,0.0000,0.0000,0.0000,1.0000,0.0000,1.0000,1.0000,0.0000,0.0000,0.0000,1.0000,0.0000,0.7698,0.0000,0.0000,0.0000,0.0000,0.0000,0.0000,0.0000,0.0000,0.0000,0.0000,0.0000,0.0000,0.0000,0.0000,0.0000,0.0000,0.0000,0.0000,0.0000,0.0000,0.0000,0.0000,0.0000,0.0000,0.0000,0.0000,0.0000,0.0000,0.0000,1.4142,0.0000,5.0000,0.0000,0.0000,0.0000,0.0000,0.0000,0.0000,5.0000,0.0000,0.0000,0.0000,0.0000,0.0000,0.0000,5.0000,0.0000,0.0000,0.0000,0.1925,0.0000,0.0000,0.0000,0.0000,0.0000,0.0000,0.0000,0.0000,0.0000,0.0000,0.0000,0.0000,0.0000,0.0000,0.0000,0.0000,0.0000,0.0000,0.0000,0.0000,0.0000,0.0000,0.0000,0.0000,0.0000,0.0000,0.0000,0.0000,0.0000,0.0000,
Staphylococcus saprophyticus subsp. saprophyticus ATCC 15305,0.0000,0.0000,0.0000,0.1280,0.0000,0.8000,0.0000,0.0000,0.0000,0.1280,0.0320,0.0720,0.0000,0.0000,0.0720,0.0000,0.0000,0.0000,0.0000,0.0000,0.0080,0.0080,0.0000,0.0000,0.0000,0.2000,0.0320,0.3920,3.2000,0.2000,0.0080,0.0000,0.0720,0.0000,0.0320,0.0000,0.0000,0.0080,4.6080,0.2000,0.0320,2.8880,0.0000,0.1280,0.0000,1.8000,0.0000,0.0000,0.0000,0.0000,0.0000,0.0000,0.0000,0.0000,0.0000,0.0000,4.2320,0.0080,0.2000,0.0000,0.2880,0.0000,0.0000,1.3520,0.0000,4.6080,0.0000,0.0000,1.5680,2.0480,1.3520,0.0000,5.0000,0.5120,0.0000,0.0000,0.0000,0.0000,0.0000,0.0000,0.0000,0.0000,0.0000,0.0000,0.0000,0.0320,0.0000,0.0000,0.0000,0.0000,0.0320,0.0000,0.0000,0.0720,0.2000,0.0720,0.0080,0.2000,0.0000,0.0000,0.0000,0.0000,0.0000,0.0000,0.0000,0.0000,
Staphylococcus warneri SG1,0.0000,0.0000,0.0000,0.6480,0.0000,0.6480,0.0000,0.0000,0.0000,0.0320,0.0320,0.0320,0.0000,0.0000,0.0000,0.0000,0.0000,0.0000,0.0000,0.0000,0.0000,0.0000,0.0000,0.0000,0.0000,0.0000,0.0000,0.2000,4.2320,0.9680,0.0000,0.0000,0.0000,0.0000,0.0080,0.0000,0.0000,0.6480,3.5280,0.1280,0.0000,4.6080,0.0000,0.2000,0.0000,0.1280,0.0000,0.0000,0.0000,0.0000,0.0000,0.0000,0.0000,0.0000,0.0000,0.0000,0.2000,0.0000,0.2000,0.0000,0.2000,0.0000,0.0000,1.5680,0.0000,5.0000,0.0000,1.5680,0.0000,4.2320,4.2320,0.0080,0.8000,5.0000,0.0000,0.0000,0.0080,0.0000,0.0000,0.0000,0.0000,0.0000,0.0080,0.0000,0.0000,0.0000,0.0000,0.0000,0.0000,0.0000,0.0000,0.0000,0.0000,0.0000,0.0000,0.0000,0.0000,0.0000,0.0000,0.0000,0.0000,0.0080,0.0000,0.0000,0.0000,0.0000,
Staphylothermus hellenicus DSM 12710,0.0000,0.0000,0.0000,0.0000,0.0000,0.0000,0.0000,0.0000,0.0000,0.0000,0.0000,0.0000,0.0000,0.0000,0.0000,0.0000,0.0000,0.0000,0.0000,0.0000,0.0000,0.0000,0.0000,0.0000,0.0000,0.0000,0.0000,0.0000,0.0000,0.0000,0.0000,0.0000,0.0000,0.0000,0.0000,0.0000,0.0000,0.0000,0.0000,0.0000,0.0000,0.0000,0.0000,0.0000,0.0000,0.0000,0.0000,0.0000,0.0000,0.0000,0.0000,0.0000,0.0000,0.0000,0.0000,0.0000,0.0000,0.0000,0.0000,0.0000,0.0000,0.0000,0.0000,0.0000,0.0000,0.0000,0.0000,0.0000,1.0000,0.0104,0.0000,0.0894,0.0000,0.0000,5.0000,0.0000,0.0000,0.0000,0.0000,0.0000,0.0000,0.0000,0.0000,0.0000,0.0000,0.0000,0.0000,0.0000,0.0000,0.0000,0.0000,0.0000,0.0000,0.0000,0.0000,0.0000,0.0000,0.8050,4.6904,3.7513,0.0000,0.0894,0.0104,0.0894,0.0000,0.0000,
Streptococcus agalactiae 2603V/R,0.0000,0.0000,0.0000,0.0000,0.0000,0.0000,0.0000,0.0000,0.0000,0.0000,0.0000,0.0000,0.0000,0.0000,0.0000,0.0000,0.0000,0.0000,0.0000,0.0000,0.0000,0.0000,0.0000,0.0000,0.0121,0.0000,0.0000,0.0000,0.0000,0.0000,0.0000,0.0000,0.0121,0.0000,0.0000,0.0000,0.0000,0.0000,0.0156,0.0000,0.0000,0.0000,0.2722,0.0000,0.0000,0.0156,0.0000,0.0483,0.0000,0.0000,0.0000,0.0000,0.0000,0.0000,0.0000,0.0000,0.0625,0.0000,0.0000,0.0000,0.0000,0.0000,0.2722,0.0080,1.3520,0.0000,0.0000,0.0000,0.0483,0.0320,0.0000,0.9680,0.0000,0.0483,0.0000,5.0000,5.0000,1.1520,1.5680,2.0480,0.9680,2.7168,0.6480,0.0000,3.0625,0.0000,5.0000,0.0000,0.9680,0.0000,0.0000,1.0887,1.0887,0.0000,0.0000,0.0000,0.0000,0.0000,0.0000,0.0000,0.0000,0.0000,0.0000,0.0000,0.0000,0.0000,
Streptococcus dysgalactiae subsp. equisimilis AC-2713,0.0000,0.0000,0.0000,0.0000,0.0000,0.0000,0.0000,0.0000,0.0000,0.0000,0.0000,0.0000,0.0000,0.0000,0.0000,0.0000,0.0000,0.0000,0.0000,0.0000,0.0000,0.0000,0.0000,0.0000,0.0000,0.0000,0.0720,0.0000,0.0080,0.0000,0.0000,0.0000,0.0000,0.0000,0.0000,0.0000,0.0000,0.0000,0.0000,0.0000,0.0000,0.0000,2.5614,0.0000,0.0000,0.0000,0.0000,0.0720,0.0000,0.0000,0.0000,0.0000,0.0000,0.0000,0.0000,0.0000,0.3920,0.0000,0.0000,0.0000,0.0000,0.0000,2.5614,0.0720,0.0320,0.0316,0.0000,0.0000,0.0080,0.0000,0.0000,0.0000,0.0000,0.0000,0.0000,3.5280,5.0000,2.3120,5.0000,0.9680,3.2000,3.5280,1.5680,0.0080,2.3120,0.0000,4.6080,0.0080,0.5120,0.0000,0.0000,0.0000,0.0000,0.0000,0.0000,0.0000,0.0000,0.0000,0.0000,0.0000,0.0000,0.0000,0.0000,0.0000,0.0000,0.0000,
Streptococcus equi subsp. zooepidemicus MGCS10565,0.0000,0.0000,0.0000,0.0000,0.0000,0.0000,0.1265,0.0000,0.0000,0.0000,0.0000,0.0000,0.0000,0.1265,0.0000,0.0000,0.0000,0.0000,0.0000,0.0080,0.0316,0.0000,0.0000,0.0000,0.0000,0.0000,0.0080,0.0000,0.0080,0.0000,0.0080,0.0000,0.0000,0.0000,0.0000,0.0000,0.0000,0.0000,0.0000,0.0000,0.0000,0.0000,0.0316,0.0000,0.0000,0.0000,0.0000,0.0080,0.0000,0.0000,0.0000,0.0000,0.0000,0.0000,0.0000,0.0000,0.0680,0.0000,0.0000,0.0000,0.0000,0.0000,0.0316,0.0080,0.2880,0.0000,0.0000,0.0000,0.0000,0.0000,0.0000,0.2880,0.0000,0.0000,0.0000,1.3520,4.6080,5.0000,2.8880,1.5680,2.5920,4.6080,0.8000,1.5680,1.7010,0.0000,4.6080,0.0000,0.0000,0.0000,0.0000,0.5060,0.5060,0.0000,0.0000,0.0000,0.0000,0.0720,0.0000,0.0000,0.0000,0.0000,0.0000,0.0000,0.0000,0.0000,
Streptococcus gallolyticus subsp. gallolyticus ATCC BAA-2069,0.0000,0.0000,0.0000,0.0000,0.0000,0.0000,0.2754,0.2754,0.0000,0.0080,0.0000,0.0720,0.0000,0.2754,0.0080,0.0000,0.0000,0.0000,0.0000,0.0000,0.0000,0.0000,0.0000,0.0000,0.0000,0.0000,0.0000,0.0000,0.0000,0.0000,0.0000,0.0000,0.0000,0.0000,0.0000,0.0000,0.0000,0.0000,0.5120,0.0000,0.0000,0.0000,2.0828,0.0000,0.0000,0.5120,0.0000,0.0000,0.0000,0.0000,0.0000,0.0000,0.0000,0.0000,0.0000,0.0000,0.5120,0.0000,0.0000,0.0000,0.0000,0.0000,2.0828,0.0000,0.0000,0.0000,0.0000,0.0000,0.0000,0.0000,0.0000,0.0000,0.0000,0.0000,0.0000,3.2000,5.0000,1.8000,5.0000,4.6080,5.0000,5.0000,0.0080,0.2000,1.1520,0.0000,0.3920,0.2000,0.2880,2.3120,0.0000,0.0000,0.0000,0.0000,0.0000,0.0000,0.0000,0.0000,0.0000,0.0000,0.0000,0.0000,0.0000,0.0000,0.0000,0.0000,
Streptococcus infantarius subsp. infantarius CJ18,0.0000,0.0000,0.0000,0.0000,0.0000,0.0000,0.3536,0.0000,0.0000,0.0000,0.0000,0.0000,0.0000,0.0000,0.0000,0.0000,0.0000,0.0000,0.0000,0.0000,0.0000,0.0000,0.0000,0.0000,0.0000,0.0000,0.0000,0.0000,0.0000,0.0000,0.0000,0.0000,0.0000,0.0000,0.0000,0.0000,0.0000,0.0000,0.0894,0.0000,0.0000,0.0000,0.3536,0.0000,0.0000,0.0894,0.0000,0.0000,0.0000,0.0000,0.0000,0.0000,0.0000,0.0000,0.0000,0.0000,0.0894,0.0000,0.0000,0.0000,0.0000,0.0000,0.3536,0.0000,0.0080,0.0000,0.0000,0.0000,0.0000,0.0000,0.0000,0.0000,0.0000,0.0000,0.0000,2.0480,4.6080,1.8000,5.0000,5.0000,4.6080,5.0000,0.0000,0.5120,0.3578,0.0080,1.8000,0.3578,0.8000,0.8000,0.0000,0.0000,0.0000,0.0080,0.0000,0.0000,0.0000,0.0000,0.0000,0.0000,0.0000,0.0000,0.0000,0.0000,0.0000,0.0000,
Streptococcus macedonicus ACA-DC 198,0.0000,0.0000,0.0000,0.0000,0.0000,0.0000,0.0000,0.0000,0.0000,0.0080,0.0000,0.0000,0.0000,0.0000,0.0320,0.0000,0.0000,0.0000,0.0000,0.0000,0.0000,0.0000,0.0000,0.0000,0.0000,0.0000,0.0000,0.0000,0.0000,0.0000,0.0000,0.0000,0.0000,0.0000,0.0000,0.0000,0.0000,0.0000,0.0720,0.0000,0.0000,0.0000,3.3166,0.0000,0.0000,0.0720,0.0000,0.0000,0.0000,0.0000,0.0000,0.0000,0.0000,0.0000,0.0000,0.0000,0.0720,0.0000,0.0000,0.0000,0.0000,0.0000,3.3166,0.0000,0.0000,0.0000,0.0000,0.0000,0.0000,0.0000,0.0000,0.0000,0.0000,0.0000,0.0000,2.8880,5.0000,2.5920,5.0000,4.6080,5.0000,5.0000,0.0080,0.2880,2.3120,0.0000,0.1280,0.2000,0.2000,3.2000,0.0000,0.0000,0.0000,0.0000,0.0000,0.0000,0.0000,0.0000,0.0000,0.0000,0.0000,0.0000,0.0000,0.0000,0.0000,0.0000,
Streptococcus mutans UA159,0.0000,0.0000,0.0000,0.2000,0.0000,0.0080,0.4025,0.4025,0.0000,0.0000,0.0000,0.0720,0.0000,0.5478,0.0000,0.0000,0.0000,0.0000,0.0000,0.0000,0.0112,0.0000,0.0000,0.0000,0.0000,0.0000,0.0000,0.0000,0.0000,0.0000,0.0000,0.0000,0.0000,0.0000,0.0000,0.0000,0.0000,0.0000,0.6991,0.0000,0.0000,0.0000,0.7155,0.0000,0.0000,0.6991,0.0000,0.0000,0.0000,0.0000,0.0000,0.0000,0.0000,0.0000,0.0000,0.0000,0.9131,0.0000,0.0000,0.0000,0.0000,0.0000,0.7155,0.0080,0.0000,0.0447,0.0000,0.0000,0.0000,0.0000,0.0000,0.0000,0.0320,0.0000,0.0000,1.5680,5.0000,1.8000,4.2320,2.5920,2.8880,5.0000,0.2000,0.9680,1.1556,0.0000,1.5680,0.0000,0.3920,0.9680,0.0000,0.0000,0.0000,0.0000,0.0000,0.0000,0.0000,0.0080,0.0000,0.0000,0.0000,0.0000,0.0000,0.0000,0.0000,0.0000,
Streptococcus oligofermentans AS 1.3089,0.0000,0.0241,0.0000,0.2165,0.0000,0.2467,1.7321,1.7321,0.0000,0.0935,0.0000,0.0000,0.0000,0.0000,0.0320,0.0000,0.0000,0.0000,0.0000,0.0000,0.0000,0.0000,0.0000,0.0000,0.0442,0.0000,0.0000,0.0274,0.0000,0.0241,0.0000,0.0000,0.0442,0.0000,0.0274,0.0000,0.0000,0.0000,0.0000,0.0274,0.0000,0.0000,0.0000,0.0000,0.0000,0.0000,0.0000,0.0000,0.0000,0.0000,0.0000,0.0000,0.0000,0.0000,0.0000,0.0000,0.0000,0.0000,0.0000,0.0000,0.0000,0.0000,0.0000,0.0000,0.0000,0.0000,0.0000,0.0000,0.0000,0.0000,0.0000,0.0000,0.0000,0.0000,0.0000,0.0320,5.0000,2.3120,1.3431,0.0000,1.1788,2.1655,5.0000,4.2320,5.0000,0.0000,2.6602,0.0000,0.2880,0.0416,0.0000,0.0000,0.0000,0.0000,0.0000,0.0000,0.0000,0.0000,0.0000,0.0000,0.0000,0.0000,0.0000,0.0000,0.0000,0.0000,
Streptococcus parasanguinis ATCC 15912,0.0000,0.0320,0.0000,0.0000,0.0000,0.0080,0.9680,0.9680,0.0000,0.0000,0.0000,0.0000,0.0000,1.8000,0.2880,0.0000,0.0000,0.0000,0.0000,0.0000,0.6480,0.0320,0.0000,0.0000,0.0000,0.0000,0.0000,0.0000,0.0000,0.0000,0.0000,0.0000,0.0000,0.0000,0.0000,0.0000,0.0000,0.0000,0.0000,0.0000,0.0000,0.0000,0.1280,0.0000,0.0000,0.0000,0.0000,0.0000,0.0000,0.0000,0.0000,0.0000,0.0000,0.0000,0.0000,0.0000,0.0000,0.0000,0.0000,0.0000,0.0000,0.0000,0.1280,0.0000,0.0000,0.0080,0.0000,0.0000,0.2880,0.0000,0.0000,0.0000,0.0000,0.0000,0.0000,0.0000,0.0720,0.3920,4.6080,0.2000,4.2320,2.8880,3.2000,5.0000,4.2320,3.8720,1.5680,0.0320,0.8000,0.9680,0.0000,0.0320,0.0320,0.0000,0.0000,0.0000,0.0000,0.0000,0.0000,0.0000,0.0000,0.0000,0.0000,0.0000,0.0000,0.0000,
Streptococcus pneumoniae 670-6B,0.0000,0.0000,0.0000,0.0000,0.0000,0.0000,0.0000,0.0000,0.0000,0.0000,0.0000,0.0000,0.0000,0.0000,0.0000,0.1925,0.0000,0.1925,0.0000,0.0000,0.0000,0.0000,0.0000,0.0000,0.1250,0.0000,0.0274,0.0000,0.1925,0.0000,0.0370,0.0370,0.0000,0.0213,0.0000,0.0213,0.0274,0.0000,0.0000,0.0000,0.0000,0.0000,1.0000,0.0241,0.0000,0.0000,0.0274,0.1250,0.0370,0.0000,0.0000,0.0000,0.0000,0.0000,0.0000,0.0000,0.0000,0.0000,0.0241,0.0000,0.0241,0.0000,1.0000,0.0213,0.0000,0.0000,0.0000,0.0080,0.0000,0.0000,0.0274,0.0000,0.0000,0.0000,0.0000,0.2467,2.3704,0.0000,2.4056,0.0080,2.1335,1.1250,4.2320,0.4386,5.0000,0.0000,0.1925,0.0000,3.0722,0.0000,0.0853,0.0000,0.0000,0.1096,0.0000,0.0000,0.0000,0.0000,0.0000,0.0000,0.0000,0.0000,0.0000,0.0000,0.0000,0.0241,
Streptococcus pneumoniae SPN032672,0.0000,0.0000,0.0000,0.0000,0.0000,0.0000,0.0000,0.0000,0.0000,0.0000,0.0000,0.0000,0.0000,3.0000,1.4142,0.0000,0.0000,0.0000,0.0000,0.0000,0.0000,0.0000,0.0000,0.0080,0.0000,0.0000,0.0000,0.0000,0.0000,0.0000,0.0000,0.0000,0.0000,0.0000,0.0000,0.0000,0.0000,0.0000,0.0000,0.0000,0.0000,0.0000,0.0000,0.0000,0.0000,0.0000,0.0000,0.0000,0.0000,0.0000,0.0000,0.0000,0.0000,0.0000,0.0000,0.0000,0.0000,0.0000,0.0000,0.0000,0.0000,0.0000,0.0000,0.0000,0.0000,0.0000,0.0000,0.0000,0.1768,1.4142,0.0000,0.0000,0.0320,0.0000,0.0000,0.0000,0.0000,0.0000,3.1623,0.0320,1.7321,1.5910,3.2000,5.0000,0.0000,5.0000,0.0274,5.0000,0.0000,2.7410,0.0000,0.0000,0.0000,0.0000,0.0000,0.0000,0.0000,0.0000,0.0000,0.0000,0.0000,0.0000,0.0000,0.0000,0.0000,0.0000,
Streptococcus pyogenes A20,0.0000,0.0000,0.0000,0.0000,0.0000,0.0000,0.0000,0.0000,0.0000,0.0000,0.0000,0.0000,0.0000,0.0000,0.0000,0.0000,0.0000,0.0000,0.0000,0.0000,0.0000,0.0000,0.0000,0.0000,0.0000,0.0000,0.0000,0.0000,0.0000,0.0000,0.0000,0.0000,0.0000,0.0000,0.0000,0.0000,0.0000,0.0000,0.0000,0.0000,0.0000,0.0000,0.2160,0.0000,0.0000,0.0000,0.0000,0.0000,0.0000,0.0000,0.0000,0.0000,0.0000,0.0000,0.0000,0.0000,0.0080,0.0000,0.0000,0.0000,0.0000,0.0000,0.4860,0.0080,0.1280,0.0000,0.0000,0.0000,0.0720,0.0000,0.0000,0.0320,0.0000,0.0000,0.0000,4.2320,5.0000,3.5280,4.2320,2.5920,3.2000,3.8720,0.3920,0.0320,4.2320,0.0000,5.0000,0.0080,0.1280,0.0000,0.0000,0.8639,0.8639,0.0000,0.0000,0.0000,0.0000,0.0000,0.0000,0.0000,0.0000,0.0000,0.0000,0.0000,0.0000,0.0000,
Streptococcus salivarius 57.I,0.0000,0.0000,0.0000,0.0000,0.0000,0.0000,0.0000,0.0000,0.0000,0.0000,0.0000,0.0000,0.0000,0.0000,0.0000,0.0000,0.0000,0.0000,0.0000,0.0000,1.8148,1.8148,2.6458,0.0000,0.0000,0.0000,0.0000,0.0000,0.0000,0.0000,0.0000,0.0000,0.0000,0.0000,0.0000,0.0000,0.0000,0.0000,0.0000,0.0000,0.0000,0.0000,0.0000,0.0000,0.0000,0.0000,0.0000,0.0000,0.0000,0.0000,0.0000,0.0000,0.0000,0.0000,0.0000,0.0000,0.0000,1.1250,0.0000,0.0000,0.0000,0.0000,0.0000,0.0000,0.0000,0.0000,0.0000,0.0000,1.4142,0.1481,0.0894,0.0000,0.0000,0.0000,0.0000,0.0000,0.5000,0.0000,0.0000,0.0000,0.0000,0.0000,0.0000,0.0000,0.0000,0.0000,0.1250,5.0000,0.0000,0.0000,0.8639,0.1481,0.0000,1.4311,0.0000,0.5000,0.8639,0.0000,0.0000,0.0000,0.0000,0.0000,0.0000,0.0000,0.0000,0.0000,
Streptococcus suis BM407,0.0000,0.0121,0.0000,0.0000,0.0000,0.0000,0.0894,0.0000,0.0000,0.0000,0.0000,0.0000,0.0000,0.0000,0.0000,0.0000,0.0000,0.0000,0.0000,0.0000,0.0000,0.0000,0.0000,0.0000,0.2266,0.0000,0.0080,0.2598,0.0720,0.3019,0.0000,0.0000,0.2266,0.0000,0.2598,0.0000,0.0000,0.6650,0.2598,0.2598,0.0000,0.0000,1.4311,0.1663,0.0320,0.2598,0.0000,0.1451,0.0000,0.0000,0.0000,0.0000,0.0000,0.0000,0.0000,0.0000,0.1663,0.0000,0.1663,0.0000,0.1663,0.0000,1.4311,0.1932,0.1932,0.0000,0.0000,0.0000,0.0816,0.0000,0.0000,0.0104,0.0000,0.0000,0.0000,0.3920,3.5280,0.0000,0.6650,2.3120,0.4347,1.3055,0.2880,1.5680,3.0031,0.0000,2.0480,0.0000,5.0000,0.2880,0.1932,0.0000,0.0000,0.0720,0.1663,0.1280,0.0000,0.1663,0.0000,0.0000,0.0000,0.0000,0.0000,0.0000,0.0000,0.0000,
Streptococcus thermophilus JIM 8232,0.0000,0.0000,0.0000,0.0000,0.0000,0.0000,0.0000,0.0000,0.0000,0.0000,0.0000,0.0000,0.0000,0.0000,0.0000,0.0000,0.0000,0.0000,0.0000,0.0000,0.0274,0.0080,0.0080,0.0000,0.0000,0.0000,0.0000,0.0000,0.0000,0.0000,0.0000,0.0000,0.0000,0.0720,0.0000,0.0720,0.0000,0.0000,0.5092,0.0000,0.0720,0.1280,1.7542,0.0000,0.0000,0.5092,0.0000,0.0080,0.0000,0.0000,0.0000,0.0000,0.0000,0.0000,0.0000,0.0000,0.6650,0.0000,0.0000,0.0000,0.0000,0.0000,1.7542,0.0000,0.0080,0.0000,0.0000,0.0000,0.0000,0.0000,0.0000,0.0000,0.0000,0.0000,0.0000,0.5120,3.5280,0.1280,5.0000,4.2320,4.6080,5.0000,0.0080,2.3120,1.7561,0.0000,0.0000,0.0000,2.3120,5.0000,0.0000,0.1096,0.1096,0.0000,0.0000,0.0000,0.0000,0.0000,0.0000,0.0000,0.0000,0.0000,0.0000,0.0000,0.0000,0.0000,
Thermoanaerobacter brockii subsp. finnii Ako-1,0.0000,0.0000,0.0000,0.0000,0.0000,0.0000,0.0000,0.0000,0.0000,3.5156,0.0000,0.8000,0.0000,0.0000,0.3920,0.0000,0.0000,0.0000,0.0000,0.0000,0.0000,0.0000,0.0000,0.0000,0.1768,0.0000,0.0000,0.0000,0.0625,0.0000,0.0000,0.0000,0.1768,0.0000,0.0000,0.0000,0.0000,0.0000,1.4142,0.0000,0.0000,0.0000,0.0000,0.0000,0.1265,1.4142,0.0000,0.1768,0.0000,0.0000,0.0000,0.0000,0.0000,0.0000,0.0000,0.0000,1.4142,0.0000,0.0000,0.1265,0.0000,0.1265,0.0000,0.0000,0.0000,0.0000,0.0000,0.0000,1.5910,0.2000,0.0000,0.0000,2.0239,0.0000,0.0000,0.0000,0.0000,0.0000,0.0000,0.0000,0.0000,0.0000,0.0000,0.0000,0.0000,0.0000,0.0000,0.0000,0.0720,0.0000,5.0000,0.8000,1.8000,5.0000,4.6080,5.0000,0.0000,0.0080,0.0000,0.0000,0.0000,0.0000,0.0000,0.0000,0.0000,0.0000,
Thermoanaerobacter italicus Ab9,0.0000,0.0000,0.0000,0.0000,0.0000,0.0000,0.0000,0.0000,0.0000,2.0000,0.0000,0.3849,0.0000,0.0000,0.0000,0.0000,0.0000,0.0000,0.0000,0.0000,0.0000,0.0000,0.0000,0.0000,0.0442,0.0000,0.0000,0.0000,0.0000,0.0000,0.0000,0.0000,0.0000,0.0241,0.0000,0.0241,0.0000,0.0000,0.0000,0.0000,0.0000,0.0000,0.0000,0.0000,0.0680,1.0000,0.0000,0.0000,0.0000,0.0000,0.0000,0.0000,0.0000,0.0000,0.0000,0.0000,0.0000,0.0000,0.0000,0.0000,0.0000,0.0000,0.0000,0.0000,0.0000,0.0000,0.0000,0.2722,2.1655,1.1788,0.0000,0.0000,0.6124,0.0000,0.0000,0.0000,0.0000,0.0000,0.0000,0.0000,0.0000,0.0000,0.0000,0.0000,0.0000,0.0000,0.0000,0.0000,0.0000,0.0000,4.6080,5.0000,0.0000,5.0000,2.3120,5.0000,0.0080,0.5120,0.0000,0.0000,0.0000,0.0000,0.0000,0.0000,0.0000,0.0000,
Thermoanaerobacter mathranii subsp. mathranii str. A3,0.0000,0.0000,0.0000,0.0000,0.0000,0.0000,0.0000,0.0000,0.0000,2.0000,0.0000,0.3849,0.0000,0.0000,0.0000,0.0000,0.0000,0.0000,0.0000,0.0000,0.0000,0.0000,0.0000,0.0000,0.0442,0.0000,0.0000,0.0000,0.0000,0.0000,0.0000,0.0000,0.0000,0.0241,0.0000,0.0241,0.0000,0.0000,0.0000,0.0000,0.0000,0.0000,0.0000,0.0000,1.0000,1.0000,0.0000,0.0000,0.0000,0.0000,0.0000,0.0000,0.0000,0.0000,0.0000,0.0000,0.0000,0.0000,0.0000,0.0000,0.0000,0.0000,0.0000,0.0000,0.0000,0.0000,0.0000,0.0000,2.1655,1.1788,0.0000,0.0000,0.0000,0.0000,0.0000,0.0000,0.0000,0.0000,0.0000,0.0000,0.0000,0.0000,0.0000,0.0000,0.0000,0.0000,0.0000,0.0000,0.0000,0.0000,4.6080,0.0000,5.0000,5.0000,2.5920,5.0000,0.0080,0.3920,0.0000,0.0000,0.0000,0.0000,0.0000,0.0000,0.0000,0.0000,
Thermoanaerobacter pseudethanolicus ATCC 33223,0.0000,0.0000,0.0000,0.0000,0.0000,0.0000,0.0000,0.0000,0.0000,3.5156,0.0000,0.8000,0.0000,0.0000,0.3920,0.0000,0.0000,0.0000,0.0000,0.0000,0.0000,0.0000,0.0000,0.0000,0.1768,0.0000,0.0000,0.0000,0.0625,0.0000,0.0000,0.0000,0.1768,0.0000,0.0000,0.0000,0.0000,0.0000,1.4142,0.0000,0.0000,0.0000,0.0000,0.0000,0.1265,1.4142,0.0000,0.1768,0.0000,0.0000,0.0000,0.0000,0.0000,0.0000,0.0000,0.0000,1.4142,0.0000,0.0000,0.1265,0.0000,0.1265,0.0000,0.0000,0.0000,0.0000,0.0000,0.0000,1.5910,0.2000,0.0000,0.0000,2.0239,0.0000,0.0000,0.0000,0.0000,0.0000,0.0000,0.0000,0.0000,0.0000,0.0000,0.0000,0.0000,0.0000,0.0000,0.0000,0.0720,0.0000,5.0000,0.8000,1.8000,5.0000,4.6080,5.0000,0.0000,0.0080,0.0000,0.0000,0.0000,0.0000,0.0000,0.0000,0.0000,0.0000,
Thermoanaerobacter sp. X513,0.0000,0.0000,0.0000,0.0000,0.0000,0.0000,0.0000,0.0000,0.0000,3.5156,0.0000,0.8000,0.0000,0.0000,0.3920,0.0000,0.0000,0.0000,0.0000,0.0000,0.0000,0.0000,0.0000,0.0000,0.1768,0.0000,0.0000,0.0000,0.0625,0.0000,0.0000,0.0000,0.1768,0.0000,0.0000,0.0000,0.0000,0.0000,1.4142,0.0000,0.0000,0.0000,0.0000,0.0000,0.1265,1.4142,0.0000,0.1768,0.0000,0.0000,0.0000,0.0000,0.0000,0.0000,0.0000,0.0000,1.4142,0.0000,0.0000,0.1265,0.0000,0.1265,0.0000,0.0000,0.0000,0.0000,0.0000,0.0000,1.5910,0.2000,0.0000,0.0000,2.0239,0.0000,0.0000,0.0000,0.0000,0.0000,0.0000,0.0000,0.0000,0.0000,0.0000,0.0000,0.0000,0.0000,0.0000,0.0000,0.0720,0.0000,5.0000,0.8000,1.8000,5.0000,5.0000,5.0000,0.0000,0.0000,0.0000,0.0000,0.0000,0.0000,0.0000,0.0000,0.0000,0.0000,
Thermoanaerobacter sp. X514,0.0000,0.0000,0.0000,0.0000,0.0000,0.0000,0.0000,0.0000,0.0000,3.5156,0.0000,0.8000,0.0000,0.0000,0.3920,0.0000,0.0000,0.0000,0.0000,0.0000,0.0000,0.0000,0.0000,0.0000,0.1768,0.0000,0.0000,0.0000,0.0625,0.0000,0.0000,0.0000,0.1768,0.0000,0.0000,0.0000,0.0000,0.0000,1.4142,0.0000,0.0000,0.0000,0.0000,0.0000,0.1265,1.4142,0.0000,0.1768,0.0000,0.0000,0.0000,0.0000,0.0000,0.0000,0.0000,0.0000,1.4142,0.0000,0.0000,0.1265,0.0000,0.1265,0.0000,0.0000,0.0000,0.0000,0.0000,0.0000,1.5910,0.2000,0.0000,0.0000,2.0239,0.0000,0.0000,0.0000,0.0000,0.0000,0.0000,0.0000,0.0000,0.0000,0.0000,0.0000,0.0000,0.0000,0.0000,0.0000,0.0720,0.0000,5.0000,0.6480,2.0480,5.0000,5.0000,5.0000,0.0000,0.0000,0.0000,0.0000,0.0000,0.0000,0.0000,0.0000,0.0000,0.0000,
Thermoanaerobacter tengcongensis MB4 (Caldanaerobacter subterraneus,0.0000,0.0000,0.0000,0.0000,0.0000,0.0080,0.0000,0.0000,0.0000,1.0000,0.0000,0.1925,0.0000,0.0000,0.1925,0.0000,0.0000,0.0000,0.0000,0.0000,0.0000,0.0000,0.0000,0.0000,0.0000,0.0000,0.0000,0.0000,0.0000,0.0000,0.0000,0.0000,0.0000,0.0000,0.0000,0.0000,0.0000,0.0000,0.0000,0.0000,0.1925,0.0000,0.0000,0.0000,0.0000,0.0000,0.0000,0.0000,0.0000,0.0000,0.0000,0.0000,0.0000,0.0000,0.0000,0.0000,1.0000,0.0000,0.0000,0.0000,0.0000,0.0000,0.0080,0.0000,0.0000,0.0000,0.0000,0.0000,0.0000,0.0000,0.0000,0.0000,1.4142,0.0000,0.0000,0.0000,0.0080,0.0000,0.0000,0.0000,0.0000,0.0000,0.0000,0.0000,0.0000,0.0000,0.0000,0.0000,0.0000,0.0000,0.0000,3.2000,4.6080,5.0000,0.8000,4.6080,5.0000,1.5680,0.0000,0.0000,0.0000,0.0000,0.0000,0.0000,0.0000,0.0000,
Thermoanaerobacter wiegelii Rt8.B1,0.0000,0.0000,0.0000,0.0000,0.0000,0.0000,0.0000,0.0000,0.0000,3.8730,0.0000,0.6480,0.0000,0.0000,0.6480,0.0000,0.0000,0.0000,0.0000,0.0000,0.0000,0.0000,0.0000,0.0000,0.0680,0.0000,0.0000,0.0000,0.0172,0.0000,0.0000,0.0000,0.0680,0.0000,0.0000,0.0000,0.0000,0.0000,1.0000,0.0000,0.0000,0.0000,0.0000,0.0000,0.0680,1.0000,0.0000,0.0680,0.0000,0.0000,0.0000,0.0000,0.0000,0.0000,0.0000,0.0000,1.0000,0.0000,0.0000,0.0680,0.0000,0.0680,0.0000,0.0000,0.0000,0.0000,0.0000,0.0000,1.7010,0.1280,0.0000,0.0000,1.7010,0.0000,0.0000,0.0000,0.0000,0.0000,0.0000,0.0000,0.0000,0.0000,0.0000,0.0000,0.0000,0.0000,0.0000,0.0000,0.0720,0.0000,5.0000,0.9680,1.5680,5.0000,0.0000,5.0000,0.0000,5.0000,0.0000,0.0000,0.0000,0.0000,0.0000,0.0000,0.0000,0.0000,
Vulcanisaeta distributa DSM 14429,0.0000,0.0000,0.0000,0.0000,0.0000,0.0000,0.0000,0.0000,0.0000,0.0000,0.0000,0.0000,0.0000,0.0000,0.0000,0.0000,0.0000,0.0000,0.0000,0.0000,0.0000,0.0000,0.0000,0.0000,0.0000,0.0000,0.0000,0.0000,0.0000,0.0000,0.0000,0.0000,0.0000,0.0000,0.0000,0.0000,0.0000,0.0000,0.0000,0.0000,0.0000,0.0000,0.0000,0.0000,0.0000,0.0000,0.0000,0.0000,0.0000,0.0000,0.0000,0.0000,0.0000,0.0000,0.0000,0.0000,0.0000,0.0000,0.0000,0.0000,0.0000,0.0000,0.0000,0.0000,0.0000,0.0000,0.0000,0.0000,0.0000,0.0000,0.0000,0.0000,0.0000,0.0000,0.0000,0.0000,0.0000,0.0000,0.0000,0.0000,0.0000,0.0000,0.0000,0.0000,0.0000,1.0000,0.0000,0.0000,0.0000,0.0000,0.0000,0.0000,0.0000,0.0000,0.0000,0.0000,0.0000,0.0000,5.0000,5.0000,0.0000,0.0000,0.0000,0.0000,0.0000,0.0000,
Vulcanisaeta moutnovskia 768-28,0.0000,0.0000,0.0000,0.0000,0.0000,0.0000,0.0000,0.0000,0.0000,0.0000,0.0000,0.0000,0.0000,0.0000,0.0000,0.0000,0.0000,0.0000,0.0000,0.0000,0.0000,0.0000,0.0000,0.0000,0.0000,0.0000,0.0000,0.0000,0.0000,0.0000,0.0000,0.0000,0.0000,0.0000,0.0000,0.0000,0.0000,0.0000,0.0000,0.0000,0.0000,0.0000,0.0000,0.0000,0.0000,0.0000,0.0000,0.0000,0.0000,0.0000,0.0000,0.0000,0.0000,0.0000,0.0000,0.0000,0.0000,0.0000,0.0000,0.0000,0.0000,0.0000,0.0000,0.0000,0.0000,0.0000,0.0000,0.0000,0.0000,0.0000,0.0000,1.0000,0.0000,0.0000,3.0000,0.0000,0.0000,0.0000,0.0000,0.0000,0.0000,0.0000,0.0000,0.0000,1.4142,1.4142,0.0000,0.0000,0.0000,0.0000,0.0000,0.0000,0.0000,0.0000,0.0000,0.0000,0.0000,0.0000,4.3589,5.0000,0.0000,0.0000,0.0000,0.0000,0.0000,0.0000,
Xylella fastidiosa 9a5c,0.0000,0.0000,0.0000,0.0000,0.0000,0.0000,0.0000,0.0000,0.0000,0.0000,0.0000,0.0000,1.0000,0.0000,0.0000,0.0000,0.0000,0.0000,0.0000,0.0000,0.0000,0.0000,0.0000,0.0000,0.0000,0.0000,0.0000,0.0000,0.0000,0.0000,0.0000,0.0000,0.0000,0.0000,0.0000,0.0000,0.0000,0.0000,0.0000,0.0000,0.0000,0.0000,0.0000,0.0000,0.0000,0.0000,0.0000,0.0000,0.0000,0.0000,0.0000,0.0000,0.0000,0.0000,0.0000,0.0000,0.0000,0.0000,0.0000,0.0000,0.0000,0.0000,0.0000,0.0000,0.0000,0.0000,0.0000,1.0000,0.0000,0.0000,0.0000,0.0000,0.0000,0.0000,0.0000,0.0000,0.0000,0.0000,0.0000,0.0000,1.0000,0.0000,0.0000,0.0000,0.0000,0.0000,0.0000,0.0000,0.0000,0.0000,0.0000,0.0000,0.0000,0.0000,0.0000,0.0000,0.0000,0.0000,0.0000,0.0000,5.0000,3.2000,5.0000,0.2000,0.0000,0.0000,
Xylella fastidiosa M12,0.0000,0.0000,0.0000,0.0000,0.0000,0.0000,0.0000,0.0000,0.0000,0.0000,0.0000,0.0000,0.0000,0.0000,0.0000,0.0000,0.0000,0.0000,0.0000,0.0000,0.0000,0.0000,0.0000,0.0000,0.3536,1.0000,1.0000,0.0000,0.0000,0.3536,1.0000,1.0000,0.3536,0.0000,0.0000,0.0000,1.0000,0.0000,1.0000,0.0000,0.0000,1.0000,1.0000,0.0000,0.3536,1.0000,1.0000,0.3536,1.0000,0.0000,0.0000,0.0000,0.0000,0.0000,0.0000,1.0000,1.0000,0.0000,0.0000,0.3536,0.0000,0.3536,1.0000,0.3536,0.0000,0.0000,0.0000,0.0000,0.0000,0.0000,0.0000,0.0000,0.3536,0.3536,0.0000,0.0000,0.0000,0.0000,0.0000,0.0000,0.3536,0.0000,0.0000,0.0000,0.0000,0.0000,0.0000,0.0000,0.0000,0.0000,0.0000,0.0000,0.0000,0.0000,0.0000,0.0000,0.0000,0.0000,0.0000,0.0000,0.8000,5.0000,5.0000,0.0000,1.8000,0.0000,
Xylella fastidiosa M23,0.0000,0.0000,0.0000,0.1925,0.3536,0.0000,0.1925,0.1925,0.3536,0.0000,0.3536,0.0000,0.3536,0.0000,0.0000,0.0000,0.0000,0.0000,0.0000,0.0000,0.1925,0.0000,0.1925,0.0000,1.0000,0.3536,0.3536,0.0000,0.0000,0.1925,0.3536,0.3536,1.0000,0.0000,0.0000,0.0000,0.3536,0.0000,1.0000,0.0000,0.0000,0.3536,0.1925,0.0000,0.1925,1.0000,0.3536,1.0000,0.3536,0.0000,0.0000,0.0000,0.0000,0.0000,0.0000,0.3536,1.0000,0.0000,0.0000,0.1925,0.0000,0.1925,0.1925,0.1925,0.0000,0.0000,0.0000,0.1925,0.0000,0.0000,0.0000,0.0000,0.0000,0.0000,0.0000,0.0000,0.0000,0.0000,0.0000,0.0000,0.1925,0.0000,0.0000,0.0000,0.0000,0.0000,0.0000,0.0000,0.0000,0.0000,0.0000,0.0000,0.0000,0.0000,0.0000,0.0000,0.0000,0.0000,0.0000,0.0000,0.0000,0.0000,5.0000,5.0000,5.0000,0.0000,
Xylella fastidiosa Temecula1,0.0000,0.0000,0.0000,0.0000,0.0000,0.0000,0.0000,0.0000,0.0000,0.0000,0.0000,0.0000,0.0000,0.0000,0.0000,0.0000,0.0000,0.0000,0.0000,0.0000,1.0000,0.0000,0.3536,0.0000,0.0000,0.0000,0.0000,0.0000,0.0000,0.0000,0.0000,0.0000,0.0000,0.0000,0.0000,0.0000,0.0000,0.0000,0.0000,0.0000,0.0000,0.0000,0.0000,0.0000,0.0000,0.0000,0.0000,0.0000,0.0000,0.0000,0.0000,0.0000,0.0000,0.0000,0.0000,0.0000,0.0000,0.0000,0.0000,0.0000,0.0000,0.0000,0.0000,0.0000,0.0000,0.0000,0.0000,0.3536,0.0000,0.0000,0.0000,0.0000,0.0000,0.0000,0.0000,0.0000,0.0000,0.0000,0.0000,0.0000,1.0000,0.0000,0.0000,0.0000,0.0000,0.0000,0.0000,0.0000,0.0000,0.0000,0.0000,0.0000,0.0000,0.0000,0.0000,0.0000,0.0000,0.0000,0.0000,0.0000,0.0000,0.0000,5.0000,5.0000,5.0000,0.0000,
Xylella fastidiosa subsp. fastidiosa GB514,0.0000,0.0000,0.0000,0.0000,0.0000,0.0000,0.0000,0.0000,0.0000,0.0000,0.0000,0.0000,0.0000,0.0000,0.0000,0.0000,1.0000,0.0000,0.0000,0.0000,0.0000,0.0000,0.0000,0.0000,0.0000,0.0000,0.0000,0.0000,0.0000,0.0000,0.0000,0.0000,0.0000,0.0000,0.0000,0.0000,0.0000,0.0000,0.0000,0.0000,0.0000,0.0000,0.0000,0.0000,0.0000,0.0000,0.0000,0.0000,0.0000,0.0000,0.0000,0.0000,0.0000,0.0000,0.0000,0.0000,0.0000,0.0000,0.0000,0.0000,0.0000,0.0000,0.0000,0.0000,0.0000,0.0000,0.0000,0.0000,0.0000,0.0000,0.0000,0.0000,0.0000,0.0000,0.0000,0.0000,0.0000,0.0000,0.0000,0.0000,1.0000,0.0000,0.0000,0.0000,1.0000,0.0000,0.0000,0.0000,0.0000,0.0000,0.0000,0.0000,0.0000,0.0000,0.0000,0.0000,0.0000,0.0000,0.0000,0.0000,0.0000,0.0000,5.0000,5.0000,5.0000,0.0000,
Zunongwangia profunda SM-A87,0.0000,0.0000,0.0000,0.0000,0.0000,0.0000,0.0000,0.0000,0.0000,0.0000,0.0000,0.0000,0.0000,0.0000,0.0000,0.0000,0.0000,0.0000,0.0000,0.0000,0.0000,0.0000,0.0000,0.0000,0.0000,0.0000,0.0000,0.0000,0.0000,0.0000,0.0000,0.0000,0.0000,0.0000,0.0000,0.0000,0.0000,0.0000,0.0000,0.0000,0.0000,1.0000,0.0000,0.0000,0.0000,0.0000,0.0000,0.0000,0.0000,0.0000,0.0000,0.0000,0.0000,0.0000,0.0000,0.0000,0.0000,0.0000,0.0000,0.0000,0.0000,0.0000,0.0000,0.0000,0.0000,0.0000,0.0000,0.0000,0.0000,0.0000,0.0000,0.0000,0.0000,0.0000,0.0000,0.0000,0.0000,0.0000,0.0000,0.0000,0.0000,0.0000,0.0000,0.0000,0.0000,0.0000,0.0000,0.0000,0.0000,0.0000,0.0000,0.0000,0.0000,0.0000,0.0000,0.0000,0.0000,0.0000,0.0000,0.0000,0.0000,0.0000,0.0000,0.0000,0.0000,5.0000,

