Depth: 1,62,11,59,5,55,50,5,5,58,77,10,66,5,9,5,5,7,82,9,55
Depth: 2,7,8,57,7,10,8,7,6,6,5,5,6,5,5,9,7,49,5,6,8
Depth: 3,11,6,7,6,7,10,6,52,5,4,5,5,7,8,6,6,6,8,7,6
Depth: 4,7,6,6,13,55,7,5,6,62,7,6,7,8,54,5,6,7,13,56,6
Depth: 5,6,6,6,18,49,7,9,8,8,45,8,8,9,7,11,7,9,9,9,10
Depth: 6,10,9,9,8,8,12,6,5,5,5,8,13,8,9,12,8,45,8,8,9
Depth: 7,13,8,9,9,10,9,8,10,10,12,9,10,8,9,9,11,9,10,11,9
Depth: 8,10,46,8,14,9,10,9,10,9,10,10,12,10,9,8,8,10,10,9,10
Depth: 9,9,6,6,6,6,7,9,9,8,9,9,10,9,10,10,10,9,11,11,9
Depth: 10,9,9,10,9,8,9,10,14,11,10,10,9,11,13,9,10,9,8,10,11
Depth: 11,11,11,11,10,9,12,10,9,10,10,11,12,11,11,9,8,9,13,10,10
Depth: 12,10,11,10,13,9,9,12,11,12,9,10,10,10,11,12,10,12,10,12,12
Depth: 13,12,13,9,9,10,12,9,10,11,13,10,9,11,12,11,9,9,11,13,10
Depth: 14,11,11,10,14,10,10,10,12,15,12,11,8,11,12,11,11,11,14,12,10
Depth: 15,10,10,12,10,10,10,11,12,12,10,12,9,10,10,9,8,9,10,9,11
Depth: 16,11,12,12,13,11,11,10,14,10,12,9,10,12,12,9,10,11,11,11,13
Depth: 17,13,12,10,17,11,10,12,15,12,11,9,12,10,8,10,11,11,11,10,13
Depth: 18,11,11,12,10,11,12,12,10,12,10,12,10,11,13,12,11,12,11,13,13
Depth: 19,11,12,12,13,14,10,12,11,14,13,13,12,11,10,13,11,12,11,13,10
Depth: 20,12,10,12,11,12,14,14,11,12,12,14,13,12,11,14,13,13,10,13,10
Depth: 21,13,14,12,14,15,13,11,15,11,14,14,10,11,12,13,13,13,12,13,13
Depth: 22,14,12,13,15,10,11,12,12,11,15,13,14,13,13,12,13,12,10,16,11
Depth: 23,13,15,12,15,13,12,11,15,14,15,14,12,15,12,14,13,15,10,13,12
Depth: 24,13,15,14,15,12,13,14,10,12,12,13,11,13,11,16,11,13,12,12,15
Depth: 25,17,14,12,15,10,14,12,14,16,14,14,15,12,18,13,13,15,12,16,14
Depth: 26,12,18,14,16,14,12,17,14,12,13,15,15,15,15,16,14,14,13,12,16
Depth: 27,12,14,16,14,16,14,18,13,15,14,13,14,14,15,12,11,15,14,18,11
Depth: 28,14,13,12,15,13,15,13,12,14,13,15,13,11,16,14,13,12,15,14,13
Depth: 29,17,12,19,14,14,14,15,16,15,17,14,15,13,12,17,13,13,13,16,13
Depth: 30,17,15,15,18,15,18,12,14,14,14,14,13,14,13,15,15,14,14,16,15
Depth: 31,16,14,18,12,16,14,15,15,17,15,13,16,15,16,14,16,16,16,15,18
Depth: 32,15,17,14,17,16,14,13,13,16,16,14,14,18,14,16,15,15,13,16,14
Depth: 33,15,16,15,13,17,16,15,13,21,18,15,17,16,15,17,15,15,15,16,13
Depth: 34,15,13,19,14,20,14,17,17,17,15,17,14,16,14,17,17,18,16,16,16
Depth: 35,15,16,18,16,18,16,15,15,15,16,18,15,13,17,14,17,16,15,14,17
Depth: 36,17,17,16,14,17,16,17,14,16,16,17,15,16,16,16,19,15,17,15,17
Depth: 37,17,15,13,18,17,17,18,15,16,16,17,14,14,17,13,16,18,16,15,17
Depth: 38,16,17,16,17,19,14,17,17,17,18,15,19,16,18,17,15,15,17,17,16
Depth: 39,17,18,18,17,16,18,17,17,17,16,16,15,17,18,15,21,19,17,17,16
Depth: 40,15,15,18,17,15,17,16,17,17,17,18,15,17,17,14,18,15,17,17,16
Depth: 41,20,15,20,20,17,17,19,15,19,16,19,17,15,17,15,18,16,17,19,19
Depth: 42,17,18,16,18,17,16,18,17,14,17,17,21,17,15,18,17,19,17,15,18
Depth: 43,19,16,20,19,16,18,17,16,17,18,16,22,17,15,18,18,18,20,17,17
Depth: 44,18,16,20,17,17,17,18,18,19,20,18,20,18,18,18,17,17,19,18,15
Depth: 45,19,20,19,17,20,17,16,21,16,20,18,18,18,21,18,17,17,19,16,18
Depth: 46,17,19,17,18,17,21,19,16,18,19,18,17,17,19,18,20,21,20,18,21
Depth: 47,18,18,22,20,16,19,19,19,22,17,19,18,18,18,16,19,20,21,18,18
Depth: 48,22,19,21,19,21,20,18,17,19,21,20,18,18,18,19,18,19,19,20,18
Depth: 49,19,19,19,20,21,20,16,20,19,19,19,22,21,20,18,19,18,20,19,19
Depth: 50,19,20,19,20,22,21,18,19,19,20,17,21,19,20,19,22,19,19,18,18
Depth: 1,1497,91,1124,86,1150,1197,104,81,825,2017,100,920,94,112,88,106,103,1810,106,1000
Depth: 2,83,126,2189,107,119,107,99,106,98,106,127,95,134,112,90,102,1667,105,133,94
Depth: 3,122,93,84,133,122,120,100,1283,107,112,97,99,104,105,135,116,124,127,97,129
Depth: 4,133,100,128,222,2142,141,124,142,1365,150,138,148,129,1285,152,107,125,380,1634,138
Depth: 5,123,125,122,610,1773,102,114,160,142,1984,143,147,152,110,111,172,122,136,129,143
Depth: 6,128,161,116,142,143,147,146,135,130,128,133,533,165,156,137,135,1683,156,140,131
Depth: 7,182,171,140,132,155,137,152,125,119,139,161,180,159,146,147,147,156,179,155,145
Depth: 8,140,1683,169,160,177,177,160,155,141,162,170,127,159,173,200,165,178,179,153,189
Depth: 9,203,213,168,188,166,173,140,147,155,153,140,209,163,175,194,160,170,148,171,142
Depth: 10,164,187,190,155,174,187,196,181,171,186,189,186,162,152,167,167,207,183,184,186
Depth: 11,180,197,177,162,228,201,152,225,146,184,190,200,225,186,183,241,188,162,229,197
Depth: 12,202,211,208,188,173,185,185,214,205,173,252,204,175,198,206,169,259,207,196,192
Depth: 13,232,219,234,195,183,236,239,210,181,225,188,172,191,245,207,197,214,192,215,171
Depth: 14,231,182,227,228,223,217,214,200,199,189,194,175,218,248,206,238,233,208,194,271
Depth: 15,224,227,229,213,191,224,188,194,231,189,213,230,229,191,199,218,243,287,242,225
Depth: 16,272,253,231,225,233,217,209,284,248,213,214,254,251,245,191,244,264,256,254,271
Depth: 17,269,292,257,243,266,226,235,229,255,224,227,224,293,287,229,258,235,237,210,241
Depth: 18,196,227,243,250,240,245,255,256,224,226,246,256,212,234,289,281,264,298,206,222
Depth: 19,331,279,289,254,307,260,297,239,276,317,320,265,283,276,250,256,225,297,265,250
Depth: 20,242,260,267,240,230,292,281,228,316,326,325,262,238,300,279,276,259,311,276,278
Depth: 21,284,317,281,248,266,336,304,295,246,297,290,277,270,274,310,241,310,277,282,269
Depth: 22,278,267,284,311,245,268,288,286,312,233,317,263,249,304,269,325,293,263,252,305
Depth: 23,284,317,279,323,281,269,233,347,324,268,342,286,298,248,320,392,334,313,301,323
Depth: 24,275,335,348,293,300,321,353,242,333,344,344,312,325,341,328,359,297,288,269,289
Depth: 25,376,340,325,298,321,324,299,283,314,314,368,328,307,305,328,296,307,291,261,352
Depth: 26,321,345,378,361,332,322,317,301,324,331,321,322,323,343,377,357,360,373,354,326
Depth: 27,367,369,399,349,330,321,405,338,375,358,292,354,321,340,315,379,366,316,348,362
Depth: 28,375,383,317,277,328,299,334,335,379,354,356,340,333,400,355,320,340,324,350,349
Depth: 29,379,368,322,364,393,337,387,386,375,346,372,381,334,394,428,376,417,325,374,283
Depth: 30,348,400,361,388,374,371,327,390,323,379,398,396,399,375,328,418,333,341,397,362
Depth: 31,385,383,365,357,373,410,350,357,424,413,410,421,374,361,458,373,367,356,354,350
Depth: 32,356,419,424,397,357,403,334,388,372,449,364,368,373,336,393,473,412,409,379,377
Depth: 33,446,393,377,394,422,381,342,439,376,383,370,339,369,468,400,326,388,441,345,422
Depth: 34,427,423,399,357,390,408,429,428,363,365,412,369,482,399,380,420,402,447,391,437
Depth: 35,468,372,409,410,397,456,363,405,342,454,423,434,462,488,417,424,495,458,425,380
Depth: 36,474,417,441,436,418,513,403,445,357,431,419,454,362,370,380,430,396,405,391,437
Depth: 37,526,509,450,422,397,406,462,408,415,428,405,456,428,402,415,490,453,465,491,486
Depth: 38,450,410,500,475,392,532,397,446,442,431,372,478,485,550,468,416,461,432,406,425
Depth: 39,519,424,425,521,482,419,440,494,480,506,448,497,418,411,426,441,464,470,400,476
Depth: 40,458,455,481,516,519,507,480,468,393,470,509,444,449,522,418,491,407,430,464,459
Depth: 41,454,592,467,472,559,461,469,498,498,510,503,474,496,461,474,438,387,499,482,480
Depth: 42,541,559,408,435,548,440,485,538,521,476,570,531,521,471,405,496,496,506,512,515
Depth: 43,523,483,483,486,473,441,495,520,572,486,426,487,413,464,567,455,564,556,439,561
Depth: 44,511,460,512,451,467,514,532,499,506,509,476,509,411,580,573,542,500,474,521,499
Depth: 45,478,448,514,488,579,488,485,484,485,563,544,522,533,550,482,547,539,503,476,524
Depth: 46,555,497,504,486,571,461,469,523,521,518,480,583,472,529,495,503,508,509,505,528
Depth: 47,572,578,529,510,485,518,507,421,594,573,449,577,503,534,498,507,593,516,572,522
Depth: 48,558,567,540,529,526,510,530,620,633,575,581,580,548,531,537,549,531,546,547,541
Depth: 49,536,573,552,538,560,502,495,423,542,455,590,548,637,619,523,549,529,601,568,571
Depth: 50,539,557,559,526,566,611,613,554,546,606,492,625,621,538,544,531,573,552,608,610
