Depth: 1,3,3,1
Depth: 2,3,3,2
Depth: 3,4,4,3
Depth: 4,4,5,4
Depth: 5,5,6,4
Depth: 6,5,12,6
Depth: 7,7,6,6
Depth: 8,5,5,6
Depth: 9,6,13,6
Depth: 10,6,6,6
Depth: 11,7,6,7
Depth: 12,13,5,5
Depth: 13,7,6,7
Depth: 14,8,15,7
Depth: 15,6,7,7
Depth: 16,7,15,8
Depth: 17,8,7,7
Depth: 18,13,7,9
Depth: 19,6,6,11
Depth: 20,7,6,8
Depth: 21,12,7,8
Depth: 22,8,14,8
Depth: 23,7,7,12
Depth: 24,9,8,7
Depth: 25,13,9,9
Depth: 1,1,1,1
Depth: 2,1,1,1
Depth: 3,2,2,7
Depth: 4,3,2,2
Depth: 5,3,2,2
Depth: 6,3,3,3
Depth: 7,3,3,3
Depth: 8,3,8,3
Depth: 9,3,3,3
Depth: 10,4,4,4
Depth: 11,4,8,4
Depth: 12,4,4,4
Depth: 13,5,5,9
Depth: 14,5,5,4
Depth: 15,5,6,11
Depth: 16,6,5,6
Depth: 17,5,5,12
Depth: 18,6,6,6
Depth: 19,6,14,7
Depth: 20,7,6,14
Depth: 21,7,8,9
Depth: 22,14,8,9
Depth: 23,13,9,7
Depth: 24,13,8,8
Depth: 25,14,8,9
