Depth: 1,3,3,4
Depth: 2,4,5,5
Depth: 3,4,4,5
Depth: 4,5,4,4
Depth: 5,11,5,4
Depth: 6,4,4,5
Depth: 7,5,5,5
Depth: 8,11,5,5
Depth: 9,5,5,4
Depth: 10,5,5,4
Depth: 11,5,6,5
Depth: 12,11,5,4
Depth: 13,6,5,5
Depth: 14,6,6,4
Depth: 15,5,10,6
Depth: 16,6,4,5
Depth: 17,4,5,5
Depth: 18,9,5,4
Depth: 19,6,5,4
Depth: 20,5,5,5
Depth: 21,16,6,7
Depth: 22,5,6,5
Depth: 23,6,10,5
Depth: 24,6,7,6
Depth: 25,6,14,6
Depth: 26,7,6,7
Depth: 27,7,13,7
Depth: 28,7,6,8
Depth: 29,7,13,7
Depth: 30,7,8,8
Depth: 31,15,7,7
Depth: 32,8,7,7
Depth: 33,13,7,8
Depth: 34,8,11,7
Depth: 35,8,9,9
Depth: 36,13,8,10
Depth: 37,8,8,12
Depth: 38,9,8,8
Depth: 39,13,8,8
Depth: 40,7,11,8
Depth: 41,9,8,16
Depth: 42,9,10,8
Depth: 43,18,8,8
Depth: 44,9,15,8
Depth: 45,10,15,10
Depth: 46,9,11,16
Depth: 47,9,10,8
Depth: 48,13,10,10
Depth: 49,15,9,9
Depth: 50,10,14,9
Depth: 1,3,1,1
Depth: 2,2,1,2
Depth: 3,2,2,2
Depth: 4,2,2,2
Depth: 5,2,2,2
Depth: 6,2,8,2
Depth: 7,3,3,3
Depth: 8,3,3,3
Depth: 9,3,2,3
Depth: 10,3,3,3
Depth: 11,4,4,10
Depth: 12,4,3,4
Depth: 13,4,4,3
Depth: 14,4,4,4
Depth: 15,4,12,3
Depth: 16,3,4,4
Depth: 17,3,4,4
Depth: 18,4,10,4
Depth: 19,5,4,4
Depth: 20,5,4,4
Depth: 21,5,9,5
Depth: 22,5,5,5
Depth: 23,5,5,9
Depth: 24,5,5,4
Depth: 25,6,5,6
Depth: 26,10,6,6
Depth: 27,5,5,5
Depth: 28,11,6,5
Depth: 29,6,6,6
Depth: 30,9,5,6
Depth: 31,5,6,14
Depth: 32,7,7,6
Depth: 33,7,11,6
Depth: 34,7,7,6
Depth: 35,13,7,6
Depth: 36,7,7,11
Depth: 37,8,9,7
Depth: 38,7,12,8
Depth: 39,8,8,12
Depth: 40,8,8,10
Depth: 41,18,8,8
Depth: 42,8,12,7
Depth: 43,8,9,15
Depth: 44,8,8,8
Depth: 45,13,9,7
Depth: 46,8,12,10
Depth: 47,9,13,9
Depth: 48,9,9,16
Depth: 49,9,9,14
Depth: 50,10,9,14
