Depth: 1,5,5,6
Depth: 2,5,6,3
Depth: 3,3,4,4
Depth: 4,4,4,5
Depth: 5,4,3,4
Depth: 6,4,4,4
Depth: 7,4,5,6
Depth: 8,5,7,4
Depth: 9,18,5,4
Depth: 10,4,4,4
Depth: 11,5,5,5
Depth: 12,5,5,4
Depth: 13,4,4,5
Depth: 14,6,4,4
Depth: 15,4,5,14
Depth: 16,5,5,5
Depth: 17,4,5,5
Depth: 18,4,5,4
Depth: 19,5,6,4
Depth: 20,14,5,4
Depth: 21,6,5,5
Depth: 22,5,5,5
Depth: 23,5,5,14
Depth: 24,6,6,6
Depth: 25,5,6,5
Depth: 26,6,6,6
Depth: 27,16,8,8
Depth: 28,7,6,6
Depth: 29,7,6,16
Depth: 30,6,7,8
Depth: 31,8,9,8
Depth: 32,7,17,6
Depth: 33,8,9,8
Depth: 34,6,7,11
Depth: 35,7,8,7
Depth: 36,8,9,7
Depth: 37,14,7,6
Depth: 38,7,7,8
Depth: 39,14,7,8
Depth: 40,8,8,8
Depth: 41,14,8,9
Depth: 42,8,7,10
Depth: 43,13,8,7
Depth: 44,9,9,20
Depth: 45,8,9,8
Depth: 46,8,9,17
Depth: 47,8,9,10
Depth: 48,9,15,8
Depth: 49,11,7,14
Depth: 50,10,10,9
Depth: 1,2,1,1
Depth: 2,1,2,1
Depth: 3,3,2,2
Depth: 4,2,2,2
Depth: 5,2,2,2
Depth: 6,3,2,2
Depth: 7,2,3,3
Depth: 8,12,3,3
Depth: 9,3,3,3
Depth: 10,3,3,5
Depth: 11,4,6,5
Depth: 12,4,3,3
Depth: 13,3,3,3
Depth: 14,4,4,4
Depth: 15,13,3,4
Depth: 16,3,4,3
Depth: 17,4,4,4
Depth: 18,4,4,4
Depth: 19,4,4,9
Depth: 20,4,4,5
Depth: 21,5,4,4
Depth: 22,4,5,4
Depth: 23,3,9,5
Depth: 24,6,4,4
Depth: 25,5,4,4
Depth: 26,4,5,11
Depth: 27,5,4,5
Depth: 28,6,7,6
Depth: 29,6,10,6
Depth: 30,5,4,5
Depth: 31,6,5,6
Depth: 32,10,6,6
Depth: 33,5,5,6
Depth: 34,6,12,6
Depth: 35,5,6,7
Depth: 36,6,6,13
Depth: 37,6,6,6
Depth: 38,7,5,13
Depth: 39,6,7,6
Depth: 40,7,7,14
Depth: 41,8,8,7
Depth: 42,8,7,12
Depth: 43,10,6,7
Depth: 44,7,9,13
Depth: 45,7,8,7
Depth: 46,7,12,7
Depth: 47,7,9,8
Depth: 48,13,9,9
Depth: 49,7,8,14
Depth: 50,8,8,8
