%!PS-Adobe-3.0 EPSF-3.0 
%%BoundingBox: 0 0 754 255
%%Pages: 0
%%Creator: Sun Microsystems, Inc.
%%Title: none
%%CreationDate: none
%%LanguageLevel: 2
%%EndComments
%%BeginProlog
%%BeginResource: procset SDRes-Prolog 1.0 0
/b4_inc_state save def
/dict_count countdictstack def
/op_count count 1 sub def
userdict begin
0 setgray 0 setlinecap 1 setlinewidth 0 setlinejoin 10 setmiterlimit[] 0 setdash newpath
/languagelevel where {pop languagelevel 1 ne {false setstrokeadjust false setoverprint} if} if
/bdef {bind def} bind def
/c {setrgbcolor} bdef
/l {neg lineto} bdef
/rl {neg rlineto} bdef
/lc {setlinecap} bdef
/lj {setlinejoin} bdef
/lw {setlinewidth} bdef
/ml {setmiterlimit} bdef
/ld {setdash} bdef
/m {neg moveto} bdef
/ct {6 2 roll neg 6 2 roll neg 6 2 roll neg curveto} bdef
/r {rotate} bdef
/t {neg translate} bdef
/s {scale} bdef
/sw {show} bdef
/gs {gsave} bdef
/gr {grestore} bdef
/f {findfont dup length dict begin
{1 index /FID ne {def} {pop pop} ifelse} forall /Encoding ISOLatin1Encoding def
currentdict end /NFont exch definefont pop /NFont findfont} bdef
/p {closepath} bdef
/sf {scalefont setfont} bdef
/ef {eofill}bdef
/pc {closepath stroke}bdef
/ps {stroke}bdef
/pum {matrix currentmatrix}bdef
/pom {setmatrix}bdef
/bs {/aString exch def /nXOfs exch def /nWidth exch def currentpoint nXOfs 0 rmoveto pum nWidth aString stringwidth pop div 1 scale aString show pom moveto} bdef
%%EndResource
%%EndProlog
%%BeginSetup
%%EndSetup
%%Page: 1 1
%%BeginPageSetup
%%EndPageSetup
pum
0.02835 0.02837 s 
0 -8988 t
/tm matrix currentmatrix def
tm setmatrix
13298 4494 t 
1 1 s 

1.000 1.000 1.000 c -1 4493 m  -13298 4493 l  -13298 -4494 l  13297 -4494 l 
13297 4493 l  -1 4493 l  p ef



0 lw 1 lj 0.703 0.703 0.703 c -275 2686 m  -10023 2686 l  -10023 -2663 l 
9473 -2663 l  9473 2686 l  -275 2686 l  pc
9473 2685 m  -10023 2685 l  ps
9473 1920 m  -10023 1920 l  ps
9473 1156 m  -10023 1156 l  ps
9473 392 m  -10023 392 l  ps
9473 -372 m  -10023 -372 l  ps
9473 -1136 m  -10023 -1136 l  ps
9473 -1900 m  -10023 -1900 l  ps
9473 -2665 m  -10023 -2665 l  ps

-10023 2835 m  -10023 2685 l  ps
-10023 2835 m  -10023 2685 l  ps
-5149 2835 m  -5149 2685 l  ps
-5149 2835 m  -5149 2685 l  ps
-275 2835 m  -275 2685 l  ps
-275 2835 m  -275 2685 l  ps
4598 2835 m  4598 2685 l  ps
4598 2835 m  4598 2685 l  ps
9473 2835 m  9473 2685 l  ps
9473 2835 m  9473 2685 l  ps
-10023 2685 m  9473 2685 l  ps
-10173 2685 m  -10023 2685 l  ps
-10173 2685 m  -10023 2685 l  ps
-10173 1920 m  -10023 1920 l  ps
-10173 1920 m  -10023 1920 l  ps
-10173 1156 m  -10023 1156 l  ps
-10173 1156 m  -10023 1156 l  ps
-10173 392 m  -10023 392 l  ps
-10173 392 m  -10023 392 l  ps
-10173 -372 m  -10023 -372 l  ps
-10173 -372 m  -10023 -372 l  ps
-10173 -1136 m  -10023 -1136 l  ps
-10173 -1136 m  -10023 -1136 l  ps
-10173 -1900 m  -10023 -1900 l  ps
-10173 -1900 m  -10023 -1900 l  ps
-10173 -2664 m  -10023 -2664 l  ps
-10173 -2664 m  -10023 -2664 l  ps
-10023 2685 m  -10023 -2665 l  ps
80 lw 1.000 0.828 0.128 c -10023 -2193 m  -8556 -362 l  -7698 143 l  -7089 399 l 
-6617 -212 l  -6231 724 l  -5904 966 l  -5622 801 l  -5372 314 l  -5149 1104 l 
-4947 1373 l  -4763 1725 l  -4594 1920 l  -4437 1889 l  ps
1.000 0.261 0.058 c -8556 -803 m  -7698 -3 l  -7089 390 l  -6617 -223 l 
-6231 684 l  -5904 923 l  -5622 796 l  -5372 286 l  -5149 984 l  -4947 1198 l 
-4763 1360 l  -4594 1444 l  -4437 1674 l  -4291 1920 l  -4154 2685 l  -4026 2320 l 
-3682 2320 l  -3579 2685 l  -3210 2685 l  -3047 2685 l  ps
0.003 0.273 0.527 c -10023 -1400 m  -8556 -1207 l  -7698 -1042 l  -7089 -905 l 
-6617 -798 l  -6231 -681 l  -5904 -582 l  -5622 -486 l  -5372 -402 l  -5149 -331 l 
-4947 -253 l  -4763 -180 l  -4594 -109 l  -4437 -58 l  -4291 9 l  -4154 69 l 
-4026 136 l  -3905 181 l  -3791 242 l  -3682 279 l  -3579 324 l  -3480 411 l 
-3386 418 l  -3296 469 l  -3210 503 l  -3127 558 l  -3047 593 l  -2970 596 l 
-2895 647 l  -2824 663 l  -2754 732 l  -2687 746 l  -2622 801 l  -2559 819 l 
-2497 852 l  -2438 891 l  -2380 910 l  -2323 980 l  -2268 970 l  -2215 1066 l 
-2162 1077 l  -2111 1037 l  -2062 1101 l  -2013 1124 l  -1965 1202 l  -1919 1187 l 
-1873 1289 l  -1829 1243 l  -1785 1274 l  -1742 1299 l  -1700 1325 l  -1659 1360 l 
-1619 1421 l  -1579 1386 l  -1541 1477 l  -1502 1373 l  -1465 1460 l  -1428 1495 l 
-1392 1534 l  -1356 1460 l  -1321 1556 l  -1287 1630 l  -1253 1630 l  -1220 1616 l 
-1187 1690 l  -1155 1591 l  -1123 1786 l  -1091 1744 l  -1060 1674 l  -1030 1674 l 
-1000 1955 l  -970 1786 l  -941 1889 l  -912 1786 l  -884 1860 l  -856 1764 l 
-828 1833 l  -801 1809 l  -774 2090 l  -747 1920 l  -721 1955 l  -695 1833 l 
-669 1955 l  -644 1889 l  -619 2150 l  -594 2454 l  -570 2150 l  -546 2150 l 
-522 2224 l  -498 2039 l  -475 2320 l  -452 2454 l  -429 2150 l  -406 2090 l 
-384 2454 l  -361 2454 l  -339 2454 l  -318 2320 l  -296 2454 l  -275 2150 l 
-233 2685 l  -212 2685 l  -192 2454 l  -172 2685 l  -152 2454 l  -132 2454 l 
-93 2454 l  -73 2685 l  1 2685 l  38 2685 l  110 2685 l  162 2685 l  230 2685 l 
296 2685 l  652 2685 l  ps
0.343 0.617 0.113 c -10023 1955 m  -8556 1659 l  -7698 1524 l  -7089 1325 l 
-6617 1348 l  -6231 1304 l  -5904 1173 l  -5622 1230 l  -5372 1226 l  -5149 1163 l 
-4947 1198 l  -4763 1115 l  -4594 1098 l  -4437 1118 l  -4291 1169 l  -4154 1101 l 
-4026 1124 l  -3905 1133 l  -3791 1112 l  -3682 1110 l  -3579 1153 l  -3480 1085 l 
-3386 1130 l  -3296 1047 l  -3210 1133 l  -3127 1085 l  -3047 1074 l  -2970 1112 l 
-2895 1082 l  -2824 1110 l  -2754 1133 l  -2687 1137 l  -2622 1110 l  -2559 1115 l 
-2497 1074 l  -2438 1074 l  -2380 1098 l  -2323 1087 l  -2268 1061 l  -2215 1090 l 
-2162 1121 l  -2111 1115 l  -2062 1107 l  -2013 1153 l  -1965 1107 l  -1919 1206 l 
-1873 1028 l  -1829 1146 l  -1785 1195 l  -1742 1127 l  -1700 1184 l  -1659 1130 l 
-1619 1210 l  -1579 1214 l  -1541 1210 l  -1502 1173 l  -1465 1176 l  -1428 1222 l 
-1392 1247 l  -1356 1234 l  -1321 1149 l  -1287 1315 l  -1253 1187 l  -1220 1166 l 
-1187 1238 l  -1155 1260 l  -1123 1149 l  -1091 1279 l  -1060 1143 l  -1030 1260 l 
-1000 1153 l  -970 1230 l  -941 1289 l  -912 1247 l  -884 1284 l  -856 1218 l 
-828 1274 l  -801 1270 l  -774 1325 l  -747 1294 l  -721 1226 l  -695 1247 l 
-669 1270 l  -644 1279 l  -619 1343 l  -594 1309 l  -570 1260 l  -546 1379 l 
-522 1337 l  -498 1373 l  -475 1354 l  -452 1367 l  -429 1289 l  -406 1386 l 
-384 1325 l  -361 1294 l  -339 1354 l  -318 1436 l  -296 1360 l  -275 1393 l 
-254 1309 l  -233 1309 l  -212 1354 l  -192 1407 l  -172 1379 l  -152 1407 l 
-132 1331 l  -112 1400 l  -93 1468 l  -73 1325 l  -54 1343 l  -35 1360 l 
-16 1360 l  1 1354 l  20 1407 l  38 1407 l  56 1373 l  74 1407 l  92 1367 l 
110 1436 l  128 1421 l  145 1386 l  162 1444 l  179 1320 l  196 1360 l 
213 1428 l  230 1428 l  247 1386 l  263 1421 l  279 1477 l  296 1444 l 
312 1436 l  328 1393 l  344 1400 l  359 1452 l  375 1337 l  390 1444 l 
406 1545 l  421 1436 l  436 1428 l  451 1436 l  466 1407 l  481 1495 l 
496 1495 l  511 1414 l  525 1578 l  540 1578 l  554 1460 l  568 1486 l 
582 1567 l  596 1407 l  610 1468 l  624 1495 l  638 1545 l  652 1477 l 
665 1504 l  679 1436 l  692 1591 l  706 1534 l  719 1504 l  732 1524 l 
745 1578 l  758 1436 l  771 1524 l  784 1514 l  797 1545 l  810 1504 l 
822 1545 l  835 1578 l  847 1556 l  860 1545 l  872 1644 l  884 1524 l 
896 1567 l  909 1514 l  921 1644 l  933 1524 l  945 1674 l  956 1514 l 
968 1567 l  980 1674 l  992 1556 l  1003 1616 l  1015 1578 l  1026 1603 l 
1038 1567 l  1049 1659 l  1060 1630 l  1072 1725 l  1083 1725 l  1094 1591 l 
1105 1545 l  1116 1630 l  1127 1786 l  1138 1524 l  1149 1616 l  1159 1644 l 
1170 1578 l  1181 1659 l  1191 1725 l  1202 1674 l  1212 1591 l  1223 1690 l 
1233 1534 l  1244 1659 l  1254 1786 l  1264 1725 l  1274 1690 l  1284 1786 l 
1295 1534 l  1305 1690 l  1315 1786 l  1325 1833 l  1335 1690 l  1344 1659 l 
1354 1725 l  1364 1725 l  1374 1809 l  1383 1603 l  1393 1591 l  1403 1860 l 
1412 1725 l  1422 1630 l  1431 1690 l  1441 1786 l  1450 1764 l  1459 1809 l 
1469 1809 l  1478 1591 l  1487 1889 l  1496 1860 l  1505 1630 l  1515 1764 l 
1524 1725 l  1533 1644 l  1542 1644 l  1551 1764 l  1560 1707 l  1568 1809 l 
1577 1786 l  1586 1744 l  1595 1860 l  1604 1764 l  1621 1764 l  1630 1690 l 
1638 1630 l  1647 1725 l  1655 1674 l  1664 1744 l  1672 1744 l  1681 1764 l 
1689 1955 l  1697 1764 l  1706 1833 l  1714 1744 l  1722 1707 l  1730 1764 l 
1739 1591 l  1747 1809 l  1755 1659 l  1763 1725 l  1771 1955 l  1779 1707 l 
1787 1707 l  1795 1659 l  1803 1920 l  1811 1786 l  1819 1860 l  1827 1764 l 
1834 1955 l  1842 1920 l  1850 1833 l  1858 1630 l  1865 1860 l  1873 1744 l 
1881 1744 l  1888 1920 l  1896 2039 l  1904 1955 l  1911 1860 l  1919 1809 l 
1926 1786 l  1934 1744 l  1948 1833 l  1956 1786 l  1963 1920 l  1971 1889 l 
1978 1744 l  1985 1889 l  1992 1809 l  2000 1860 l  2007 1955 l  2014 1955 l 
2021 1744 l  2028 1889 l  2035 1955 l  2043 1860 l  2050 1889 l  2057 1860 l 
2064 1994 l  2071 2039 l  2085 1707 l  2092 1809 l  2098 1889 l  2105 2150 l 
2112 1860 l  2119 1786 l  2126 1994 l  2133 1860 l  2139 1833 l  2146 1920 l 
2160 1955 l  2166 1809 l  2173 1955 l  2180 1920 l  2186 1809 l  2193 1920 l 
2199 1920 l  2206 1994 l  2213 1955 l  2219 1744 l  2226 2090 l  2238 1920 l 
2245 2039 l  2251 1889 l  2258 2039 l  2264 1955 l  2271 1920 l  2277 1955 l 
2283 1994 l  2296 1994 l  2302 1809 l  2308 1889 l  2315 1860 l  2321 1994 l 
2327 2039 l  2333 1833 l  2339 2320 l  2345 1994 l  2358 1955 l  2364 1920 l 
2370 1955 l  2376 1920 l  2382 2224 l  2388 2320 l  2394 2150 l  2400 2150 l 
2406 1955 l  2412 2224 l  2418 1889 l  2424 1809 l  2430 2039 l  2436 1994 l 
2441 2090 l  2447 2685 l  2453 2039 l  2465 1955 l  2471 1833 l  2476 2224 l 
2482 1920 l  2488 1955 l  2494 2150 l  2499 2224 l  2505 2150 l  2511 2224 l 
2516 2090 l  2522 1889 l  2528 1994 l  2533 2224 l  2539 2454 l  2544 2090 l 
2550 2039 l  2556 1955 l  2561 2224 l  2572 2039 l  2583 1955 l  2589 1994 l 
2594 2039 l  2600 2039 l  2605 2090 l  2610 2150 l  2616 1955 l  2621 1994 l 
2627 1994 l  2632 2454 l  2637 2454 l  2643 2224 l  2648 1860 l  2653 1889 l 
2664 2454 l  2669 2150 l  2674 2090 l  2680 1994 l  2685 2224 l  2690 2150 l 
2701 2320 l  2706 2090 l  2711 2320 l  2716 1920 l  2721 1994 l  2726 2150 l 
2731 2150 l  2737 2039 l  2742 2224 l  2747 2150 l  2752 1994 l  2757 2150 l 
2762 2039 l  2767 2320 l  2772 2090 l  2777 2454 l  2782 2320 l  2787 2039 l 
2792 2320 l  2797 2090 l  2802 2150 l  2807 2090 l  2812 2039 l  2817 2320 l 
2822 2224 l  2826 2224 l  2831 2320 l  2836 2454 l  2846 2090 l  2851 2224 l 
2856 2039 l  2860 2090 l  2865 2224 l  2870 2454 l  2875 2224 l  2880 2320 l 
2884 2224 l  2889 2150 l  2894 2090 l  2903 2320 l  2908 2224 l  2913 2454 l 
2917 2454 l  2922 1994 l  2927 2039 l  2931 2320 l  2936 1994 l  2941 2685 l 
2945 2150 l  2950 2320 l  2954 2224 l  2959 2454 l  2964 2224 l  2968 2150 l 
2973 2224 l  2982 2320 l  2986 2320 l  2991 2150 l  2995 2685 l  3000 2685 l 
3004 2224 l  3009 2039 l  3013 2454 l  3018 2320 l  3022 2454 l  3027 2224 l 
3036 2685 l  3040 2090 l  3045 2320 l  3049 2224 l  3053 2454 l  3058 2320 l 
3062 2224 l  3066 2454 l  3071 2150 l  3075 2090 l  3080 2454 l  3084 2320 l 
3088 2685 l  3093 2224 l  3097 2090 l  3101 2039 l  3105 2685 l  3110 2320 l 
3114 2224 l  3118 2685 l  3122 2090 l  3127 2150 l  3131 2224 l  3144 2685 l 
3148 2454 l  3156 2685 l  3165 2150 l  3169 2454 l  3173 2320 l  3177 2454 l 
3181 2224 l  3185 2685 l  3189 2320 l  3198 2685 l  3202 2224 l  3206 2320 l 
3210 2454 l  3214 2320 l  3222 2454 l  3226 2150 l  3230 2090 l  3234 2224 l 
3238 2454 l  3246 2224 l  3250 2320 l  3262 2320 l  3266 2454 l  3270 2320 l 
3274 2454 l  3278 2224 l  3282 2150 l  3290 2685 l  3294 2320 l  3298 2454 l 
3302 2320 l  3306 2224 l  3309 2150 l  3313 2454 l  3317 2320 l  3325 2454 l 
3329 2454 l  3333 2224 l  3340 2685 l  3344 2320 l  3348 2454 l  3352 2320 l 
3356 2224 l  3359 2454 l  3363 2150 l  3371 2320 l  3375 2454 l  3378 2150 l 
3382 2685 l  3393 2454 l  3397 2224 l  3401 2685 l  3408 2320 l  3416 2454 l 
3419 2685 l  3423 2454 l  3427 2150 l  3430 2224 l  3434 2685 l  3438 2150 l 
3441 2454 l  3449 2224 l  3452 2454 l  3456 2320 l  3460 2224 l  3467 2454 l 
3471 2320 l  3474 2454 l  3478 2685 l  3481 2320 l  3488 2150 l  3492 2454 l 
3499 2685 l  3503 2685 l  3510 2454 l  3513 2685 l  3517 2685 l  3520 2454 l 
3531 2320 l  3538 2685 l  3541 2320 l  3545 2685 l  3548 2150 l  3552 2685 l 
3555 2454 l  3562 2685 l  3566 2320 l  3569 2454 l  3573 2685 l  3576 2454 l 
3583 2454 l  3586 2685 l  3593 2454 l  3597 2685 l  3603 2320 l  3610 2685 l 
3613 2224 l  3617 2685 l  3620 2454 l  3624 2454 l  3627 2224 l  3630 2685 l 
3634 2320 l  3637 2320 l  3644 2685 l  3647 2320 l  3650 2685 l  3657 2090 l 
3660 2150 l  3663 2454 l  3667 2224 l  3670 2320 l  3680 2320 l  3686 2454 l 
3690 2320 l  3693 2685 l  3696 2454 l  3699 2685 l  3703 2685 l  3709 2454 l 
3715 2320 l  3719 2685 l  3725 2454 l  3728 2685 l  3741 2320 l  3747 2685 l 
3760 2454 l  3763 2685 l  3769 2454 l  3791 2454 l  3794 2454 l  3800 2320 l 
3804 2224 l  3807 2320 l  3810 2454 l  3819 2685 l  3822 2685 l  3828 2454 l 
3831 2320 l  3834 2685 l  3837 2224 l  3843 2685 l  3849 2685 l  3852 2320 l 
3855 2454 l  3858 2685 l  3861 2320 l  3867 2454 l  3873 2320 l  3879 2685 l 
3885 2454 l  3888 2320 l  3891 2685 l  3894 2320 l  3897 2685 l  3900 2224 l 
3909 2454 l  3912 2685 l  3915 2320 l  3920 2685 l  3929 2685 l  3941 2685 l 
3944 2320 l  3949 2224 l  3958 2320 l  3964 2454 l  3967 2685 l  3981 2685 l 
3998 2454 l  4003 2685 l  4009 2454 l  4023 2685 l  4031 2320 l  4034 2320 l 
4037 2685 l  4039 2454 l  4042 2685 l  4053 2685 l  4061 2685 l  4070 2454 l 
4078 2685 l  4086 2454 l  4094 2685 l  4097 2454 l  4102 2685 l  4115 2454 l 
4118 2685 l  4129 2685 l  4136 2454 l  4139 2685 l  4144 2224 l  4147 2685 l 
4157 2685 l  4163 2454 l  4168 2454 l  4170 2685 l  4178 2320 l  4188 2454 l 
4191 2320 l  4196 2685 l  4199 2454 l  4201 2320 l  4204 2685 l  4206 2454 l 
4209 2150 l  4211 2685 l  4219 2454 l  4222 2685 l  4229 2454 l  4232 2685 l 
4237 2685 l  4252 2685 l  4262 2685 l  4272 2320 l  4281 2454 l  4286 2685 l 
4291 2454 l  4294 2685 l  4301 2320 l  4303 2454 l  4308 2685 l  4313 2320 l 
4316 2685 l  4318 2320 l  4320 2454 l  4323 2685 l  4328 2454 l  4330 2685 l 
4342 2685 l  4354 2685 l  4366 2685 l  4375 2454 l  4378 2685 l  4380 2320 l 
4387 2454 l  4392 2685 l  4403 2685 l  4413 2320 l  4415 2685 l  4419 2685 l 
4433 2685 l  4445 2454 l  4449 2685 l  4461 2685 l  4474 2685 l  4478 2454 l 
4485 2685 l  4505 2685 l  4507 2454 l  4516 2685 l  4529 2685 l  4540 2685 l 
4553 2685 l  4568 2685 l  4575 2454 l  4581 2685 l  4596 2685 l  4607 2685 l 
4624 2685 l  4630 2454 l  4636 2454 l  4642 2685 l  4646 2454 l  4661 2685 l 
4679 2685 l  4691 2685 l  4700 2685 l  4702 2320 l  4714 2685 l  4730 2685 l 
4739 2685 l  4753 2685 l  4765 2685 l  4785 2685 l  4817 2685 l  4823 2685 l 
4838 2454 l  4859 2685 l  4877 2685 l  4879 2454 l  4890 2454 l  4905 2685 l 
4922 2685 l  4945 2685 l  4956 2685 l  4965 2685 l  4989 2685 l  5000 2685 l 
5014 2454 l  5026 2685 l  5048 2685 l  5062 2685 l  5087 2454 l  5093 2685 l 
5103 2685 l  5114 2685 l  5127 2320 l  5139 2685 l  5150 2454 l  5157 2685 l 
5170 2685 l  5186 2685 l  5197 2685 l  5210 2685 l  5221 2685 l  5230 2685 l 
5249 2685 l  5257 2454 l  5268 2685 l  5271 2685 l  5292 2685 l  5297 2685 l 
5321 2685 l  5333 2685 l  5342 2685 l  5352 2685 l  5418 2685 l  5445 2685 l 
5458 2685 l  5472 2685 l  5487 2685 l  5527 2685 l  5538 2685 l  5553 2685 l 
5581 2685 l  5591 2685 l  5613 2685 l  5629 2685 l  5653 2685 l  5670 2685 l 
5696 2685 l  5710 2685 l  5744 2685 l  5750 2685 l  5767 2685 l  5788 2685 l 
5791 2685 l  5802 2685 l  5867 2685 l  5879 2685 l  5891 2685 l  5986 2685 l 
5997 2685 l  6017 2685 l  6074 2685 l  ps

0.105 0.105 0.105 c
/Helvetica f
353 sf -10116 3253 m  185 0 (1) bs

/Helvetica f
353 sf -5334 3253 m  185 0 (1) bs
185 185 (0) bs

/Helvetica f
353 sf -553 3253 m  185 0 (1) bs
185 185 (0) bs
185 370 (0) bs

/Helvetica f
353 sf 4228 3253 m  185 0 (1) bs
185 185 (0) bs
185 370 (0) bs
185 556 (0) bs

/Helvetica f
353 sf 9011 3253 m  185 0 (1) bs
185 185 (0) bs
185 370 (0) bs
185 556 (0) bs
185 741 (0) bs

/Helvetica f
353 sf -10458 2806 m  185 0 (1) bs

/Helvetica f
353 sf -10643 2041 m  185 0 (1) bs
185 185 (0) bs

/Helvetica f
353 sf -10829 1277 m  185 0 (1) bs
185 185 (0) bs
185 370 (0) bs

/Helvetica f
353 sf -11014 513 m  185 0 (1) bs
185 185 (0) bs
185 370 (0) bs
185 556 (0) bs

/Helvetica f
353 sf -11199 -252 m  185 0 (1) bs
185 185 (0) bs
185 370 (0) bs
185 556 (0) bs
185 741 (0) bs

/Helvetica f
353 sf -11384 -1016 m  185 0 (1) bs
185 185 (0) bs
185 370 (0) bs
185 556 (0) bs
185 741 (0) bs
185 926 (0) bs

/Helvetica f
353 sf -11569 -1780 m  185 0 (1) bs
185 185 (0) bs
185 370 (0) bs
185 556 (0) bs
185 741 (0) bs
185 926 (0) bs
185 1111 (0) bs

/Helvetica f
353 sf -11755 -2544 m  185 0 (1) bs
185 185 (0) bs
185 370 (0) bs
185 556 (0) bs
185 741 (0) bs
185 926 (0) bs
185 1111 (0) bs
185 1296 (0) bs

/Helvetica f
459 sf -4022 -3644 m  291 0 (S) bs
106 291 (t) bs
238 397 (a) bs
238 635 (p) bs
238 873 (h) bs
238 1111 (y) bs
79 1349 (l) bs
238 1429 (o) bs
238 1667 (c) bs
238 1905 (o) bs
238 2143 (c) bs
238 2381 (c) bs
238 2619 (u) bs
212 2858 (s) bs
132 3069 ( ) bs
238 3201 (e) bs
238 3440 (p) bs
106 3678 (i) bs
238 3784 (d) bs
238 4022 (e) bs
159 4260 (r) bs
344 4419 (m) bs
106 4763 (i) bs
238 4868 (d) bs
106 5106 (i) bs
212 5212 (s) bs
132 5424 ( ) bs
291 5556 (A) bs
238 5847 (T) bs
318 6085 (C) bs
318 6403 (C) bs
132 6720 ( ) bs
238 6853 (1) bs
238 7091 (2) bs
238 7329 (2) bs
238 7567 (2) bs
238 7805 (8) bs


50 lw 0.343 0.617 0.113 c 11116 -748 m  11916 -748 l  ps

0.003 0.273 0.527 c 11116 -250 m  11916 -250 l  ps

1.000 0.261 0.058 c 11116 247 m  11916 247 l  ps

1.000 0.828 0.128 c 11116 745 m  11916 745 l  ps

0.105 0.105 0.105 c
/Helvetica f
353 sf 12016 -628 m  185 0 (7) bs
291 185 (m) bs
185 476 (e) bs
106 661 (r) bs

/Helvetica f
353 sf 12016 -130 m  185 0 (1) bs
185 185 (0) bs
291 370 (m) bs
185 661 (e) bs
106 847 (r) bs

/Helvetica f
353 sf 12016 367 m  185 0 (1) bs
185 185 (5) bs
291 370 (m) bs
185 661 (e) bs
106 847 (r) bs

/Helvetica f
353 sf 12016 865 m  185 0 (2) bs
185 185 (0) bs
291 370 (m) bs
185 661 (e) bs
106 847 (r) bs

/Helvetica f
318 sf -2166 3899 m  185 0 (F) bs
106 185 (r) bs
185 291 (e) bs
185 476 (q) bs
185 661 (u) bs
185 847 (e) bs
185 1032 (n) bs
159 1217 (c) bs
132 1376 (y) bs
79 1508 ( ) bs
185 1588 (o) bs
79 1773 (f) bs
79 1852 ( ) bs
291 1931 (m) bs
185 2223 (e) bs
106 2408 (r) bs

/Helvetica f
318 sf -12461 1967 m  gs 90.0 r 238 0 (N) bs
185 238 (u) bs
291 423 (m) bs
185 714 (b) bs
185 900 (e) bs
106 1085 (r) bs
79 1191 ( ) bs
185 1270 (o) bs
79 1455 (f) bs
79 1535 ( ) bs
238 1614 (O) bs
159 1852 (c) bs
159 2011 (c) bs
185 2170 (u) bs
106 2355 (r) bs
106 2461 (r) bs
185 2566 (e) bs
185 2752 (n) bs
159 2937 (c) bs
185 3096 (e) bs
185 3281 (s) bs
gr
0 8988 t 
pom
count op_count sub {pop} repeat countdictstack dict_count sub {end} repeat b4_inc_state restore
%%PageTrailer
%%Trailer
%%EOF
