%!PS-Adobe-3.0 EPSF-3.0 
%%BoundingBox: 0 0 763 255
%%Pages: 0
%%Creator: Sun Microsystems, Inc.
%%Title: none
%%CreationDate: none
%%LanguageLevel: 2
%%EndComments
%%BeginProlog
%%BeginResource: procset SDRes-Prolog 1.0 0
/b4_inc_state save def
/dict_count countdictstack def
/op_count count 1 sub def
userdict begin
0 setgray 0 setlinecap 1 setlinewidth 0 setlinejoin 10 setmiterlimit[] 0 setdash newpath
/languagelevel where {pop languagelevel 1 ne {false setstrokeadjust false setoverprint} if} if
/bdef {bind def} bind def
/c {setrgbcolor} bdef
/l {neg lineto} bdef
/rl {neg rlineto} bdef
/lc {setlinecap} bdef
/lj {setlinejoin} bdef
/lw {setlinewidth} bdef
/ml {setmiterlimit} bdef
/ld {setdash} bdef
/m {neg moveto} bdef
/ct {6 2 roll neg 6 2 roll neg 6 2 roll neg curveto} bdef
/r {rotate} bdef
/t {neg translate} bdef
/s {scale} bdef
/sw {show} bdef
/gs {gsave} bdef
/gr {grestore} bdef
/f {findfont dup length dict begin
{1 index /FID ne {def} {pop pop} ifelse} forall /Encoding ISOLatin1Encoding def
currentdict end /NFont exch definefont pop /NFont findfont} bdef
/p {closepath} bdef
/sf {scalefont setfont} bdef
/ef {eofill}bdef
/pc {closepath stroke}bdef
/ps {stroke}bdef
/pum {matrix currentmatrix}bdef
/pom {setmatrix}bdef
/bs {/aString exch def /nXOfs exch def /nWidth exch def currentpoint nXOfs 0 rmoveto pum nWidth aString stringwidth pop div 1 scale aString show pom moveto} bdef
%%EndResource
%%EndProlog
%%BeginSetup
%%EndSetup
%%Page: 1 1
%%BeginPageSetup
%%EndPageSetup
pum
0.02836 0.02836 s 
0 -8989 t
/tm matrix currentmatrix def
tm setmatrix
13450 4494 t 
1 1 s 

1.000 1.000 1.000 c 0 4494 m  -13450 4494 l  -13450 -4494 l  13450 -4494 l 
13450 4494 l  0 4494 l  p ef



0 lw 1 lj 0.703 0.703 0.703 c -278 2687 m  -10168 2687 l  -10168 -2664 l 
9612 -2664 l  9612 2687 l  -278 2687 l  pc
9612 2686 m  -10168 2686 l  ps
9612 1921 m  -10168 1921 l  ps
9612 1156 m  -10168 1156 l  ps
9612 392 m  -10168 392 l  ps
9612 -372 m  -10168 -372 l  ps
9612 -1136 m  -10168 -1136 l  ps
9612 -1901 m  -10168 -1901 l  ps
9612 -2666 m  -10168 -2666 l  ps

-10168 2836 m  -10168 2686 l  ps
-10168 2836 m  -10168 2686 l  ps
-5223 2836 m  -5223 2686 l  ps
-5223 2836 m  -5223 2686 l  ps
-278 2836 m  -278 2686 l  ps
-278 2836 m  -278 2686 l  ps
4666 2836 m  4666 2686 l  ps
4666 2836 m  4666 2686 l  ps
9612 2836 m  9612 2686 l  ps
9612 2836 m  9612 2686 l  ps
-10168 2686 m  9612 2686 l  ps
-10318 2686 m  -10168 2686 l  ps
-10318 2686 m  -10168 2686 l  ps
-10318 1921 m  -10168 1921 l  ps
-10318 1921 m  -10168 1921 l  ps
-10318 1156 m  -10168 1156 l  ps
-10318 1156 m  -10168 1156 l  ps
-10318 392 m  -10168 392 l  ps
-10318 392 m  -10168 392 l  ps
-10318 -372 m  -10168 -372 l  ps
-10318 -372 m  -10168 -372 l  ps
-10318 -1136 m  -10168 -1136 l  ps
-10318 -1136 m  -10168 -1136 l  ps
-10318 -1901 m  -10168 -1901 l  ps
-10318 -1901 m  -10168 -1901 l  ps
-10318 -2666 m  -10168 -2666 l  ps
-10318 -2666 m  -10168 -2666 l  ps
-10168 2686 m  -10168 -2666 l  ps
80 lw 1.000 0.828 0.128 c -10168 -2445 m  -8680 -382 l  -7809 -196 l  -7191 549 l 
-6712 1020 l  -6320 935 l  -5989 771 l  -5702 -92 l  -5450 1860 l  -5223 2321 l 
-5019 2686 l  -4832 2455 l  -4501 2686 l  -4214 2686 l  ps
1.000 0.261 0.058 c -10168 -2433 m  -8680 -1118 l  -7809 -386 l  -7191 293 l 
-6712 750 l  -6320 848 l  -5989 790 l  -5702 -102 l  -5450 1437 l  -5223 1786 l 
-5019 1834 l  -4832 1921 l  -4660 2091 l  -4501 2686 l  -4352 2321 l  -4214 2225 l 
-4084 2039 l  -3961 2686 l  -3845 2225 l  -3735 2455 l  -3630 2455 l  -3530 2321 l 
-3434 2455 l  ps
0.003 0.273 0.527 c -10168 -1336 m  -8680 -1238 l  -7809 -1142 l  -7191 -1045 l 
-6712 -959 l  -6320 -874 l  -5989 -798 l  -5702 -739 l  -5450 -670 l  -5223 -608 l 
-5019 -544 l  -4832 -490 l  -4660 -427 l  -4501 -377 l  -4352 -324 l  -4214 -267 l 
-4084 -237 l  -3961 -179 l  -3845 -143 l  -3735 -101 l  -3630 -54 l  -3530 -16 l 
-3434 31 l  -3343 64 l  -3255 96 l  -3171 142 l  -3090 168 l  -3012 223 l 
-2937 238 l  -2864 268 l  -2793 311 l  -2725 342 l  -2659 373 l  -2595 397 l 
-2533 410 l  -2472 473 l  -2413 489 l  -2356 537 l  -2300 552 l  -2246 570 l 
-2193 611 l  -2141 646 l  -2091 673 l  -2041 658 l  -1993 699 l  -1946 734 l 
-1900 767 l  -1854 763 l  -1810 807 l  -1767 832 l  -1724 878 l  -1682 851 l 
-1642 895 l  -1601 878 l  -1562 935 l  -1523 949 l  -1485 988 l  -1448 1007 l 
-1411 1047 l  -1375 1101 l  -1340 1082 l  -1305 1099 l  -1270 1131 l  -1236 1113 l 
-1203 1170 l  -1170 1166 l  -1138 1188 l  -1106 1191 l  -1075 1239 l  -1044 1210 l 
-1014 1218 l  -984 1214 l  -954 1305 l  -925 1422 l  -896 1315 l  -867 1349 l 
-839 1429 l  -812 1367 l  -784 1310 l  -757 1400 l  -731 1505 l  -704 1414 l 
-678 1414 l  -652 1437 l  -627 1496 l  -602 1545 l  -577 1604 l  -553 1524 l 
-528 1556 l  -504 1617 l  -481 1644 l  -457 1644 l  -434 1809 l  -411 1745 l 
-388 1691 l  -366 1675 l  -343 1604 l  -321 1630 l  -300 1860 l  -278 1708 l 
-257 1567 l  -235 1726 l  -215 1786 l  -194 1860 l  -173 1765 l  -153 1956 l 
-133 1889 l  -113 1995 l  -93 1745 l  -73 1956 l  -54 1860 l  -35 1834 l 
-16 1860 l  2 2225 l  21 2151 l  40 2225 l  58 2225 l  76 2151 l  95 1860 l 
113 2225 l  130 2321 l  148 1995 l  166 2321 l  183 2091 l  200 2039 l 
217 2151 l  234 1860 l  251 2151 l  268 2225 l  284 1956 l  301 2151 l 
317 2151 l  333 2321 l  350 1921 l  366 2455 l  381 2455 l  397 2686 l 
413 2091 l  428 2151 l  444 2225 l  459 2321 l  474 2091 l  489 2686 l 
504 2455 l  519 2091 l  534 2321 l  548 2686 l  563 2686 l  577 2225 l 
592 2455 l  606 2686 l  620 2455 l  634 2686 l  648 2321 l  662 2686 l 
676 2686 l  690 2686 l  703 2686 l  717 2455 l  730 2686 l  744 2455 l 
770 2686 l  783 2686 l  797 2686 l  809 2455 l  822 2686 l  835 2321 l 
873 2686 l  886 2686 l  911 2686 l  923 2686 l  959 2686 l  995 2455 l 
1042 2686 l  1077 2686 l  1144 2686 l  1188 2686 l  1273 2686 l  1491 2686 l 
1510 2686 l  1601 2686 l  1646 2686 l  1689 2686 l  1765 2686 l  1798 2686 l 
1985 2686 l  2109 2686 l  2158 2686 l  ps
0.343 0.617 0.113 c -6320 2455 m  -5989 2686 l  -5702 2686 l  -5450 2686 l 
-5223 2225 l  -5019 2321 l  -4832 2225 l  -4660 2151 l  -4501 1809 l  -4352 2039 l 
-4214 1921 l  -4084 2039 l  -3961 2039 l  -3845 1834 l  -3735 1745 l  -3630 1745 l 
-3530 1745 l  -3434 1809 l  -3343 1708 l  -3255 1659 l  -3171 1708 l  -3090 1708 l 
-3012 1675 l  -2937 1469 l  -2864 1591 l  -2793 1659 l  -2725 1556 l  -2659 1579 l 
-2595 1478 l  -2533 1486 l  -2472 1567 l  -2413 1567 l  -2356 1524 l  -2300 1486 l 
-2246 1400 l  -2193 1407 l  -2141 1478 l  -2091 1407 l  -2041 1469 l  -1993 1524 l 
-1946 1478 l  -1900 1567 l  -1854 1414 l  -1810 1422 l  -1767 1469 l  -1724 1373 l 
-1682 1429 l  -1642 1469 l  -1601 1332 l  -1562 1332 l  -1523 1380 l  -1485 1400 l 
-1448 1361 l  -1411 1515 l  -1375 1444 l  -1340 1469 l  -1305 1407 l  -1270 1310 l 
-1236 1414 l  -1203 1320 l  -1170 1337 l  -1138 1337 l  -1106 1400 l  -1075 1355 l 
-1044 1373 l  -1014 1332 l  -984 1367 l  -954 1367 l  -925 1373 l  -896 1355 l 
-867 1373 l  -839 1305 l  -812 1343 l  -784 1387 l  -757 1380 l  -731 1393 l 
-704 1337 l  -678 1305 l  -652 1315 l  -627 1407 l  -602 1343 l  -577 1452 l 
-553 1387 l  -528 1444 l  -504 1461 l  -481 1367 l  -457 1305 l  -434 1305 l 
-411 1373 l  -388 1332 l  -366 1400 l  -343 1343 l  -321 1422 l  -300 1486 l 
-278 1400 l  -257 1422 l  -235 1343 l  -215 1429 l  -194 1400 l  -173 1315 l 
-153 1393 l  -133 1361 l  -113 1414 l  -93 1393 l  -73 1367 l  -54 1367 l 
-35 1407 l  -16 1444 l  2 1400 l  21 1393 l  40 1429 l  58 1326 l  76 1452 l 
95 1400 l  113 1486 l  130 1393 l  148 1367 l  166 1380 l  183 1496 l 
200 1461 l  217 1407 l  234 1478 l  251 1414 l  268 1387 l  284 1469 l 
301 1422 l  317 1367 l  333 1461 l  350 1478 l  366 1367 l  381 1407 l 
397 1320 l  413 1349 l  428 1349 l  444 1387 l  459 1373 l  474 1289 l 
489 1400 l  504 1452 l  519 1469 l  534 1486 l  548 1579 l  563 1387 l 
577 1400 l  592 1444 l  606 1452 l  620 1524 l  634 1429 l  648 1373 l 
662 1461 l  676 1444 l  690 1429 l  703 1545 l  717 1400 l  730 1373 l 
744 1393 l  757 1505 l  770 1387 l  783 1505 l  797 1414 l  809 1380 l 
822 1400 l  835 1567 l  848 1545 l  861 1486 l  873 1461 l  886 1486 l 
898 1422 l  911 1373 l  923 1515 l  935 1486 l  947 1556 l  959 1469 l 
971 1452 l  983 1535 l  995 1422 l  1007 1535 l  1019 1407 l  1031 1545 l 
1042 1461 l  1054 1524 l  1065 1393 l  1077 1486 l  1088 1556 l  1100 1604 l 
1111 1444 l  1122 1535 l  1144 1414 l  1155 1444 l  1166 1644 l  1177 1400 l 
1188 1579 l  1199 1437 l  1210 1486 l  1220 1469 l  1231 1567 l  1242 1591 l 
1252 1630 l  1263 1579 l  1273 1545 l  1284 1545 l  1294 1630 l  1304 1630 l 
1314 1515 l  1325 1524 l  1345 1535 l  1355 1461 l  1365 1591 l  1375 1461 l 
1385 1524 l  1395 1478 l  1405 1604 l  1414 1505 l  1424 1745 l  1434 1545 l 
1443 1644 l  1463 1644 l  1472 1469 l  1482 1659 l  1491 1515 l  1500 1535 l 
1510 1567 l  1519 1659 l  1528 1604 l  1538 1591 l  1547 1675 l  1556 1515 l 
1565 1691 l  1574 1644 l  1583 1630 l  1592 1515 l  1601 1617 l  1610 1556 l 
1619 1591 l  1628 1644 l  1637 1524 l  1646 1496 l  1654 1691 l  1663 1535 l 
1672 1567 l  1680 1535 l  1689 1535 l  1697 1579 l  1706 1630 l  1715 1675 l 
1731 1567 l  1740 1591 l  1748 1567 l  1757 1644 l  1765 1809 l  1773 1708 l 
1781 1535 l  1790 1644 l  1798 1604 l  1806 1659 l  1814 1675 l  1822 1659 l 
1830 1545 l  1838 1691 l  1846 1659 l  1854 1659 l  1862 1644 l  1870 1630 l 
1878 1617 l  1886 1809 l  1894 1675 l  1901 1675 l  1909 1630 l  1917 1708 l 
1925 1630 l  1932 1644 l  1940 1745 l  1948 1617 l  1955 1579 l  1963 1765 l 
1970 1745 l  1978 1708 l  1985 1505 l  1993 1545 l  2000 1630 l  2008 1659 l 
2015 1659 l  2022 1745 l  2030 1708 l  2037 1630 l  2044 1786 l  2052 1675 l 
2059 1809 l  2066 1708 l  2073 1691 l  2080 1675 l  2088 1765 l  2095 1691 l 
2102 1809 l  2109 1630 l  2116 1765 l  2123 1659 l  2130 1765 l  2144 1644 l 
2151 1567 l  2158 1630 l  2165 1524 l  2172 1630 l  2178 1786 l  2185 1765 l 
2192 1691 l  2199 1675 l  2206 1691 l  2212 1579 l  2219 1956 l  2226 1860 l 
2232 1591 l  2239 1745 l  2246 1765 l  2252 1726 l  2259 1809 l  2266 1659 l 
2272 1765 l  2279 1604 l  2285 1675 l  2292 1765 l  2298 1644 l  2305 1745 l 
2311 1834 l  2317 1745 l  2324 1765 l  2330 1809 l  2337 1726 l  2343 1630 l 
2349 1675 l  2356 1630 l  2362 1745 l  2368 1809 l  2374 1765 l  2381 1834 l 
2387 1708 l  2393 1726 l  2399 1708 l  2405 1956 l  2412 1726 l  2418 1889 l 
2424 1765 l  2430 1860 l  2436 1786 l  2442 1726 l  2448 1617 l  2454 1659 l 
2460 1745 l  2466 1726 l  2472 1726 l  2478 1786 l  2484 1726 l  2490 1675 l 
2496 1786 l  2502 1726 l  2508 1860 l  2513 1809 l  2525 1708 l  2531 1956 l 
2537 1591 l  2542 1691 l  2548 1995 l  2554 1765 l  2560 1604 l  2565 1726 l 
2571 1809 l  2577 1765 l  2583 1708 l  2588 1921 l  2594 1765 l  2605 1921 l 
2611 1745 l  2616 1995 l  2622 1786 l  2633 1809 l  2638 1834 l  2644 1765 l 
2655 1889 l  2660 1765 l  2671 1786 l  2677 1889 l  2682 1809 l  2688 1860 l 
2693 1786 l  2698 1834 l  2704 1921 l  2709 1834 l  2714 1995 l  2720 1809 l 
2725 1889 l  2730 1786 l  2736 1921 l  2741 2225 l  2746 1889 l  2751 1691 l 
2757 1809 l  2762 1691 l  2767 1675 l  2772 1809 l  2777 1834 l  2783 1956 l 
2788 1860 l  2793 1860 l  2803 1860 l  2808 1786 l  2813 1834 l  2818 1889 l 
2823 1786 l  2829 1889 l  2834 1745 l  2839 1765 l  2844 1745 l  2849 1921 l 
2854 1889 l  2859 1860 l  2864 1675 l  2869 1860 l  2874 1995 l  2878 1708 l 
2883 1786 l  2888 1889 l  2893 2039 l  2898 1834 l  2903 1765 l  2908 1956 l 
2913 1995 l  2918 1860 l  2922 1809 l  2927 1860 l  2932 1765 l  2937 2039 l 
2942 1765 l  2947 2039 l  2951 1786 l  2956 1956 l  2961 1921 l  2966 1995 l 
2970 1834 l  2975 1921 l  2980 1956 l  2984 2091 l  2989 1956 l  2994 1860 l 
2999 1809 l  3008 1956 l  3012 1889 l  3017 1745 l  3022 1860 l  3026 1956 l 
3031 1889 l  3036 1765 l  3040 1860 l  3045 1765 l  3049 1786 l  3054 1860 l 
3058 1889 l  3063 1956 l  3067 1921 l  3072 1889 l  3076 2039 l  3081 1889 l 
3085 1956 l  3090 2039 l  3094 1809 l  3099 1691 l  3103 2151 l  3108 2039 l 
3112 1860 l  3121 1834 l  3125 1889 l  3130 1786 l  3134 2091 l  3139 1834 l 
3143 1995 l  3147 2039 l  3156 1921 l  3160 1956 l  3169 1995 l  3182 1834 l 
3186 2091 l  3190 1921 l  3195 2091 l  3199 2321 l  3203 1956 l  3207 1956 l 
3212 2151 l  3216 1834 l  3220 1745 l  3224 2039 l  3229 1956 l  3233 1995 l 
3237 1956 l  3241 1860 l  3245 1921 l  3249 1889 l  3254 1956 l  3258 1860 l 
3262 1956 l  3266 1921 l  3270 2091 l  3274 1956 l  3278 1995 l  3282 1921 l 
3286 1956 l  3291 1921 l  3295 1956 l  3303 1921 l  3307 1995 l  3311 1956 l 
3315 1956 l  3319 2151 l  3323 1956 l  3327 2151 l  3331 2151 l  3335 1995 l 
3343 1956 l  3347 1860 l  3351 2039 l  3355 1809 l  3359 1860 l  3363 1889 l 
3367 2321 l  3371 2039 l  3374 2151 l  3378 1786 l  3382 1889 l  3386 1995 l 
3390 1889 l  3394 1860 l  3398 2039 l  3402 2091 l  3406 2151 l  3409 2151 l 
3413 1956 l  3421 1921 l  3425 1995 l  3429 2151 l  3432 1995 l  3436 2039 l 
3440 1995 l  3444 2039 l  3448 1921 l  3451 2091 l  3455 2039 l  3459 2225 l 
3463 2091 l  3467 2039 l  3474 2151 l  3478 2091 l  3481 2039 l  3485 2151 l 
3489 1995 l  3493 2225 l  3496 2091 l  3500 1995 l  3504 2091 l  3507 1889 l 
3511 2091 l  3515 2225 l  3518 2151 l  3522 1956 l  3526 2039 l  3529 2091 l 
3533 1921 l  3537 2321 l  3540 2039 l  3544 1956 l  3548 2151 l  3551 1995 l 
3555 2091 l  3558 2091 l  3562 2321 l  3566 2039 l  3569 2091 l  3573 2039 l 
3576 1995 l  3583 2039 l  3587 1995 l  3591 2455 l  3594 2321 l  3598 1956 l 
3601 2225 l  3605 2091 l  3608 2321 l  3612 1995 l  3615 2039 l  3619 1995 l 
3622 1921 l  3626 2225 l  3629 1956 l  3633 2151 l  3636 2091 l  3640 2091 l 
3646 1995 l  3650 2225 l  3653 1995 l  3657 2321 l  3660 2151 l  3664 1995 l 
3667 2321 l  3671 2225 l  3674 1921 l  3677 2091 l  3681 1995 l  3684 2151 l 
3688 2455 l  3691 2039 l  3694 1956 l  3698 2039 l  3701 2321 l  3704 2455 l 
3708 2321 l  3711 2039 l  3714 2091 l  3718 2039 l  3721 2151 l  3724 2455 l 
3728 2321 l  3731 2151 l  3734 2225 l  3738 2455 l  3741 2151 l  3744 2225 l 
3748 1995 l  3751 2151 l  3754 2321 l  3758 2225 l  3761 1921 l  3764 2151 l 
3767 2091 l  3771 2225 l  3774 2225 l  3777 2455 l  3784 2039 l  3787 2151 l 
3790 2091 l  3793 2039 l  3800 2225 l  3803 1889 l  3806 2225 l  3809 2151 l 
3813 2455 l  3816 2321 l  3819 1956 l  3822 2321 l  3825 2321 l  3828 2039 l 
3835 2225 l  3838 2091 l  3841 2091 l  3844 2225 l  3847 2455 l  3851 2225 l 
3854 2225 l  3857 2686 l  3860 2455 l  3866 2091 l  3872 2321 l  3879 2091 l 
3882 2039 l  3885 2321 l  3891 2151 l  3894 2455 l  3897 2225 l  3903 2091 l 
3906 2225 l  3909 2039 l  3912 2321 l  3916 2151 l  3919 2321 l  3922 2091 l 
3925 2455 l  3928 2151 l  3931 2039 l  3934 2151 l  3937 2039 l  3940 2321 l 
3943 2455 l  3946 2225 l  3949 2321 l  3952 2039 l  3955 2455 l  3958 2321 l 
3961 2321 l  3964 1995 l  3970 2225 l  3976 2039 l  3979 2321 l  3982 2686 l 
3984 2151 l  3987 2686 l  3990 2151 l  3993 2455 l  3996 2225 l  4002 2225 l 
4005 2455 l  4008 2091 l  4011 2225 l  4014 2686 l  4017 2225 l  4022 2455 l 
4025 2091 l  4028 2151 l  4034 2225 l  4037 1921 l  4040 2686 l  4043 2321 l 
4046 2455 l  4048 2686 l  4051 2091 l  4054 2091 l  4057 2225 l  4060 2091 l 
4066 2455 l  4068 2455 l  4071 2321 l  4082 2091 l  4085 2151 l  4088 2225 l 
4094 2321 l  4097 2225 l  4099 2321 l  4102 1995 l  4105 2225 l  4108 2686 l 
4110 2151 l  4116 2321 l  4119 2455 l  4122 2686 l  4124 2321 l  4127 2225 l 
4133 2151 l  4135 2686 l  4138 1995 l  4141 2455 l  4144 2686 l  4146 2321 l 
4149 2321 l  4152 2455 l  4155 2686 l  4157 2455 l  4160 2151 l  4163 2151 l 
4165 2455 l  4168 2686 l  4171 2151 l  4174 2225 l  4176 2455 l  4179 2321 l 
4184 1995 l  4187 2039 l  4190 2151 l  4192 2321 l  4195 2455 l  4198 2686 l 
4200 2321 l  4203 2321 l  4208 2151 l  4211 2686 l  4214 2151 l  4216 2686 l 
4219 2225 l  4222 2321 l  4224 2225 l  4227 2455 l  4230 2686 l  4235 2039 l 
4237 2151 l  4240 2321 l  4243 2455 l  4245 2151 l  4248 2455 l  4250 2686 l 
4256 2151 l  4258 2455 l  4261 2321 l  4263 2455 l  4266 2321 l  4271 2321 l 
4274 2091 l  4279 2321 l  4282 2455 l  4284 2321 l  4287 2455 l  4292 2321 l 
4297 2455 l  4299 2225 l  4302 2039 l  4305 2151 l  4310 2225 l  4315 2455 l 
4320 2321 l  4322 2225 l  4325 2455 l  4327 2321 l  4335 2455 l  4337 2151 l 
4342 2686 l  4345 2225 l  4347 2455 l  4350 2321 l  4352 2455 l  4355 2686 l 
4360 2321 l  4362 2455 l  4365 2321 l  4367 2151 l  4370 2321 l  4375 2225 l 
4379 2686 l  4382 2455 l  4387 2686 l  4389 2091 l  4392 2321 l  4397 2455 l 
4399 2151 l  4401 2455 l  4404 2321 l  4409 2686 l  4411 2091 l  4414 2225 l 
4416 2455 l  4418 2321 l  4421 2686 l  4423 2321 l  4426 2686 l  4428 2455 l 
4430 2686 l  4433 2686 l  4435 2455 l  4445 2455 l  4452 2686 l  4454 2321 l 
4459 2455 l  4461 2321 l  4466 2455 l  4468 2686 l  4473 2455 l  4475 2225 l 
4478 2455 l  4480 2686 l  4482 2321 l  4485 2455 l  4487 2091 l  4492 2321 l 
4494 2686 l  4496 2321 l  4501 2151 l  4503 2455 l  4506 1995 l  4508 2321 l 
4510 2151 l  4513 2686 l  4515 2455 l  4520 2321 l  4522 2225 l  4524 2686 l 
4526 2455 l  4529 2686 l  4531 2321 l  4533 2455 l  4536 2686 l  4538 2321 l 
4540 2321 l  4542 2151 l  4545 2686 l  4549 2455 l  4552 2686 l  4554 2455 l 
4561 2686 l  4563 2455 l  4567 2455 l  4570 2686 l  4572 2455 l  4574 2321 l 
4581 2321 l  4583 2455 l  4590 2686 l  4592 2321 l  4596 2686 l  4599 2455 l 
4601 2225 l  4605 2455 l  4607 2686 l  4612 2151 l  4616 2455 l  4621 2455 l 
4625 2321 l  4627 2455 l  4634 2321 l  4636 2686 l  4638 2321 l  4640 2455 l 
4647 2225 l  4649 2455 l  4651 2321 l  4653 2455 l  4655 2686 l  4660 2686 l 
4662 2455 l  4664 2321 l  4666 2455 l  4673 2686 l  4675 2321 l  4677 2455 l 
4679 2321 l  4681 2455 l  4685 2686 l  4688 2091 l  4690 2686 l  4694 2321 l 
4696 2455 l  4702 2225 l  4705 2686 l  4709 2225 l  4711 2686 l  4713 2321 l 
4715 2686 l  4717 2091 l  4719 2455 l  4721 2151 l  4723 2686 l  4726 2151 l 
4730 2686 l  4734 2455 l  4736 2225 l  4738 2455 l  4744 2686 l  4746 2455 l 
4748 2321 l  4753 2455 l  4761 2225 l  4763 2686 l  4767 2321 l  4769 2455 l 
4773 2686 l  4775 2455 l  4779 2321 l  4783 2686 l  4789 2321 l  4791 2686 l 
4793 2455 l  4797 2686 l  4799 2455 l  4802 2686 l  4806 2455 l  4808 2686 l 
4810 2321 l  4814 2686 l  4816 2151 l  4818 2686 l  4824 2686 l  4826 2455 l 
4828 2686 l  4830 2455 l  4834 2225 l  4837 2686 l  4845 2455 l  4847 2686 l 
4849 2321 l  4851 2686 l  4857 2455 l  4861 2686 l  4865 2686 l  4867 2455 l 
4869 2686 l  4873 2455 l  4875 2686 l  4877 2321 l  4883 2455 l  4887 2321 l 
4888 2686 l  4898 2455 l  4900 2686 l  4904 2686 l  4908 2455 l  4912 2686 l 
4915 2455 l  4917 2686 l  4921 2039 l  4923 2151 l  4925 2686 l  4927 2455 l 
4929 2321 l  4931 2686 l  4934 2455 l  4938 2686 l  4940 2225 l  4944 2686 l 
4946 2225 l  4948 2686 l  4950 2321 l  4955 2455 l  4959 2455 l  4961 2686 l 
4970 2455 l  4972 2686 l  4976 2455 l  4978 2686 l  4981 2321 l  4983 2686 l 
4985 2321 l  4992 2686 l  4996 2321 l  5000 2686 l  5009 2455 l  5011 2686 l 
5016 2455 l  5020 2686 l  5022 2455 l  5025 2321 l  5027 2455 l  5031 2225 l 
5033 2686 l  5036 2321 l  5038 2686 l  5043 2455 l  5049 2686 l  5051 2686 l 
5061 2455 l  5063 2686 l  5065 2686 l  5079 2686 l  5093 2686 l  5095 2455 l 
5097 2686 l  5100 2225 l  5102 2686 l  5104 2321 l  5106 2686 l  5107 2321 l 
5109 2686 l  5118 2686 l  5127 2321 l  5128 2686 l  5133 2686 l  5135 2455 l 
5137 2686 l  5144 2455 l  5145 2686 l  5149 2455 l  5151 2686 l  5154 2321 l 
5156 2455 l  5157 2686 l  5159 2321 l  5161 2686 l  5168 2455 l  5169 2686 l 
5173 2686 l  5175 2321 l  5176 2686 l  5185 2686 l  5196 2151 l  5200 2686 l 
5201 2321 l  5203 2686 l  5205 2455 l  5206 2686 l  5211 2455 l  5213 2686 l 
5216 2455 l  5218 2686 l  5230 2686 l  5233 2321 l  5235 2686 l  5236 2455 l 
5238 2686 l  5245 2686 l  5251 2455 l  5253 2455 l  5254 2686 l  5256 2321 l 
5258 2686 l  5264 2455 l  5266 2455 l  5267 2321 l  5269 2686 l  5279 2686 l 
5285 2455 l  5287 2686 l  5293 2321 l  5295 2686 l  5298 2321 l  5300 2686 l 
5308 2455 l  5311 2686 l  5323 2455 l  5327 2686 l  5333 2686 l  5336 2455 l 
5341 2686 l  5349 2686 l  5353 2455 l  5360 2151 l  5366 2686 l  5380 2686 l 
5389 2151 l  5390 2686 l  5395 2455 l  5398 2686 l  5400 2455 l  5407 2686 l 
5413 2686 l  5421 2455 l  5422 2686 l  5427 2455 l  5428 2686 l  5436 2455 l 
5437 2686 l  5442 2686 l  5454 2686 l  5455 2455 l  5457 2686 l  5470 2686 l 
5480 2686 l  5495 2686 l  5507 2455 l  5508 2686 l  5510 2455 l  5511 2686 l 
5524 2686 l  5536 2686 l  5548 2686 l  5563 2455 l  5564 2686 l  5571 2455 l 
5575 2455 l  5580 2686 l  5588 2455 l  5589 2455 l  5592 2686 l  5610 2686 l 
5617 2686 l  5630 2686 l  5631 2455 l  5632 2686 l  5642 2686 l  5660 2686 l 
5670 2686 l  5690 2686 l  5701 2686 l  5718 2686 l  5730 2686 l  5739 2686 l 
5748 2455 l  5750 2686 l  5757 2455 l  5761 2686 l  5766 2686 l  5786 2686 l 
5798 2686 l  5817 2686 l  5826 2455 l  5830 2686 l  5833 2686 l  5851 2455 l 
5855 2686 l  5860 2455 l  5861 2686 l  5878 2686 l  5885 2686 l  5905 2686 l 
5921 2455 l  5927 2686 l  5938 2686 l  5951 2321 l  5954 2686 l  5956 2455 l 
5957 2686 l  5966 2686 l  5987 2686 l  5992 2686 l  5993 2455 l  6006 2686 l 
6023 2686 l  6035 2686 l  6046 2686 l  6069 2686 l  6084 2686 l  6093 2686 l 
6096 2455 l  6108 2686 l  6116 2686 l  6132 2686 l  6142 2686 l  6154 2686 l 
6169 2686 l  6182 2686 l  6195 2686 l  6196 2455 l  6204 2686 l  6209 2686 l 
6216 2455 l  6230 2686 l  6247 2686 l  6269 2686 l  6284 2686 l  6291 2686 l 
6304 2686 l  6320 2455 l  6323 2686 l  6329 2686 l  6339 2455 l  6350 2686 l 
6373 2686 l  6388 2686 l  6405 2686 l  6416 2686 l  6427 2686 l  6448 2686 l 
6454 2686 l  6476 2455 l  6478 2686 l  6501 2686 l  6508 2686 l  6518 2686 l 
6543 2686 l  6546 2686 l  6557 2686 l  6573 2686 l  6593 2686 l  6606 2686 l 
6616 2686 l  6627 2686 l  6654 2686 l  6665 2686 l  6682 2686 l  6727 2686 l 
6732 2686 l  6758 2686 l  6761 2686 l  6797 2686 l  6808 2686 l  6833 2455 l 
6886 2686 l  7010 2455 l  7014 2686 l  7028 2686 l  7042 2686 l  7097 2686 l 
7127 2686 l  7147 2686 l  7163 2686 l  7177 2686 l  7200 2686 l  7214 2686 l 
7217 2686 l  7243 2686 l  7243 2686 l  7275 2686 l  7427 2686 l  7538 2686 l 
ps

0.105 0.105 0.105 c
/Helvetica f
353 sf -10261 3254 m  185 0 (1) bs

/Helvetica f
353 sf -5408 3254 m  185 0 (1) bs
185 185 (0) bs

/Helvetica f
353 sf -556 3254 m  185 0 (1) bs
185 185 (0) bs
185 370 (0) bs

/Helvetica f
353 sf 4296 3254 m  185 0 (1) bs
185 185 (0) bs
185 370 (0) bs
185 556 (0) bs

/Helvetica f
353 sf 9150 3254 m  185 0 (1) bs
185 185 (0) bs
185 370 (0) bs
185 556 (0) bs
185 741 (0) bs

/Helvetica f
353 sf -10603 2807 m  185 0 (1) bs

/Helvetica f
353 sf -10788 2042 m  185 0 (1) bs
185 185 (0) bs

/Helvetica f
353 sf -10974 1277 m  185 0 (1) bs
185 185 (0) bs
185 370 (0) bs

/Helvetica f
353 sf -11159 513 m  185 0 (1) bs
185 185 (0) bs
185 370 (0) bs
185 556 (0) bs

/Helvetica f
353 sf -11344 -252 m  185 0 (1) bs
185 185 (0) bs
185 370 (0) bs
185 556 (0) bs
185 741 (0) bs

/Helvetica f
353 sf -11529 -1016 m  185 0 (1) bs
185 185 (0) bs
185 370 (0) bs
185 556 (0) bs
185 741 (0) bs
185 926 (0) bs

/Helvetica f
353 sf -11714 -1781 m  185 0 (1) bs
185 185 (0) bs
185 370 (0) bs
185 556 (0) bs
185 741 (0) bs
185 926 (0) bs
185 1111 (0) bs

/Helvetica f
353 sf -11900 -2546 m  185 0 (1) bs
185 185 (0) bs
185 370 (0) bs
185 556 (0) bs
185 741 (0) bs
185 926 (0) bs
185 1111 (0) bs
185 1296 (0) bs

/Helvetica f
459 sf -3030 -3644 m  291 0 (B) bs
238 291 (a) bs
238 529 (c) bs
106 767 (i) bs
79 873 (l) bs
79 953 (l) bs
238 1032 (u) bs
212 1270 (s) bs
132 1482 ( ) bs
238 1614 (a) bs
238 1852 (n) bs
106 2090 (t) bs
238 2196 (h) bs
159 2434 (r) bs
238 2593 (a) bs
238 2831 (c) bs
106 3069 (i) bs
212 3175 (s) bs
132 3387 ( ) bs
212 3519 (s) bs
106 3731 (t) bs
159 3836 (r) bs
132 3995 (.) bs
132 4128 ( ) bs
318 4260 (C) bs
318 4577 (D) bs
318 4895 (C) bs
132 5212 ( ) bs
238 5345 (6) bs
238 5583 (8) bs
238 5821 (4) bs


50 lw 0.343 0.617 0.113 c 11269 -748 m  12069 -748 l  ps

0.003 0.273 0.527 c 11269 -250 m  12069 -250 l  ps

1.000 0.261 0.058 c 11269 247 m  12069 247 l  ps

1.000 0.828 0.128 c 11269 745 m  12069 745 l  ps

0.105 0.105 0.105 c
/Helvetica f
353 sf 12169 -628 m  185 0 (7) bs
291 185 (m) bs
185 476 (e) bs
106 661 (r) bs

/Helvetica f
353 sf 12169 -130 m  185 0 (1) bs
185 185 (0) bs
291 370 (m) bs
185 661 (e) bs
106 847 (r) bs

/Helvetica f
353 sf 12169 367 m  185 0 (1) bs
185 185 (5) bs
291 370 (m) bs
185 661 (e) bs
106 847 (r) bs

/Helvetica f
353 sf 12169 865 m  185 0 (2) bs
185 185 (0) bs
291 370 (m) bs
185 661 (e) bs
106 847 (r) bs

/Helvetica f
318 sf -2169 3900 m  185 0 (F) bs
106 185 (r) bs
185 291 (e) bs
185 476 (q) bs
185 661 (u) bs
185 847 (e) bs
185 1032 (n) bs
159 1217 (c) bs
132 1376 (y) bs
79 1508 ( ) bs
185 1588 (o) bs
79 1773 (f) bs
79 1852 ( ) bs
291 1931 (m) bs
185 2223 (e) bs
106 2408 (r) bs

/Helvetica f
318 sf -12613 1876 m  gs 90.0 r 238 0 (N) bs
185 238 (u) bs
291 423 (m) bs
185 714 (b) bs
185 900 (e) bs
106 1085 (r) bs
79 1191 ( ) bs
185 1270 (o) bs
79 1455 (f) bs
79 1535 ( ) bs
238 1614 (O) bs
159 1852 (c) bs
159 2011 (c) bs
185 2170 (u) bs
106 2355 (r) bs
106 2461 (r) bs
185 2566 (e) bs
185 2752 (n) bs
159 2937 (c) bs
185 3096 (e) bs
gr
0 8989 t 
pom
count op_count sub {pop} repeat countdictstack dict_count sub {end} repeat b4_inc_state restore
%%PageTrailer
%%Trailer
%%EOF
