%!PS-Adobe-3.0 EPSF-3.0 
%%BoundingBox: 0 0 627 255
%%Pages: 0
%%Creator: Sun Microsystems, Inc.
%%Title: none
%%CreationDate: none
%%LanguageLevel: 2
%%EndComments
%%BeginProlog
%%BeginResource: procset SDRes-Prolog 1.0 0
/b4_inc_state save def
/dict_count countdictstack def
/op_count count 1 sub def
userdict begin
0 setgray 0 setlinecap 1 setlinewidth 0 setlinejoin 10 setmiterlimit[] 0 setdash newpath
/languagelevel where {pop languagelevel 1 ne {false setstrokeadjust false setoverprint} if} if
/bdef {bind def} bind def
/c {setrgbcolor} bdef
/l {neg lineto} bdef
/rl {neg rlineto} bdef
/lc {setlinecap} bdef
/lj {setlinejoin} bdef
/lw {setlinewidth} bdef
/ml {setmiterlimit} bdef
/ld {setdash} bdef
/m {neg moveto} bdef
/ct {6 2 roll neg 6 2 roll neg 6 2 roll neg curveto} bdef
/r {rotate} bdef
/t {neg translate} bdef
/s {scale} bdef
/sw {show} bdef
/gs {gsave} bdef
/gr {grestore} bdef
/f {findfont dup length dict begin
{1 index /FID ne {def} {pop pop} ifelse} forall /Encoding ISOLatin1Encoding def
currentdict end /NFont exch definefont pop /NFont findfont} bdef
/p {closepath} bdef
/sf {scalefont setfont} bdef
/ef {eofill}bdef
/pc {closepath stroke}bdef
/ps {stroke}bdef
/pum {matrix currentmatrix}bdef
/pom {setmatrix}bdef
/bs {/aString exch def /nXOfs exch def /nWidth exch def currentpoint nXOfs 0 rmoveto pum nWidth aString stringwidth pop div 1 scale aString show pom moveto} bdef
%%EndResource
%%EndProlog
%%BeginSetup
%%EndSetup
%%Page: 1 1
%%BeginPageSetup
%%EndPageSetup
pum
0.02832 0.0283 s 
0 -9008 t
/tm matrix currentmatrix def
tm setmatrix
11067 4504 t 
1 1 s 

1.000 1.000 1.000 c -1 4503 m  -11067 4503 l  -11067 -4504 l  11066 -4504 l 
11066 4503 l  -1 4503 l  p ef



0 lw 1 lj 0.703 0.703 0.703 c -1421 2696 m  -8252 2696 l  -8252 -3449 l 
5410 -3449 l  5410 2696 l  -1421 2696 l  pc
5410 2694 m  -8252 2694 l  ps
5410 -378 m  -8252 -378 l  ps
5410 -3451 m  -8252 -3451 l  ps

-8252 2845 m  -8252 2695 l  ps
-8252 2845 m  -8252 2695 l  ps
-3698 2845 m  -3698 2695 l  ps
-3698 2845 m  -3698 2695 l  ps
855 2845 m  855 2695 l  ps
855 2845 m  855 2695 l  ps
5410 2845 m  5410 2695 l  ps
5410 2845 m  5410 2695 l  ps
-8252 2695 m  5410 2695 l  ps
-8402 2694 m  -8252 2694 l  ps
-8402 2694 m  -8252 2694 l  ps
-8402 -378 m  -8252 -378 l  ps
-8402 -378 m  -8252 -378 l  ps
-8402 -3451 m  -8252 -3451 l  ps
-8402 -3451 m  -8252 -3451 l  ps
-8252 2695 m  -8252 -3451 l  ps
80 lw 0.003 0.273 0.527 c -8252 1023 m  -8025 1013 l  -7797 1003 l  -7569 993 l 
-7342 983 l  -7114 974 l  -6886 965 l  -6658 957 l  -6431 950 l  -6203 943 l 
-5975 938 l  -5748 933 l  -5520 929 l  -5292 926 l  -5064 925 l  -4837 925 l 
-4609 926 l  -4381 929 l  -4154 934 l  -3926 940 l  -3698 948 l  -3470 958 l 
-3243 970 l  -3015 982 l  -2787 994 l  -2560 1007 l  -2332 1018 l  -2104 1029 l 
-1876 1037 l  -1649 1044 l  -1421 1047 l  -1193 1047 l  -966 1044 l  -738 1035 l 
-510 1022 l  -282 1004 l  -55 979 l  172 949 l  400 911 l  627 865 l  855 811 l 
1083 749 l  1311 679 l  1538 601 l  1766 516 l  1994 424 l  2221 325 l 
2449 220 l  2677 110 l  2905 -4 l  3132 -124 l  3360 -249 l  3588 -377 l 
3815 -509 l  4043 -643 l  4271 -781 l  4499 -920 l  4726 -1061 l  4954 -1204 l 
5182 -1347 l  5410 -1491 l  ps
1.000 0.261 0.058 c -8252 1023 m  -8025 1020 l  -7797 1017 l  -7569 1014 l 
-7342 1011 l  -7114 1008 l  -6886 1005 l  -6658 1002 l  -6431 999 l  -6203 996 l 
-5975 992 l  -5748 989 l  -5520 985 l  -5292 981 l  -5064 977 l  -4837 973 l 
-4609 968 l  -4381 964 l  -4154 959 l  -3926 954 l  -3698 948 l  -3470 943 l 
-3243 936 l  -3015 929 l  -2787 920 l  -2560 910 l  -2332 897 l  -2104 882 l 
-1876 864 l  -1649 842 l  -1421 817 l  -1193 788 l  -966 754 l  -738 716 l 
-510 672 l  -282 623 l  -55 568 l  172 507 l  400 439 l  627 364 l  855 281 l 
1083 191 l  1311 93 l  1538 -10 l  1766 -122 l  1994 -239 l  2221 -363 l 
2449 -492 l  2677 -626 l  2905 -764 l  3132 -907 l  3360 -1054 l  3588 -1205 l 
3815 -1358 l  4043 -1515 l  4271 -1673 l  4499 -1834 l  4726 -1996 l  4954 -2159 l 
5182 -2323 l  5410 -2488 l  ps
1.000 0.828 0.128 c -8252 948 m  -8025 907 l  -7797 865 l  -7569 824 l 
-7342 783 l  -7114 743 l  -6886 703 l  -6658 664 l  -6431 625 l  -6203 588 l 
-5975 552 l  -5748 517 l  -5520 484 l  -5292 452 l  -5064 422 l  -4837 393 l 
-4609 367 l  -4381 342 l  -4154 319 l  -3926 299 l  -3698 281 l  -3470 266 l 
-3243 253 l  -3015 242 l  -2787 233 l  -2560 226 l  -2332 222 l  -2104 219 l 
-1876 217 l  -1649 217 l  -1421 219 l  -1193 221 l  -966 225 l  -738 230 l 
-510 236 l  -282 242 l  -55 249 l  172 257 l  400 265 l  627 273 l  855 281 l 
ps
0.343 0.617 0.113 c -8252 985 m  -8025 943 l  -7797 902 l  -7569 860 l 
-7342 818 l  -7114 777 l  -6886 735 l  -6658 694 l  -6431 653 l  -6203 612 l 
-5975 571 l  -5748 530 l  -5520 490 l  -5292 450 l  -5064 410 l  -4837 370 l 
-4609 330 l  -4381 291 l  -4154 253 l  -3926 214 l  -3698 176 l  -3470 138 l 
-3243 101 l  -3015 64 l  -2787 27 l  -2560 -8 l  -2332 -44 l  -2104 -80 l 
-1876 -116 l  -1649 -151 l  -1421 -186 l  -1193 -221 l  -966 -256 l  -738 -290 l 
-510 -325 l  -282 -359 l  -55 -394 l  172 -428 l  400 -462 l  627 -496 l 
855 -530 l  ps

0.105 0.105 0.105 c
/Helvetica f
353 sf -8623 3263 m  185 0 (1) bs
185 185 (0) bs
185 370 (0) bs
185 556 (0) bs

/Helvetica f
353 sf -4161 3263 m  185 0 (1) bs
185 185 (0) bs
185 370 (0) bs
185 556 (0) bs
185 741 (0) bs

/Helvetica f
353 sf 300 3263 m  185 0 (1) bs
185 185 (0) bs
185 370 (0) bs
185 556 (0) bs
185 741 (0) bs
185 926 (0) bs

/Helvetica f
353 sf 4763 3263 m  185 0 (1) bs
185 185 (0) bs
185 370 (0) bs
185 556 (0) bs
185 741 (0) bs
185 926 (0) bs
185 1111 (0) bs

/Helvetica f
353 sf -9243 2815 m  185 0 (1) bs
185 185 (0) bs
185 370 (0) bs
185 556 (0) bs

/Helvetica f
353 sf -9428 -258 m  185 0 (1) bs
185 185 (0) bs
185 370 (0) bs
185 556 (0) bs
185 741 (0) bs

/Helvetica f
353 sf -9613 -3331 m  185 0 (1) bs
185 185 (0) bs
185 370 (0) bs
185 556 (0) bs
185 741 (0) bs
185 926 (0) bs


50 lw 0.003 0.273 0.527 c 7060 -748 m  7860 -748 l  ps

1.000 0.261 0.058 c 7060 -250 m  7860 -250 l  ps

1.000 0.828 0.128 c 7060 247 m  7860 247 l  ps

0.343 0.617 0.113 c 7060 745 m  7860 745 l  ps

0.105 0.105 0.105 c
/Helvetica f
353 sf 7960 -628 m  185 0 (1) bs
185 185 (0) bs
106 370 ( ) bs
238 476 (D) bs
185 714 (o) bs
185 900 (c) bs
185 1085 (u) bs
291 1270 (m) bs
185 1561 (e) bs
185 1746 (n) bs
106 1931 (t) bs
185 2037 (s) bs

/Helvetica f
353 sf 7960 -130 m  185 0 (1) bs
185 185 (0) bs
185 370 (0) bs
106 556 ( ) bs
238 661 (D) bs
185 900 (o) bs
185 1085 (c) bs
185 1270 (u) bs
291 1455 (m) bs
185 1746 (e) bs
185 1931 (n) bs
106 2117 (t) bs
185 2223 (s) bs

/Helvetica f
353 sf 7960 367 m  185 0 (1) bs
185 185 (0) bs
185 370 (0) bs
185 556 (0) bs
106 741 ( ) bs
238 847 (D) bs
185 1085 (o) bs
185 1270 (c) bs
185 1455 (u) bs
291 1640 (m) bs
185 1931 (e) bs
185 2117 (n) bs
106 2302 (t) bs
185 2408 (s) bs

/Helvetica f
353 sf 7960 865 m  185 0 (1) bs
185 185 (0) bs
185 370 (0) bs
185 556 (0) bs
185 741 (0) bs
106 926 ( ) bs
238 1032 (D) bs
185 1270 (o) bs
185 1455 (c) bs
185 1640 (u) bs
291 1826 (m) bs
185 2117 (e) bs
185 2302 (n) bs
106 2487 (t) bs
185 2593 (s) bs

/Helvetica f
318 sf -2584 3909 m  212 0 (B) bs
185 212 (a) bs
185 397 (s) bs
185 582 (e) bs
79 767 ( ) bs
212 847 (P) bs
185 1058 (a) bs
79 1244 (i) bs
106 1323 (r) bs
185 1429 (s) bs

/Helvetica f
318 sf -10230 786 m  gs 90.0 r 238 0 (M) bs
185 238 (e) bs
291 423 (m) bs
185 714 (o) bs
106 900 (r) bs
132 1005 (y) bs
79 1138 ( ) bs
106 1217 (\() bs
238 1323 (M) bs
212 1561 (B) bs
106 1773 (\)) bs
gr
0 9008 t 
pom
count op_count sub {pop} repeat countdictstack dict_count sub {end} repeat b4_inc_state restore
%%PageTrailer
%%Trailer
%%EOF
