%!PS-Adobe-3.0 EPSF-3.0 
%%BoundingBox: 0 0 621 222
%%Pages: 0
%%Creator: Sun Microsystems, Inc.
%%Title: none
%%CreationDate: none
%%LanguageLevel: 2
%%EndComments
%%BeginProlog
%%BeginResource: procset SDRes-Prolog 1.0 0
/b4_inc_state save def
/dict_count countdictstack def
/op_count count 1 sub def
userdict begin
0 setgray 0 setlinecap 1 setlinewidth 0 setlinejoin 10 setmiterlimit[] 0 setdash newpath
/languagelevel where {pop languagelevel 1 ne {false setstrokeadjust false setoverprint} if} if
/bdef {bind def} bind def
/c {setrgbcolor} bdef
/l {neg lineto} bdef
/rl {neg rlineto} bdef
/lc {setlinecap} bdef
/lj {setlinejoin} bdef
/lw {setlinewidth} bdef
/ml {setmiterlimit} bdef
/ld {setdash} bdef
/m {neg moveto} bdef
/ct {6 2 roll neg 6 2 roll neg 6 2 roll neg curveto} bdef
/r {rotate} bdef
/t {neg translate} bdef
/s {scale} bdef
/sw {show} bdef
/gs {gsave} bdef
/gr {grestore} bdef
/f {findfont dup length dict begin
{1 index /FID ne {def} {pop pop} ifelse} forall /Encoding ISOLatin1Encoding def
currentdict end /NFont exch definefont pop /NFont findfont} bdef
/p {closepath} bdef
/sf {scalefont setfont} bdef
/ef {eofill}bdef
/pc {closepath stroke}bdef
/ps {stroke}bdef
/pum {matrix currentmatrix}bdef
/pom {setmatrix}bdef
/bs {/aString exch def /nXOfs exch def /nWidth exch def currentpoint nXOfs 0 rmoveto pum nWidth aString stringwidth pop div 1 scale aString show pom moveto} bdef
%%EndResource
%%EndProlog
%%BeginSetup
%%EndSetup
%%Page: 1 1
%%BeginPageSetup
%%EndPageSetup
pum
0.02836 0.02834 s 
0 -7833 t
/tm matrix currentmatrix def
tm setmatrix
10945 3916 t 
1 1 s 

1.000 1.000 1.000 c 0 3916 m  -10945 3916 l  -10945 -3916 l  10945 -3916 l 
10945 3916 l  0 3916 l  p ef



0 lw 1 lj 0.703 0.703 0.703 c -1047 2132 m  -7394 2132 l  -7394 -2957 l 
5299 -2957 l  5299 2132 l  -1047 2132 l  pc
5299 2130 m  -7394 2130 l  ps
5299 1282 m  -7394 1282 l  ps
5299 434 m  -7394 434 l  ps
5299 -414 m  -7394 -414 l  ps
5299 -1262 m  -7394 -1262 l  ps
5299 -2110 m  -7394 -2110 l  ps
5299 -2959 m  -7394 -2959 l  ps

-7394 2281 m  -7394 2131 l  ps
-7394 2281 m  -7394 2131 l  ps
-3163 2281 m  -3163 2131 l  ps
-3163 2281 m  -3163 2131 l  ps
1067 2281 m  1067 2131 l  ps
1067 2281 m  1067 2131 l  ps
5299 2281 m  5299 2131 l  ps
5299 2281 m  5299 2131 l  ps
-7394 2131 m  5299 2131 l  ps
-7544 2131 m  -7394 2131 l  ps
-7544 2131 m  -7394 2131 l  ps
-7544 1282 m  -7394 1282 l  ps
-7544 1282 m  -7394 1282 l  ps
-7544 434 m  -7394 434 l  ps
-7544 434 m  -7394 434 l  ps
-7544 -414 m  -7394 -414 l  ps
-7544 -414 m  -7394 -414 l  ps
-7544 -1262 m  -7394 -1262 l  ps
-7544 -1262 m  -7394 -1262 l  ps
-7544 -2110 m  -7394 -2110 l  ps
-7544 -2110 m  -7394 -2110 l  ps
-7544 -2959 m  -7394 -2959 l  ps
-7544 -2959 m  -7394 -2959 l  ps
-7394 2131 m  -7394 -2959 l  ps
80 lw 0.003 0.273 0.527 c -7394 1667 m  -7183 1628 l  -6971 1589 l  -6760 1550 l 
-6548 1511 l  -6337 1472 l  -6125 1433 l  -5914 1394 l  -5702 1355 l  -5490 1316 l 
-5279 1277 l  -5067 1239 l  -4856 1200 l  -4644 1162 l  -4433 1124 l  -4221 1086 l 
-4009 1048 l  -3798 1010 l  -3586 973 l  -3375 935 l  -3163 898 l  -2952 861 l 
-2740 824 l  -2528 788 l  -2317 751 l  -2105 714 l  -1894 677 l  -1682 639 l 
-1471 602 l  -1259 563 l  -1047 524 l  -836 485 l  -624 444 l  -413 403 l 
-201 361 l  9 318 l  221 274 l  432 229 l  644 182 l  856 134 l  1067 84 l 
1279 33 l  1490 -18 l  1702 -72 l  1913 -127 l  2125 -183 l  2337 -241 l 
2548 -299 l  2760 -359 l  2971 -420 l  3183 -481 l  3394 -543 l  3606 -606 l 
3818 -669 l  4029 -733 l  4241 -798 l  4452 -863 l  4664 -928 l  4875 -993 l 
5087 -1059 l  5299 -1124 l  ps
1.000 0.261 0.058 c -7394 917 m  -7183 866 l  -6971 816 l  -6760 765 l  -6548 716 l 
-6337 666 l  -6125 618 l  -5914 570 l  -5702 523 l  -5490 477 l  -5279 433 l 
-5067 390 l  -4856 348 l  -4644 308 l  -4433 269 l  -4221 233 l  -4009 198 l 
-3798 166 l  -3586 136 l  -3375 108 l  -3163 83 l  -2952 61 l  -2740 41 l 
-2528 23 l  -2317 6 l  -2105 -8 l  -1894 -23 l  -1682 -37 l  -1471 -52 l 
-1259 -66 l  -1047 -82 l  -836 -98 l  -624 -116 l  -413 -136 l  -201 -158 l 
9 -183 l  221 -211 l  432 -242 l  644 -277 l  856 -317 l  1067 -360 l 
1279 -409 l  1490 -462 l  1702 -520 l  1913 -582 l  2125 -648 l  2337 -718 l 
2548 -791 l  2760 -867 l  2971 -946 l  3183 -1028 l  3394 -1113 l  3606 -1199 l 
3818 -1288 l  4029 -1378 l  4241 -1470 l  4452 -1563 l  4664 -1657 l  4875 -1752 l 
5087 -1848 l  5299 -1943 l  ps
1.000 0.828 0.128 c -7394 112 m  -7183 69 l  -6971 25 l  -6760 -17 l  -6548 -60 l 
-6337 -103 l  -6125 -147 l  -5914 -190 l  -5702 -233 l  -5490 -276 l  -5279 -319 l 
-5067 -362 l  -4856 -405 l  -4644 -448 l  -4433 -491 l  -4221 -533 l  -4009 -576 l 
-3798 -618 l  -3586 -661 l  -3375 -703 l  -3163 -745 l  -2952 -787 l  -2740 -829 l 
-2528 -871 l  -2317 -913 l  -2105 -954 l  -1894 -996 l  -1682 -1037 l 
-1471 -1079 l  -1259 -1120 l  -1047 -1161 l  -836 -1203 l  -624 -1244 l 
-413 -1285 l  -201 -1326 l  9 -1367 l  221 -1408 l  432 -1449 l  644 -1490 l 
856 -1531 l  1067 -1572 l  ps
0.343 0.617 0.113 c -7394 -732 m  -7183 -774 l  -6971 -817 l  -6760 -859 l 
-6548 -901 l  -6337 -943 l  -6125 -986 l  -5914 -1028 l  -5702 -1070 l 
-5490 -1112 l  -5279 -1154 l  -5067 -1196 l  -4856 -1238 l  -4644 -1280 l 
-4433 -1322 l  -4221 -1364 l  -4009 -1405 l  -3798 -1447 l  -3586 -1489 l 
-3375 -1530 l  -3163 -1571 l  -2952 -1613 l  -2740 -1654 l  -2528 -1695 l 
-2317 -1736 l  -2105 -1777 l  -1894 -1818 l  -1682 -1859 l  -1471 -1900 l 
-1259 -1941 l  -1047 -1981 l  -836 -2022 l  -624 -2063 l  -413 -2103 l 
-201 -2144 l  9 -2184 l  221 -2225 l  432 -2265 l  644 -2306 l  856 -2346 l 
1067 -2387 l  ps

0.105 0.105 0.105 c
/Helvetica f
353 sf -7765 2699 m  185 0 (1) bs
185 185 (0) bs
185 370 (0) bs
185 556 (0) bs

/Helvetica f
353 sf -3626 2699 m  185 0 (1) bs
185 185 (0) bs
185 370 (0) bs
185 556 (0) bs
185 741 (0) bs

/Helvetica f
353 sf 512 2699 m  185 0 (1) bs
185 185 (0) bs
185 370 (0) bs
185 556 (0) bs
185 741 (0) bs
185 926 (0) bs

/Helvetica f
353 sf 4652 2699 m  185 0 (1) bs
185 185 (0) bs
185 370 (0) bs
185 556 (0) bs
185 741 (0) bs
185 926 (0) bs
185 1111 (0) bs

/Helvetica f
353 sf -8385 2252 m  185 0 (1) bs
185 185 (0) bs
185 370 (0) bs
185 556 (0) bs

/Helvetica f
353 sf -8570 1403 m  185 0 (1) bs
185 185 (0) bs
185 370 (0) bs
185 556 (0) bs
185 741 (0) bs

/Helvetica f
353 sf -8755 555 m  185 0 (1) bs
185 185 (0) bs
185 370 (0) bs
185 556 (0) bs
185 741 (0) bs
185 926 (0) bs

/Helvetica f
353 sf -8940 -294 m  185 0 (1) bs
185 185 (0) bs
185 370 (0) bs
185 556 (0) bs
185 741 (0) bs
185 926 (0) bs
185 1111 (0) bs

/Helvetica f
353 sf -9126 -1142 m  185 0 (1) bs
185 185 (0) bs
185 370 (0) bs
185 556 (0) bs
185 741 (0) bs
185 926 (0) bs
185 1111 (0) bs
185 1296 (0) bs

/Helvetica f
353 sf -9311 -1990 m  185 0 (1) bs
185 185 (0) bs
185 370 (0) bs
185 556 (0) bs
185 741 (0) bs
185 926 (0) bs
185 1111 (0) bs
185 1296 (0) bs
185 1482 (0) bs

/Helvetica f
353 sf -9496 -2839 m  185 0 (1) bs
185 185 (0) bs
185 370 (0) bs
185 556 (0) bs
185 741 (0) bs
185 926 (0) bs
185 1111 (0) bs
185 1296 (0) bs
185 1482 (0) bs
185 1667 (0) bs


50 lw 0.003 0.273 0.527 c 6939 -748 m  7739 -748 l  ps

1.000 0.261 0.058 c 6939 -250 m  7739 -250 l  ps

1.000 0.828 0.128 c 6939 247 m  7739 247 l  ps

0.343 0.617 0.113 c 6939 745 m  7739 745 l  ps

0.105 0.105 0.105 c
/Helvetica f
353 sf 7839 -628 m  185 0 (1) bs
185 185 (0) bs
106 370 ( ) bs
238 476 (D) bs
185 714 (o) bs
185 900 (c) bs
185 1085 (u) bs
291 1270 (m) bs
185 1561 (e) bs
185 1746 (n) bs
106 1931 (t) bs
185 2037 (s) bs

/Helvetica f
353 sf 7839 -130 m  185 0 (1) bs
185 185 (0) bs
185 370 (0) bs
106 556 ( ) bs
238 661 (D) bs
185 900 (o) bs
185 1085 (c) bs
185 1270 (u) bs
291 1455 (m) bs
185 1746 (e) bs
185 1931 (n) bs
106 2117 (t) bs
185 2223 (s) bs

/Helvetica f
353 sf 7839 367 m  185 0 (1) bs
185 185 (0) bs
185 370 (0) bs
185 556 (0) bs
106 741 ( ) bs
238 847 (D) bs
185 1085 (o) bs
185 1270 (c) bs
185 1455 (u) bs
291 1640 (m) bs
185 1931 (e) bs
185 2117 (n) bs
106 2302 (t) bs
185 2408 (s) bs

/Helvetica f
353 sf 7839 865 m  185 0 (1) bs
185 185 (0) bs
185 370 (0) bs
185 556 (0) bs
185 741 (0) bs
106 926 ( ) bs
238 1032 (D) bs
185 1270 (o) bs
185 1455 (c) bs
185 1640 (u) bs
291 1826 (m) bs
185 2117 (e) bs
185 2302 (n) bs
106 2487 (t) bs
185 2593 (s) bs

/Helvetica f
318 sf -2581 3322 m  212 0 (B) bs
185 212 (a) bs
185 397 (s) bs
185 582 (e) bs
79 767 ( ) bs
212 847 (P) bs
185 1058 (a) bs
79 1244 (i) bs
106 1323 (r) bs
185 1429 (s) bs

/Helvetica f
318 sf -10108 736 m  gs 90.0 r 212 0 (S) bs
79 212 (t) bs
185 291 (o) bs
106 476 (r) bs
185 582 (a) bs
185 767 (g) bs
185 953 (e) bs
79 1138 ( ) bs
106 1217 (\() bs
212 1323 (K) bs
212 1535 (B) bs
106 1746 (\)) bs
gr
0 7833 t 
pom
count op_count sub {pop} repeat countdictstack dict_count sub {end} repeat b4_inc_state restore
%%PageTrailer
%%Trailer
%%EOF
