%!PS-Adobe-3.0 EPSF-3.0 
%%BoundingBox: 0 0 650 213
%%Pages: 0
%%Creator: Sun Microsystems, Inc.
%%Title: none
%%CreationDate: none
%%LanguageLevel: 2
%%EndComments
%%BeginProlog
%%BeginResource: procset SDRes-Prolog 1.0 0
/b4_inc_state save def
/dict_count countdictstack def
/op_count count 1 sub def
userdict begin
0 setgray 0 setlinecap 1 setlinewidth 0 setlinejoin 10 setmiterlimit[] 0 setdash newpath
/languagelevel where {pop languagelevel 1 ne {false setstrokeadjust false setoverprint} if} if
/bdef {bind def} bind def
/c {setrgbcolor} bdef
/l {neg lineto} bdef
/rl {neg rlineto} bdef
/lc {setlinecap} bdef
/lj {setlinejoin} bdef
/lw {setlinewidth} bdef
/ml {setmiterlimit} bdef
/ld {setdash} bdef
/m {neg moveto} bdef
/ct {6 2 roll neg 6 2 roll neg 6 2 roll neg curveto} bdef
/r {rotate} bdef
/t {neg translate} bdef
/s {scale} bdef
/sw {show} bdef
/gs {gsave} bdef
/gr {grestore} bdef
/f {findfont dup length dict begin
{1 index /FID ne {def} {pop pop} ifelse} forall /Encoding ISOLatin1Encoding def
currentdict end /NFont exch definefont pop /NFont findfont} bdef
/p {closepath} bdef
/sf {scalefont setfont} bdef
/ef {eofill}bdef
/pc {closepath stroke}bdef
/ps {stroke}bdef
/pum {matrix currentmatrix}bdef
/pom {setmatrix}bdef
/bs {/aString exch def /nXOfs exch def /nWidth exch def currentpoint nXOfs 0 rmoveto pum nWidth aString stringwidth pop div 1 scale aString show pom moveto} bdef
%%EndResource
%%EndProlog
%%BeginSetup
%%EndSetup
%%Page: 1 1
%%BeginPageSetup
%%EndPageSetup
pum
0.02835 0.02835 s 
0 -7513 t
/tm matrix currentmatrix def
tm setmatrix
11460 3756 t 
1 1 s 

1.000 1.000 1.000 c 0 3756 m  -11460 3756 l  -11460 -3756 l  11460 -3756 l 
11460 3756 l  0 3756 l  p ef



0 lw 1 lj 0.703 0.703 0.703 c -879 1978 m  -8258 1978 l  -8258 -2822 l 
6499 -2822 l  6499 1978 l  -879 1978 l  pc
6499 1977 m  -8258 1977 l  ps
6499 776 m  -8258 776 l  ps
6499 -423 m  -8258 -423 l  ps
6499 -1623 m  -8258 -1623 l  ps
6499 -2823 m  -8258 -2823 l  ps

-8258 2127 m  -8258 1977 l  ps
-8258 2127 m  -8258 1977 l  ps
-4569 2127 m  -4569 1977 l  ps
-4569 2127 m  -4569 1977 l  ps
-879 2127 m  -879 1977 l  ps
-879 2127 m  -879 1977 l  ps
2809 2127 m  2809 1977 l  ps
2809 2127 m  2809 1977 l  ps
6499 2127 m  6499 1977 l  ps
6499 2127 m  6499 1977 l  ps
-8258 1977 m  6499 1977 l  ps
-8408 1976 m  -8258 1976 l  ps
-8408 1976 m  -8258 1976 l  ps
-8408 776 m  -8258 776 l  ps
-8408 776 m  -8258 776 l  ps
-8408 -423 m  -8258 -423 l  ps
-8408 -423 m  -8258 -423 l  ps
-8408 -1623 m  -8258 -1623 l  ps
-8408 -1623 m  -8258 -1623 l  ps
-8408 -2823 m  -8258 -2823 l  ps
-8408 -2823 m  -8258 -2823 l  ps
-8258 1977 m  -8258 -2823 l  ps
80 lw 0.003 0.273 0.527 c -8258 -343 m  -4569 -2159 l  -879 -2169 l  2809 -2208 l 
6499 -2203 l  ps
1.000 0.261 0.058 c -8258 856 m  -4569 -959 l  -879 -969 l  2809 -1008 l 
6499 -1003 l  ps

0.105 0.105 0.105 c
/Helvetica f
353 sf -8351 2545 m  185 0 (1) bs

/Helvetica f
353 sf -4662 2545 m  185 0 (5) bs

/Helvetica f
353 sf -1064 2545 m  185 0 (1) bs
185 185 (0) bs

/Helvetica f
353 sf 2625 2545 m  185 0 (1) bs
185 185 (5) bs

/Helvetica f
353 sf 6315 2545 m  185 0 (2) bs
185 185 (0) bs

/Helvetica f
353 sf -9249 2097 m  185 0 (1) bs
185 185 (0) bs
185 370 (0) bs
185 556 (0) bs

/Helvetica f
353 sf -9434 897 m  185 0 (1) bs
185 185 (0) bs
185 370 (0) bs
185 556 (0) bs
185 741 (0) bs

/Helvetica f
353 sf -9619 -303 m  185 0 (1) bs
185 185 (0) bs
185 370 (0) bs
185 556 (0) bs
185 741 (0) bs
185 926 (0) bs

/Helvetica f
353 sf -9804 -1503 m  185 0 (1) bs
185 185 (0) bs
185 370 (0) bs
185 556 (0) bs
185 741 (0) bs
185 926 (0) bs
185 1111 (0) bs

/Helvetica f
353 sf -9990 -2703 m  185 0 (1) bs
185 185 (0) bs
185 370 (0) bs
185 556 (0) bs
185 741 (0) bs
185 926 (0) bs
185 1111 (0) bs
185 1296 (0) bs


50 lw 0.003 0.273 0.527 c 7718 -250 m  8518 -250 l  ps

1.000 0.261 0.058 c 7718 247 m  8518 247 l  ps

0.105 0.105 0.105 c
/Helvetica f
353 sf 8618 -130 m  185 0 (T) bs
185 185 (o) bs
106 370 (t) bs
185 476 (a) bs
79 661 (l) bs
106 741 ( ) bs
185 847 (T) bs
79 1032 (i) bs
291 1111 (m) bs
185 1402 (e) bs

/Helvetica f
353 sf 8618 367 m  238 0 (A) bs
132 238 (v) bs
185 370 (e) bs
106 556 (r) bs
185 661 (a) bs
185 847 (g) bs
185 1032 (e) bs
106 1217 ( ) bs
185 1323 (p) bs
185 1508 (e) bs
106 1693 (r) bs
106 1799 ( ) bs
238 1905 (D) bs
185 2143 (o) bs
185 2328 (c) bs

/Helvetica f
318 sf -2155 3162 m  159 0 (k) bs
79 159 ( ) bs
238 238 (D) bs
185 476 (e) bs
79 661 (l) bs
79 741 (t) bs
185 820 (a) bs

/Helvetica f
318 sf -10623 727 m  gs 90.0 r 185 0 (T) bs
79 185 (i) bs
291 265 (m) bs
185 556 (e) bs
79 741 ( ) bs
106 820 (\() bs
291 926 (m) bs
185 1217 (s) bs
185 1402 (e) bs
159 1588 (c) bs
106 1746 (\)) bs
gr
0 7513 t 
pom
count op_count sub {pop} repeat countdictstack dict_count sub {end} repeat b4_inc_state restore
%%PageTrailer
%%Trailer
%%EOF
