%!PS-Adobe-3.0 EPSF-3.0 
%%BoundingBox: 0 0 646 217
%%Pages: 0
%%Creator: Sun Microsystems, Inc.
%%Title: none
%%CreationDate: none
%%LanguageLevel: 2
%%EndComments
%%BeginProlog
%%BeginResource: procset SDRes-Prolog 1.0 0
/b4_inc_state save def
/dict_count countdictstack def
/op_count count 1 sub def
userdict begin
0 setgray 0 setlinecap 1 setlinewidth 0 setlinejoin 10 setmiterlimit[] 0 setdash newpath
/languagelevel where {pop languagelevel 1 ne {false setstrokeadjust false setoverprint} if} if
/bdef {bind def} bind def
/c {setrgbcolor} bdef
/l {neg lineto} bdef
/rl {neg rlineto} bdef
/lc {setlinecap} bdef
/lj {setlinejoin} bdef
/lw {setlinewidth} bdef
/ml {setmiterlimit} bdef
/ld {setdash} bdef
/m {neg moveto} bdef
/ct {6 2 roll neg 6 2 roll neg 6 2 roll neg curveto} bdef
/r {rotate} bdef
/t {neg translate} bdef
/s {scale} bdef
/sw {show} bdef
/gs {gsave} bdef
/gr {grestore} bdef
/f {findfont dup length dict begin
{1 index /FID ne {def} {pop pop} ifelse} forall /Encoding ISOLatin1Encoding def
currentdict end /NFont exch definefont pop /NFont findfont} bdef
/p {closepath} bdef
/sf {scalefont setfont} bdef
/ef {eofill}bdef
/pc {closepath stroke}bdef
/ps {stroke}bdef
/pum {matrix currentmatrix}bdef
/pom {setmatrix}bdef
/bs {/aString exch def /nXOfs exch def /nWidth exch def currentpoint nXOfs 0 rmoveto pum nWidth aString stringwidth pop div 1 scale aString show pom moveto} bdef
%%EndResource
%%EndProlog
%%BeginSetup
%%EndSetup
%%Page: 1 1
%%BeginPageSetup
%%EndPageSetup
pum
0.02836 0.02829 s 
0 -7668 t
/tm matrix currentmatrix def
tm setmatrix
11386 3834 t 
1 1 s 

1.000 1.000 1.000 c -1 3833 m  -11386 3833 l  -11386 -3834 l  11385 -3834 l 
11385 3833 l  -1 3833 l  p ef



0 lw 1 lj 0.703 0.703 0.703 c -878 2052 m  -8187 2052 l  -8187 -2888 l 
6430 -2888 l  6430 2052 l  -878 2052 l  pc
6430 2051 m  -8187 2051 l  ps
6430 815 m  -8187 815 l  ps
6430 -419 m  -8187 -419 l  ps
6430 -1654 m  -8187 -1654 l  ps
6430 -2889 m  -8187 -2889 l  ps

-8187 2201 m  -8187 2051 l  ps
-8187 2201 m  -8187 2051 l  ps
-6360 2201 m  -6360 2051 l  ps
-6360 2201 m  -6360 2051 l  ps
-4533 2201 m  -4533 2051 l  ps
-4533 2201 m  -4533 2051 l  ps
-2706 2201 m  -2706 2051 l  ps
-2706 2201 m  -2706 2051 l  ps
-878 2201 m  -878 2051 l  ps
-878 2201 m  -878 2051 l  ps
948 2201 m  948 2051 l  ps
948 2201 m  948 2051 l  ps
2775 2201 m  2775 2051 l  ps
2775 2201 m  2775 2051 l  ps
4602 2201 m  4602 2051 l  ps
4602 2201 m  4602 2051 l  ps
6430 2201 m  6430 2051 l  ps
6430 2201 m  6430 2051 l  ps
-8187 2051 m  6430 2051 l  ps
-8337 2050 m  -8187 2050 l  ps
-8337 2050 m  -8187 2050 l  ps
-8337 815 m  -8187 815 l  ps
-8337 815 m  -8187 815 l  ps
-8337 -419 m  -8187 -419 l  ps
-8337 -419 m  -8187 -419 l  ps
-8337 -1654 m  -8187 -1654 l  ps
-8337 -1654 m  -8187 -1654 l  ps
-8337 -2889 m  -8187 -2889 l  ps
-8337 -2889 m  -8187 -2889 l  ps
-8187 2051 m  -8187 -2889 l  ps
80 lw 0.003 0.273 0.527 c -8187 -863 m  -6360 -1546 l  -4533 -1916 l  -2706 -1936 l 
-878 -1979 l  948 -2003 l  2775 -2021 l  4602 -2032 l  6430 -2160 l  ps
1.000 0.261 0.058 c -8187 1607 m  -6360 924 l  -4533 553 l  -2706 533 l 
-878 491 l  948 467 l  2775 449 l  4602 437 l  6430 309 l  ps

0.105 0.105 0.105 c
/Helvetica f
353 sf -8280 2619 m  185 0 (5) bs

/Helvetica f
353 sf -6545 2619 m  185 0 (1) bs
185 185 (0) bs

/Helvetica f
353 sf -4718 2619 m  185 0 (1) bs
185 185 (5) bs

/Helvetica f
353 sf -2891 2619 m  185 0 (2) bs
185 185 (0) bs

/Helvetica f
353 sf -1063 2619 m  185 0 (2) bs
185 185 (5) bs

/Helvetica f
353 sf 764 2619 m  185 0 (3) bs
185 185 (0) bs

/Helvetica f
353 sf 2591 2619 m  185 0 (3) bs
185 185 (5) bs

/Helvetica f
353 sf 4418 2619 m  185 0 (4) bs
185 185 (0) bs

/Helvetica f
353 sf 6246 2619 m  185 0 (5) bs
185 185 (0) bs

/Helvetica f
353 sf -9178 2171 m  185 0 (1) bs
185 185 (0) bs
185 370 (0) bs
185 556 (0) bs

/Helvetica f
353 sf -9363 936 m  185 0 (1) bs
185 185 (0) bs
185 370 (0) bs
185 556 (0) bs
185 741 (0) bs

/Helvetica f
353 sf -9548 -299 m  185 0 (1) bs
185 185 (0) bs
185 370 (0) bs
185 556 (0) bs
185 741 (0) bs
185 926 (0) bs

/Helvetica f
353 sf -9733 -1534 m  185 0 (1) bs
185 185 (0) bs
185 370 (0) bs
185 556 (0) bs
185 741 (0) bs
185 926 (0) bs
185 1111 (0) bs

/Helvetica f
353 sf -9919 -2769 m  185 0 (1) bs
185 185 (0) bs
185 370 (0) bs
185 556 (0) bs
185 741 (0) bs
185 926 (0) bs
185 1111 (0) bs
185 1296 (0) bs


50 lw 0.003 0.273 0.527 c 7643 -250 m  8443 -250 l  ps

1.000 0.261 0.058 c 7643 247 m  8443 247 l  ps

0.105 0.105 0.105 c
/Helvetica f
353 sf 8543 -130 m  185 0 (T) bs
185 185 (o) bs
106 370 (t) bs
185 476 (a) bs
79 661 (l) bs
106 741 ( ) bs
185 847 (T) bs
79 1032 (i) bs
291 1111 (m) bs
185 1402 (e) bs

/Helvetica f
353 sf 8543 367 m  238 0 (A) bs
132 238 (v) bs
185 370 (e) bs
106 556 (r) bs
185 661 (a) bs
185 847 (g) bs
185 1032 (e) bs
106 1217 ( ) bs
185 1323 (p) bs
185 1508 (e) bs
106 1693 (r) bs
106 1799 ( ) bs
238 1905 (D) bs
185 2143 (o) bs
185 2328 (c) bs

/Helvetica f
318 sf -1731 3239 m  159 0 (k) bs

/Helvetica f
318 sf -10549 731 m  gs 90.0 r 185 0 (T) bs
79 185 (i) bs
291 265 (m) bs
185 556 (e) bs
79 741 ( ) bs
106 820 (\() bs
291 926 (m) bs
185 1217 (s) bs
185 1402 (e) bs
159 1588 (c) bs
106 1746 (\)) bs
gr
0 7668 t 
pom
count op_count sub {pop} repeat countdictstack dict_count sub {end} repeat b4_inc_state restore
%%PageTrailer
%%Trailer
%%EOF
