%!PS-Adobe-3.0 EPSF-3.0 
%%BoundingBox: 0 0 625 274
%%Pages: 0
%%Creator: Sun Microsystems, Inc.
%%Title: none
%%CreationDate: none
%%LanguageLevel: 2
%%EndComments
%%BeginProlog
%%BeginResource: procset SDRes-Prolog 1.0 0
/b4_inc_state save def
/dict_count countdictstack def
/op_count count 1 sub def
userdict begin
0 setgray 0 setlinecap 1 setlinewidth 0 setlinejoin 10 setmiterlimit[] 0 setdash newpath
/languagelevel where {pop languagelevel 1 ne {false setstrokeadjust false setoverprint} if} if
/bdef {bind def} bind def
/c {setrgbcolor} bdef
/l {neg lineto} bdef
/rl {neg rlineto} bdef
/lc {setlinecap} bdef
/lj {setlinejoin} bdef
/lw {setlinewidth} bdef
/ml {setmiterlimit} bdef
/ld {setdash} bdef
/m {neg moveto} bdef
/ct {6 2 roll neg 6 2 roll neg 6 2 roll neg curveto} bdef
/r {rotate} bdef
/t {neg translate} bdef
/s {scale} bdef
/sw {show} bdef
/gs {gsave} bdef
/gr {grestore} bdef
/f {findfont dup length dict begin
{1 index /FID ne {def} {pop pop} ifelse} forall /Encoding ISOLatin1Encoding def
currentdict end /NFont exch definefont pop /NFont findfont} bdef
/p {closepath} bdef
/sf {scalefont setfont} bdef
/ef {eofill}bdef
/pc {closepath stroke}bdef
/ps {stroke}bdef
/pum {matrix currentmatrix}bdef
/pom {setmatrix}bdef
/bs {/aString exch def /nXOfs exch def /nWidth exch def currentpoint nXOfs 0 rmoveto pum nWidth aString stringwidth pop div 1 scale aString show pom moveto} bdef
%%EndResource
%%EndProlog
%%BeginSetup
%%EndSetup
%%Page: 1 1
%%BeginPageSetup
%%EndPageSetup
pum
0.02836 0.02838 s 
0 -9654 t
/tm matrix currentmatrix def
tm setmatrix
11016 4827 t 
1 1 s 

1.000 1.000 1.000 c 0 4826 m  -11016 4826 l  -11016 -4827 l  11016 -4827 l 
11016 4826 l  0 4826 l  p ef



0 lw 1 lj 0.703 0.703 0.703 c -1234 3005 m  -8018 3005 l  -8018 -3721 l 
5549 -3721 l  5549 3005 l  -1234 3005 l  pc
5549 3004 m  -8018 3004 l  ps
5549 1882 m  -8018 1882 l  ps
5549 761 m  -8018 761 l  ps
5549 -359 m  -8018 -359 l  ps
5549 -1480 m  -8018 -1480 l  ps
5549 -2601 m  -8018 -2601 l  ps
5549 -3722 m  -8018 -3722 l  ps

-8018 3154 m  -8018 3004 l  ps
-8018 3154 m  -8018 3004 l  ps
-3496 3154 m  -3496 3004 l  ps
-3496 3154 m  -3496 3004 l  ps
1026 3154 m  1026 3004 l  ps
1026 3154 m  1026 3004 l  ps
5549 3154 m  5549 3004 l  ps
5549 3154 m  5549 3004 l  ps
-8018 3004 m  5549 3004 l  ps
-8168 3004 m  -8018 3004 l  ps
-8168 3004 m  -8018 3004 l  ps
-8168 1882 m  -8018 1882 l  ps
-8168 1882 m  -8018 1882 l  ps
-8168 761 m  -8018 761 l  ps
-8168 761 m  -8018 761 l  ps
-8168 -359 m  -8018 -359 l  ps
-8168 -359 m  -8018 -359 l  ps
-8168 -1480 m  -8018 -1480 l  ps
-8168 -1480 m  -8018 -1480 l  ps
-8168 -2601 m  -8018 -2601 l  ps
-8168 -2601 m  -8018 -2601 l  ps
-8168 -3722 m  -8018 -3722 l  ps
-8168 -3722 m  -8018 -3722 l  ps
-8018 3004 m  -8018 -3722 l  ps
80 lw 0.003 0.273 0.527 c -8018 276 m  -3496 -63 l  1026 -1133 l  5549 -3147 l 
ps
1.000 0.261 0.058 c -8018 1019 m  -3496 57 l  1026 -1143 l  5549 -2971 l 
ps
1.000 0.828 0.128 c -8018 1227 m  -3496 66 l  1026 -1133 l  ps

0.105 0.105 0.105 c
/Helvetica f
353 sf -8389 3572 m  185 0 (1) bs
185 185 (0) bs
185 370 (0) bs
185 556 (0) bs

/Helvetica f
353 sf -3959 3572 m  185 0 (1) bs
185 185 (0) bs
185 370 (0) bs
185 556 (0) bs
185 741 (0) bs

/Helvetica f
353 sf 471 3572 m  185 0 (1) bs
185 185 (0) bs
185 370 (0) bs
185 556 (0) bs
185 741 (0) bs
185 926 (0) bs

/Helvetica f
353 sf 4902 3572 m  185 0 (1) bs
185 185 (0) bs
185 370 (0) bs
185 556 (0) bs
185 741 (0) bs
185 926 (0) bs
185 1111 (0) bs

/Helvetica f
353 sf -8453 3125 m  185 0 (1) bs

/Helvetica f
353 sf -8638 2003 m  185 0 (1) bs
185 185 (0) bs

/Helvetica f
353 sf -8824 882 m  185 0 (1) bs
185 185 (0) bs
185 370 (0) bs

/Helvetica f
353 sf -9009 -239 m  185 0 (1) bs
185 185 (0) bs
185 370 (0) bs
185 556 (0) bs

/Helvetica f
353 sf -9194 -1360 m  185 0 (1) bs
185 185 (0) bs
185 370 (0) bs
185 556 (0) bs
185 741 (0) bs

/Helvetica f
353 sf -9379 -2481 m  185 0 (1) bs
185 185 (0) bs
185 370 (0) bs
185 556 (0) bs
185 741 (0) bs
185 926 (0) bs

/Helvetica f
353 sf -9564 -3602 m  185 0 (1) bs
185 185 (0) bs
185 370 (0) bs
185 556 (0) bs
185 741 (0) bs
185 926 (0) bs
185 1111 (0) bs


50 lw 0.003 0.273 0.527 c 7195 -499 m  7995 -499 l  ps

1.000 0.261 0.058 c 7195 -1 m  7995 -1 l  ps

1.000 0.828 0.128 c 7195 496 m  7995 496 l  ps

0.105 0.105 0.105 c
/Helvetica f
353 sf 8095 -379 m  185 0 (1) bs
185 185 (0) bs
106 370 ( ) bs
238 476 (D) bs
185 714 (o) bs
185 900 (c) bs
185 1085 (u) bs
291 1270 (m) bs
185 1561 (e) bs
185 1746 (n) bs
106 1931 (t) bs
185 2037 (s) bs

/Helvetica f
353 sf 8095 118 m  185 0 (1) bs
185 185 (0) bs
185 370 (0) bs
106 556 ( ) bs
238 661 (D) bs
185 900 (o) bs
185 1085 (c) bs
185 1270 (u) bs
291 1455 (m) bs
185 1746 (e) bs
185 1931 (n) bs
106 2117 (t) bs
185 2223 (s) bs

/Helvetica f
353 sf 8095 616 m  185 0 (1) bs
185 185 (0) bs
185 370 (0) bs
185 556 (0) bs
106 741 ( ) bs
238 847 (D) bs
185 1085 (o) bs
185 1270 (c) bs
185 1455 (u) bs
291 1640 (m) bs
185 1931 (e) bs
185 2117 (n) bs
106 2302 (t) bs
185 2408 (s) bs

/Helvetica f
318 sf -2490 4232 m  212 0 (B) bs
185 212 (a) bs
185 397 (s) bs
185 582 (e) bs
79 767 ( ) bs
212 847 (P) bs
185 1058 (a) bs
79 1244 (i) bs
106 1323 (r) bs
185 1429 (s) bs

/Helvetica f
318 sf -10179 1413 m  gs 90.0 r 185 0 (A) bs
132 185 (v) bs
185 318 (e) bs
106 503 (r) bs
185 609 (a) bs
185 794 (g) bs
185 979 (e) bs
79 1164 ( ) bs
185 1244 (T) bs
79 1429 (i) bs
291 1508 (m) bs
185 1799 (e) bs
79 1984 ( ) bs
106 2064 (\() bs
291 2170 (m) bs
185 2461 (s) bs
185 2646 (e) bs
159 2831 (c) bs
106 2990 (\)) bs
gr
0 9654 t 
pom
count op_count sub {pop} repeat countdictstack dict_count sub {end} repeat b4_inc_state restore
%%PageTrailer
%%Trailer
%%EOF
