%!PS-Adobe-3.0 EPSF-3.0 
%%BoundingBox: 0 0 855 255
%%Pages: 0
%%Creator: Sun Microsystems, Inc.
%%Title: none
%%CreationDate: none
%%LanguageLevel: 2
%%EndComments
%%BeginProlog
%%BeginResource: procset SDRes-Prolog 1.0 0
/b4_inc_state save def
/dict_count countdictstack def
/op_count count 1 sub def
userdict begin
0 setgray 0 setlinecap 1 setlinewidth 0 setlinejoin 10 setmiterlimit[] 0 setdash newpath
/languagelevel where {pop languagelevel 1 ne {false setstrokeadjust false setoverprint} if} if
/bdef {bind def} bind def
/c {setrgbcolor} bdef
/l {neg lineto} bdef
/rl {neg rlineto} bdef
/lc {setlinecap} bdef
/lj {setlinejoin} bdef
/lw {setlinewidth} bdef
/ml {setmiterlimit} bdef
/ld {setdash} bdef
/m {neg moveto} bdef
/ct {6 2 roll neg 6 2 roll neg 6 2 roll neg curveto} bdef
/r {rotate} bdef
/t {neg translate} bdef
/s {scale} bdef
/sw {show} bdef
/gs {gsave} bdef
/gr {grestore} bdef
/f {findfont dup length dict begin
{1 index /FID ne {def} {pop pop} ifelse} forall /Encoding ISOLatin1Encoding def
currentdict end /NFont exch definefont pop /NFont findfont} bdef
/p {closepath} bdef
/sf {scalefont setfont} bdef
/ef {eofill}bdef
/pc {closepath stroke}bdef
/ps {stroke}bdef
/pum {matrix currentmatrix}bdef
/pom {setmatrix}bdef
/bs {/aString exch def /nXOfs exch def /nWidth exch def currentpoint nXOfs 0 rmoveto pum nWidth aString stringwidth pop div 1 scale aString show pom moveto} bdef
%%EndResource
%%EndProlog
%%BeginSetup
%%EndSetup
%%Page: 1 1
%%BeginPageSetup
%%EndPageSetup
pum
0.02834 0.02837 s 
0 -8988 t
/tm matrix currentmatrix def
tm setmatrix
15079 4494 t 
1 1 s 

1.000 1.000 1.000 c 0 4493 m  -15079 4493 l  -15079 -4494 l  15079 -4494 l 
15079 4493 l  0 4493 l  p ef



0 lw 1 lj 0.703 0.703 0.703 c -700 2686 m  -12473 2686 l  -12473 -3444 l 
11072 -3444 l  11072 2686 l  -700 2686 l  pc
11072 2685 m  -12473 2685 l  ps
11072 1458 m  -12473 1458 l  ps
11072 232 m  -12473 232 l  ps
11072 -993 m  -12473 -993 l  ps
11072 -2219 m  -12473 -2219 l  ps
11072 -3445 m  -12473 -3445 l  ps

-12473 2835 m  -12473 2685 l  ps
-12473 2835 m  -12473 2685 l  ps
-4625 2835 m  -4625 2685 l  ps
-4625 2835 m  -4625 2685 l  ps
3223 2835 m  3223 2685 l  ps
3223 2835 m  3223 2685 l  ps
11072 2835 m  11072 2685 l  ps
11072 2835 m  11072 2685 l  ps
-12473 2685 m  11072 2685 l  ps
-12623 2685 m  -12473 2685 l  ps
-12623 2685 m  -12473 2685 l  ps
-12623 1458 m  -12473 1458 l  ps
-12623 1458 m  -12473 1458 l  ps
-12623 232 m  -12473 232 l  ps
-12623 232 m  -12473 232 l  ps
-12623 -993 m  -12473 -993 l  ps
-12623 -993 m  -12473 -993 l  ps
-12623 -2219 m  -12473 -2219 l  ps
-12623 -2219 m  -12473 -2219 l  ps
-12623 -3445 m  -12473 -3445 l  ps
-12623 -3445 m  -12473 -3445 l  ps
-12473 2685 m  -12473 -3445 l  ps
80 lw 0.003 0.273 0.527 c -12473 1153 m  -4625 1752 l  3223 1723 l  11072 1752 l 
ps
1.000 0.261 0.058 c -12473 -1817 m  -4625 -2097 l  3223 -1628 l  11072 -1381 l 
ps

0.105 0.105 0.105 c
/Helvetica f
353 sf -12566 3253 m  185 0 (5) bs

/Helvetica f
353 sf -4810 3253 m  185 0 (1) bs
185 185 (0) bs

/Helvetica f
353 sf 3039 3253 m  185 0 (1) bs
185 185 (5) bs

/Helvetica f
353 sf 10888 3253 m  185 0 (2) bs
185 185 (0) bs

/Helvetica f
353 sf -12908 2806 m  185 0 (0) bs

/Helvetica f
353 sf -13279 1579 m  185 0 (5) bs
185 185 (0) bs
185 370 (0) bs

/Helvetica f
353 sf -13464 353 m  185 0 (1) bs
185 185 (0) bs
185 370 (0) bs
185 556 (0) bs

/Helvetica f
353 sf -13464 -873 m  185 0 (1) bs
185 185 (5) bs
185 370 (0) bs
185 556 (0) bs

/Helvetica f
353 sf -13464 -2099 m  185 0 (2) bs
185 185 (0) bs
185 370 (0) bs
185 556 (0) bs

/Helvetica f
353 sf -13464 -3325 m  185 0 (2) bs
185 185 (5) bs
185 370 (0) bs
185 556 (0) bs


50 lw 0.003 0.273 0.527 c 12581 -250 m  13381 -250 l  ps

1.000 0.261 0.058 c 12581 247 m  13381 247 l  ps

0.105 0.105 0.105 c
/Helvetica f
353 sf 13481 -130 m  185 0 (1) bs
185 185 (0) bs
106 370 ( ) bs
238 476 (D) bs
185 714 (o) bs
185 900 (c) bs

/Helvetica f
353 sf 13481 367 m  185 0 (1) bs
185 185 (0) bs
185 370 (0) bs
106 556 ( ) bs
238 661 (D) bs
185 900 (o) bs
185 1085 (c) bs

/Helvetica f
318 sf -1606 3899 m  159 0 (k) bs
79 159 ( ) bs
238 238 (D) bs
185 476 (e) bs
79 661 (l) bs
79 741 (t) bs
185 820 (a) bs

/Helvetica f
318 sf -14242 770 m  gs 90.0 r 185 0 (T) bs
79 185 (i) bs
291 265 (m) bs
185 556 (e) bs
79 741 ( ) bs
106 820 (\() bs
291 926 (m) bs
185 1217 (s) bs
185 1402 (e) bs
159 1588 (c) bs
106 1746 (\)) bs
gr
0 8988 t 
pom
count op_count sub {pop} repeat countdictstack dict_count sub {end} repeat b4_inc_state restore
%%PageTrailer
%%Trailer
%%EOF
