%!PS-Adobe-3.0 EPSF-3.0 
%%BoundingBox: 0 0 869 256
%%Pages: 0
%%Creator: Sun Microsystems, Inc.
%%Title: none
%%CreationDate: none
%%LanguageLevel: 2
%%EndComments
%%BeginProlog
%%BeginResource: procset SDRes-Prolog 1.0 0
/b4_inc_state save def
/dict_count countdictstack def
/op_count count 1 sub def
userdict begin
0 setgray 0 setlinecap 1 setlinewidth 0 setlinejoin 10 setmiterlimit[] 0 setdash newpath
/languagelevel where {pop languagelevel 1 ne {false setstrokeadjust false setoverprint} if} if
/bdef {bind def} bind def
/c {setrgbcolor} bdef
/l {neg lineto} bdef
/rl {neg rlineto} bdef
/lc {setlinecap} bdef
/lj {setlinejoin} bdef
/lw {setlinewidth} bdef
/ml {setmiterlimit} bdef
/ld {setdash} bdef
/m {neg moveto} bdef
/ct {6 2 roll neg 6 2 roll neg 6 2 roll neg curveto} bdef
/r {rotate} bdef
/t {neg translate} bdef
/s {scale} bdef
/sw {show} bdef
/gs {gsave} bdef
/gr {grestore} bdef
/f {findfont dup length dict begin
{1 index /FID ne {def} {pop pop} ifelse} forall /Encoding ISOLatin1Encoding def
currentdict end /NFont exch definefont pop /NFont findfont} bdef
/p {closepath} bdef
/sf {scalefont setfont} bdef
/ef {eofill}bdef
/pc {closepath stroke}bdef
/ps {stroke}bdef
/pum {matrix currentmatrix}bdef
/pom {setmatrix}bdef
/bs {/aString exch def /nXOfs exch def /nWidth exch def currentpoint nXOfs 0 rmoveto pum nWidth aString stringwidth pop div 1 scale aString show pom moveto} bdef
%%EndResource
%%EndProlog
%%BeginSetup
%%EndSetup
%%Page: 1 1
%%BeginPageSetup
%%EndPageSetup
pum
0.02833 0.02839 s 
0 -9017 t
/tm matrix currentmatrix def
tm setmatrix
15332 4508 t 
1 1 s 

1.000 1.000 1.000 c -1 4508 m  -15332 4508 l  -15332 -4508 l  15331 -4508 l 
15331 4508 l  -1 4508 l  p ef



0 lw 1 lj 0.703 0.703 0.703 c -706 2700 m  -12716 2700 l  -12716 -3454 l 
11304 -3454 l  11304 2700 l  -706 2700 l  pc
11304 2699 m  -12716 2699 l  ps
11304 1468 m  -12716 1468 l  ps
11304 237 m  -12716 237 l  ps
11304 -994 m  -12716 -994 l  ps
11304 -2225 m  -12716 -2225 l  ps
11304 -3456 m  -12716 -3456 l  ps

-12716 2849 m  -12716 2699 l  ps
-12716 2849 m  -12716 2699 l  ps
-10047 2849 m  -10047 2699 l  ps
-10047 2849 m  -10047 2699 l  ps
-7378 2849 m  -7378 2699 l  ps
-7378 2849 m  -7378 2699 l  ps
-4709 2849 m  -4709 2699 l  ps
-4709 2849 m  -4709 2699 l  ps
-2040 2849 m  -2040 2699 l  ps
-2040 2849 m  -2040 2699 l  ps
628 2849 m  628 2699 l  ps
628 2849 m  628 2699 l  ps
3297 2849 m  3297 2699 l  ps
3297 2849 m  3297 2699 l  ps
5965 2849 m  5965 2699 l  ps
5965 2849 m  5965 2699 l  ps
8635 2849 m  8635 2699 l  ps
8635 2849 m  8635 2699 l  ps
11304 2849 m  11304 2699 l  ps
11304 2849 m  11304 2699 l  ps
-12716 2699 m  11304 2699 l  ps
-12866 2699 m  -12716 2699 l  ps
-12866 2699 m  -12716 2699 l  ps
-12866 1468 m  -12716 1468 l  ps
-12866 1468 m  -12716 1468 l  ps
-12866 237 m  -12716 237 l  ps
-12866 237 m  -12716 237 l  ps
-12866 -993 m  -12716 -993 l  ps
-12866 -993 m  -12716 -993 l  ps
-12866 -2224 m  -12716 -2224 l  ps
-12866 -2224 m  -12716 -2224 l  ps
-12866 -3455 m  -12716 -3455 l  ps
-12866 -3455 m  -12716 -3455 l  ps
-12716 2699 m  -12716 -3456 l  ps
80 lw 0.003 0.273 0.527 c -12716 1668 m  -10047 1517 l  -7378 1854 l  -4709 1864 l 
-2040 1911 l  628 1993 l  3297 1965 l  5966 1939 l  8635 1922 l  11304 1898 l 
ps
1.000 0.261 0.058 c -12716 -698 m  -10047 -3020 l  -7378 -394 l  -4709 95 l 
-2040 306 l  628 -1 l  3297 258 l  5966 560 l  8635 27 l  11304 -368 l 
ps

0.105 0.105 0.105 c
/Helvetica f
353 sf -12809 3267 m  185 0 (5) bs

/Helvetica f
353 sf -10232 3267 m  185 0 (1) bs
185 185 (0) bs

/Helvetica f
353 sf -7563 3267 m  185 0 (1) bs
185 185 (5) bs

/Helvetica f
353 sf -4894 3267 m  185 0 (2) bs
185 185 (0) bs

/Helvetica f
353 sf -2225 3267 m  185 0 (2) bs
185 185 (5) bs

/Helvetica f
353 sf 444 3267 m  185 0 (3) bs
185 185 (0) bs

/Helvetica f
353 sf 3113 3267 m  185 0 (3) bs
185 185 (5) bs

/Helvetica f
353 sf 5781 3267 m  185 0 (4) bs
185 185 (0) bs

/Helvetica f
353 sf 8451 3267 m  185 0 (4) bs
185 185 (5) bs

/Helvetica f
353 sf 11120 3267 m  185 0 (5) bs
185 185 (0) bs

/Helvetica f
353 sf -13151 2820 m  185 0 (0) bs

/Helvetica f
353 sf -13522 1589 m  185 0 (5) bs
185 185 (0) bs
185 370 (0) bs

/Helvetica f
353 sf -13707 358 m  185 0 (1) bs
185 185 (0) bs
185 370 (0) bs
185 556 (0) bs

/Helvetica f
353 sf -13707 -873 m  185 0 (1) bs
185 185 (5) bs
185 370 (0) bs
185 556 (0) bs

/Helvetica f
353 sf -13707 -2104 m  185 0 (2) bs
185 185 (0) bs
185 370 (0) bs
185 556 (0) bs

/Helvetica f
353 sf -13707 -3335 m  185 0 (2) bs
185 185 (5) bs
185 370 (0) bs
185 556 (0) bs


50 lw 0.003 0.273 0.527 c 12833 -250 m  13633 -250 l  ps

1.000 0.261 0.058 c 12833 247 m  13633 247 l  ps

0.105 0.105 0.105 c
/Helvetica f
353 sf 13733 -130 m  185 0 (1) bs
185 185 (0) bs
106 370 ( ) bs
238 476 (D) bs
185 714 (o) bs
185 900 (c) bs

/Helvetica f
353 sf 13733 367 m  185 0 (1) bs
185 185 (0) bs
185 370 (0) bs
106 556 ( ) bs
238 661 (D) bs
185 900 (o) bs
185 1085 (c) bs

/Helvetica f
318 sf -2021 3914 m  159 0 (k) bs
291 159 (m) bs
185 450 (e) bs
106 635 (r) bs
79 741 ( ) bs
185 820 (L) bs
185 1005 (e) bs
185 1191 (n) bs
185 1376 (g) bs
79 1561 (t) bs
185 1640 (h) bs

/Helvetica f
318 sf -14495 772 m  gs 90.0 r 185 0 (T) bs
79 185 (i) bs
291 265 (m) bs
185 556 (e) bs
79 741 ( ) bs
106 820 (\() bs
291 926 (m) bs
185 1217 (s) bs
185 1402 (e) bs
159 1588 (c) bs
106 1746 (\)) bs
gr
0 9017 t 
pom
count op_count sub {pop} repeat countdictstack dict_count sub {end} repeat b4_inc_state restore
%%PageTrailer
%%Trailer
%%EOF
