%!PS-Adobe-3.0 EPSF-3.0 
%%BoundingBox: 0 0 746 255
%%Pages: 0
%%Creator: Sun Microsystems, Inc.
%%Title: none
%%CreationDate: none
%%LanguageLevel: 2
%%EndComments
%%BeginProlog
%%BeginResource: procset SDRes-Prolog 1.0 0
/b4_inc_state save def
/dict_count countdictstack def
/op_count count 1 sub def
userdict begin
0 setgray 0 setlinecap 1 setlinewidth 0 setlinejoin 10 setmiterlimit[] 0 setdash newpath
/languagelevel where {pop languagelevel 1 ne {false setstrokeadjust false setoverprint} if} if
/bdef {bind def} bind def
/c {setrgbcolor} bdef
/l {neg lineto} bdef
/rl {neg rlineto} bdef
/lc {setlinecap} bdef
/lj {setlinejoin} bdef
/lw {setlinewidth} bdef
/ml {setmiterlimit} bdef
/ld {setdash} bdef
/m {neg moveto} bdef
/ct {6 2 roll neg 6 2 roll neg 6 2 roll neg curveto} bdef
/r {rotate} bdef
/t {neg translate} bdef
/s {scale} bdef
/sw {show} bdef
/gs {gsave} bdef
/gr {grestore} bdef
/f {findfont dup length dict begin
{1 index /FID ne {def} {pop pop} ifelse} forall /Encoding ISOLatin1Encoding def
currentdict end /NFont exch definefont pop /NFont findfont} bdef
/p {closepath} bdef
/sf {scalefont setfont} bdef
/ef {eofill}bdef
/pc {closepath stroke}bdef
/ps {stroke}bdef
/pum {matrix currentmatrix}bdef
/pom {setmatrix}bdef
/bs {/aString exch def /nXOfs exch def /nWidth exch def currentpoint nXOfs 0 rmoveto pum nWidth aString stringwidth pop div 1 scale aString show pom moveto} bdef
%%EndResource
%%EndProlog
%%BeginSetup
%%EndSetup
%%Page: 1 1
%%BeginPageSetup
%%EndPageSetup
pum
0.02833 0.02836 s 
0 -8989 t
/tm matrix currentmatrix def
tm setmatrix
13163 4494 t 
1 1 s 

1.000 1.000 1.000 c 0 4494 m  -13163 4494 l  -13163 -4494 l  13162 -4494 l 
13162 4494 l  0 4494 l  p ef



0 lw 1 lj 0.703 0.703 0.703 c -2978 2687 m  -10026 2687 l  -10026 -3444 l 
4070 -3444 l  4070 2687 l  -2978 2687 l  pc
4070 2686 m  -10026 2686 l  ps
4070 2072 m  -10026 2072 l  ps
4070 1459 m  -10026 1459 l  ps
4070 846 m  -10026 846 l  ps
4070 233 m  -10026 233 l  ps
4070 -379 m  -10026 -379 l  ps
4070 -993 m  -10026 -993 l  ps
4070 -1606 m  -10026 -1606 l  ps
4070 -2219 m  -10026 -2219 l  ps
4070 -2832 m  -10026 -2832 l  ps
4070 -3445 m  -10026 -3445 l  ps

-10026 2836 m  -10026 2686 l  ps
-10026 2836 m  -10026 2686 l  ps
-9087 2836 m  -9087 2686 l  ps
-9087 2836 m  -9087 2686 l  ps
-8147 2836 m  -8147 2686 l  ps
-8147 2836 m  -8147 2686 l  ps
-7207 2836 m  -7207 2686 l  ps
-7207 2836 m  -7207 2686 l  ps
-6267 2836 m  -6267 2686 l  ps
-6267 2836 m  -6267 2686 l  ps
-5327 2836 m  -5327 2686 l  ps
-5327 2836 m  -5327 2686 l  ps
-4388 2836 m  -4388 2686 l  ps
-4388 2836 m  -4388 2686 l  ps
-3448 2836 m  -3448 2686 l  ps
-3448 2836 m  -3448 2686 l  ps
-2508 2836 m  -2508 2686 l  ps
-2508 2836 m  -2508 2686 l  ps
-1568 2836 m  -1568 2686 l  ps
-1568 2836 m  -1568 2686 l  ps
-628 2836 m  -628 2686 l  ps
-628 2836 m  -628 2686 l  ps
310 2836 m  310 2686 l  ps
310 2836 m  310 2686 l  ps
1250 2836 m  1250 2686 l  ps
1250 2836 m  1250 2686 l  ps
2190 2836 m  2190 2686 l  ps
2190 2836 m  2190 2686 l  ps
3130 2836 m  3130 2686 l  ps
3130 2836 m  3130 2686 l  ps
4070 2836 m  4070 2686 l  ps
4070 2836 m  4070 2686 l  ps
-10026 2686 m  4070 2686 l  ps
-10176 2686 m  -10026 2686 l  ps
-10176 2686 m  -10026 2686 l  ps
-10176 2072 m  -10026 2072 l  ps
-10176 2072 m  -10026 2072 l  ps
-10176 1459 m  -10026 1459 l  ps
-10176 1459 m  -10026 1459 l  ps
-10176 846 m  -10026 846 l  ps
-10176 846 m  -10026 846 l  ps
-10176 233 m  -10026 233 l  ps
-10176 233 m  -10026 233 l  ps
-10176 -379 m  -10026 -379 l  ps
-10176 -379 m  -10026 -379 l  ps
-10176 -993 m  -10026 -993 l  ps
-10176 -993 m  -10026 -993 l  ps
-10176 -1606 m  -10026 -1606 l  ps
-10176 -1606 m  -10026 -1606 l  ps
-10176 -2219 m  -10026 -2219 l  ps
-10176 -2219 m  -10026 -2219 l  ps
-10176 -2832 m  -10026 -2832 l  ps
-10176 -2832 m  -10026 -2832 l  ps
-10176 -3445 m  -10026 -3445 l  ps
-10176 -3445 m  -10026 -3445 l  ps
-10026 2686 m  -10026 -3445 l  ps
80 lw 0.003 0.273 0.527 c pc
-9087 -3445 m  -9040 -3445 l  -8993 -3443 l  -8946 -3442 l  -8899 -3441 l 
-8852 -3440 l  -8805 -3439 l  -8758 -3438 l  -8711 -3437 l  -8664 -3436 l 
-8617 -3435 l  -8570 -3435 l  -8523 -3434 l  -8476 -3434 l  -8429 -3435 l 
-8382 -3436 l  -8335 -3437 l  -8288 -3438 l  -8241 -3440 l  -8194 -3443 l 
-8147 -3445 l  ps
-7208 -3445 m  -7207 -3445 l  -7160 -3432 l  -7113 -3417 l  -7066 -3400 l 
-7019 -3381 l  -6972 -3360 l  -6925 -3337 l  -6878 -3312 l  -6831 -3286 l 
-6784 -3257 l  -6737 -3227 l  -6690 -3195 l  -6643 -3161 l  -6596 -3126 l 
-6549 -3088 l  -6502 -3050 l  -6455 -3009 l  -6408 -2968 l  -6361 -2924 l 
-6314 -2879 l  -6267 -2833 l  -6220 -2785 l  -6173 -2736 l  -6126 -2685 l 
-6079 -2633 l  -6032 -2580 l  -5985 -2526 l  -5938 -2470 l  -5891 -2414 l 
-5844 -2356 l  -5797 -2297 l  -5750 -2237 l  -5703 -2176 l  -5656 -2114 l 
-5609 -2052 l  -5562 -1988 l  -5515 -1924 l  -5468 -1858 l  -5421 -1793 l 
-5374 -1726 l  -5327 -1659 l  -5281 -1591 l  -5234 -1522 l  -5187 -1453 l 
-5140 -1384 l  -5093 -1314 l  -5046 -1244 l  -4999 -1174 l  -4952 -1103 l 
-4905 -1032 l  -4858 -961 l  -4811 -890 l  -4764 -819 l  -4717 -748 l 
-4670 -677 l  -4623 -606 l  -4576 -535 l  -4529 -465 l  -4482 -394 l  -4435 -325 l 
-4388 -255 l  -4341 -186 l  -4294 -118 l  -4247 -49 l  -4200 17 l  -4153 84 l 
-4106 150 l  -4059 216 l  -4012 281 l  -3965 346 l  -3918 409 l  -3871 472 l 
-3824 534 l  -3777 596 l  -3730 657 l  -3683 716 l  -3636 775 l  -3589 833 l 
-3542 891 l  -3495 947 l  -3448 1002 l  -3401 1056 l  -3354 1109 l  -3307 1161 l 
-3260 1213 l  -3213 1263 l  -3166 1312 l  -3119 1360 l  -3072 1407 l  -3025 1453 l 
-2978 1498 l  -2931 1542 l  -2884 1584 l  -2837 1626 l  -2790 1667 l  -2743 1706 l 
-2696 1745 l  -2649 1782 l  -2602 1819 l  -2555 1854 l  -2508 1888 l  -2461 1921 l 
-2414 1953 l  -2367 1984 l  -2320 2014 l  -2273 2042 l  -2226 2070 l  -2179 2097 l 
-2132 2123 l  -2085 2148 l  -2038 2172 l  -1991 2195 l  -1944 2217 l  -1897 2238 l 
-1850 2259 l  -1803 2279 l  -1756 2298 l  -1709 2316 l  -1662 2333 l  -1615 2350 l 
-1568 2366 l  -1521 2382 l  -1474 2396 l  -1427 2410 l  -1380 2424 l  -1333 2437 l 
-1286 2449 l  -1239 2461 l  -1192 2472 l  -1145 2482 l  -1098 2493 l  -1051 2502 l 
-1004 2511 l  -957 2520 l  -910 2528 l  -863 2536 l  -816 2544 l  -769 2551 l 
-722 2558 l  -675 2564 l  -628 2570 l  -582 2576 l  -535 2581 l  -488 2587 l 
-441 2592 l  -394 2596 l  -347 2601 l  -300 2605 l  -253 2609 l  -206 2613 l 
-159 2616 l  -112 2620 l  -65 2623 l  -18 2626 l  28 2629 l  75 2631 l 
122 2634 l  169 2636 l  216 2638 l  263 2640 l  310 2642 l  357 2644 l 
404 2646 l  451 2648 l  498 2650 l  545 2651 l  592 2653 l  639 2654 l 
686 2655 l  733 2657 l  780 2658 l  827 2659 l  874 2660 l  921 2661 l 
968 2662 l  1015 2663 l  1062 2664 l  1109 2665 l  1156 2665 l  1203 2666 l 
1250 2667 l  1297 2667 l  1344 2668 l  1391 2669 l  1438 2669 l  1485 2670 l 
1532 2670 l  1579 2671 l  1626 2671 l  1673 2672 l  1720 2672 l  1767 2672 l 
1814 2673 l  1861 2673 l  1908 2673 l  1955 2674 l  2002 2674 l  2049 2674 l 
2096 2675 l  2143 2675 l  2190 2675 l  2237 2675 l  2284 2675 l  2331 2676 l 
2378 2676 l  2425 2676 l  2472 2676 l  2519 2676 l  2566 2677 l  2613 2677 l 
2660 2677 l  2707 2677 l  2754 2677 l  2801 2677 l  2848 2677 l  2895 2677 l 
2942 2678 l  2989 2678 l  3036 2678 l  3083 2678 l  3130 2678 l  3177 2678 l 
3224 2678 l  3271 2678 l  3318 2678 l  3365 2678 l  3412 2678 l  3459 2679 l 
3506 2679 l  3553 2679 l  3600 2679 l  3647 2679 l  3694 2679 l  3741 2679 l 
3788 2679 l  3835 2679 l  3882 2679 l  3929 2679 l  3976 2679 l  4023 2679 l 
4070 2679 l  ps
1.000 0.585 0.058 c pc
-9087 -3445 m  -9040 -3445 l  -8993 -3445 l  -8946 -3445 l  -8899 -3445 l 
-8852 -3445 l  -8805 -3445 l  -8758 -3445 l  -8711 -3445 l  -8664 -3445 l 
-8617 -3444 l  -8570 -3444 l  -8523 -3444 l  -8476 -3444 l  -8429 -3444 l 
-8382 -3443 l  -8335 -3443 l  -8288 -3443 l  -8241 -3443 l  -8194 -3442 l 
-8147 -3442 l  -8100 -3442 l  -8053 -3441 l  -8006 -3441 l  -7959 -3441 l 
-7912 -3440 l  -7865 -3439 l  -7818 -3438 l  -7771 -3437 l  -7724 -3435 l 
-7677 -3433 l  -7630 -3431 l  -7583 -3429 l  -7536 -3426 l  -7489 -3422 l 
-7442 -3419 l  -7395 -3414 l  -7348 -3409 l  -7301 -3404 l  -7254 -3398 l 
-7207 -3392 l  -7160 -3384 l  -7113 -3376 l  -7066 -3367 l  -7019 -3358 l 
-6972 -3346 l  -6925 -3334 l  -6878 -3320 l  -6831 -3305 l  -6784 -3288 l 
-6737 -3269 l  -6690 -3249 l  -6643 -3226 l  -6596 -3202 l  -6549 -3175 l 
-6502 -3145 l  -6455 -3113 l  -6408 -3079 l  -6361 -3041 l  -6314 -3001 l 
-6267 -2958 l  -6220 -2911 l  -6173 -2862 l  -6126 -2810 l  -6079 -2754 l 
-6032 -2696 l  -5985 -2635 l  -5938 -2572 l  -5891 -2506 l  -5844 -2437 l 
-5797 -2366 l  -5750 -2293 l  -5703 -2218 l  -5656 -2140 l  -5609 -2060 l 
-5562 -1979 l  -5515 -1895 l  -5468 -1810 l  -5421 -1723 l  -5374 -1634 l 
-5327 -1544 l  -5281 -1452 l  -5234 -1359 l  -5187 -1265 l  -5140 -1170 l 
-5093 -1074 l  -5046 -978 l  -4999 -881 l  -4952 -783 l  -4905 -686 l 
-4858 -589 l  -4811 -492 l  -4764 -395 l  -4717 -299 l  -4670 -203 l  -4623 -109 l 
-4576 -16 l  -4529 76 l  -4482 166 l  -4435 255 l  -4388 343 l  -4341 428 l 
-4294 512 l  -4247 593 l  -4200 673 l  -4153 751 l  -4106 826 l  -4059 900 l 
-4012 972 l  -3965 1042 l  -3918 1110 l  -3871 1177 l  -3824 1241 l  -3777 1303 l 
-3730 1363 l  -3683 1422 l  -3636 1478 l  -3589 1533 l  -3542 1586 l  -3495 1637 l 
-3448 1686 l  -3401 1733 l  -3354 1778 l  -3307 1821 l  -3260 1863 l  -3213 1902 l 
-3166 1940 l  -3119 1977 l  -3072 2012 l  -3025 2045 l  -2978 2077 l  -2931 2108 l 
-2884 2137 l  -2837 2165 l  -2790 2192 l  -2743 2217 l  -2696 2241 l  -2649 2264 l 
-2602 2286 l  -2555 2307 l  -2508 2327 l  -2461 2346 l  -2414 2364 l  -2367 2381 l 
-2320 2398 l  -2273 2413 l  -2226 2428 l  -2179 2442 l  -2132 2455 l  -2085 2468 l 
-2038 2480 l  -1991 2491 l  -1944 2502 l  -1897 2512 l  -1850 2521 l  -1803 2530 l 
-1756 2539 l  -1709 2547 l  -1662 2554 l  -1615 2562 l  -1568 2568 l  -1521 2575 l 
-1474 2581 l  -1427 2587 l  -1380 2592 l  -1333 2598 l  -1286 2603 l  -1239 2607 l 
-1192 2612 l  -1145 2616 l  -1098 2620 l  -1051 2623 l  -1004 2627 l  -957 2630 l 
-910 2633 l  -863 2636 l  -816 2639 l  -769 2641 l  -722 2644 l  -675 2646 l 
-628 2648 l  -582 2650 l  -535 2652 l  -488 2654 l  -441 2655 l  -394 2657 l 
-347 2658 l  -300 2660 l  -253 2661 l  -206 2662 l  -159 2664 l  -112 2665 l 
-65 2666 l  -18 2667 l  28 2668 l  75 2669 l  122 2669 l  169 2670 l  216 2671 l 
263 2671 l  310 2672 l  357 2673 l  404 2673 l  451 2674 l  498 2674 l 
545 2675 l  592 2675 l  639 2676 l  686 2676 l  733 2676 l  780 2677 l 
827 2677 l  874 2677 l  921 2678 l  968 2678 l  1015 2678 l  1062 2678 l 
1109 2679 l  1156 2679 l  1203 2679 l  1250 2679 l  1297 2679 l  1344 2680 l 
1391 2680 l  1438 2680 l  1485 2680 l  1532 2680 l  1579 2680 l  1626 2681 l 
1673 2681 l  1720 2681 l  1767 2681 l  1814 2681 l  1861 2681 l  1908 2681 l 
1955 2681 l  2002 2681 l  2049 2681 l  2096 2681 l  2143 2682 l  2190 2682 l 
2237 2682 l  2284 2682 l  2331 2682 l  2378 2682 l  2425 2682 l  2472 2682 l 
2519 2682 l  2566 2682 l  2613 2682 l  2660 2682 l  2707 2682 l  2754 2682 l 
2801 2682 l  2848 2682 l  2895 2682 l  2942 2682 l  2989 2682 l  3036 2682 l 
3083 2682 l  3130 2682 l  3177 2682 l  3224 2682 l  3271 2682 l  3318 2682 l 
3365 2683 l  3412 2683 l  3459 2683 l  3506 2683 l  3553 2683 l  3600 2683 l 
3647 2683 l  3694 2683 l  3741 2683 l  3788 2683 l  3835 2683 l  3882 2683 l 
3929 2683 l  3976 2683 l  4023 2683 l  4070 2683 l  ps
0.343 0.617 0.113 c -10026 -3445 m  -9980 -3445 l  -9933 -3445 l  -9886 -3445 l 
-9839 -3445 l  -9792 -3445 l  -9745 -3445 l  -9698 -3445 l  -9651 -3445 l 
-9604 -3445 l  -9557 -3445 l  -9510 -3445 l  -9463 -3445 l  -9416 -3445 l 
-9369 -3445 l  -9322 -3445 l  -9275 -3445 l  -9228 -3445 l  -9181 -3445 l 
-9134 -3445 l  -9087 -3445 l  ps
-8147 -3445 m  -8100 -3445 l  -8053 -3445 l  -8006 -3445 l  -7959 -3445 l 
-7912 -3445 l  -7865 -3445 l  -7818 -3444 l  -7771 -3444 l  -7724 -3444 l 
-7677 -3444 l  -7630 -3444 l  -7583 -3443 l  -7536 -3443 l  -7489 -3443 l 
-7442 -3443 l  -7395 -3443 l  -7348 -3443 l  -7301 -3442 l  -7254 -3442 l 
-7207 -3442 l  -7160 -3442 l  -7113 -3442 l  -7066 -3442 l  -7019 -3441 l 
-6972 -3440 l  -6925 -3439 l  -6878 -3437 l  -6831 -3434 l  -6784 -3431 l 
-6737 -3427 l  -6690 -3422 l  -6643 -3416 l  -6596 -3408 l  -6549 -3400 l 
-6502 -3390 l  -6455 -3379 l  -6408 -3366 l  -6361 -3352 l  -6314 -3336 l 
-6267 -3319 l  -6220 -3299 l  -6173 -3277 l  -6126 -3254 l  -6079 -3228 l 
-6032 -3200 l  -5985 -3170 l  -5938 -3138 l  -5891 -3103 l  -5844 -3066 l 
-5797 -3026 l  -5750 -2984 l  -5703 -2939 l  -5656 -2892 l  -5609 -2841 l 
-5562 -2788 l  -5515 -2732 l  -5468 -2673 l  -5421 -2611 l  -5374 -2546 l 
-5327 -2478 l  -5281 -2406 l  -5234 -2332 l  -5187 -2254 l  -5140 -2174 l 
-5093 -2091 l  -5046 -2006 l  -4999 -1919 l  -4952 -1831 l  -4905 -1740 l 
-4858 -1648 l  -4811 -1554 l  -4764 -1459 l  -4717 -1364 l  -4670 -1267 l 
-4623 -1170 l  -4576 -1073 l  -4529 -975 l  -4482 -877 l  -4435 -780 l 
-4388 -683 l  -4341 -586 l  -4294 -490 l  -4247 -395 l  -4200 -300 l  -4153 -207 l 
-4106 -114 l  -4059 -22 l  -4012 67 l  -3965 156 l  -3918 244 l  -3871 331 l 
-3824 416 l  -3777 499 l  -3730 581 l  -3683 661 l  -3636 739 l  -3589 816 l 
-3542 890 l  -3495 962 l  -3448 1032 l  -3401 1100 l  -3354 1166 l  -3307 1229 l 
-3260 1291 l  -3213 1350 l  -3166 1407 l  -3119 1462 l  -3072 1516 l  -3025 1567 l 
-2978 1617 l  -2931 1664 l  -2884 1710 l  -2837 1755 l  -2790 1797 l  -2743 1838 l 
-2696 1877 l  -2649 1915 l  -2602 1951 l  -2555 1986 l  -2508 2019 l  -2461 2051 l 
-2414 2082 l  -2367 2111 l  -2320 2139 l  -2273 2166 l  -2226 2191 l  -2179 2216 l 
-2132 2239 l  -2085 2261 l  -2038 2283 l  -1991 2303 l  -1944 2322 l  -1897 2340 l 
-1850 2358 l  -1803 2374 l  -1756 2390 l  -1709 2405 l  -1662 2419 l  -1615 2433 l 
-1568 2446 l  -1521 2458 l  -1474 2470 l  -1427 2481 l  -1380 2491 l  -1333 2501 l 
-1286 2511 l  -1239 2520 l  -1192 2528 l  -1145 2537 l  -1098 2544 l  -1051 2551 l 
-1004 2558 l  -957 2565 l  -910 2571 l  -863 2576 l  -816 2582 l  -769 2587 l 
-722 2592 l  -675 2596 l  -628 2601 l  -582 2605 l  -535 2609 l  -488 2612 l 
-441 2616 l  -394 2619 l  -347 2622 l  -300 2625 l  -253 2628 l  -206 2631 l 
-159 2633 l  -112 2635 l  -65 2638 l  -18 2640 l  28 2642 l  75 2643 l 
122 2645 l  169 2647 l  216 2648 l  263 2650 l  310 2651 l  357 2652 l 
404 2653 l  451 2655 l  498 2656 l  545 2657 l  592 2658 l  639 2659 l 
686 2660 l  733 2660 l  780 2661 l  827 2662 l  874 2663 l  921 2663 l 
968 2664 l  1015 2665 l  1062 2665 l  1109 2666 l  1156 2666 l  1203 2667 l 
1250 2667 l  1297 2668 l  1344 2668 l  1391 2668 l  1438 2669 l  1485 2669 l 
1532 2670 l  1579 2670 l  1626 2670 l  1673 2671 l  1720 2671 l  1767 2671 l 
1814 2671 l  1861 2672 l  1908 2672 l  1955 2672 l  2002 2672 l  2049 2673 l 
2096 2673 l  2143 2673 l  2190 2673 l  2237 2673 l  2284 2673 l  2331 2674 l 
2378 2674 l  2425 2674 l  2472 2674 l  2519 2674 l  2566 2674 l  2613 2674 l 
2660 2674 l  2707 2675 l  2754 2675 l  2801 2675 l  2848 2675 l  2895 2675 l 
2942 2675 l  2989 2675 l  3036 2675 l  3083 2675 l  3130 2675 l  3177 2675 l 
3224 2676 l  3271 2676 l  3318 2676 l  3365 2676 l  3412 2676 l  3459 2676 l 
3506 2676 l  3553 2676 l  3600 2676 l  3647 2676 l  3694 2676 l  3741 2676 l 
3788 2676 l  3835 2676 l  3882 2676 l  3929 2676 l  3976 2677 l  4023 2677 l 
4070 2677 l  ps
1.000 0.261 0.058 c pc
-9087 -3445 m  -9040 -3445 l  -8993 -3445 l  -8946 -3445 l  -8899 -3445 l 
-8852 -3445 l  -8805 -3445 l  -8758 -3445 l  -8711 -3445 l  -8664 -3445 l 
-8617 -3445 l  -8570 -3445 l  -8523 -3445 l  -8476 -3445 l  -8429 -3445 l 
-8382 -3445 l  -8335 -3445 l  -8288 -3445 l  -8241 -3445 l  -8194 -3445 l 
-8147 -3445 l  ps
-7758 -3445 m  -7724 -3445 l  -7677 -3445 l  -7630 -3445 l  -7583 -3445 l 
-7536 -3445 l  -7489 -3445 l  -7442 -3444 l  -7395 -3444 l  -7348 -3444 l 
-7301 -3443 l  -7254 -3443 l  -7207 -3442 l  -7160 -3442 l  -7113 -3441 l 
-7066 -3440 l  -7019 -3439 l  -6972 -3437 l  -6925 -3436 l  -6878 -3434 l 
-6831 -3431 l  -6784 -3428 l  -6737 -3424 l  -6690 -3420 l  -6643 -3415 l 
-6596 -3410 l  -6549 -3404 l  -6502 -3397 l  -6455 -3389 l  -6408 -3380 l 
-6361 -3370 l  -6314 -3359 l  -6267 -3347 l  -6220 -3334 l  -6173 -3320 l 
-6126 -3305 l  -6079 -3289 l  -6032 -3271 l  -5985 -3253 l  -5938 -3233 l 
-5891 -3212 l  -5844 -3190 l  -5797 -3167 l  -5750 -3142 l  -5703 -3117 l 
-5656 -3090 l  -5609 -3062 l  -5562 -3033 l  -5515 -3003 l  -5468 -2972 l 
-5421 -2939 l  -5374 -2906 l  -5327 -2871 l  -5281 -2835 l  -5234 -2798 l 
-5187 -2760 l  -5140 -2721 l  -5093 -2680 l  -5046 -2639 l  -4999 -2597 l 
-4952 -2554 l  -4905 -2510 l  -4858 -2465 l  -4811 -2420 l  -4764 -2374 l 
-4717 -2327 l  -4670 -2279 l  -4623 -2231 l  -4576 -2182 l  -4529 -2133 l 
-4482 -2083 l  -4435 -2033 l  -4388 -1983 l  -4341 -1932 l  -4294 -1880 l 
-4247 -1829 l  -4200 -1777 l  -4153 -1725 l  -4106 -1673 l  -4059 -1621 l 
-4012 -1568 l  -3965 -1516 l  -3918 -1464 l  -3871 -1412 l  -3824 -1360 l 
-3777 -1308 l  -3730 -1256 l  -3683 -1205 l  -3636 -1154 l  -3589 -1103 l 
-3542 -1053 l  -3495 -1003 l  -3448 -954 l  -3401 -905 l  -3354 -857 l 
-3307 -809 l  -3260 -762 l  -3213 -715 l  -3166 -670 l  -3119 -625 l  -3072 -580 l 
-3025 -537 l  -2978 -494 l  -2931 -452 l  -2884 -410 l  -2837 -370 l  -2790 -330 l 
-2743 -291 l  -2696 -253 l  -2649 -216 l  -2602 -180 l  -2555 -145 l  -2508 -110 l 
-2461 -77 l  -2414 -45 l  -2367 -13 l  -2320 16 l  -2273 46 l  -2226 74 l 
-2179 102 l  -2132 129 l  -2085 155 l  -2038 180 l  -1991 204 l  -1944 228 l 
-1897 251 l  -1850 272 l  -1803 293 l  -1756 314 l  -1709 333 l  -1662 352 l 
-1615 370 l  -1568 388 l  -1521 405 l  -1474 421 l  -1427 436 l  -1380 451 l 
-1333 465 l  -1286 479 l  -1239 492 l  -1192 504 l  -1145 516 l  -1098 528 l 
-1051 538 l  -1004 549 l  -957 559 l  -910 568 l  -863 577 l  -816 586 l 
-769 594 l  -722 602 l  -675 610 l  -628 617 l  -582 624 l  -535 630 l 
-488 637 l  -441 643 l  -394 648 l  -347 654 l  -300 659 l  -253 664 l 
-206 669 l  -159 673 l  -112 677 l  -65 681 l  -18 685 l  28 689 l  75 692 l 
122 696 l  169 699 l  216 702 l  263 705 l  310 708 l  357 710 l  404 713 l 
451 716 l  498 718 l  545 720 l  592 722 l  639 725 l  686 727 l  733 729 l 
780 730 l  827 732 l  874 734 l  921 736 l  968 737 l  1015 739 l  1062 740 l 
1109 742 l  1156 743 l  1203 744 l  1250 746 l  1297 747 l  1344 748 l 
1391 749 l  1438 750 l  1485 752 l  1532 753 l  1579 754 l  1626 755 l 
1673 756 l  1720 757 l  1767 758 l  1814 759 l  1861 759 l  1908 760 l 
1955 761 l  2002 762 l  2049 763 l  2096 764 l  2143 764 l  2190 765 l 
2237 766 l  2284 767 l  2331 767 l  2378 768 l  2425 769 l  2472 769 l 
2519 770 l  2566 771 l  2613 771 l  2660 772 l  2707 773 l  2754 773 l 
2801 774 l  2848 775 l  2895 775 l  2942 776 l  2989 776 l  3036 777 l 
3083 778 l  3130 778 l  3177 779 l  3224 779 l  3271 780 l  3318 780 l 
3365 781 l  3412 782 l  3459 782 l  3506 783 l  3553 783 l  3600 784 l 
3647 784 l  3694 785 l  3741 785 l  3788 786 l  3835 786 l  3882 787 l 
3929 788 l  3976 788 l  4023 789 l  4070 789 l  ps

0.105 0.105 0.105 c
/Helvetica f
353 sf -10119 3254 m  185 0 (5) bs

/Helvetica f
353 sf -9180 3254 m  185 0 (6) bs

/Helvetica f
353 sf -8240 3254 m  185 0 (7) bs

/Helvetica f
353 sf -7300 3254 m  185 0 (8) bs

/Helvetica f
353 sf -6360 3254 m  185 0 (9) bs

/Helvetica f
353 sf -5512 3254 m  185 0 (1) bs
185 185 (0) bs

/Helvetica f
353 sf -4573 3254 m  185 0 (1) bs
185 185 (1) bs

/Helvetica f
353 sf -3633 3254 m  185 0 (1) bs
185 185 (2) bs

/Helvetica f
353 sf -2693 3254 m  185 0 (1) bs
185 185 (3) bs

/Helvetica f
353 sf -1753 3254 m  185 0 (1) bs
185 185 (4) bs

/Helvetica f
353 sf -813 3254 m  185 0 (1) bs
185 185 (5) bs

/Helvetica f
353 sf 126 3254 m  185 0 (1) bs
185 185 (6) bs

/Helvetica f
353 sf 1066 3254 m  185 0 (1) bs
185 185 (7) bs

/Helvetica f
353 sf 2006 3254 m  185 0 (1) bs
185 185 (8) bs

/Helvetica f
353 sf 2946 3254 m  185 0 (1) bs
185 185 (9) bs

/Helvetica f
353 sf 3886 3254 m  185 0 (2) bs
185 185 (0) bs

/Helvetica f
353 sf -11255 2807 m  185 0 (0) bs
106 185 (.) bs
185 291 (0) bs
185 476 (0) bs
318 661 (%) bs

/Helvetica f
353 sf -11440 2193 m  185 0 (1) bs
185 185 (0) bs
106 370 (.) bs
185 476 (0) bs
185 661 (0) bs
318 847 (%) bs

/Helvetica f
353 sf -11440 1580 m  185 0 (2) bs
185 185 (0) bs
106 370 (.) bs
185 476 (0) bs
185 661 (0) bs
318 847 (%) bs

/Helvetica f
353 sf -11440 967 m  185 0 (3) bs
185 185 (0) bs
106 370 (.) bs
185 476 (0) bs
185 661 (0) bs
318 847 (%) bs

/Helvetica f
353 sf -11440 354 m  185 0 (4) bs
185 185 (0) bs
106 370 (.) bs
185 476 (0) bs
185 661 (0) bs
318 847 (%) bs

/Helvetica f
353 sf -11440 -259 m  185 0 (5) bs
185 185 (0) bs
106 370 (.) bs
185 476 (0) bs
185 661 (0) bs
318 847 (%) bs

/Helvetica f
353 sf -11440 -873 m  185 0 (6) bs
185 185 (0) bs
106 370 (.) bs
185 476 (0) bs
185 661 (0) bs
318 847 (%) bs

/Helvetica f
353 sf -11440 -1486 m  185 0 (7) bs
185 185 (0) bs
106 370 (.) bs
185 476 (0) bs
185 661 (0) bs
318 847 (%) bs

/Helvetica f
353 sf -11440 -2099 m  185 0 (8) bs
185 185 (0) bs
106 370 (.) bs
185 476 (0) bs
185 661 (0) bs
318 847 (%) bs

/Helvetica f
353 sf -11440 -2712 m  185 0 (9) bs
185 185 (0) bs
106 370 (.) bs
185 476 (0) bs
185 661 (0) bs
318 847 (%) bs

/Helvetica f
353 sf -11625 -3325 m  185 0 (1) bs
185 185 (0) bs
185 370 (0) bs
106 556 (.) bs
185 661 (0) bs
185 847 (0) bs
318 1032 (%) bs


50 lw 0.003 0.273 0.527 c 5425 -748 m  6225 -748 l  ps

1.000 0.585 0.058 c 5425 -250 m  6225 -250 l  ps

0.343 0.617 0.113 c 5425 247 m  6225 247 l  ps

1.000 0.261 0.058 c 5425 745 m  6225 745 l  ps

0.105 0.105 0.105 c
/Helvetica f
353 sf 6325 -628 m  238 0 (S) bs
106 238 (t) bs
185 344 (a) bs
185 529 (p) bs
185 714 (h) bs
185 900 (y) bs
79 1085 (l) bs
185 1164 (o) bs
185 1349 (c) bs
185 1535 (o) bs
185 1720 (c) bs
185 1905 (c) bs
185 2090 (u) bs
185 2275 (s) bs
106 2461 ( ) bs
185 2566 (a) bs
185 2752 (u) bs
106 2937 (r) bs
185 3043 (e) bs
185 3228 (u) bs
185 3413 (s) bs

/Helvetica f
353 sf 6325 -130 m  238 0 (S) bs
106 238 (t) bs
106 344 (r) bs
185 450 (e) bs
185 635 (p) bs
106 820 (t) bs
185 926 (o) bs
185 1111 (c) bs
185 1296 (o) bs
185 1482 (c) bs
185 1667 (c) bs
185 1852 (u) bs
185 2037 (s) bs
106 2223 ( ) bs
185 2328 (e) bs
185 2514 (q) bs
185 2699 (u) bs
79 2884 (i) bs
106 2963 ( ) bs
185 3069 (s) bs
185 3254 (u) bs
185 3440 (b) bs
185 3625 (s) bs
185 3810 (p) bs
106 3995 (.) bs
106 4101 ( ) bs
185 4207 (z) bs
185 4392 (o) bs
185 4577 (o) bs
185 4763 (e) bs
185 4948 (p) bs
79 5133 (i) bs
185 5212 (d) bs
185 5398 (e) bs
291 5583 (m) bs
79 5874 (i) bs
185 5953 (c) bs
185 6138 (u) bs
185 6324 (s) bs

/Helvetica f
353 sf 6325 367 m  238 0 (B) bs
185 238 (a) bs
185 423 (c) bs
79 609 (i) bs
79 688 (l) bs
79 767 (l) bs
185 847 (u) bs
185 1032 (s) bs
106 1217 ( ) bs
185 1323 (a) bs
291 1508 (m) bs
185 1799 (y) bs
79 1984 (l) bs
185 2064 (o) bs
79 2249 (l) bs
79 2328 (i) bs
185 2408 (q) bs
185 2593 (u) bs
185 2778 (e) bs
79 2963 (f) bs
185 3043 (a) bs
185 3228 (c) bs
79 3413 (i) bs
185 3493 (e) bs
185 3678 (n) bs
185 3863 (s) bs

/Helvetica f
353 sf 6325 865 m  238 0 (B) bs
185 238 (a) bs
185 423 (c) bs
79 609 (i) bs
79 688 (l) bs
79 767 (l) bs
185 847 (u) bs
185 1032 (s) bs
106 1217 ( ) bs
185 1323 (c) bs
185 1508 (e) bs
106 1693 (r) bs
185 1799 (e) bs
185 1984 (u) bs
185 2170 (s) bs

/Helvetica f
318 sf -4544 3900 m  159 0 (k) bs
291 159 (m) bs
185 450 (e) bs
106 635 (r) bs
79 741 ( ) bs
79 820 (l) bs
185 900 (e) bs
185 1085 (n) bs
185 1270 (g) bs
79 1455 (t) bs
185 1535 (h) bs

/Helvetica f
318 sf -12326 1763 m  gs 90.0 r 212 0 (P) bs
185 212 (e) bs
106 397 (r) bs
159 503 (c) bs
185 661 (e) bs
185 847 (n) bs
79 1032 (t) bs
79 1111 ( ) bs
185 1191 (o) bs
79 1376 (f) bs
79 1455 ( ) bs
159 1535 (c) bs
185 1693 (o) bs
291 1879 (m) bs
291 2170 (m) bs
185 2461 (o) bs
185 2646 (n) bs
79 2831 ( ) bs
159 2910 (k) bs
291 3069 (m) bs
185 3360 (e) bs
106 3545 (r) bs
185 3651 (s) bs
gr
0 8989 t 
pom
count op_count sub {pop} repeat countdictstack dict_count sub {end} repeat b4_inc_state restore
%%PageTrailer
%%Trailer
%%EOF
