%!PS-Adobe-3.0 EPSF-3.0 
%%BoundingBox: 0 0 869 256
%%Pages: 0
%%Creator: Sun Microsystems, Inc.
%%Title: none
%%CreationDate: none
%%LanguageLevel: 2
%%EndComments
%%BeginProlog
%%BeginResource: procset SDRes-Prolog 1.0 0
/b4_inc_state save def
/dict_count countdictstack def
/op_count count 1 sub def
userdict begin
0 setgray 0 setlinecap 1 setlinewidth 0 setlinejoin 10 setmiterlimit[] 0 setdash newpath
/languagelevel where {pop languagelevel 1 ne {false setstrokeadjust false setoverprint} if} if
/bdef {bind def} bind def
/c {setrgbcolor} bdef
/l {neg lineto} bdef
/rl {neg rlineto} bdef
/lc {setlinecap} bdef
/lj {setlinejoin} bdef
/lw {setlinewidth} bdef
/ml {setmiterlimit} bdef
/ld {setdash} bdef
/m {neg moveto} bdef
/ct {6 2 roll neg 6 2 roll neg 6 2 roll neg curveto} bdef
/r {rotate} bdef
/t {neg translate} bdef
/s {scale} bdef
/sw {show} bdef
/gs {gsave} bdef
/gr {grestore} bdef
/f {findfont dup length dict begin
{1 index /FID ne {def} {pop pop} ifelse} forall /Encoding ISOLatin1Encoding def
currentdict end /NFont exch definefont pop /NFont findfont} bdef
/p {closepath} bdef
/sf {scalefont setfont} bdef
/ef {eofill}bdef
/pc {closepath stroke}bdef
/ps {stroke}bdef
/pum {matrix currentmatrix}bdef
/pom {setmatrix}bdef
/bs {/aString exch def /nXOfs exch def /nWidth exch def currentpoint nXOfs 0 rmoveto pum nWidth aString stringwidth pop div 1 scale aString show pom moveto} bdef
%%EndResource
%%EndProlog
%%BeginSetup
%%EndSetup
%%Page: 1 1
%%BeginPageSetup
%%EndPageSetup
pum
0.02833 0.02839 s 
0 -9017 t
/tm matrix currentmatrix def
tm setmatrix
15332 4508 t 
1 1 s 

1.000 1.000 1.000 c -1 4508 m  -15332 4508 l  -15332 -4508 l  15331 -4508 l 
15331 4508 l  -1 4508 l  p ef



0 lw 1 lj 0.703 0.703 0.703 c -798 2700 m  -12901 2700 l  -12901 -3454 l 
11304 -3454 l  11304 2700 l  -798 2700 l  pc
11304 2699 m  -12901 2699 l  ps
11304 1819 m  -12901 1819 l  ps
11304 940 m  -12901 940 l  ps
11304 61 m  -12901 61 l  ps
11304 -818 m  -12901 -818 l  ps
11304 -1697 m  -12901 -1697 l  ps
11304 -2576 m  -12901 -2576 l  ps
11304 -3456 m  -12901 -3456 l  ps

-12901 2849 m  -12901 2699 l  ps
-12901 2849 m  -12901 2699 l  ps
-8060 2849 m  -8060 2699 l  ps
-8060 2849 m  -8060 2699 l  ps
-3219 2849 m  -3219 2699 l  ps
-3219 2849 m  -3219 2699 l  ps
1621 2849 m  1621 2699 l  ps
1621 2849 m  1621 2699 l  ps
6462 2849 m  6462 2699 l  ps
6462 2849 m  6462 2699 l  ps
11304 2849 m  11304 2699 l  ps
11304 2849 m  11304 2699 l  ps
-12901 2699 m  11304 2699 l  ps
-13051 2699 m  -12901 2699 l  ps
-13051 2699 m  -12901 2699 l  ps
-13051 1819 m  -12901 1819 l  ps
-13051 1819 m  -12901 1819 l  ps
-13051 940 m  -12901 940 l  ps
-13051 940 m  -12901 940 l  ps
-13051 61 m  -12901 61 l  ps
-13051 61 m  -12901 61 l  ps
-13051 -818 m  -12901 -818 l  ps
-13051 -818 m  -12901 -818 l  ps
-13051 -1697 m  -12901 -1697 l  ps
-13051 -1697 m  -12901 -1697 l  ps
-13051 -2576 m  -12901 -2576 l  ps
-13051 -2576 m  -12901 -2576 l  ps
-13051 -3456 m  -12901 -3456 l  ps
-13051 -3456 m  -12901 -3456 l  ps
-12901 2699 m  -12901 -3456 l  ps
80 lw 0.003 0.273 0.527 c -12901 17 m  -8060 -33 l  -3219 -64 l  1621 -112 l 
6462 -130 l  11304 -143 l  ps
1.000 0.261 0.058 c -12901 -2796 m  -8060 -969 l  -3219 -980 l  1621 -1037 l 
6462 -1180 l  11304 -1248 l  ps

0.105 0.105 0.105 c
/Helvetica f
353 sf -12994 3267 m  185 0 (1) bs

/Helvetica f
353 sf -8153 3267 m  185 0 (5) bs

/Helvetica f
353 sf -3404 3267 m  185 0 (1) bs
185 185 (0) bs

/Helvetica f
353 sf 1437 3267 m  185 0 (1) bs
185 185 (5) bs

/Helvetica f
353 sf 6278 3267 m  185 0 (2) bs
185 185 (0) bs

/Helvetica f
353 sf 11120 3267 m  185 0 (2) bs
185 185 (5) bs

/Helvetica f
353 sf -13336 2820 m  185 0 (0) bs

/Helvetica f
353 sf -13521 1940 m  185 0 (2) bs
185 185 (0) bs

/Helvetica f
353 sf -13521 1061 m  185 0 (4) bs
185 185 (0) bs

/Helvetica f
353 sf -13521 182 m  185 0 (6) bs
185 185 (0) bs

/Helvetica f
353 sf -13521 -698 m  185 0 (8) bs
185 185 (0) bs

/Helvetica f
353 sf -13707 -1577 m  185 0 (1) bs
185 185 (0) bs
185 370 (0) bs

/Helvetica f
353 sf -13707 -2456 m  185 0 (1) bs
185 185 (2) bs
185 370 (0) bs

/Helvetica f
353 sf -13707 -3336 m  185 0 (1) bs
185 185 (4) bs
185 370 (0) bs


50 lw 0.003 0.273 0.527 c 12833 -250 m  13633 -250 l  ps

1.000 0.261 0.058 c 12833 247 m  13633 247 l  ps

0.105 0.105 0.105 c
/Helvetica f
353 sf 13733 -130 m  185 0 (1) bs
185 185 (0) bs
106 370 ( ) bs
238 476 (D) bs
185 714 (o) bs
185 900 (c) bs

/Helvetica f
353 sf 13733 367 m  185 0 (1) bs
185 185 (0) bs
185 370 (0) bs
106 556 ( ) bs
238 661 (D) bs
185 900 (o) bs
185 1085 (c) bs

/Helvetica f
318 sf -2537 3914 m  159 0 (k) bs
291 159 (m) bs
185 450 (e) bs
106 635 (r) bs
79 741 ( ) bs
212 820 (P) bs
185 1032 (a) bs
79 1217 (i) bs
106 1296 (r) bs
185 1402 (s) bs
79 1588 ( ) bs
79 1667 (i) bs
185 1746 (n) bs
79 1931 ( ) bs
238 2011 (Q) bs
185 2249 (u) bs
185 2434 (e) bs
106 2619 (r) bs
132 2725 (y) bs

/Helvetica f
318 sf -14495 772 m  gs 90.0 r 185 0 (T) bs
79 185 (i) bs
291 265 (m) bs
185 556 (e) bs
79 741 ( ) bs
106 820 (\() bs
291 926 (m) bs
185 1217 (s) bs
185 1402 (e) bs
159 1588 (c) bs
106 1746 (\)) bs
gr
0 9017 t 
pom
count op_count sub {pop} repeat countdictstack dict_count sub {end} repeat b4_inc_state restore
%%PageTrailer
%%Trailer
%%EOF
