%!PS-Adobe-3.0 EPSF-3.0 
%%BoundingBox: 0 0 826 255
%%Pages: 0
%%Creator: Sun Microsystems, Inc.
%%Title: none
%%CreationDate: none
%%LanguageLevel: 2
%%EndComments
%%BeginProlog
%%BeginResource: procset SDRes-Prolog 1.0 0
/b4_inc_state save def
/dict_count countdictstack def
/op_count count 1 sub def
userdict begin
0 setgray 0 setlinecap 1 setlinewidth 0 setlinejoin 10 setmiterlimit[] 0 setdash newpath
/languagelevel where {pop languagelevel 1 ne {false setstrokeadjust false setoverprint} if} if
/bdef {bind def} bind def
/c {setrgbcolor} bdef
/l {neg lineto} bdef
/rl {neg rlineto} bdef
/lc {setlinecap} bdef
/lj {setlinejoin} bdef
/lw {setlinewidth} bdef
/ml {setmiterlimit} bdef
/ld {setdash} bdef
/m {neg moveto} bdef
/ct {6 2 roll neg 6 2 roll neg 6 2 roll neg curveto} bdef
/r {rotate} bdef
/t {neg translate} bdef
/s {scale} bdef
/sw {show} bdef
/gs {gsave} bdef
/gr {grestore} bdef
/f {findfont dup length dict begin
{1 index /FID ne {def} {pop pop} ifelse} forall /Encoding ISOLatin1Encoding def
currentdict end /NFont exch definefont pop /NFont findfont} bdef
/p {closepath} bdef
/sf {scalefont setfont} bdef
/ef {eofill}bdef
/pc {closepath stroke}bdef
/ps {stroke}bdef
/pum {matrix currentmatrix}bdef
/pom {setmatrix}bdef
/bs {/aString exch def /nXOfs exch def /nWidth exch def currentpoint nXOfs 0 rmoveto pum nWidth aString stringwidth pop div 1 scale aString show pom moveto} bdef
%%EndResource
%%EndProlog
%%BeginSetup
%%EndSetup
%%Page: 1 1
%%BeginPageSetup
%%EndPageSetup
pum
0.02833 0.02836 s 
0 -8989 t
/tm matrix currentmatrix def
tm setmatrix
14575 4494 t 
1 1 s 

1.000 1.000 1.000 c 0 4494 m  -14575 4494 l  -14575 -4494 l  14574 -4494 l 
14574 4494 l  0 4494 l  p ef



0 lw 1 lj 0.703 0.703 0.703 c -598 2687 m  -11804 2687 l  -11804 -3444 l 
10607 -3444 l  10607 2687 l  -598 2687 l  pc
10607 2686 m  -11804 2686 l  ps
10607 1810 m  -11804 1810 l  ps
10607 934 m  -11804 934 l  ps
10607 58 m  -11804 58 l  ps
10607 -817 m  -11804 -817 l  ps
10607 -1693 m  -11804 -1693 l  ps
10607 -2569 m  -11804 -2569 l  ps
10607 -3445 m  -11804 -3445 l  ps

-11804 2836 m  -11804 2686 l  ps
-11804 2836 m  -11804 2686 l  ps
-7322 2836 m  -7322 2686 l  ps
-7322 2836 m  -7322 2686 l  ps
-2840 2836 m  -2840 2686 l  ps
-2840 2836 m  -2840 2686 l  ps
1642 2836 m  1642 2686 l  ps
1642 2836 m  1642 2686 l  ps
6124 2836 m  6124 2686 l  ps
6124 2836 m  6124 2686 l  ps
10607 2836 m  10607 2686 l  ps
10607 2836 m  10607 2686 l  ps
-11804 2686 m  10607 2686 l  ps
-11954 2686 m  -11804 2686 l  ps
-11954 2686 m  -11804 2686 l  ps
-11954 1810 m  -11804 1810 l  ps
-11954 1810 m  -11804 1810 l  ps
-11954 934 m  -11804 934 l  ps
-11954 934 m  -11804 934 l  ps
-11954 58 m  -11804 58 l  ps
-11954 58 m  -11804 58 l  ps
-11954 -818 m  -11804 -818 l  ps
-11954 -818 m  -11804 -818 l  ps
-11954 -1693 m  -11804 -1693 l  ps
-11954 -1693 m  -11804 -1693 l  ps
-11954 -2569 m  -11804 -2569 l  ps
-11954 -2569 m  -11804 -2569 l  ps
-11954 -3445 m  -11804 -3445 l  ps
-11954 -3445 m  -11804 -3445 l  ps
-11804 2686 m  -11804 -3445 l  ps
80 lw 0.003 0.273 0.527 c -11804 1409 m  -7322 944 l  -2840 198 l  1642 -525 l 
6124 -1452 l  10607 -2102 l  ps
1.000 0.261 0.058 c -11804 1150 m  -7322 742 l  -2840 -265 l  1642 -1066 l 
6124 -2047 l  10607 -2806 l  ps

0.105 0.105 0.105 c
/Helvetica f
353 sf -11897 3254 m  185 0 (1) bs

/Helvetica f
353 sf -7415 3254 m  185 0 (5) bs

/Helvetica f
353 sf -3025 3254 m  185 0 (1) bs
185 185 (0) bs

/Helvetica f
353 sf 1458 3254 m  185 0 (1) bs
185 185 (5) bs

/Helvetica f
353 sf 5940 3254 m  185 0 (2) bs
185 185 (0) bs

/Helvetica f
353 sf 10423 3254 m  185 0 (2) bs
185 185 (5) bs

/Helvetica f
353 sf -12239 2807 m  185 0 (0) bs

/Helvetica f
353 sf -12795 1931 m  185 0 (2) bs
185 185 (0) bs
185 370 (0) bs
185 556 (0) bs

/Helvetica f
353 sf -12795 1055 m  185 0 (4) bs
185 185 (0) bs
185 370 (0) bs
185 556 (0) bs

/Helvetica f
353 sf -12795 179 m  185 0 (6) bs
185 185 (0) bs
185 370 (0) bs
185 556 (0) bs

/Helvetica f
353 sf -12795 -698 m  185 0 (8) bs
185 185 (0) bs
185 370 (0) bs
185 556 (0) bs

/Helvetica f
353 sf -12980 -1573 m  185 0 (1) bs
185 185 (0) bs
185 370 (0) bs
185 556 (0) bs
185 741 (0) bs

/Helvetica f
353 sf -12980 -2449 m  185 0 (1) bs
185 185 (2) bs
185 370 (0) bs
185 556 (0) bs
185 741 (0) bs

/Helvetica f
353 sf -12980 -3325 m  185 0 (1) bs
185 185 (4) bs
185 370 (0) bs
185 556 (0) bs
185 741 (0) bs


50 lw 0.003 0.273 0.527 c 12076 -250 m  12876 -250 l  ps

1.000 0.261 0.058 c 12076 247 m  12876 247 l  ps

0.105 0.105 0.105 c
/Helvetica f
353 sf 12976 -130 m  185 0 (1) bs
185 185 (0) bs
106 370 ( ) bs
238 476 (D) bs
185 714 (o) bs
185 900 (c) bs

/Helvetica f
353 sf 12976 367 m  185 0 (1) bs
185 185 (0) bs
185 370 (0) bs
106 556 ( ) bs
238 661 (D) bs
185 900 (o) bs
185 1085 (c) bs

/Helvetica f
318 sf -2522 3900 m  159 0 (k) bs
291 159 (m) bs
185 450 (e) bs
106 635 (r) bs
79 741 ( ) bs
212 820 (P) bs
185 1032 (a) bs
79 1217 (i) bs
106 1296 (r) bs
185 1402 (s) bs
79 1588 ( ) bs
79 1667 (i) bs
185 1746 (n) bs
79 1931 ( ) bs
238 2011 (Q) bs
185 2249 (u) bs
185 2434 (e) bs
106 2619 (r) bs
132 2725 (y) bs

/Helvetica f
318 sf -13738 771 m  gs 90.0 r 185 0 (T) bs
79 185 (i) bs
291 265 (m) bs
185 556 (e) bs
79 741 ( ) bs
106 820 (\() bs
291 926 (m) bs
185 1217 (s) bs
185 1402 (e) bs
159 1588 (c) bs
106 1746 (\)) bs
gr
0 8989 t 
pom
count op_count sub {pop} repeat countdictstack dict_count sub {end} repeat b4_inc_state restore
%%PageTrailer
%%Trailer
%%EOF
