%!PS-Adobe-3.0 EPSF-3.0 
%%BoundingBox: 0 0 873 255
%%Pages: 0
%%Creator: Sun Microsystems, Inc.
%%Title: none
%%CreationDate: none
%%LanguageLevel: 2
%%EndComments
%%BeginProlog
%%BeginResource: procset SDRes-Prolog 1.0 0
/b4_inc_state save def
/dict_count countdictstack def
/op_count count 1 sub def
userdict begin
0 setgray 0 setlinecap 1 setlinewidth 0 setlinejoin 10 setmiterlimit[] 0 setdash newpath
/languagelevel where {pop languagelevel 1 ne {false setstrokeadjust false setoverprint} if} if
/bdef {bind def} bind def
/c {setrgbcolor} bdef
/l {neg lineto} bdef
/rl {neg rlineto} bdef
/lc {setlinecap} bdef
/lj {setlinejoin} bdef
/lw {setlinewidth} bdef
/ml {setmiterlimit} bdef
/ld {setdash} bdef
/m {neg moveto} bdef
/ct {6 2 roll neg 6 2 roll neg 6 2 roll neg curveto} bdef
/r {rotate} bdef
/t {neg translate} bdef
/s {scale} bdef
/sw {show} bdef
/gs {gsave} bdef
/gr {grestore} bdef
/f {findfont dup length dict begin
{1 index /FID ne {def} {pop pop} ifelse} forall /Encoding ISOLatin1Encoding def
currentdict end /NFont exch definefont pop /NFont findfont} bdef
/p {closepath} bdef
/sf {scalefont setfont} bdef
/ef {eofill}bdef
/pc {closepath stroke}bdef
/ps {stroke}bdef
/pum {matrix currentmatrix}bdef
/pom {setmatrix}bdef
/bs {/aString exch def /nXOfs exch def /nWidth exch def currentpoint nXOfs 0 rmoveto pum nWidth aString stringwidth pop div 1 scale aString show pom moveto} bdef
%%EndResource
%%EndProlog
%%BeginSetup
%%EndSetup
%%Page: 1 1
%%BeginPageSetup
%%EndPageSetup
pum
0.02835 0.02838 s 
0 -8985 t
/tm matrix currentmatrix def
tm setmatrix
15391 4492 t 
1 1 s 

1.000 1.000 1.000 c 0 4492 m  -15391 4492 l  -15391 -4492 l  15391 -4492 l 
15391 4492 l  0 4492 l  p ef



0 lw 1 lj 0.703 0.703 0.703 c -1784 2685 m  -12958 2685 l  -12958 -3442 l 
9389 -3442 l  9389 2685 l  -1784 2685 l  pc
9389 2684 m  -12958 2684 l  ps
9389 2071 m  -12958 2071 l  ps
9389 1458 m  -12958 1458 l  ps
9389 845 m  -12958 845 l  ps
9389 232 m  -12958 232 l  ps
9389 -379 m  -12958 -379 l  ps
9389 -992 m  -12958 -992 l  ps
9389 -1605 m  -12958 -1605 l  ps
9389 -2218 m  -12958 -2218 l  ps
9389 -2831 m  -12958 -2831 l  ps
9389 -3443 m  -12958 -3443 l  ps

-12958 2834 m  -12958 2684 l  ps
-12958 2834 m  -12958 2684 l  ps
-5509 2834 m  -5509 2684 l  ps
-5509 2834 m  -5509 2684 l  ps
1939 2834 m  1939 2684 l  ps
1939 2834 m  1939 2684 l  ps
9389 2834 m  9389 2684 l  ps
9389 2834 m  9389 2684 l  ps
-12958 2684 m  9389 2684 l  ps
-13108 2684 m  -12958 2684 l  ps
-13108 2684 m  -12958 2684 l  ps
-13108 2071 m  -12958 2071 l  ps
-13108 2071 m  -12958 2071 l  ps
-13108 1458 m  -12958 1458 l  ps
-13108 1458 m  -12958 1458 l  ps
-13108 845 m  -12958 845 l  ps
-13108 845 m  -12958 845 l  ps
-13108 232 m  -12958 232 l  ps
-13108 232 m  -12958 232 l  ps
-13108 -379 m  -12958 -379 l  ps
-13108 -379 m  -12958 -379 l  ps
-13108 -992 m  -12958 -992 l  ps
-13108 -992 m  -12958 -992 l  ps
-13108 -1605 m  -12958 -1605 l  ps
-13108 -1605 m  -12958 -1605 l  ps
-13108 -2218 m  -12958 -2218 l  ps
-13108 -2218 m  -12958 -2218 l  ps
-13108 -2831 m  -12958 -2831 l  ps
-13108 -2831 m  -12958 -2831 l  ps
-13108 -3443 m  -12958 -3443 l  ps
-13108 -3443 m  -12958 -3443 l  ps
-12958 2684 m  -12958 -3443 l  ps
80 lw 0.003 0.273 0.527 c -12958 2546 m  -5509 2487 l  1939 2215 l  9389 -1277 l 
ps
1.000 0.261 0.058 c -12958 2331 m  -5509 2003 l  1939 1243 l  9389 -2818 l 
ps
1.000 0.828 0.128 c -12958 2095 m  -5509 1562 l  1939 1409 l  ps
0.343 0.617 0.113 c -12958 1436 m  -5509 955 l  1939 -3070 l  ps

0.105 0.105 0.105 c
/Helvetica f
353 sf -13329 3252 m  185 0 (1) bs
185 185 (0) bs
185 370 (0) bs
185 556 (0) bs

/Helvetica f
353 sf -5972 3252 m  185 0 (1) bs
185 185 (0) bs
185 370 (0) bs
185 556 (0) bs
185 741 (0) bs

/Helvetica f
353 sf 1384 3252 m  185 0 (1) bs
185 185 (0) bs
185 370 (0) bs
185 556 (0) bs
185 741 (0) bs
185 926 (0) bs

/Helvetica f
353 sf 8742 3252 m  185 0 (1) bs
185 185 (0) bs
185 370 (0) bs
185 556 (0) bs
185 741 (0) bs
185 926 (0) bs
185 1111 (0) bs

/Helvetica f
353 sf -13393 2805 m  185 0 (0) bs

/Helvetica f
353 sf -13578 2192 m  185 0 (1) bs
185 185 (0) bs

/Helvetica f
353 sf -13578 1579 m  185 0 (2) bs
185 185 (0) bs

/Helvetica f
353 sf -13578 966 m  185 0 (3) bs
185 185 (0) bs

/Helvetica f
353 sf -13578 353 m  185 0 (4) bs
185 185 (0) bs

/Helvetica f
353 sf -13578 -259 m  185 0 (5) bs
185 185 (0) bs

/Helvetica f
353 sf -13578 -872 m  185 0 (6) bs
185 185 (0) bs

/Helvetica f
353 sf -13578 -1485 m  185 0 (7) bs
185 185 (0) bs

/Helvetica f
353 sf -13578 -2098 m  185 0 (8) bs
185 185 (0) bs

/Helvetica f
353 sf -13578 -2711 m  185 0 (9) bs
185 185 (0) bs

/Helvetica f
353 sf -13764 -3323 m  185 0 (1) bs
185 185 (0) bs
185 370 (0) bs


50 lw 0.003 0.273 0.527 c 11385 -748 m  12185 -748 l  ps

1.000 0.261 0.058 c 11385 -250 m  12185 -250 l  ps

1.000 0.828 0.128 c 11385 247 m  12185 247 l  ps

0.343 0.617 0.113 c 11385 745 m  12185 745 l  ps

0.105 0.105 0.105 c
/Helvetica f
353 sf 12285 -628 m  185 0 (1) bs
185 185 (0) bs
106 370 ( ) bs
238 476 (D) bs
185 714 (o) bs
185 900 (c) bs
185 1085 (u) bs
291 1270 (m) bs
185 1561 (e) bs
185 1746 (n) bs
106 1931 (t) bs
185 2037 (s) bs

/Helvetica f
353 sf 12285 -130 m  185 0 (1) bs
185 185 (0) bs
185 370 (0) bs
106 556 ( ) bs
238 661 (D) bs
185 900 (o) bs
185 1085 (c) bs
185 1270 (u) bs
291 1455 (m) bs
185 1746 (e) bs
185 1931 (n) bs
106 2117 (t) bs
185 2223 (s) bs

/Helvetica f
353 sf 12285 367 m  185 0 (1) bs
185 185 (0) bs
185 370 (0) bs
185 556 (0) bs
106 741 ( ) bs
238 847 (D) bs
185 1085 (o) bs
185 1270 (c) bs
185 1455 (u) bs
291 1640 (m) bs
185 1931 (e) bs
185 2117 (n) bs
106 2302 (t) bs
185 2408 (s) bs

/Helvetica f
353 sf 12285 865 m  185 0 (1) bs
185 185 (0) bs
185 370 (0) bs
185 556 (0) bs
185 741 (0) bs
106 926 ( ) bs
238 1032 (D) bs
185 1270 (o) bs
185 1455 (c) bs
185 1640 (u) bs
291 1826 (m) bs
185 2117 (e) bs
185 2302 (n) bs
106 2487 (t) bs
185 2593 (s) bs

/Helvetica f
318 sf -2670 3898 m  212 0 (B) bs
185 212 (a) bs
185 397 (s) bs
185 582 (e) bs
79 767 ( ) bs
212 847 (P) bs
185 1058 (a) bs
79 1244 (i) bs
106 1323 (r) bs
185 1429 (s) bs

/Helvetica f
318 sf -14554 771 m  gs 90.0 r 185 0 (T) bs
79 185 (i) bs
291 265 (m) bs
185 556 (e) bs
79 741 ( ) bs
106 820 (\() bs
291 926 (m) bs
185 1217 (s) bs
185 1402 (e) bs
159 1588 (c) bs
106 1746 (\)) bs
gr
0 8985 t 
pom
count op_count sub {pop} repeat countdictstack dict_count sub {end} repeat b4_inc_state restore
%%PageTrailer
%%Trailer
%%EOF
