%!PS-Adobe-3.0 EPSF-3.0 
%%BoundingBox: 0 0 880 245
%%Pages: 0
%%Creator: Sun Microsystems, Inc.
%%Title: none
%%CreationDate: none
%%LanguageLevel: 2
%%EndComments
%%BeginProlog
%%BeginResource: procset SDRes-Prolog 1.0 0
/b4_inc_state save def
/dict_count countdictstack def
/op_count count 1 sub def
userdict begin
0 setgray 0 setlinecap 1 setlinewidth 0 setlinejoin 10 setmiterlimit[] 0 setdash newpath
/languagelevel where {pop languagelevel 1 ne {false setstrokeadjust false setoverprint} if} if
/bdef {bind def} bind def
/c {setrgbcolor} bdef
/l {neg lineto} bdef
/rl {neg rlineto} bdef
/lc {setlinecap} bdef
/lj {setlinejoin} bdef
/lw {setlinewidth} bdef
/ml {setmiterlimit} bdef
/ld {setdash} bdef
/m {neg moveto} bdef
/ct {6 2 roll neg 6 2 roll neg 6 2 roll neg curveto} bdef
/r {rotate} bdef
/t {neg translate} bdef
/s {scale} bdef
/sw {show} bdef
/gs {gsave} bdef
/gr {grestore} bdef
/f {findfont dup length dict begin
{1 index /FID ne {def} {pop pop} ifelse} forall /Encoding ISOLatin1Encoding def
currentdict end /NFont exch definefont pop /NFont findfont} bdef
/p {closepath} bdef
/sf {scalefont setfont} bdef
/ef {eofill}bdef
/pc {closepath stroke}bdef
/ps {stroke}bdef
/pum {matrix currentmatrix}bdef
/pom {setmatrix}bdef
/bs {/aString exch def /nXOfs exch def /nWidth exch def currentpoint nXOfs 0 rmoveto pum nWidth aString stringwidth pop div 1 scale aString show pom moveto} bdef
%%EndResource
%%EndProlog
%%BeginSetup
%%EndSetup
%%Page: 1 1
%%BeginPageSetup
%%EndPageSetup
pum
0.02836 0.02836 s 
0 -8636 t
/tm matrix currentmatrix def
tm setmatrix
15513 4318 t 
1 1 s 

1.000 1.000 1.000 c 0 4317 m  -15513 4317 l  -15513 -4318 l  15512 -4318 l 
15512 4317 l  0 4317 l  p ef



0 lw 1 lj 0.703 0.703 0.703 c -1602 2517 m  -12705 2517 l  -12705 -3296 l 
9500 -3296 l  9500 2517 l  -1602 2517 l  pc
9500 2516 m  -12705 2516 l  ps
9500 1062 m  -12705 1062 l  ps
9500 -390 m  -12705 -390 l  ps
9500 -1844 m  -12705 -1844 l  ps
9500 -3297 m  -12705 -3297 l  ps

-12705 2666 m  -12705 2516 l  ps
-12705 2666 m  -12705 2516 l  ps
-5303 2666 m  -5303 2516 l  ps
-5303 2666 m  -5303 2516 l  ps
2098 2666 m  2098 2516 l  ps
2098 2666 m  2098 2516 l  ps
9500 2666 m  9500 2516 l  ps
9500 2666 m  9500 2516 l  ps
-12705 2516 m  9500 2516 l  ps
-12855 2516 m  -12705 2516 l  ps
-12855 2516 m  -12705 2516 l  ps
-12855 1062 m  -12705 1062 l  ps
-12855 1062 m  -12705 1062 l  ps
-12855 -390 m  -12705 -390 l  ps
-12855 -390 m  -12705 -390 l  ps
-12855 -1844 m  -12705 -1844 l  ps
-12855 -1844 m  -12705 -1844 l  ps
-12855 -3297 m  -12705 -3297 l  ps
-12855 -3297 m  -12705 -3297 l  ps
-12705 2516 m  -12705 -3297 l  ps
80 lw 0.003 0.273 0.527 c -12705 1791 m  -5303 785 l  2098 -466 l  9500 -2519 l 
ps
1.000 0.261 0.058 c -12705 1791 m  -5303 752 l  2098 -933 l  9500 -2636 l 
ps
1.000 0.828 0.128 c -12705 1698 m  -5303 672 l  2098 -1123 l  ps
0.343 0.617 0.113 c -12705 1487 m  -5303 440 l  2098 -830 l  ps

0.105 0.105 0.105 c
/Helvetica f
353 sf -13076 3084 m  185 0 (1) bs
185 185 (0) bs
185 370 (0) bs
185 556 (0) bs

/Helvetica f
353 sf -5766 3084 m  185 0 (1) bs
185 185 (0) bs
185 370 (0) bs
185 556 (0) bs
185 741 (0) bs

/Helvetica f
353 sf 1543 3084 m  185 0 (1) bs
185 185 (0) bs
185 370 (0) bs
185 556 (0) bs
185 741 (0) bs
185 926 (0) bs

/Helvetica f
353 sf 8853 3084 m  185 0 (1) bs
185 185 (0) bs
185 370 (0) bs
185 556 (0) bs
185 741 (0) bs
185 926 (0) bs
185 1111 (0) bs

/Helvetica f
353 sf -13140 2637 m  185 0 (1) bs

/Helvetica f
353 sf -13325 1183 m  185 0 (1) bs
185 185 (0) bs

/Helvetica f
353 sf -13511 -270 m  185 0 (1) bs
185 185 (0) bs
185 370 (0) bs

/Helvetica f
353 sf -13696 -1724 m  185 0 (1) bs
185 185 (0) bs
185 370 (0) bs
185 556 (0) bs

/Helvetica f
353 sf -13881 -3177 m  185 0 (1) bs
185 185 (0) bs
185 370 (0) bs
185 556 (0) bs
185 741 (0) bs


50 lw 0.003 0.273 0.527 c 11506 -748 m  12306 -748 l  ps

1.000 0.261 0.058 c 11506 -250 m  12306 -250 l  ps

1.000 0.828 0.128 c 11506 247 m  12306 247 l  ps

0.343 0.617 0.113 c 11506 745 m  12306 745 l  ps

0.105 0.105 0.105 c
/Helvetica f
353 sf 12406 -628 m  185 0 (1) bs
185 185 (0) bs
106 370 ( ) bs
238 476 (D) bs
185 714 (o) bs
185 900 (c) bs
185 1085 (u) bs
291 1270 (m) bs
185 1561 (e) bs
185 1746 (n) bs
106 1931 (t) bs
185 2037 (s) bs

/Helvetica f
353 sf 12406 -130 m  185 0 (1) bs
185 185 (0) bs
185 370 (0) bs
106 556 ( ) bs
238 661 (D) bs
185 900 (o) bs
185 1085 (c) bs
185 1270 (u) bs
291 1455 (m) bs
185 1746 (e) bs
185 1931 (n) bs
106 2117 (t) bs
185 2223 (s) bs

/Helvetica f
353 sf 12406 367 m  185 0 (1) bs
185 185 (0) bs
185 370 (0) bs
185 556 (0) bs
106 741 ( ) bs
238 847 (D) bs
185 1085 (o) bs
185 1270 (c) bs
185 1455 (u) bs
291 1640 (m) bs
185 1931 (e) bs
185 2117 (n) bs
106 2302 (t) bs
185 2408 (s) bs

/Helvetica f
353 sf 12406 865 m  185 0 (1) bs
185 185 (0) bs
185 370 (0) bs
185 556 (0) bs
185 741 (0) bs
106 926 ( ) bs
238 1032 (D) bs
185 1270 (o) bs
185 1455 (c) bs
185 1640 (u) bs
291 1826 (m) bs
185 2117 (e) bs
185 2302 (n) bs
106 2487 (t) bs
185 2593 (s) bs

/Helvetica f
318 sf -2673 3723 m  212 0 (B) bs
185 212 (a) bs
185 397 (s) bs
185 582 (e) bs
79 767 ( ) bs
212 847 (P) bs
185 1058 (a) bs
79 1244 (i) bs
106 1323 (r) bs
185 1429 (s) bs

/Helvetica f
318 sf -14676 760 m  gs 90.0 r 185 0 (T) bs
79 185 (i) bs
291 265 (m) bs
185 556 (e) bs
79 741 ( ) bs
106 820 (\() bs
291 926 (m) bs
185 1217 (s) bs
185 1402 (e) bs
159 1588 (c) bs
106 1746 (\)) bs
gr
0 8636 t 
pom
count op_count sub {pop} repeat countdictstack dict_count sub {end} repeat b4_inc_state restore
%%PageTrailer
%%Trailer
%%EOF
