%!PS-Adobe-3.0 EPSF-3.0 
%%BoundingBox: 0 0 865 255
%%Pages: 0
%%Creator: Sun Microsystems, Inc.
%%Title: none
%%CreationDate: none
%%LanguageLevel: 2
%%EndComments
%%BeginProlog
%%BeginResource: procset SDRes-Prolog 1.0 0
/b4_inc_state save def
/dict_count countdictstack def
/op_count count 1 sub def
userdict begin
0 setgray 0 setlinecap 1 setlinewidth 0 setlinejoin 10 setmiterlimit[] 0 setdash newpath
/languagelevel where {pop languagelevel 1 ne {false setstrokeadjust false setoverprint} if} if
/bdef {bind def} bind def
/c {setrgbcolor} bdef
/l {neg lineto} bdef
/rl {neg rlineto} bdef
/lc {setlinecap} bdef
/lj {setlinejoin} bdef
/lw {setlinewidth} bdef
/ml {setmiterlimit} bdef
/ld {setdash} bdef
/m {neg moveto} bdef
/ct {6 2 roll neg 6 2 roll neg 6 2 roll neg curveto} bdef
/r {rotate} bdef
/t {neg translate} bdef
/s {scale} bdef
/sw {show} bdef
/gs {gsave} bdef
/gr {grestore} bdef
/f {findfont dup length dict begin
{1 index /FID ne {def} {pop pop} ifelse} forall /Encoding ISOLatin1Encoding def
currentdict end /NFont exch definefont pop /NFont findfont} bdef
/p {closepath} bdef
/sf {scalefont setfont} bdef
/ef {eofill}bdef
/pc {closepath stroke}bdef
/ps {stroke}bdef
/pum {matrix currentmatrix}bdef
/pom {setmatrix}bdef
/bs {/aString exch def /nXOfs exch def /nWidth exch def currentpoint nXOfs 0 rmoveto pum nWidth aString stringwidth pop div 1 scale aString show pom moveto} bdef
%%EndResource
%%EndProlog
%%BeginSetup
%%EndSetup
%%Page: 1 1
%%BeginPageSetup
%%EndPageSetup
pum
0.02834 0.02833 s 
0 -9000 t
/tm matrix currentmatrix def
tm setmatrix
15257 4500 t 
1 1 s 

1.000 1.000 1.000 c 0 4499 m  -15257 4499 l  -15257 -4500 l  15257 -4500 l 
15257 4499 l  0 4499 l  p ef



0 lw 1 lj 0.703 0.703 0.703 c -1875 2691 m  -13015 2691 l  -13015 -3446 l 
9265 -3446 l  9265 2691 l  -1875 2691 l  pc
9265 2690 m  -13015 2690 l  ps
9265 2008 m  -13015 2008 l  ps
9265 1326 m  -13015 1326 l  ps
9265 644 m  -13015 644 l  ps
9265 -37 m  -13015 -37 l  ps
9265 -719 m  -13015 -719 l  ps
9265 -1401 m  -13015 -1401 l  ps
9265 -2083 m  -13015 -2083 l  ps
9265 -2766 m  -13015 -2766 l  ps
9265 -3448 m  -13015 -3448 l  ps

-13015 2840 m  -13015 2690 l  ps
-13015 2840 m  -13015 2690 l  ps
-5588 2840 m  -5588 2690 l  ps
-5588 2840 m  -5588 2690 l  ps
1838 2840 m  1838 2690 l  ps
1838 2840 m  1838 2690 l  ps
9265 2840 m  9265 2690 l  ps
9265 2840 m  9265 2690 l  ps
-13015 2690 m  9265 2690 l  ps
-13165 2690 m  -13015 2690 l  ps
-13165 2690 m  -13015 2690 l  ps
-13165 2008 m  -13015 2008 l  ps
-13165 2008 m  -13015 2008 l  ps
-13165 1326 m  -13015 1326 l  ps
-13165 1326 m  -13015 1326 l  ps
-13165 644 m  -13015 644 l  ps
-13165 644 m  -13015 644 l  ps
-13165 -37 m  -13015 -37 l  ps
-13165 -37 m  -13015 -37 l  ps
-13165 -719 m  -13015 -719 l  ps
-13165 -719 m  -13015 -719 l  ps
-13165 -1402 m  -13015 -1402 l  ps
-13165 -1402 m  -13015 -1402 l  ps
-13165 -2083 m  -13015 -2083 l  ps
-13165 -2083 m  -13015 -2083 l  ps
-13165 -2765 m  -13015 -2765 l  ps
-13165 -2765 m  -13015 -2765 l  ps
-13165 -3447 m  -13015 -3447 l  ps
-13165 -3447 m  -13015 -3447 l  ps
-13015 2690 m  -13015 -3448 l  ps
80 lw 0.003 0.273 0.527 c -13015 2580 m  -5588 2539 l  1838 2291 l  9265 -1596 l 
ps
1.000 0.261 0.058 c -13015 2461 m  -5588 2219 l  1838 2052 l  9265 -3018 l 
ps
1.000 0.828 0.128 c -13015 2311 m  -5588 2001 l  1838 1810 l  ps
0.343 0.617 0.113 c -13015 1994 m  -5588 1776 l  1838 -1920 l  ps

0.105 0.105 0.105 c
/Helvetica f
353 sf -13386 3258 m  185 0 (1) bs
185 185 (0) bs
185 370 (0) bs
185 556 (0) bs

/Helvetica f
353 sf -6051 3258 m  185 0 (1) bs
185 185 (0) bs
185 370 (0) bs
185 556 (0) bs
185 741 (0) bs

/Helvetica f
353 sf 1283 3258 m  185 0 (1) bs
185 185 (0) bs
185 370 (0) bs
185 556 (0) bs
185 741 (0) bs
185 926 (0) bs

/Helvetica f
353 sf 8618 3258 m  185 0 (1) bs
185 185 (0) bs
185 370 (0) bs
185 556 (0) bs
185 741 (0) bs
185 926 (0) bs
185 1111 (0) bs

/Helvetica f
353 sf -13450 2811 m  185 0 (0) bs

/Helvetica f
353 sf -13635 2129 m  185 0 (1) bs
185 185 (0) bs

/Helvetica f
353 sf -13635 1447 m  185 0 (2) bs
185 185 (0) bs

/Helvetica f
353 sf -13635 765 m  185 0 (3) bs
185 185 (0) bs

/Helvetica f
353 sf -13635 83 m  185 0 (4) bs
185 185 (0) bs

/Helvetica f
353 sf -13635 -599 m  185 0 (5) bs
185 185 (0) bs

/Helvetica f
353 sf -13635 -1282 m  185 0 (6) bs
185 185 (0) bs

/Helvetica f
353 sf -13635 -1963 m  185 0 (7) bs
185 185 (0) bs

/Helvetica f
353 sf -13635 -2645 m  185 0 (8) bs
185 185 (0) bs

/Helvetica f
353 sf -13635 -3327 m  185 0 (9) bs
185 185 (0) bs


50 lw 0.003 0.273 0.527 c 11251 -748 m  12051 -748 l  ps

1.000 0.261 0.058 c 11251 -250 m  12051 -250 l  ps

1.000 0.828 0.128 c 11251 247 m  12051 247 l  ps

0.343 0.617 0.113 c 11251 745 m  12051 745 l  ps

0.105 0.105 0.105 c
/Helvetica f
353 sf 12151 -628 m  185 0 (1) bs
185 185 (0) bs
106 370 ( ) bs
238 476 (D) bs
185 714 (o) bs
185 900 (c) bs
185 1085 (u) bs
291 1270 (m) bs
185 1561 (e) bs
185 1746 (n) bs
106 1931 (t) bs
185 2037 (s) bs

/Helvetica f
353 sf 12151 -130 m  185 0 (1) bs
185 185 (0) bs
185 370 (0) bs
106 556 ( ) bs
238 661 (D) bs
185 900 (o) bs
185 1085 (c) bs
185 1270 (u) bs
291 1455 (m) bs
185 1746 (e) bs
185 1931 (n) bs
106 2117 (t) bs
185 2223 (s) bs

/Helvetica f
353 sf 12151 367 m  185 0 (1) bs
185 185 (0) bs
185 370 (0) bs
185 556 (0) bs
106 741 ( ) bs
238 847 (D) bs
185 1085 (o) bs
185 1270 (c) bs
185 1455 (u) bs
291 1640 (m) bs
185 1931 (e) bs
185 2117 (n) bs
106 2302 (t) bs
185 2408 (s) bs

/Helvetica f
353 sf 12151 865 m  185 0 (1) bs
185 185 (0) bs
185 370 (0) bs
185 556 (0) bs
185 741 (0) bs
106 926 ( ) bs
238 1032 (D) bs
185 1270 (o) bs
185 1455 (c) bs
185 1640 (u) bs
291 1826 (m) bs
185 2117 (e) bs
185 2302 (n) bs
106 2487 (t) bs
185 2593 (s) bs

/Helvetica f
318 sf -2667 3905 m  212 0 (B) bs
185 212 (a) bs
185 397 (s) bs
185 582 (e) bs
79 767 ( ) bs
212 847 (P) bs
185 1058 (a) bs
79 1244 (i) bs
106 1323 (r) bs
185 1429 (s) bs

/Helvetica f
318 sf -14420 772 m  gs 90.0 r 185 0 (T) bs
79 185 (i) bs
291 265 (m) bs
185 556 (e) bs
79 741 ( ) bs
106 820 (\() bs
291 926 (m) bs
185 1217 (s) bs
185 1402 (e) bs
159 1588 (c) bs
106 1746 (\)) bs
gr
0 9000 t 
pom
count op_count sub {pop} repeat countdictstack dict_count sub {end} repeat b4_inc_state restore
%%PageTrailer
%%Trailer
%%EOF
