Depth: 1,144,61,299,63,275,191,63,60,59,279,60,73,281,57,61,194,62,58,62,60
Depth: 2,62,60,70,61,60,58,62,61,57,63,62,70,60,59,60,61,61,58,61,62
Depth: 3,70,58,198,62,59,58,59,61,63,62,59,194,69,62,62,59,63,61,62,63
Depth: 4,59,71,59,61,63,58,60,64,60,70,60,65,62,64,62,61,62,61,73,60
Depth: 5,59,62,60,62,59,63,63,68,59,65,60,61,60,61,61,63,73,62,60,62
Depth: 6,61,61,59,62,72,58,61,61,62,62,62,59,63,70,60,62,63,59,62,60
Depth: 7,62,62,67,62,61,60,60,61,63,59,68,59,61,62,60,65,59,62,57,68
Depth: 8,62,63,59,62,62,58,64,69,61,59,60,58,61,62,62,69,60,55,60,62
Depth: 9,58,59,58,60,71,63,62,60,61,61,61,61,69,59,62,64,61,62,59,62
Depth: 10,75,62,64,61,64,59,64,60,64,68,59,63,62,63,61,60,60,71,60,57
Depth: 11,59,63,61,63,63,70,61,64,61,60,63,60,64,71,64,63,64,61,63,62
Depth: 12,65,70,65,64,63,63,62,59,62,70,62,59,64,60,60,63,62,70,62,64
Depth: 13,64,62,59,62,63,68,63,60,61,61,64,60,62,71,63,60,61,61,60,94
Depth: 14,66,72,63,62,60,59,59,62,74,62,63,63,62,62,61,60,71,64,62,62
Depth: 15,62,64,65,63,69,64,65,63,60,62,62,61,78,65,63,62,59,62,58,72
Depth: 16,63,62,66,64,62,66,60,74,65,64,61,63,63,59,65,72,63,58,60,60
Depth: 17,63,64,70,64,65,61,62,61,63,59,72,65,59,60,64,64,66,72,66,63
Depth: 18,62,60,60,58,60,70,67,63,61,63,62,60,75,63,61,60,63,62,67,75
Depth: 19,64,64,63,62,59,61,61,73,65,59,59,61,64,64,71,64,66,60,62,63
Depth: 20,61,73,62,66,63,65,62,62,60,72,60,66,61,63,63,65,73,65,61,64
Depth: 21,64,62,61,71,63,63,63,64,61,65,75,60,63,65,65,59,63,63,72,63
Depth: 22,63,63,65,65,65,70,60,62,60,64,65,64,74,63,63,62,61,61,65,70
Depth: 23,64,63,64,62,65,62,76,66,63,64,64,61,64,75,65,67,65,60,63,65
Depth: 24,71,66,62,64,59,65,66,73,59,62,64,63,67,64,69,64,60,60,63,61
Depth: 25,66,73,65,63,63,65,60,64,73,62,61,65,62,60,65,71,65,61,65,64
Depth: 1,6099,2481,7425,2942,7628,6157,2155,2702,2268,6391,2912,2196,7129,2411,2561,3437,2858,2524,2432,2477
Depth: 2,3080,2882,3453,2733,3235,3229,2702,3366,2739,2615,2566,2643,3002,2680,2663,2721,2788,3197,3624,2993
Depth: 3,3536,3004,8243,3409,3074,2570,3139,2878,3325,3501,3084,4817,3396,2885,3200,2741,3671,3551,3338,3356
Depth: 4,3723,3655,3598,3671,4289,3442,2744,3638,3817,3248,3915,3392,3401,3929,3564,3366,3765,3631,3811,3966
Depth: 5,3400,3544,3930,3441,3688,3991,4410,4436,3445,4291,4259,5160,4170,2981,4431,4246,4458,4276,3156,3830
Depth: 6,4253,3935,5396,4582,4187,3974,4448,3807,4156,4747,4753,4294,4881,4838,4994,4996,4024,4648,3878,4362
Depth: 7,4371,3985,4517,4282,3899,4249,5223,5273,4934,4991,4342,4959,5125,4842,5280,4981,3684,5144,4112,5069
Depth: 8,4832,4617,4681,5110,4793,4297,4815,5288,4817,5330,5768,4231,4422,4981,4701,5220,4186,4908,4711,4341
Depth: 9,5706,6515,4327,5012,5762,5300,5116,5106,5091,4941,5443,4777,5614,5188,5070,5388,5541,6142,5083,5251
Depth: 10,5281,5537,5190,5429,6309,6673,5529,5675,4939,5747,5974,5513,5934,5785,5842,5508,6474,5226,5931,5086
Depth: 11,5436,6002,6196,5452,5667,6145,6126,6281,6479,7506,6866,6235,6046,6177,5475,6026,6357,7013,6032,5969
Depth: 12,6481,6705,6223,6765,6563,7100,6784,6511,6844,5885,6103,5162,6294,5637,6128,6892,6562,7084,6674,6480
Depth: 13,6268,7045,6960,7202,7222,7323,7308,7033,6736,7376,6820,8067,7251,6496,6308,7524,7005,5882,6608,7009
Depth: 14,6400,6432,5830,7777,7409,7067,6667,6843,8410,6911,6763,6140,8154,7358,6054,7517,8360,7553,6798,7554
Depth: 15,6029,7314,7321,6634,6466,7030,8452,7911,6921,7284,7047,9332,7482,7746,7101,6969,7481,7002,7522,7581
Depth: 16,8176,8365,8474,8765,6076,8149,8379,8038,7589,7951,7626,7518,7782,8821,8591,7852,7243,8557,7797,7197
Depth: 17,9360,7766,7204,8851,8634,7219,9262,7932,7401,7874,8179,8459,7727,8891,8266,8078,8512,7720,7055,8800
Depth: 18,9788,8475,8323,9691,8419,7368,9054,8581,8327,8145,8992,7523,9630,8653,8862,6745,10026,8063,8017,8415
Depth: 19,9004,9313,9003,8936,7706,8242,10016,9179,9822,9392,9538,9789,8510,8331,8386,9157,9049,8083,9787,8849
Depth: 20,9428,9478,9283,9175,9648,10494,9227,10465,10020,8486,9895,9390,9921,10048,8937,8033,8293,8608,11275,8891
Depth: 21,10934,9199,9083,11815,8518,9173,10426,9419,10155,9757,9231,9370,9122,9053,10746,7919,8742,8068,10607,8830
Depth: 22,10939,9938,9679,10951,10277,9385,10170,10716,8341,9727,9315,8763,9080,10602,11079,11174,8938,10090,10506,9812
Depth: 23,9879,11224,11025,10148,9509,10536,9183,10356,10234,10174,10704,10566,9037,10114,10176,10483,12026,9751,10129,10476
Depth: 24,11143,10858,11192,11592,10983,12471,10276,11043,12419,10387,10034,12105,10850,10765,10209,11484,11403,9877,9893,10690
Depth: 25,11494,10262,10980,9983,11703,10996,11660,10013,11895,10471,11413,11197,10717,11219,11489,10982,9032,10989,12177,9972
