Depth: 1,5,3,4,4,9,7,4,4,3,3,3,4,4,4,4,5,4,4,4,9
Depth: 2,3,3,4,3,3,3,3,3,3,3,2,4,3,2,3,3,3,2,5,3
Depth: 3,5,4,4,5,4,4,4,6,5,4,3,3,3,3,5,3,3,4,4,3
Depth: 4,3,3,3,3,3,3,3,4,3,3,4,3,3,4,4,2,2,3,3,3
Depth: 5,4,3,3,3,4,4,4,3,4,4,4,3,3,4,3,3,3,3,3,3
Depth: 6,2,2,2,3,2,3,2,3,3,3,3,3,4,3,3,4,3,3,3,3
Depth: 7,4,4,3,4,3,3,4,3,4,3,3,4,4,2,2,2,4,2,3,5
Depth: 8,2,2,2,3,3,3,3,3,2,2,3,2,3,3,3,2,2,2,2,2
Depth: 9,2,2,2,3,2,3,3,3,3,2,2,3,3,2,2,3,2,3,2,2
Depth: 10,2,3,3,3,2,3,4,3,2,3,1,2,2,3,2,2,2,3,3,3
Depth: 11,3,3,2,3,3,3,3,4,2,2,3,3,2,3,3,3,2,3,3,3
Depth: 12,4,3,3,3,2,3,3,3,3,3,3,3,3,4,3,3,3,3,3,4
Depth: 13,3,3,3,3,4,3,3,3,3,3,3,3,3,3,2,2,3,3,3,2
Depth: 14,2,4,3,3,3,3,4,3,3,2,4,3,6,3,3,2,3,3,3,3
Depth: 15,3,3,3,3,3,2,2,3,2,2,3,2,3,3,3,3,4,4,3,3
Depth: 16,4,3,3,3,2,5,3,2,2,2,2,2,2,1,2,3,2,2,2,2
Depth: 17,4,3,3,2,3,3,3,2,3,3,3,3,3,4,3,3,3,3,2,3
Depth: 18,2,3,4,3,2,2,3,2,3,3,3,3,3,3,3,3,2,2,3,3
Depth: 19,3,3,4,3,3,3,4,3,1,2,2,2,2,2,3,3,3,3,3,3
Depth: 20,3,4,3,3,3,4,3,3,3,4,3,3,3,3,3,3,4,3,3,3
Depth: 21,4,3,3,4,3,3,4,4,3,3,2,3,2,2,3,3,3,3,3,3
Depth: 22,3,5,3,3,3,4,3,3,4,3,3,4,3,3,3,4,3,3,4,3
Depth: 23,3,4,3,3,3,4,4,3,4,3,3,4,3,4,4,3,3,4,4,3
Depth: 24,4,4,4,3,5,3,4,4,3,3,6,3,2,3,3,3,4,4,4,4
Depth: 25,3,3,4,3,2,4,3,3,4,3,3,4,4,3,4,4,3,4,3,4
Depth: 26,4,4,4,4,4,3,5,3,3,4,4,3,5,3,4,3,3,4,4,4
Depth: 27,5,4,3,4,4,4,4,3,5,4,4,4,4,3,3,3,4,5,4,4
Depth: 28,4,3,5,3,4,4,3,4,4,4,5,4,3,4,4,5,4,3,5,4
Depth: 29,4,5,4,5,4,4,5,3,5,4,4,4,4,4,4,4,4,4,4,6
Depth: 30,4,5,3,4,7,4,4,4,4,4,4,5,4,4,5,3,4,4,5,4
Depth: 31,4,5,4,5,4,4,3,4,5,4,4,5,4,5,4,5,4,3,5,4
Depth: 32,5,4,5,5,4,5,4,5,4,5,4,3,4,4,3,3,4,3,4,5
Depth: 33,4,5,4,5,4,4,5,4,5,4,5,4,5,4,4,5,4,5,4,5
Depth: 34,5,8,4,4,5,4,5,4,5,4,5,5,5,5,5,5,4,5,5,4
Depth: 35,4,5,4,6,4,5,4,5,4,4,7,4,5,4,5,4,5,4,5,5
Depth: 36,6,4,5,4,5,5,5,4,4,5,4,5,4,5,5,5,4,5,4,5
Depth: 37,4,5,4,5,4,5,5,5,4,6,4,4,4,5,4,5,4,4,5,5
Depth: 38,5,5,5,5,5,5,4,6,5,6,5,6,4,6,5,8,4,4,3,4
Depth: 39,5,6,5,5,4,6,6,5,6,5,6,5,6,5,5,5,6,5,6,4
Depth: 40,5,4,5,5,6,5,5,6,5,6,5,6,5,5,5,8,5,6,5,7
Depth: 41,6,5,5,4,6,5,6,5,5,5,5,5,5,6,5,7,4,4,5,4
Depth: 42,3,4,5,5,4,3,4,6,7,4,4,4,4,4,3,4,6,5,6,5
Depth: 43,6,5,5,6,6,7,6,6,5,7,6,5,7,5,7,6,4,5,5,6
Depth: 44,5,7,5,6,6,5,6,6,6,6,5,6,5,6,6,5,6,5,6,5
Depth: 45,6,7,4,5,6,6,6,6,5,5,6,7,5,6,6,6,7,6,6,6
Depth: 46,6,7,5,6,6,5,5,6,6,6,5,5,5,4,5,4,6,6,5,6
Depth: 47,5,6,7,5,9,6,4,6,5,6,7,4,4,6,6,7,6,6,6,5
Depth: 48,7,5,4,6,6,6,6,6,5,6,5,6,7,5,7,6,5,7,4,3
Depth: 49,5,5,5,7,6,6,9,6,7,7,4,5,5,6,6,6,6,8,6,5
Depth: 50,6,6,6,6,7,6,6,7,5,7,6,6,6,7,6,6,6,6,7,6
Depth: 1,38,9,53,7,22,20,3,3,5,3,2,4,4,3,3,3,3,2,4,26
Depth: 2,2,2,2,2,2,2,2,2,3,2,2,2,2,2,2,2,2,2,2,2
Depth: 3,3,3,4,3,2,3,3,10,3,4,4,4,5,4,4,8,4,4,4,3
Depth: 4,4,4,4,5,4,4,5,4,4,4,4,4,4,8,4,5,4,4,4,4
Depth: 5,4,5,5,4,4,4,5,6,4,4,4,4,4,4,5,4,5,6,4,4
Depth: 6,5,5,4,4,5,5,4,5,4,5,5,4,5,3,2,4,5,3,3,4
Depth: 7,4,4,4,3,3,5,3,4,3,4,4,4,5,3,6,4,3,5,5,5
Depth: 8,5,6,6,5,5,5,6,5,6,6,5,7,5,5,7,6,6,6,5,6
Depth: 9,5,4,6,5,5,4,3,3,3,4,5,7,5,6,6,6,6,7,7,6
Depth: 10,6,7,7,7,6,6,6,6,6,7,7,6,6,5,5,5,6,7,5,6
Depth: 11,4,5,5,7,5,6,7,7,8,7,6,6,7,7,7,7,6,5,6,7
Depth: 12,9,6,6,6,7,8,6,6,7,6,5,5,5,7,6,8,8,7,8,6
Depth: 13,7,8,6,7,7,7,7,8,7,7,6,9,8,7,7,6,5,10,7,6
Depth: 14,8,9,7,8,7,6,8,8,7,8,7,8,7,7,8,7,9,7,8,8
Depth: 15,8,7,9,7,8,8,8,8,8,9,8,8,8,8,10,9,9,8,9,7
Depth: 16,9,8,9,7,8,9,7,8,9,8,9,9,8,8,8,8,9,8,8,9
Depth: 17,8,9,8,10,8,8,8,9,9,8,8,10,8,8,8,9,8,8,8,10
Depth: 18,9,8,10,10,7,8,10,8,7,10,10,9,8,8,8,9,8,9,11,8
Depth: 19,10,10,8,11,10,10,10,10,9,10,10,9,10,9,8,9,10,10,10,10
Depth: 20,8,8,10,10,10,10,12,10,9,9,10,10,10,10,8,9,10,9,9,10
Depth: 21,11,10,9,9,11,10,10,12,11,9,12,11,8,10,9,10,12,10,10,9
Depth: 22,11,10,12,11,11,9,11,10,9,12,9,11,10,10,10,9,11,10,10,10
Depth: 23,11,9,13,10,11,11,11,10,10,12,12,12,10,10,12,11,11,11,10,10
Depth: 24,11,10,12,13,12,12,10,11,11,7,9,12,11,12,10,11,9,12,12,11
Depth: 25,11,8,7,9,10,12,11,11,12,9,8,11,8,12,12,9,10,12,10,12
Depth: 26,10,12,12,11,9,13,10,11,14,12,13,11,8,10,8,10,13,8,13,12
Depth: 27,11,10,11,10,10,11,13,11,11,13,9,11,12,11,11,12,11,10,9,11
Depth: 28,13,12,9,10,12,12,10,10,10,12,9,10,15,11,12,10,11,13,9,12
Depth: 29,12,11,13,11,13,11,11,11,11,13,13,13,11,13,14,9,11,11,8,12
Depth: 30,11,14,10,12,11,12,14,9,12,10,12,14,11,13,10,10,11,10,14,12
Depth: 31,9,11,11,11,14,13,12,14,12,14,15,16,13,11,14,12,14,11,12,12
Depth: 32,12,12,10,15,13,12,13,12,14,12,13,14,16,12,14,9,13,12,12,14
Depth: 33,11,11,10,10,10,12,14,11,12,17,11,12,11,13,14,15,13,14,11,12
Depth: 34,14,11,12,11,14,15,14,14,11,14,15,12,14,12,10,11,15,12,14,13
Depth: 35,12,16,12,12,13,14,13,15,13,13,10,13,12,12,14,12,10,14,15,14
Depth: 36,9,13,13,13,14,14,13,11,12,14,15,15,12,15,13,14,13,16,11,11
Depth: 37,15,16,12,15,14,13,14,10,13,15,15,15,13,15,15,17,14,13,15,12
Depth: 38,13,12,15,14,17,13,15,12,15,17,13,16,14,14,12,14,12,16,14,15
Depth: 39,15,17,16,13,16,16,15,15,17,14,16,14,15,14,16,16,13,14,11,16
Depth: 40,15,15,13,17,18,13,16,14,15,14,14,15,18,16,14,14,15,14,14,17
Depth: 41,10,15,13,12,14,13,15,16,15,16,16,15,14,18,11,15,13,15,11,15
Depth: 42,18,13,15,13,14,16,15,15,18,14,12,13,16,16,14,15,15,14,17,14
Depth: 43,17,15,15,15,12,16,16,14,16,18,16,16,15,15,15,16,14,15,13,14
Depth: 44,16,13,16,15,15,14,13,18,12,15,17,15,17,12,15,16,17,11,13,14
Depth: 45,15,17,14,18,17,18,17,16,16,15,14,16,12,15,16,17,15,15,15,15
Depth: 46,18,16,17,14,14,14,19,18,13,15,17,15,17,18,17,16,16,18,16,15
Depth: 47,20,17,12,14,19,16,17,13,16,16,17,14,18,16,17,15,16,12,10,17
Depth: 48,18,20,15,17,15,17,17,15,18,17,17,16,13,14,15,13,16,13,17,17
Depth: 49,14,14,17,14,18,18,15,16,19,18,21,13,15,15,18,16,16,15,15,19
Depth: 50,17,15,15,17,16,19,18,14,15,15,15,18,16,14,19,17,16,17,19,17
