Depth: 1,4,4,4
Depth: 2,5,5,4
Depth: 3,5,5,4
Depth: 4,5,4,4
Depth: 5,4,4,4
Depth: 6,4,4,4
Depth: 7,4,5,4
Depth: 8,5,6,4
Depth: 9,5,6,6
Depth: 10,5,5,5
Depth: 11,5,5,6
Depth: 12,5,5,5
Depth: 13,5,6,5
Depth: 14,5,5,5
Depth: 15,5,5,4
Depth: 16,4,4,5
Depth: 17,6,5,5
Depth: 18,5,4,4
Depth: 19,39,3,4
Depth: 20,3,4,4
Depth: 21,4,4,3
Depth: 22,4,4,4
Depth: 23,4,3,3
Depth: 24,3,3,4
Depth: 25,4,3,3
Depth: 26,3,4,4
Depth: 27,3,4,3
Depth: 28,4,2,2
Depth: 29,2,3,2
Depth: 30,3,3,3
Depth: 31,3,3,3
Depth: 32,3,3,3
Depth: 33,3,3,4
Depth: 34,3,4,3
Depth: 35,3,3,2
Depth: 36,2,3,2
Depth: 37,10,3,2
Depth: 38,2,3,2
Depth: 39,3,3,3
Depth: 40,3,3,4
Depth: 41,3,3,3
Depth: 42,3,4,3
Depth: 43,3,3,4
Depth: 44,3,3,4
Depth: 45,4,5,4
Depth: 46,4,4,3
Depth: 47,4,4,4
Depth: 48,3,3,4
Depth: 49,3,4,4
Depth: 50,4,3,4
Depth: 1,2,2,1
Depth: 2,2,1,3
Depth: 3,1,1,1
Depth: 4,2,1,1
Depth: 5,2,2,3
Depth: 6,2,2,2
Depth: 7,2,2,2
Depth: 8,2,2,2
Depth: 9,2,2,1
Depth: 10,4,2,2
Depth: 11,2,2,3
Depth: 12,2,2,2
Depth: 13,2,2,3
Depth: 14,2,2,2
Depth: 15,3,3,3
Depth: 16,2,3,2
Depth: 17,2,3,4
Depth: 18,2,1,2
Depth: 19,1,2,2
Depth: 20,1,2,2
Depth: 21,2,2,1
Depth: 22,2,2,1
Depth: 23,2,2,2
Depth: 24,2,2,1
Depth: 25,1,1,1
Depth: 26,2,2,2
Depth: 27,2,2,2
Depth: 28,2,6,2
Depth: 29,2,2,2
Depth: 30,2,2,3
Depth: 31,2,2,2
Depth: 32,2,2,1
Depth: 33,1,2,2
Depth: 34,2,2,2
Depth: 35,2,2,2
Depth: 36,2,3,2
Depth: 37,2,3,2
Depth: 38,3,2,2
Depth: 39,2,3,3
Depth: 40,2,2,2
Depth: 41,2,2,2
Depth: 42,3,3,5
Depth: 43,3,2,2
Depth: 44,2,3,3
Depth: 45,3,3,2
Depth: 46,2,1,2
Depth: 47,2,2,2
Depth: 48,2,2,2
Depth: 49,2,2,3
Depth: 50,3,3,3
