Bacillus amyloliquefaciens DSM 7,7.0273,0.0000,0.0000,0.0000,0.0000,0.0000,0.0000,0.0000,0.0000,0.0000,
Bacillus anthracis str. CDC 684,0.0000,5.0000,0.0000,0.0000,0.0000,0.0000,0.0000,0.0000,0.0000,0.0000,
Bacillus cereus AH820,0.0000,5.0000,0.0000,0.0000,0.0000,0.0000,0.0000,0.0000,0.0000,0.0000,
Staphylococcus aureus subsp. aureus COL,0.0000,0.0000,0.0000,1.5343,1.1884,0.0000,0.0000,0.0000,0.0000,0.0000,
Staphylococcus epidermidis ATCC 12228,0.0000,0.0000,0.0000,1.1884,1.5343,0.0000,0.0000,0.0000,0.0000,0.0000,
Staphylococcus pseudintermedius HKU10-03,0.0000,0.0000,0.0000,0.0000,0.0000,7.0273,0.0000,0.0000,0.0000,0.0000,
Streptococcus agalactiae 2603V/R,0.0000,0.0000,0.0000,0.0000,0.0000,3.4427,5.0000,0.0000,0.0000,0.0000,
Streptococcus equi subsp. zooepidemicus MGCS10565,0.0000,0.0000,0.0000,0.0000,0.0000,0.0000,0.0000,7.0273,0.0000,0.0000,
Streptococcus mutans UA159,0.0000,0.0000,0.0000,0.0000,0.0000,0.0000,0.0000,0.0000,1.5343,0.0000,
Thermoanaerobacter pseudethanolicus ATCC 33223,0.0000,0.0000,0.0000,0.0000,0.0000,0.0000,0.0000,0.0000,0.0000,1.5343,

