Bacillus amyloliquefaciens DSM 7,13.2634,12.7278,0.7212,0.0000,0.0000,4.7331,3.9264,0.0000,0.0000,3.1159,0.9816,0.0000,0.8327,1.0397,7.8146,0.0000,0.0216,0.0000,0.0000,0.0180,0.0241,0.3462,0.1947,0.2171,0.0000,0.0216,0.0216,0.0000,0.0000,0.1718,0.0000,0.0216,0.3998,0.0000,0.0216,0.0000,0.0000,0.0000,0.0000,0.0200,0.0866,0.1947,0.0000,0.0000,0.0000,0.0000,0.0216,0.0000,0.0200,0.0000,0.0000,0.0000,0.0000,0.0000,0.0000,0.0000,0.0241,0.3205,0.0000,0.0000,0.0000,0.0000,0.0000,0.0000,0.0216,0.1718,0.0000,0.4506,0.0241,0.2216,0.0000,0.0000,0.0000,1.0603,0.0180,0.0216,0.0000,0.3054,0.7790,0.0000,0.1947,0.0000,0.3205,0.0000,0.0866,0.0000,0.0241,0.0000,1.2218,0.0200,0.0000,0.0764,0.0191,0.0000,0.0866,0.1947,1.0603,0.5008,0.0000,0.0000,0.0000,0.0866,0.0216,0.0216,0.0721,0.0000,
Bacillus amyloliquefaciens FZB42,13.2634,12.7278,0.1803,0.0000,0.0000,4.3909,2.4239,0.0000,0.0000,6.4057,2.0033,0.0000,1.5282,1.3485,8.7070,0.0180,0.0000,0.0180,0.0866,0.0000,0.0965,0.0866,0.1947,0.0241,0.0000,0.0216,0.0000,0.0000,0.0000,0.0191,0.0000,0.0000,0.2426,0.0000,0.0216,0.0000,0.0000,0.0000,0.0000,0.0000,0.0216,0.0216,0.0000,0.0000,0.0000,0.0000,0.0000,0.0000,0.0000,0.0000,0.0000,0.0000,0.0000,0.0000,0.0000,0.0000,0.0241,0.0967,0.0000,0.0216,0.0000,0.0000,0.0000,0.0000,0.0000,0.3054,0.0000,0.4506,0.0341,0.0216,0.0241,0.0000,0.0000,0.5409,0.0721,0.0216,0.0000,0.7347,1.0603,0.0000,0.1947,0.0000,1.2821,0.0000,0.0000,0.0000,0.0000,0.0000,0.4773,0.0200,0.0000,0.3054,0.0764,0.0000,0.3462,0.1947,2.1638,0.7212,0.0000,0.0200,0.0866,0.0000,0.0000,0.0866,0.0180,0.0000,
Bacillus amyloliquefaciens IT-45,0.5219,2.0862,12.5204,0.0000,0.0200,3.6368,3.9264,0.0000,1.0229,0.7790,0.0000,0.0000,0.7790,0.0000,2.9184,0.0000,0.1947,0.0000,0.0216,0.0180,0.2470,1.3848,0.7790,0.3859,0.0000,0.0000,0.0866,0.0200,0.0000,0.0191,0.0000,0.0216,0.0764,0.0000,0.0000,0.0000,0.0000,0.0000,0.0241,0.0000,0.0216,0.1947,0.0000,0.0000,0.0000,0.0000,0.0000,0.0000,0.0000,0.0000,0.0000,0.0000,0.0000,0.0000,0.0000,0.0000,0.0000,0.0000,0.0000,0.0000,0.0209,0.0000,0.0000,0.0000,0.0306,1.5463,0.0000,0.6488,0.0241,0.0216,0.0965,0.9816,0.1803,0.1947,0.1622,0.0000,0.0835,0.3054,1.0603,0.1803,0.3462,0.0866,0.1803,0.0000,0.0866,0.0835,0.2171,0.0209,0.6873,0.0000,0.0000,0.0000,0.1718,0.0000,0.7790,0.3462,0.5409,0.7212,0.0801,0.0000,0.1947,0.0000,0.0000,0.0000,0.0180,1.0229,
Bacillus anthracis str. 'Ames Ancestor',0.0000,0.0000,0.0000,13.4795,9.6958,12.0103,12.5204,13.4795,13.6957,14.4200,12.5204,0.1803,13.9719,0.0000,0.0000,0.0000,0.0000,0.0000,0.0000,0.0000,0.0000,0.0000,0.0000,0.0000,0.0000,0.0000,0.0000,0.0000,0.0000,0.0191,0.0000,0.0000,0.0764,0.0000,0.0216,0.0000,0.0000,0.0000,0.0000,0.0000,0.0866,0.0866,0.0000,0.0000,0.0000,0.0000,0.0000,0.0000,0.0000,0.0000,0.0000,0.0000,0.0000,0.0000,0.0000,0.0000,0.0000,0.0000,0.0000,0.0000,0.0000,0.0000,0.0000,0.0000,0.0000,2.3099,0.0000,0.0000,0.0000,0.0000,0.0000,0.0000,0.0000,0.0000,0.0000,0.0000,0.0000,0.0191,1.7527,0.0000,0.0000,0.0000,0.0000,0.0000,0.0000,0.0000,0.0000,0.0000,0.6873,0.0000,0.0000,0.1718,0.0191,0.0000,0.0000,1.3848,0.1947,0.0000,0.0000,0.0000,0.0000,0.0000,0.0000,0.0000,0.0000,0.0000,
Bacillus anthracis str. A0248,0.0000,0.0000,0.0000,13.4795,12.5204,11.8237,12.5204,13.4795,13.6957,14.4200,12.5204,0.0000,13.9719,0.0000,0.0000,0.0000,0.0000,0.0000,0.0000,0.0000,0.0000,0.0000,0.0000,0.0000,0.0000,0.0000,0.0000,0.0000,0.0000,0.1718,0.0000,0.0000,0.0191,0.0000,0.0216,0.0000,0.0000,0.0000,0.0000,0.0000,0.0866,0.3462,0.0000,0.0000,0.0000,0.0000,0.0000,0.0000,0.0000,0.0000,0.0000,0.0000,0.0000,0.0000,0.0000,0.0000,0.0000,0.0000,0.0000,0.0000,0.0000,0.0000,0.0000,0.0000,0.0000,1.9090,0.0000,0.0000,0.0000,0.0000,0.0000,0.0000,0.0000,0.0000,0.0000,0.0000,0.0000,0.0191,1.3848,0.0000,0.0000,0.0000,0.0000,0.0000,0.0000,0.0000,0.0000,0.0000,0.6873,0.0000,0.0000,0.0764,0.0764,0.0000,0.0000,1.0603,0.0866,0.0000,0.0000,0.0000,0.0000,0.0000,0.0216,0.0000,0.0000,0.0000,
Bacillus anthracis str. Ames,0.0000,0.0000,0.0000,13.4795,9.6958,12.0103,12.5204,13.4795,13.6957,14.4200,12.5204,0.1803,13.9719,0.0000,0.0000,0.0000,0.0000,0.0000,0.0000,0.0000,0.0000,0.0000,0.0000,0.0000,0.0000,0.0000,0.0000,0.0000,0.0000,0.0191,0.0000,0.0000,0.0764,0.0000,0.0216,0.0000,0.0000,0.0000,0.0000,0.0000,0.0866,0.0866,0.0000,0.0000,0.0000,0.0000,0.0000,0.0000,0.0000,0.0000,0.0000,0.0000,0.0000,0.0000,0.0000,0.0000,0.0000,0.0000,0.0000,0.0000,0.0000,0.0000,0.0000,0.0000,0.0000,2.3099,0.0000,0.0000,0.0000,0.0000,0.0000,0.0000,0.0000,0.0000,0.0000,0.0000,0.0000,0.0191,1.7527,0.0000,0.0000,0.0000,0.0000,0.0000,0.0000,0.0000,0.0000,0.0000,0.6873,0.0000,0.0000,0.1718,0.0191,0.0000,0.0000,1.3848,0.1947,0.0000,0.0000,0.0000,0.0000,0.0000,0.0000,0.0000,0.0000,0.0000,
Bacillus anthracis str. CDC 684,0.0000,0.0000,0.0000,13.6957,12.5204,11.8237,12.5204,13.6957,13.6957,14.1960,12.5204,0.0000,13.9719,0.0000,0.0000,0.0000,0.0000,0.0000,0.0000,0.0000,0.0000,0.0000,0.0000,0.0000,0.0000,0.0000,0.0000,0.0000,0.0000,0.0191,0.0000,0.0000,0.1718,0.0000,0.0216,0.0000,0.0000,0.0000,0.0000,0.0000,0.1947,0.3462,0.0000,0.0000,0.0000,0.0000,0.0000,0.0000,0.0000,0.0000,0.0000,0.0000,0.0000,0.0000,0.0000,0.0000,0.0000,0.0000,0.0000,0.0000,0.0000,0.0000,0.0000,0.0000,0.0000,2.8439,0.0000,0.0000,0.0000,0.0000,0.0000,0.0000,0.0000,0.0000,0.0000,0.0000,0.0000,0.0191,1.3848,0.0000,0.0000,0.0000,0.0000,0.0000,0.0000,0.0000,0.0000,0.0000,0.4773,0.0000,0.0000,0.0764,0.0191,0.0000,0.0000,0.7790,0.0866,0.0000,0.0000,0.0000,0.0000,0.0000,0.0216,0.0000,0.0000,0.0000,
Bacillus anthracis str. H9401 (Bacillus anthracis NCCP 12889),0.0000,0.0000,0.0000,13.4795,9.6958,12.0103,12.5204,13.4795,13.6957,14.4200,12.5204,0.1803,13.9719,0.0000,0.0000,0.0000,0.0000,0.0000,0.0000,0.0000,0.0000,0.0000,0.0000,0.0000,0.0000,0.0000,0.0000,0.0000,0.0000,0.0191,0.0000,0.0000,0.0764,0.0000,0.0216,0.0000,0.0000,0.0000,0.0000,0.0000,0.0866,0.0866,0.0000,0.0000,0.0000,0.0000,0.0000,0.0000,0.0000,0.0000,0.0000,0.0000,0.0000,0.0000,0.0000,0.0000,0.0000,0.0000,0.0000,0.0000,0.0000,0.0000,0.0000,0.0000,0.0000,2.3099,0.0000,0.0000,0.0000,0.0000,0.0000,0.0000,0.0000,0.0000,0.0000,0.0000,0.0000,0.0191,1.7527,0.0000,0.0000,0.0000,0.0000,0.0000,0.0000,0.0000,0.0000,0.0000,0.6873,0.0000,0.0000,0.1718,0.0191,0.0000,0.0000,1.3848,0.1947,0.0000,0.0000,0.0000,0.0000,0.0000,0.0000,0.0000,0.0000,0.0000,
Bacillus anthracis str. Sterne,0.0000,0.0000,0.0000,13.6957,9.6958,11.8237,12.5204,13.6957,13.6957,14.4200,12.5204,0.1803,13.9719,0.0000,0.0000,0.0000,0.0000,0.0000,0.0000,0.0000,0.0000,0.0000,0.0000,0.0000,0.0000,0.0000,0.0000,0.0000,0.0000,0.0191,0.0000,0.0000,0.0764,0.0000,0.0216,0.0000,0.0000,0.0000,0.0000,0.0000,0.0866,0.0866,0.0000,0.0000,0.0000,0.0000,0.0000,0.0000,0.0000,0.0000,0.0000,0.0000,0.0000,0.0000,0.0000,0.0000,0.0000,0.0000,0.0000,0.0000,0.0000,0.0000,0.0000,0.0000,0.0000,2.3099,0.0000,0.0000,0.0000,0.0000,0.0000,0.0000,0.0000,0.0000,0.0000,0.0000,0.0000,0.0191,1.7527,0.0000,0.0000,0.0000,0.0000,0.0000,0.0000,0.0000,0.0000,0.0000,0.6873,0.0000,0.0000,0.1718,0.0191,0.0000,0.0000,1.3848,0.1947,0.0000,0.0000,0.0000,0.0000,0.0000,0.0000,0.0000,0.0000,0.0000,
Bacillus cereus 03BB102,0.0000,0.3205,0.0000,0.0000,0.0200,12.0103,12.5204,0.0000,13.9119,14.1960,12.5204,2.4239,11.8588,0.0000,0.8683,0.0000,0.0216,0.0000,0.0000,0.0000,1.1818,0.0000,0.0000,0.0965,0.0000,0.0000,0.0000,0.0200,0.0000,0.0764,0.0000,0.0000,0.1718,0.0000,0.0216,0.0000,0.0000,0.0965,0.0000,0.0000,0.0216,0.0866,0.0000,0.0000,0.0000,0.0000,0.0000,0.0000,0.0000,0.0000,0.0000,0.0000,0.0000,0.0000,0.0000,0.0965,0.0241,0.0000,0.0000,0.0000,0.0000,0.0241,0.0000,0.0200,0.0000,0.6873,0.0000,0.0000,0.0965,0.0000,0.0965,0.0801,0.0801,0.0000,0.0000,0.0000,0.0000,0.0764,1.3848,0.1803,0.0216,0.0000,0.0000,0.0000,0.0000,0.0000,0.0000,0.0000,0.9354,0.0000,0.0000,0.0764,0.1718,0.0000,0.0000,1.7527,0.2216,0.0000,0.0000,0.0000,0.0000,0.0000,0.0216,0.0000,0.0000,0.0000,
Bacillus cereus AH187,0.0000,0.1803,0.0000,0.0000,0.0801,11.2638,12.5204,0.0000,13.2634,12.6786,12.5204,2.4239,12.4635,0.0000,0.6030,0.0000,0.0216,0.0000,0.0000,0.0000,1.1818,0.0000,0.0000,0.0241,0.0000,0.0000,0.0000,0.0000,0.0000,0.0191,0.0000,0.0000,0.0764,0.0000,0.0000,0.0000,0.0000,0.0241,0.0000,0.0000,0.0866,0.7790,0.0000,0.0000,0.0000,0.0000,0.0000,0.0000,0.0000,0.0000,0.0000,0.0000,0.0000,0.0000,0.0000,0.0000,0.0000,0.0000,0.0000,0.0000,0.0000,0.0000,0.0000,0.0000,0.0000,4.2953,0.0000,0.0000,1.6236,0.0000,0.0965,1.0397,0.0200,0.0000,0.0000,0.0000,0.0000,0.0191,1.7527,0.0200,0.0000,0.0000,0.0000,0.0000,0.0000,0.0000,0.0241,0.0000,0.3054,0.0000,0.0000,0.0000,0.0764,0.0000,0.0216,0.5409,0.0866,0.0000,0.0000,0.0000,0.0216,0.0000,0.0000,0.0000,0.0000,0.0000,
Bacillus cereus AH820,0.0000,0.0000,0.0000,11.6832,0.0000,12.0103,12.5204,11.6832,13.9119,14.1960,12.5204,12.5204,13.9719,0.0000,0.1100,0.0000,0.0000,0.0000,0.0000,0.0000,0.0000,0.0000,0.0000,0.0000,0.0000,0.0000,0.0000,0.0000,0.0000,0.0764,0.0000,0.0000,0.0764,0.0000,0.0216,0.0000,0.0000,0.0000,0.0000,0.0000,0.0866,0.0216,0.0000,0.0000,0.0000,0.0000,0.0000,0.0000,0.0000,0.0000,0.0000,0.0000,0.0000,0.0000,0.0000,0.0000,0.0000,0.0000,0.0000,0.0000,0.0000,0.0000,0.0000,0.0000,0.0000,2.3969,0.0000,0.0000,0.0000,0.0000,0.0000,0.0000,0.0000,0.0000,0.0000,0.0000,0.0000,0.0191,2.1638,0.0000,0.0000,0.0000,0.0000,0.0000,0.0000,0.0000,0.0000,0.0000,0.9354,0.0000,0.0000,0.0191,0.0191,0.0000,0.0000,1.0603,0.1947,0.0000,0.0000,0.0000,0.0216,0.0000,0.0000,0.0000,0.0000,0.0000,
Bacillus cereus biovar anthracis str. CI,0.0000,0.0000,0.0000,6.6160,0.0000,12.0103,12.5204,6.6160,13.9119,14.4200,12.5204,9.6958,13.9719,0.0000,0.1066,0.0000,0.0000,0.0000,0.0000,0.0000,0.1066,0.0000,0.0000,0.0000,0.0000,0.0000,0.0000,0.0200,0.0000,0.0191,0.0000,0.0000,0.0191,0.0000,0.0000,0.0000,0.0000,0.0000,0.0000,0.0000,0.0866,0.0216,0.0000,0.0000,0.0000,0.0000,0.0000,0.0000,0.0000,0.0000,0.0000,0.0000,0.0000,0.0000,0.0000,0.0000,0.0000,0.0000,0.0000,0.0000,0.0000,0.0000,0.0000,0.0000,0.0000,2.7490,0.0000,0.0000,0.2398,0.0000,0.0000,0.0000,0.0200,0.0000,0.0000,0.0000,0.0000,0.0191,2.6182,0.0200,0.0000,0.0000,0.0000,0.0000,0.0000,0.0000,0.0000,0.0000,0.9354,0.0000,0.0000,0.0270,0.0764,0.0000,0.0000,1.7527,0.0866,0.0000,0.0000,0.0000,0.0000,0.0000,0.0000,0.0000,0.0000,0.0000,
Bacillus sp. 1NLA3E,0.7515,0.5008,0.0000,0.0000,0.0801,1.8769,3.0838,0.0000,0.7515,2.3431,0.0000,0.0200,1.4565,12.9353,0.0965,0.0000,0.0000,0.0180,0.0216,0.0000,0.6529,0.3462,0.5409,0.2171,0.0241,0.0000,0.0000,0.0200,0.0000,0.3054,0.0000,0.0216,0.0764,0.0000,0.0216,0.0000,0.0000,0.0000,0.0000,0.0200,0.0000,0.0866,0.0000,0.0000,0.0000,0.0000,0.0866,0.0000,0.0000,0.0000,0.0000,0.0000,0.0000,0.0000,0.0000,0.0000,0.0000,0.0000,0.0241,0.0000,0.0000,0.0000,0.0000,0.0000,0.0216,3.2263,0.0000,1.1534,0.6030,0.3462,0.6030,0.7710,0.3792,0.1947,0.0721,0.3462,0.3340,0.0191,0.5409,0.7212,0.0866,0.1947,0.3205,0.0000,0.0866,0.0835,0.2171,0.0209,0.3054,0.0000,0.0000,0.0000,0.0191,0.0000,0.0866,1.0603,0.5409,0.7710,0.0801,0.0000,0.0000,0.0000,0.1947,0.0000,0.3182,0.7515,
Bacillus sp. JS,6.7637,9.0086,0.0801,0.0000,0.0000,4.2529,4.5073,0.0000,0.3340,1.1711,1.6973,0.0000,0.2216,2.0862,15.0745,0.0721,0.0216,0.0000,0.0000,0.0000,0.0000,0.3462,0.3462,0.0000,0.0000,0.0000,0.0000,0.0000,0.0000,0.0764,0.0000,0.0216,0.0191,0.0000,0.0216,0.0000,0.0000,0.0000,0.0000,0.0200,0.0000,0.5409,0.0000,0.0000,0.0000,0.0000,0.0000,0.0000,0.1095,0.0000,0.0000,0.0000,0.0000,0.0000,0.0000,0.0000,0.0000,0.0200,0.0000,0.0306,0.0295,0.0000,0.0000,0.0000,0.1947,2.7490,0.0000,1.1534,0.0000,0.0866,0.0000,0.1803,0.0200,0.3462,0.0000,0.1947,0.0000,0.0191,0.1947,0.0000,0.7790,0.0000,0.0801,0.0209,0.0216,0.0000,0.0000,0.0000,0.6873,0.0801,0.0000,0.0191,0.0764,0.0000,1.3848,2.2534,0.1947,0.1803,0.0801,0.0200,0.2216,0.0866,0.0000,0.0000,0.0000,0.0209,
Enterococcus faecalis 62,0.1879,0.0801,0.7212,0.0000,0.1803,0.0000,3.9264,0.0000,0.7515,0.7790,1.6226,0.0200,0.0000,0.3205,0.0241,10.1784,4.2410,2.6285,1.7527,0.0000,0.0000,0.5409,0.0000,13.8927,0.0000,0.0000,0.0000,0.1803,0.0306,0.0191,0.0200,0.0000,0.0922,0.0000,0.0216,0.0200,0.0000,0.0000,0.0000,0.0200,0.0000,0.1947,0.0200,0.0000,0.0000,0.0000,0.0000,0.0000,0.0000,0.0000,0.0000,0.0000,0.0000,0.0000,0.0000,0.0000,0.0000,0.0801,0.0000,0.0000,0.0209,0.0000,0.0200,0.1803,0.0216,2.3099,0.0191,0.0000,0.0000,0.3462,0.0000,0.5008,0.1803,0.0216,0.0000,0.0000,0.0835,0.4773,0.1947,0.3205,0.0000,0.1947,0.7212,0.0835,0.1947,0.8034,0.0000,0.0835,0.3054,0.0801,0.0000,0.0000,0.0191,0.0000,0.1947,0.8740,0.5409,0.1803,0.0000,0.0000,0.3462,0.0216,0.0866,0.0000,0.0000,0.1879,
Enterococcus faecalis D32,0.7515,0.7212,0.0801,0.0000,0.0000,0.0721,2.8847,0.0000,1.0229,0.3462,1.2821,0.0801,0.0000,0.5008,0.0000,6.5060,13.5237,0.0000,0.0000,0.2884,0.0000,1.1857,0.0000,15.0745,0.0000,0.0000,0.0000,0.1803,0.0216,0.1718,0.0000,0.0000,0.0191,0.0000,0.0000,0.0000,0.0000,0.0000,0.0000,0.1803,0.0216,0.3462,0.0000,0.0000,0.0200,0.0000,0.0000,0.0216,0.0000,0.0000,0.0000,0.0000,0.0000,0.0000,0.0000,0.0000,0.0000,0.5008,0.0000,0.0000,0.0835,0.0000,0.0200,0.0967,0.0000,0.4773,0.0191,0.0000,0.0000,0.0866,0.0000,0.0200,0.3205,0.0000,0.0000,0.0000,0.0835,0.4773,0.5409,0.7212,0.0000,0.1947,0.0801,0.0835,0.3462,0.0835,0.0000,0.0209,0.9908,0.3205,0.0000,0.0000,0.1718,0.0000,0.0866,1.0603,0.1045,0.5423,0.1803,0.0000,0.0866,0.0866,0.1947,0.0000,0.0000,0.1879,
Enterococcus faecalis OG1RF,0.5651,0.7212,0.3205,0.0000,0.0000,0.0000,3.3855,0.0000,1.3360,0.7790,0.5008,0.0200,0.0000,0.9816,0.0000,0.0000,1.3848,11.2638,6.2534,0.0000,0.0000,0.8865,0.0000,15.0745,0.0000,0.0000,0.0000,0.1803,0.0216,0.0764,0.0000,0.0000,0.0191,0.0000,0.0000,0.0000,0.0000,0.0000,0.0000,0.0801,0.0000,0.5409,0.0000,0.0216,0.0200,0.0000,0.0000,0.0216,0.0000,0.0000,0.0000,0.0000,0.0000,0.0000,0.0000,0.0000,0.0000,0.5008,0.0000,0.0000,0.0835,0.0000,0.0200,0.0000,0.0000,0.4773,0.0000,0.0000,0.0000,0.0866,0.0000,0.1803,0.7212,0.0000,0.0000,0.0000,0.0209,0.3054,0.5858,0.5008,0.0000,0.0216,0.1803,0.0835,0.1947,0.1879,0.0000,0.0835,1.2218,0.0801,0.0000,0.0191,0.3054,0.0000,0.0866,0.7790,0.3462,0.7710,0.0200,0.0200,0.0216,0.1947,0.1947,0.0000,0.0000,0.0835,
Enterococcus faecalis V583,0.8034,0.7212,0.3205,0.0000,0.0000,0.0000,1.6226,0.0000,1.0229,0.5409,0.7212,0.0801,0.0000,1.0397,0.0000,2.5952,0.0000,2.1807,13.5237,0.0721,0.0000,1.1857,0.0000,15.0745,0.0000,0.0000,0.0000,0.1803,0.0216,0.1718,0.0000,0.0000,0.0764,0.0000,0.0000,0.0000,0.0000,0.0000,0.0000,0.0000,0.0000,0.1947,0.0000,0.0216,0.0000,0.0000,0.0000,0.0216,0.0000,0.0000,0.0000,0.0000,0.0000,0.0000,0.0000,0.0000,0.0000,0.5008,0.0000,0.0000,0.0835,0.0000,0.0000,0.0283,0.0000,0.6873,0.0191,0.0000,0.0000,0.3462,0.0000,0.3205,0.5008,0.0000,0.0000,0.0000,0.0209,0.0191,0.5858,0.3205,0.0000,0.0000,0.1803,0.1879,0.0866,0.0209,0.0000,0.0835,0.9908,0.1803,0.0000,0.0764,0.1718,0.0000,0.0866,0.7790,0.3462,1.7546,0.3205,0.0000,0.0866,0.1947,0.3462,0.0000,0.0000,0.1879,
Enterococcus faecalis str. Symbioflor 1,0.5219,0.5008,0.2052,0.0000,0.0000,0.0000,2.4239,0.0000,1.6909,0.7790,1.3485,0.0801,0.0000,1.2821,0.0000,0.0000,2.1638,0.0000,4.2410,11.2638,0.0000,0.8327,0.0000,15.0745,0.0000,0.0000,0.0000,0.3205,0.0216,0.1718,0.0000,0.0000,0.0191,0.0000,0.0000,0.0000,0.0000,0.0000,0.0000,0.1803,0.0000,0.3462,0.0000,0.0000,0.0000,0.0000,0.0000,0.0000,0.0000,0.0000,0.0000,0.0000,0.0000,0.0000,0.0000,0.0000,0.0000,0.0801,0.0000,0.0000,0.0209,0.0000,0.0200,0.0200,0.0000,0.4773,0.0000,0.0000,0.0000,0.1947,0.0000,0.1803,0.1803,0.0000,0.0000,0.0216,0.0209,0.3054,0.5858,0.7212,0.0000,0.1947,0.5008,0.1879,0.3462,0.0835,0.0000,0.0209,1.2218,0.1803,0.0000,0.0191,0.1718,0.0000,0.0216,0.7790,0.3821,0.5423,0.0200,0.0200,0.0866,0.0866,0.1947,0.0000,0.0000,0.2138,
Enterococcus faecium Aus0004,0.1879,0.1803,0.3205,0.0000,0.0200,2.6848,4.5073,0.0000,0.5219,0.0000,1.7720,0.7212,0.0000,0.5008,0.0000,0.1622,0.0000,0.0000,0.0000,0.0000,15.3243,13.5237,13.7478,0.0000,0.0000,0.0000,0.0000,0.0000,0.0000,0.0764,0.0200,0.0000,0.0191,0.0000,0.0000,0.0000,0.0000,0.0000,0.0000,0.0200,0.0000,0.0866,0.0000,0.0000,0.0000,0.0209,0.0000,0.0000,0.0000,0.0000,0.0000,0.0000,0.0000,0.0000,0.0000,0.0000,0.0000,0.7212,0.0000,0.0000,0.0000,0.0000,0.0200,0.0200,0.0000,0.6873,0.0000,0.6488,0.0000,0.0000,0.0000,1.2821,0.0967,0.0000,0.0180,0.0000,0.0835,1.5463,0.7790,0.1803,0.0000,0.0000,0.0801,0.1879,0.0000,0.1879,0.0000,0.3340,0.9354,0.0000,0.0000,0.0000,0.0000,0.0000,0.0000,0.7790,1.3848,0.5008,0.0200,0.0200,0.0000,0.0000,0.1947,0.0000,0.1846,0.3340,
Enterococcus faecium DO,0.3340,0.1803,0.5008,0.0000,0.0200,2.6848,5.9305,0.0000,1.0229,0.0000,1.0978,1.2821,0.0000,0.7212,0.0000,0.0721,0.0000,0.0180,0.0000,0.0000,15.3243,13.5237,13.7478,0.0000,0.0000,0.0000,0.0000,0.0000,0.0000,0.0191,0.0000,0.0000,0.0191,0.0000,0.0216,0.0000,0.0000,0.0000,0.0000,0.0200,0.0216,0.7790,0.0000,0.0000,0.0000,0.0209,0.0216,0.0000,0.0200,0.0000,0.0000,0.0000,0.0000,0.0000,0.0000,0.0000,0.0000,0.7212,0.0000,0.0000,0.0000,0.0000,0.0000,0.0200,0.0000,1.6175,0.0000,0.6488,0.0000,0.0000,0.0000,0.9816,0.3205,0.0000,0.0180,0.0000,0.0835,1.2218,0.3462,0.0200,0.0000,0.0000,0.0200,0.1879,0.0000,0.0835,0.0000,0.0835,0.4773,0.0000,0.0000,0.0191,0.0000,0.0000,0.0000,0.3462,0.0866,0.3205,0.0200,0.0200,0.3462,0.0000,0.0866,0.0000,0.1846,0.3340,
Enterococcus faecium NRRL B-2354,0.1879,0.3205,0.5008,0.0000,0.0200,2.1807,4.0426,0.0000,0.5219,0.0000,1.4149,0.5008,0.0000,0.5008,0.0000,0.1622,0.0000,0.0870,0.0000,0.0000,15.3243,13.5237,13.7478,0.0000,0.0000,0.0000,0.0216,0.0000,0.0000,0.0764,0.0200,0.0000,0.0191,0.0000,0.0000,0.0000,0.0000,0.0000,0.0000,0.0200,0.0000,0.1947,0.0000,0.0000,0.0000,0.0209,0.0216,0.0000,0.0200,0.0000,0.0000,0.0000,0.0000,0.0000,0.0000,0.0000,0.0000,0.7212,0.0000,0.0000,0.0000,0.0000,0.0200,0.0200,0.0000,0.6873,0.0000,0.6488,0.0000,0.0000,0.0000,0.9816,0.0967,0.0000,0.0000,0.0000,0.0835,1.9090,0.3462,0.3205,0.0000,0.0000,0.0801,0.1879,0.0000,0.3340,0.0000,0.1879,0.6873,0.0000,0.0000,0.0000,0.0000,0.0000,0.0000,1.0603,1.0603,0.5008,0.0200,0.0200,0.0000,0.0000,0.0866,0.0000,0.1846,0.3340,
Enterococcus sp. 7L76,1.0229,4.5073,0.0601,0.0000,0.0000,0.0000,2.8105,0.0000,1.0229,0.0216,0.5008,0.0000,0.0000,0.0967,0.0000,12.1732,0.0000,1.5834,19.1255,12.2892,0.0000,24.7878,0.0000,253.4459,0.0000,0.0000,9.4555,0.0801,0.0000,0.3995,0.0000,0.0000,0.0000,0.0000,0.0000,0.0000,0.0000,0.0000,0.0000,0.0000,0.0000,0.0216,0.0000,0.0000,0.0000,0.0000,0.0000,0.0000,0.0000,0.0000,0.0000,0.0000,0.0000,0.0000,0.0000,0.0000,0.0000,0.0000,0.0000,0.0000,0.0000,0.0000,0.0000,0.0000,0.0000,0.0191,0.0000,0.0000,0.0000,0.0000,0.0000,0.2243,0.7941,0.0000,0.0000,0.0000,0.0835,17.4916,0.0866,0.0000,0.0000,0.0000,5.1284,0.0000,0.0000,0.0000,0.0000,0.4201,0.0000,5.7894,0.0000,0.0000,0.0000,0.0000,0.0000,0.9403,3.4069,0.0000,0.0000,0.0000,0.0216,0.0000,0.0216,0.0000,0.0000,0.7515,
Staphylococcus aureus 04-02981,0.0000,0.0200,0.0000,0.0000,0.0000,0.2884,0.0000,0.0000,0.0243,0.0000,0.0237,0.0000,0.0000,0.0000,0.0000,0.0000,0.0000,0.0000,0.0000,0.0000,0.0000,0.0000,0.0000,0.0000,15.0745,0.0000,0.0000,0.3205,0.0000,1.2218,0.0200,13.5237,5.5171,13.5237,0.0000,9.5895,9.3462,0.0000,0.0000,0.0000,0.0000,0.0000,0.0000,0.0000,9.5895,9.3462,13.5237,0.0000,11.5388,0.0000,0.0000,0.0000,0.0000,0.0000,0.0000,0.0000,0.0000,0.0000,0.0000,0.0000,0.0000,0.0000,0.1803,4.5073,0.0000,0.0000,0.0000,7.9477,0.0000,0.0000,0.0000,0.0801,0.0000,0.0000,0.0000,0.0000,0.0000,0.0000,0.0000,0.0000,0.0000,0.0000,0.0000,0.0243,0.0000,0.0000,0.0000,0.0000,0.0000,0.0000,0.0000,0.0000,0.0000,0.0000,0.0000,0.0000,0.0000,0.0000,0.0000,0.0000,0.0000,0.0000,0.0000,0.0000,0.0000,0.0000,
Staphylococcus aureus 08BA02176,0.0209,0.0000,0.0200,0.0000,0.0000,0.6488,0.0801,0.0000,0.0000,0.1947,0.0000,0.0000,0.0000,0.0801,0.0000,0.0000,0.0000,0.0000,0.0000,0.0000,0.0000,0.0000,0.0000,0.0000,0.0000,13.7478,0.0000,0.3205,0.0000,11.9315,1.2821,0.0000,0.0000,4.8685,0.0000,0.0000,0.0000,0.0000,0.0000,2.0033,5.6827,0.1947,8.8344,0.0000,0.0000,0.0000,0.0000,0.0216,0.0801,0.0000,0.0000,0.0000,0.0000,0.0000,0.0000,15.0745,0.0000,0.0000,0.0000,0.0000,11.0431,0.0000,4.5073,0.7212,0.0000,0.0000,0.0000,6.5060,0.0000,0.3462,0.0000,0.0000,0.0000,0.0000,0.0000,0.0000,0.0000,0.0000,0.0000,0.0000,0.0000,0.0866,0.0000,0.0000,0.0000,0.0000,0.0000,0.0000,0.0000,0.0000,0.0000,0.0000,0.0000,0.0000,0.0000,0.5409,0.0000,0.2052,0.0000,0.0200,0.0216,0.0000,0.0000,0.0000,0.0000,0.0209,
Staphylococcus aureus M1,0.0000,0.0000,0.0000,0.0000,0.0000,0.6488,0.0000,0.0000,0.0000,0.0000,0.0000,0.0000,0.0000,0.0000,0.0000,0.0180,0.0000,0.0180,0.0000,0.0000,0.0000,0.0000,0.0000,0.0000,0.0000,1.3848,13.5237,0.0000,0.0000,0.6873,12.5204,6.2534,6.8916,0.0000,0.0000,0.0000,0.0000,0.0000,0.0000,0.0000,0.0000,0.0000,12.5204,0.0000,0.0000,0.0000,0.0000,11.4964,0.0000,0.0000,0.0000,0.0000,0.0000,0.0000,0.0000,0.0000,0.0000,0.0000,0.0000,11.4964,13.0472,15.0745,0.0000,12.5204,0.0000,0.0000,0.0000,4.6137,0.0000,0.0000,0.0000,0.0000,0.0000,0.0000,0.0180,0.0000,0.0000,0.0000,0.0000,0.0000,0.0000,0.0000,0.0000,0.0000,0.0000,0.0000,0.0000,0.0000,0.0000,0.0000,0.0000,0.0000,0.0000,0.0000,0.0000,0.0000,0.0000,0.0000,0.0000,0.0000,0.0000,0.0000,0.0000,0.0000,0.0000,0.0000,
Staphylococcus aureus RF122,0.0000,0.0000,0.0000,0.0000,0.0000,0.1622,0.0200,0.0000,0.0000,0.1947,0.0200,0.0000,0.0000,0.0200,0.0000,0.0000,0.0000,0.0000,0.0000,0.0000,0.0000,0.0000,0.0000,0.0241,2.4119,1.8333,0.0000,12.5204,0.0000,0.9354,0.5008,4.8685,4.8871,9.5424,0.0000,0.0000,0.0000,0.0000,0.0241,7.2318,2.6182,0.3462,9.6958,0.0000,0.0000,0.0000,0.5409,0.0000,0.0000,0.0000,0.0000,0.0000,0.0000,0.0000,0.0000,2.9184,0.0000,0.0200,0.0000,0.0000,9.2061,0.0000,0.0000,0.0000,0.0000,0.0000,0.0000,8.7227,0.0241,0.0216,0.0241,0.0000,0.0000,0.0000,0.0000,0.0000,0.0835,0.0191,0.1947,0.0000,0.0216,0.0000,0.0000,0.0209,0.0000,0.0209,0.0000,0.0000,0.0191,0.0000,0.0000,0.0000,0.0000,0.0000,0.0000,0.0866,0.0000,0.0000,0.0000,0.0000,0.0000,0.0000,0.0000,0.0000,0.0000,0.0000,
Staphylococcus aureus subsp. aureus 11819-97,0.0000,0.0000,0.0000,0.0000,0.0000,0.4506,0.0000,0.0000,0.0209,0.0216,0.0200,0.0000,0.0000,0.0000,0.0000,0.0000,0.0000,0.0000,0.0000,0.0000,0.0000,0.0000,0.0000,0.0241,7.8146,0.3462,0.0000,0.5008,13.5237,1.2218,1.2821,8.6552,5.5171,12.4635,0.0000,0.0000,0.0000,0.2171,0.0000,0.0801,0.0000,0.0000,11.5388,0.0000,0.0000,0.0000,0.0000,0.0000,4.5073,0.0000,0.0000,0.0000,0.0000,0.0000,0.0000,0.0000,0.0000,0.0000,0.0000,0.0000,10.1037,0.0965,0.1803,5.7894,0.0216,0.0000,0.0000,6.5060,0.0000,0.0000,0.0000,0.0000,0.0000,0.0000,0.0180,0.0000,0.0000,0.0000,0.0000,0.0000,0.0000,0.0000,0.0000,0.0209,0.0000,0.0000,0.0241,0.0000,0.0000,0.0000,0.0000,0.0000,0.0000,0.0000,0.0000,0.0000,0.0000,0.0000,0.0000,0.0000,0.0000,0.0000,0.0000,0.0000,0.0000,0.0209,
Staphylococcus aureus subsp. aureus 71193,0.0209,0.0000,0.0200,0.0000,0.0000,0.6488,0.0801,0.0000,0.0000,0.1947,0.0000,0.0000,0.0000,0.0801,0.0000,0.0000,0.0000,0.0000,0.0000,0.0000,0.0000,0.0000,0.0000,0.0000,0.0000,13.5237,0.0000,0.1803,0.0000,11.9315,0.9816,0.0000,0.0000,4.8685,0.0000,0.0000,0.0000,0.0000,0.0000,2.8847,5.6827,0.1947,8.8344,0.0000,0.0000,0.0000,0.0000,0.0216,0.0200,0.0000,0.0000,0.0000,0.0000,0.0000,0.0000,15.0745,0.0000,0.0000,0.0000,0.0000,11.0431,0.0000,4.5073,0.7212,0.0000,0.0000,0.0000,6.5060,0.0000,0.3462,0.0000,0.0000,0.0200,0.0000,0.0000,0.0000,0.0000,0.0000,0.0000,0.0000,0.0000,0.0866,0.0000,0.0000,0.0000,0.0000,0.0000,0.0000,0.0000,0.0000,0.0000,0.0000,0.0000,0.0000,0.0000,0.5409,0.0000,0.2052,0.0000,0.0200,0.0216,0.0000,0.0000,0.0000,0.0000,0.0209,
Staphylococcus aureus subsp. aureus COL,0.0000,0.0000,0.0000,0.0000,0.0000,0.4506,0.0000,0.0000,0.0000,0.0000,0.0000,0.0000,0.0000,0.0000,0.0000,0.0000,0.0000,0.0000,0.0000,0.0000,0.0000,0.0000,0.0000,0.0000,0.0000,1.0603,13.5237,0.0000,0.0000,0.9354,12.5204,6.2534,6.1853,0.0000,0.0000,0.0200,0.0000,0.0241,0.0000,0.0000,0.0000,0.0000,11.5388,0.0000,0.0000,0.0000,0.0000,3.3347,0.0000,0.0000,0.0000,0.0000,0.0000,0.0000,0.0000,0.0000,0.0000,0.0000,0.0000,12.4292,13.0472,13.8927,0.0000,12.5204,0.0000,0.0000,0.0000,6.5060,0.0000,0.0000,0.0000,0.0000,0.0000,0.0216,0.0180,0.0000,0.0000,0.0000,0.0000,0.0000,0.0000,0.0000,0.0000,0.0000,0.0000,0.0000,0.0000,0.0000,0.0000,0.0000,0.0000,0.0000,0.0000,0.0000,0.0000,0.0000,0.0000,0.0000,0.0000,0.0000,0.0000,0.0000,0.0000,0.0000,0.0000,0.0000,
Staphylococcus aureus subsp. aureus ECT-R 2,0.0000,0.0200,0.0000,0.0000,0.0000,0.1622,0.0000,0.0000,0.0000,0.0000,0.0000,0.0000,0.0000,0.0000,0.0000,0.0000,0.0000,0.0000,0.0000,0.0000,0.0000,0.0000,0.0000,0.0000,15.0745,0.0000,0.0000,0.3205,0.0000,1.2218,0.0200,13.5237,5.5171,13.5237,0.0000,10.4931,11.2024,0.0000,0.0000,0.0000,0.0000,0.0000,0.0000,0.0000,10.4931,11.2024,13.5237,0.0000,11.5388,0.0000,0.0000,0.0000,0.0000,0.0000,0.0000,0.0000,0.0000,0.0000,0.0000,0.0000,0.0000,0.0000,0.1803,4.5073,0.0000,0.0000,0.0000,8.7227,0.0000,0.0000,0.0000,0.0801,0.0000,0.0000,0.0000,0.0000,0.0000,0.0000,0.0000,0.0000,0.0000,0.0000,0.0000,0.0000,0.0000,0.0000,0.0000,0.0000,0.0000,0.0000,0.0000,0.0000,0.0000,0.0000,0.0000,0.0000,0.0000,0.0000,0.0000,0.0000,0.0000,0.0000,0.0000,0.0000,0.0000,0.0000,
Staphylococcus aureus subsp. aureus ED133,0.0209,0.0000,0.0000,0.0000,0.0200,0.6488,0.1803,0.0000,0.0209,0.0216,0.0000,0.0000,0.0000,0.0283,0.1165,0.0000,0.0000,0.0000,0.0000,0.0000,0.0000,0.0866,0.0000,0.0241,0.0000,3.2234,0.0000,0.7212,0.0000,0.0000,1.2821,2.1638,11.9315,4.2410,0.5409,0.0000,0.0000,0.0000,8.7070,2.4239,4.3665,0.3462,9.6958,0.0000,0.0200,0.0000,0.0000,0.0000,0.0801,0.0000,0.0000,0.0000,0.0000,0.0000,0.0000,0.0241,0.0000,0.0200,0.0241,0.0000,10.1037,0.0000,2.4239,0.5008,0.0000,0.0000,0.0000,6.5060,0.0000,0.3462,0.0000,0.0283,0.0200,0.0866,0.0000,0.0000,0.0000,0.0000,0.0000,0.0000,0.0000,0.0866,0.0200,0.0000,0.0216,0.0000,0.0241,0.0000,0.0000,0.0000,0.0000,0.0000,0.0000,0.0000,0.0216,0.0216,0.0000,0.0000,0.0000,0.0000,0.0000,0.0000,0.0216,0.0216,0.0000,0.0295,
Staphylococcus aureus subsp. aureus ED98,0.0000,0.0200,0.0000,0.0000,0.0000,0.1622,0.0000,0.0000,0.0000,0.0000,0.0000,0.0000,0.0000,0.0000,0.0000,0.0000,0.0000,0.0000,0.0000,0.0000,0.0000,0.0000,0.0000,0.0000,15.0745,0.0000,0.0000,0.3205,0.0000,1.2218,0.0200,13.5237,5.5171,13.5237,0.0000,10.4931,11.2024,0.0000,0.0000,0.0000,0.0000,0.0000,0.0000,0.0000,10.4931,11.2024,13.5237,0.0000,11.5388,0.0000,0.0000,0.0000,0.0000,0.0000,0.0000,0.0000,0.0000,0.0000,0.0000,0.0000,0.0000,0.0000,0.1803,4.5073,0.0000,0.0000,0.0000,8.7227,0.0000,0.0000,0.0000,0.0801,0.0000,0.0000,0.0000,0.0000,0.0000,0.0000,0.0000,0.0000,0.0000,0.0000,0.0000,0.0000,0.0000,0.0000,0.0000,0.0000,0.0000,0.0000,0.0000,0.0000,0.0000,0.0000,0.0000,0.0000,0.0000,0.0000,0.0000,0.0000,0.0000,0.0000,0.0000,0.0000,0.0000,0.0000,
Staphylococcus aureus subsp. aureus HO 5096 0412,0.0000,0.0000,0.0000,0.0000,0.0000,0.0721,0.0000,0.0000,0.0000,0.0000,0.0200,0.0000,0.0000,0.0000,0.0000,0.0000,0.0000,0.0000,0.0000,0.0000,0.0000,0.0000,0.0000,0.0241,2.9184,1.7527,0.0000,0.3205,0.0000,0.9354,1.6226,4.8685,5.5171,7.0107,13.5237,0.0000,0.0000,0.0241,0.8683,0.7212,0.0000,0.0000,9.6958,0.0000,0.0000,0.0000,0.0000,0.0000,1.6226,0.0000,0.0000,0.0000,0.0000,0.0000,0.0000,0.0000,0.0000,0.0801,0.0000,0.0000,12.0243,0.0000,0.5008,3.3855,0.0216,0.0191,0.0000,7.2088,0.8683,0.7790,0.0000,0.0200,0.0801,0.0000,0.0721,0.0000,0.0000,0.0000,0.0000,0.0000,0.0000,0.0000,0.0000,0.0000,0.0000,0.0000,0.0000,0.0209,0.0000,0.0000,0.0000,0.0000,0.0000,0.0000,0.0216,0.0000,0.0000,0.0200,0.0000,0.0000,0.0000,0.0000,0.0000,0.0000,0.0180,0.0000,
Staphylococcus aureus subsp. aureus JH1,0.0000,0.0200,0.0000,0.0000,0.0000,0.2884,0.0000,0.0000,0.0000,0.0000,0.0000,0.0000,0.0000,0.0000,0.0000,0.0000,0.0000,0.0000,0.0000,0.0000,0.0000,0.0000,0.0000,0.0000,13.8927,0.0000,0.3462,0.0801,0.0000,1.5463,0.0200,13.5237,4.8871,12.4635,0.0000,11.2650,5.5408,0.0241,0.0000,0.0000,0.0000,0.0000,0.0000,0.0000,4.0034,11.7963,9.5424,0.0000,11.5388,0.0000,0.0000,0.0000,0.0000,0.0000,0.0000,0.0000,0.0000,0.0000,0.0000,0.0216,0.0000,0.0000,0.7212,3.9264,0.0000,0.0000,0.0000,7.9477,0.0000,0.0000,0.0000,0.0801,0.0000,0.0000,0.0000,0.0000,0.0000,0.0000,0.0000,0.0000,0.0000,0.0000,0.0000,0.0000,0.0000,0.0000,0.0000,0.0000,0.0000,0.0000,0.0000,0.0000,0.0000,0.0000,0.0000,0.0000,0.0000,0.0000,0.0000,0.0000,0.0000,0.0000,0.0000,0.0000,0.0000,0.0000,
Staphylococcus aureus subsp. aureus JH9,0.0000,0.0200,0.0000,0.0000,0.0000,0.1622,0.0000,0.0000,0.0000,0.0000,0.0000,0.0000,0.0000,0.0000,0.0000,0.0000,0.0000,0.0000,0.0000,0.0000,0.0000,0.0000,0.0000,0.0000,15.0745,0.0000,0.3462,0.0801,0.0000,1.5463,0.0200,13.5237,4.8871,12.4635,0.0000,11.2650,11.2024,0.0000,0.0000,0.0000,0.0000,0.0000,0.0000,0.0000,4.0034,11.2024,9.5424,0.0000,11.5388,0.0000,0.0000,0.0000,0.0000,0.0000,0.0000,0.0000,0.0000,0.0000,0.0000,0.0216,0.0000,0.0000,0.7212,3.9264,0.0000,0.0000,0.0000,7.2088,0.0000,0.0000,0.0000,0.0801,0.0000,0.0000,0.0721,0.0000,0.0000,0.0000,0.0000,0.0000,0.0000,0.0000,0.0000,0.0000,0.0000,0.0000,0.0000,0.0000,0.0000,0.0000,0.0000,0.0000,0.0000,0.0000,0.0000,0.0000,0.0000,0.0000,0.0000,0.0000,0.0000,0.0000,0.0000,0.0000,0.0000,0.0000,
Staphylococcus aureus subsp. aureus JKD6159,0.0000,0.0801,0.0000,0.0000,0.0000,0.6488,0.0000,0.0000,0.0835,0.0866,0.0000,0.0000,0.0216,0.0000,0.0000,0.0000,0.0000,0.0000,0.0000,0.0000,0.0000,0.0000,0.0000,0.0000,0.0000,1.8333,0.0000,2.4239,0.5409,1.2218,1.2821,4.8685,4.8871,9.5424,0.0000,0.0000,0.0000,15.3243,0.0000,3.3855,3.3310,0.7790,9.6958,0.0000,0.0000,0.0000,0.0000,0.0000,0.1803,0.0000,0.0000,0.0000,0.0000,0.0000,0.0000,0.0000,0.0000,0.0200,0.0000,0.0000,9.2061,0.0000,0.9816,0.3205,0.0000,0.0191,0.0000,6.5060,0.0000,0.0866,0.0000,0.0000,0.0000,0.0000,0.0000,0.0000,0.0209,0.0000,0.0000,0.0200,0.0000,0.0000,0.0000,0.0000,0.0000,0.0000,0.0000,0.0000,0.0000,0.0801,0.0000,0.0000,0.0000,0.0000,0.0000,0.0000,0.0866,0.0200,0.0000,0.0000,0.0000,0.0000,0.0000,0.0000,0.0000,0.0209,
Staphylococcus aureus subsp. aureus LGA251,0.0209,0.0000,0.0200,0.0000,0.0000,0.2884,0.0200,0.0000,0.0000,0.0866,0.0000,0.0000,0.0000,0.0200,0.0000,0.0000,0.0000,0.0000,0.0000,0.0000,0.0000,0.0216,0.0000,0.0000,0.0000,2.2534,0.0000,0.7212,0.0000,0.1718,1.6226,3.1159,9.2397,6.2534,1.0603,0.0000,0.0000,0.0000,15.0745,2.4239,7.3334,0.0000,9.6958,0.0000,0.0200,0.0000,0.0000,0.0000,0.1803,0.0000,0.0000,0.0000,0.0000,0.0000,0.0000,0.0000,0.0000,0.0000,0.0000,0.0000,12.0243,0.0000,2.0033,0.9816,0.0000,0.0000,0.0000,7.9477,0.0000,0.3462,0.0000,0.0000,0.0801,0.1947,0.0000,0.0000,0.0000,0.0000,0.0000,0.0000,0.0000,0.0000,0.0000,0.0000,0.0216,0.0000,0.0000,0.0000,0.0000,0.0000,0.0000,0.0000,0.0000,0.0000,0.0000,0.0000,0.0000,0.0200,0.0000,0.0000,0.0000,0.0000,0.0000,0.0000,0.0000,0.0000,
Staphylococcus aureus subsp. aureus M013,0.0000,0.0283,0.0000,0.0000,0.0000,0.4506,0.0000,0.0000,0.0000,0.0000,0.0200,0.0000,0.0000,0.0000,0.0241,0.0000,0.0000,0.0180,0.0000,0.0000,0.0000,0.0000,0.0000,0.0965,1.9537,1.7527,1.3848,0.0200,0.0866,0.1718,0.0000,4.2410,1.6175,0.7790,0.0000,0.0801,0.0000,0.6030,0.0241,22.7817,0.5409,0.0216,9.6958,0.0000,0.0000,0.0000,0.7790,0.0000,0.0000,0.0000,0.0000,0.0000,0.0000,0.0000,0.0000,0.0000,0.0000,0.0000,0.0000,7.8113,13.6286,0.6030,9.7783,0.1803,0.0866,3.1286,0.0000,5.2084,0.0000,0.0000,0.0965,0.0000,0.0801,0.0000,0.0180,0.0000,0.0000,0.0000,0.1947,0.0200,0.0000,0.0000,0.0000,0.0000,0.0000,0.0000,0.0000,0.0835,0.0191,0.0000,0.0000,0.0000,0.0000,0.0000,0.0000,0.0000,0.0000,0.0000,0.0000,0.0000,0.0000,0.0000,0.0000,0.0000,0.0180,0.0000,
Staphylococcus aureus subsp. aureus MRSA252,0.0209,0.0000,0.0000,0.0000,0.0000,0.2884,0.0200,0.0000,0.0000,0.0866,0.0000,0.0000,0.0000,0.0200,0.0000,0.0000,0.0000,0.0000,0.0000,0.0000,0.0000,0.0866,0.0000,0.0000,0.0000,4.2410,0.0000,0.0000,0.0000,1.5463,2.4239,2.6182,4.2953,3.1159,0.0000,0.0000,0.0000,0.0000,0.0000,2.0033,13.5237,0.0000,10.5973,0.0000,0.0000,0.0000,0.0000,0.0000,0.0801,0.0000,0.0000,0.0000,0.0000,0.0000,0.0000,0.0000,13.0472,0.0000,13.0472,0.0000,12.0243,0.0000,10.5973,0.0801,0.0000,0.0000,0.0000,5.8392,0.0000,1.3848,0.0000,0.0000,0.0000,0.0000,0.1622,0.0000,0.0000,0.0000,0.0000,0.0000,0.0000,0.0000,0.0000,0.0000,0.0000,0.0000,0.0000,0.0000,0.0000,0.0000,0.0000,0.0000,0.0191,0.0000,0.0216,0.0000,0.0000,0.0200,0.0000,0.0200,0.0000,0.0000,0.0000,0.0000,0.0000,0.0000,
Staphylococcus aureus subsp. aureus MSHR1132,0.0209,0.0801,0.0200,0.0000,0.1803,0.4506,1.6226,0.0000,1.0229,0.7790,1.1423,0.0801,0.5409,0.1803,0.0241,0.0000,0.0216,0.0000,0.0000,0.0000,0.0965,0.1947,0.1947,0.0241,0.2171,0.0866,0.0000,0.0801,0.0000,0.9354,0.1803,0.7790,1.2218,0.0866,0.0000,0.0200,0.0209,0.0965,0.0000,0.0801,0.0000,13.7478,0.5008,0.0000,0.0000,0.0000,0.0000,0.0000,0.3205,0.0000,0.0000,0.0000,0.0000,0.0000,0.0000,0.0241,0.0241,0.3205,0.0000,0.0000,1.0229,0.0000,0.0000,0.0801,0.0000,1.5463,0.0000,7.2088,1.1818,0.7790,0.9282,0.3205,1.2821,0.7790,0.0000,0.0216,0.1879,0.0000,0.0000,0.0801,0.0000,0.0216,0.0200,0.3340,0.3462,0.0000,0.0241,0.0835,0.0000,0.0801,0.0000,0.0191,0.0000,0.0000,0.0216,0.0000,0.0000,0.5008,0.0200,0.0801,0.0000,0.1045,0.0000,0.0306,0.0000,0.0000,
Staphylococcus aureus subsp. aureus MSSA476,0.0000,0.0000,0.0000,0.0000,0.0000,0.2884,0.0000,0.0000,0.0000,0.0000,0.0000,0.0000,0.0000,0.0000,0.0000,0.0000,0.0000,0.0180,0.0000,0.0000,0.0241,0.0000,0.0000,0.0000,3.4732,0.1947,6.2534,0.0200,0.0000,0.9354,2.8847,10.4728,6.1853,0.0000,0.0000,0.0000,0.0000,0.0000,0.0000,0.0000,0.0000,0.0000,12.5204,13.5237,0.0000,0.0000,1.0603,0.0000,3.3855,0.0000,0.0000,0.0000,0.0000,0.0000,0.0000,0.0000,0.0000,0.0000,0.0000,0.0000,13.0472,3.4732,0.0801,9.6958,0.0000,0.0000,0.0000,5.8392,0.0000,0.0000,0.0000,0.0000,0.0000,0.0000,0.0721,0.0000,0.0000,0.0000,0.0000,0.0000,0.0000,0.0000,0.0000,0.0000,0.0000,0.0000,0.0000,0.0000,0.0000,0.0000,0.0000,0.0000,0.0000,0.0000,0.0000,0.0000,0.0216,0.0000,0.0000,0.0000,0.0000,0.0000,0.0000,0.0000,0.0000,0.0000,
Staphylococcus aureus subsp. aureus MW2,0.0000,0.0000,0.0000,0.0000,0.0000,0.2884,0.0000,0.0000,0.0000,0.0000,0.0000,0.0000,0.0000,0.0000,0.0000,0.0000,0.0000,0.0180,0.0000,0.0000,0.0241,0.0000,0.0000,0.0000,3.4732,0.1947,6.2534,0.0200,0.0000,0.9354,2.8847,10.4728,6.1853,0.0000,0.0000,0.0000,0.0000,0.0000,0.0000,0.0000,0.0000,0.0000,12.5204,13.5237,0.0000,0.0000,1.0603,0.0000,3.3855,0.0000,0.0000,0.0000,0.0000,0.0000,0.0000,0.0000,0.0000,0.0000,0.0000,0.0000,13.0472,3.4732,0.0801,9.6958,0.0000,0.0000,0.0000,5.8392,0.0000,0.0000,0.0000,0.0000,0.0000,0.0000,0.0721,0.0000,0.0000,0.0000,0.0000,0.0000,0.0000,0.0000,0.0000,0.0000,0.0000,0.0000,0.0000,0.0000,0.0000,0.0000,0.0000,0.0000,0.0000,0.0000,0.0000,0.0000,0.0216,0.0000,0.0000,0.0000,0.0000,0.0000,0.0000,0.0000,0.0000,0.0000,
Staphylococcus aureus subsp. aureus Mu3,0.0000,0.0200,0.0000,0.0000,0.0000,0.1622,0.0000,0.0000,0.0000,0.0000,0.0000,0.0000,0.0000,0.0000,0.0000,0.0000,0.0000,0.0000,0.0000,0.0000,0.0000,0.0000,0.0000,0.0000,15.0745,0.0000,0.0000,0.3205,0.0000,1.2218,0.0200,13.5237,5.5171,13.5237,0.0000,10.4931,11.2024,0.0000,0.0000,0.0000,0.0000,0.0000,0.0000,0.0000,10.4931,11.2024,13.5237,0.0000,11.5388,0.0000,0.0000,0.0000,0.0000,0.0000,0.0000,0.0000,0.0000,0.0000,0.0000,0.0000,0.0000,0.0000,0.1803,4.5073,0.0000,0.0000,0.0000,8.7227,0.0000,0.0000,0.0000,0.0801,0.0000,0.0000,0.0000,0.0000,0.0000,0.0000,0.0000,0.0000,0.0000,0.0000,0.0000,0.0000,0.0000,0.0000,0.0000,0.0000,0.0000,0.0000,0.0000,0.0000,0.0000,0.0000,0.0000,0.0000,0.0000,0.0000,0.0000,0.0000,0.0000,0.0000,0.0000,0.0000,0.0000,0.0000,
Staphylococcus aureus subsp. aureus Mu50,0.0000,0.0200,0.0000,0.0000,0.0000,0.1622,0.0000,0.0000,0.0000,0.0000,0.0000,0.0000,0.0000,0.0000,0.0000,0.0000,0.0000,0.0000,0.0000,0.0000,0.0000,0.0000,0.0000,0.0000,15.0745,0.0000,0.0000,0.3205,0.0000,1.2218,0.0200,13.5237,5.5171,13.5237,0.0000,10.4931,11.2024,0.0000,0.0000,0.0000,0.0000,0.0000,0.0000,0.0000,10.4931,11.2024,13.5237,0.0000,11.5388,0.0000,0.0000,0.0000,0.0000,0.0000,0.0000,0.0000,0.0000,0.0000,0.0000,0.0000,0.0000,0.0000,0.1803,4.5073,0.0000,0.0000,0.0000,8.7227,0.0000,0.0000,0.0000,0.0801,0.0000,0.0000,0.0000,0.0000,0.0000,0.0000,0.0000,0.0000,0.0000,0.0000,0.0000,0.0000,0.0000,0.0000,0.0000,0.0000,0.0000,0.0000,0.0000,0.0000,0.0000,0.0000,0.0000,0.0000,0.0000,0.0000,0.0000,0.0000,0.0000,0.0000,0.0000,0.0000,0.0000,0.0000,
Staphylococcus aureus subsp. aureus N315,0.0000,0.0200,0.0000,0.0000,0.0000,0.1622,0.0000,0.0000,0.0000,0.0000,0.0000,0.0000,0.0000,0.0000,0.0000,0.0000,0.0000,0.0000,0.0000,0.0000,0.0000,0.0000,0.0000,0.0000,15.0745,0.0000,0.0000,0.3205,0.0000,1.2218,0.0200,13.5237,5.5171,13.5237,0.0000,10.4931,11.2024,0.0000,0.0000,0.0000,0.0000,0.0000,0.0000,0.0000,10.4931,11.2024,13.5237,0.0000,11.5388,0.0000,0.0000,0.0000,0.0000,0.0000,0.0000,0.0000,0.0000,0.0000,0.0000,0.0000,0.0000,0.0000,0.1803,4.5073,0.0000,0.0000,0.0000,8.7227,0.0000,0.0000,0.0000,0.0801,0.0000,0.0000,0.0000,0.0000,0.0000,0.0000,0.0000,0.0000,0.0000,0.0000,0.0000,0.0000,0.0000,0.0000,0.0000,0.0000,0.0000,0.0000,0.0000,0.0000,0.0000,0.0000,0.0000,0.0000,0.0000,0.0000,0.0000,0.0000,0.0000,0.0000,0.0000,0.0000,0.0000,0.0000,
Staphylococcus aureus subsp. aureus NCTC 8325,0.0000,0.0000,0.0000,0.0000,0.0000,0.4506,0.0000,0.0000,0.0000,0.0000,0.0000,0.0000,0.0000,0.0000,0.0000,0.0000,0.0000,0.0000,0.0000,0.0000,0.0000,0.0000,0.0000,0.0000,0.0000,1.3848,13.5237,0.0000,0.0000,0.6873,12.5204,5.5393,6.8916,0.0000,0.0000,0.0000,0.0000,0.0000,0.0000,0.0000,0.0000,0.0000,11.5388,0.0000,0.0000,0.0000,0.0000,11.4964,0.0000,0.0000,0.0000,0.0000,0.0000,0.0000,0.0000,0.0000,0.0000,0.0200,0.0000,11.4964,13.0472,15.0745,0.0000,12.5204,0.0000,0.0000,0.0000,7.2088,0.0000,0.0000,0.0000,0.0000,0.0000,0.0216,0.0000,0.0000,0.0000,0.0000,0.0000,0.0000,0.0000,0.0000,0.0000,0.0000,0.0000,0.0000,0.0000,0.0000,0.0000,0.0000,0.0000,0.0000,0.0000,0.0000,0.0000,0.0000,0.0000,0.0000,0.0000,0.0000,0.0000,0.0000,0.0000,0.0000,0.0000,0.0000,
Staphylococcus aureus subsp. aureus ST228,0.0000,0.0200,0.0000,0.0000,0.0000,0.1622,0.0000,0.0000,0.0000,0.0000,0.0000,0.0000,0.0000,0.0000,0.0000,0.0000,0.0000,0.0000,0.0000,0.0000,0.0000,0.0000,0.0000,0.0000,15.0745,0.0000,0.0000,0.5008,0.0000,1.2218,0.0000,13.5237,5.5171,13.5237,0.0000,10.4931,11.2024,0.0000,0.0000,0.0000,0.0000,0.0000,0.0000,0.0000,10.4931,11.2024,13.5237,0.0000,12.5204,0.0000,0.0000,0.0000,0.0000,0.0000,0.0000,0.0000,0.0000,0.0000,0.0000,0.0000,0.0000,0.0000,0.1803,3.9264,0.0000,0.0000,0.0000,7.9477,0.0000,0.0000,0.0000,0.0801,0.0000,0.0000,0.0180,0.0000,0.0000,0.0000,0.0000,0.0000,0.0000,0.0000,0.0000,0.0000,0.0000,0.0000,0.0000,0.0000,0.0000,0.0000,0.0000,0.0000,0.0000,0.0000,0.0000,0.0000,0.0000,0.0000,0.0000,0.0000,0.0000,0.0000,0.0000,0.0000,0.0000,0.0000,
Staphylococcus aureus subsp. aureus ST228,0.0000,0.0000,0.0000,0.0000,0.0000,0.0000,0.0000,0.0000,0.0000,0.0000,0.0000,0.0000,0.0000,0.0000,0.0000,0.0000,0.0000,0.0000,0.0000,0.0000,0.0000,0.0000,0.0000,0.0000,0.0000,0.0000,0.0000,0.0000,0.0000,0.0000,0.0000,0.0000,0.0000,0.0000,0.0000,0.0000,0.0000,0.0000,0.0000,0.0000,0.0000,0.0000,0.0000,0.0000,0.0000,0.0000,0.0000,0.0000,0.0000,0.0000,0.0000,0.0000,0.0000,0.0000,0.0000,0.0000,0.0000,0.0000,0.0000,0.0000,0.0000,0.0000,0.0000,0.0000,0.0000,0.0000,0.0000,0.0000,0.0000,0.0000,0.0000,0.0000,0.0000,0.0000,0.0000,0.0000,0.0000,0.0000,0.0000,0.0000,0.0000,0.0000,0.0000,0.0000,0.0000,0.0000,0.0000,0.0000,0.0000,0.0000,0.0000,0.0000,0.0000,0.0000,0.0000,0.0000,0.0000,0.0000,0.0000,0.0000,0.0000,0.0000,0.0000,0.0000,0.0000,0.0000,
Staphylococcus aureus subsp. aureus ST228,0.0000,0.0000,0.0000,0.0000,0.0000,0.0000,0.0000,0.0000,0.0000,0.0000,0.0000,0.0000,0.0000,0.0000,0.0000,0.0000,0.0000,0.0000,0.0000,0.0000,0.0000,0.0000,0.0000,0.0000,0.0000,0.0000,0.0000,0.0000,0.0000,0.0000,0.0000,0.0000,0.0000,0.0000,0.0000,0.0000,0.0000,0.0000,0.0000,0.0000,0.0000,0.0000,0.0000,0.0000,0.0000,0.0000,0.0000,0.0000,0.0000,0.0000,0.0000,0.0000,0.0000,0.0000,0.0000,0.0000,0.0000,0.0000,0.0000,0.0000,0.0000,0.0000,0.0000,0.0000,0.0000,0.0000,0.0000,0.0000,0.0000,0.0000,0.0000,0.0000,0.0000,0.0000,0.0000,0.0000,0.0000,0.0000,0.0000,0.0000,0.0000,0.0000,0.0000,0.0000,0.0000,0.0000,0.0000,0.0000,0.0000,0.0000,0.0000,0.0000,0.0000,0.0000,0.0000,0.0000,0.0000,0.0000,0.0000,0.0000,0.0000,0.0000,0.0000,0.0000,0.0000,0.0000,
Staphylococcus aureus subsp. aureus ST228,0.0000,0.0000,0.0000,0.0000,0.0000,0.0000,0.0000,0.0000,0.0000,0.0000,0.0000,0.0000,0.0000,0.0000,0.0000,0.0000,0.0000,0.0000,0.0000,0.0000,0.0000,0.0000,0.0000,0.0000,0.0000,0.0000,0.0000,0.0000,0.0000,0.0000,0.0000,0.0000,0.0000,0.0000,0.0000,0.0000,0.0000,0.0000,0.0000,0.0000,0.0000,0.0000,0.0000,0.0000,0.0000,0.0000,0.0000,0.0000,0.0000,0.0000,0.0000,0.0000,0.0000,0.0000,0.0000,0.0000,0.0000,0.0000,0.0000,0.0000,0.0000,0.0000,0.0000,0.0000,0.0000,0.0000,0.0000,0.0000,0.0000,0.0000,0.0000,0.0000,0.0000,0.0000,0.0000,0.0000,0.0000,0.0000,0.0000,0.0000,0.0000,0.0000,0.0000,0.0000,0.0000,0.0000,0.0000,0.0000,0.0000,0.0000,0.0000,0.0000,0.0000,0.0000,0.0000,0.0000,0.0000,0.0000,0.0000,0.0000,0.0000,0.0000,0.0000,0.0000,0.0000,0.0000,
Staphylococcus aureus subsp. aureus ST228,0.0000,0.0000,0.0000,0.0000,0.0000,0.0000,0.0000,0.0000,0.0000,0.0000,0.0000,0.0000,0.0000,0.0000,0.0000,0.0000,0.0000,0.0000,0.0000,0.0000,0.0000,0.0000,0.0000,0.0000,0.0000,0.0000,0.0000,0.0000,0.0000,0.0000,0.0000,0.0000,0.0000,0.0000,0.0000,0.0000,0.0000,0.0000,0.0000,0.0000,0.0000,0.0000,0.0000,0.0000,0.0000,0.0000,0.0000,0.0000,0.0000,0.0000,0.0000,0.0000,0.0000,0.0000,0.0000,0.0000,0.0000,0.0000,0.0000,0.0000,0.0000,0.0000,0.0000,0.0000,0.0000,0.0000,0.0000,0.0000,0.0000,0.0000,0.0000,0.0000,0.0000,0.0000,0.0000,0.0000,0.0000,0.0000,0.0000,0.0000,0.0000,0.0000,0.0000,0.0000,0.0000,0.0000,0.0000,0.0000,0.0000,0.0000,0.0000,0.0000,0.0000,0.0000,0.0000,0.0000,0.0000,0.0000,0.0000,0.0000,0.0000,0.0000,0.0000,0.0000,0.0000,0.0000,
Staphylococcus aureus subsp. aureus ST228,0.0000,0.0000,0.0000,0.0000,0.0000,0.0000,0.0000,0.0000,0.0000,0.0000,0.0000,0.0000,0.0000,0.0000,0.0000,0.0000,0.0000,0.0000,0.0000,0.0000,0.0000,0.0000,0.0000,0.0000,0.0000,0.0000,0.0000,0.0000,0.0000,0.0000,0.0000,0.0000,0.0000,0.0000,0.0000,0.0000,0.0000,0.0000,0.0000,0.0000,0.0000,0.0000,0.0000,0.0000,0.0000,0.0000,0.0000,0.0000,0.0000,0.0000,0.0000,0.0000,0.0000,0.0000,0.0000,0.0000,0.0000,0.0000,0.0000,0.0000,0.0000,0.0000,0.0000,0.0000,0.0000,0.0000,0.0000,0.0000,0.0000,0.0000,0.0000,0.0000,0.0000,0.0000,0.0000,0.0000,0.0000,0.0000,0.0000,0.0000,0.0000,0.0000,0.0000,0.0000,0.0000,0.0000,0.0000,0.0000,0.0000,0.0000,0.0000,0.0000,0.0000,0.0000,0.0000,0.0000,0.0000,0.0000,0.0000,0.0000,0.0000,0.0000,0.0000,0.0000,0.0000,0.0000,
Staphylococcus aureus subsp. aureus ST228,0.0000,0.0000,0.0000,0.0000,0.0000,0.0000,0.0000,0.0000,0.0000,0.0000,0.0000,0.0000,0.0000,0.0000,0.0000,0.0000,0.0000,0.0000,0.0000,0.0000,0.0000,0.0000,0.0000,0.0000,0.0000,0.0000,0.0000,0.0000,0.0000,0.0000,0.0000,0.0000,0.0000,0.0000,0.0000,0.0000,0.0000,0.0000,0.0000,0.0000,0.0000,0.0000,0.0000,0.0000,0.0000,0.0000,0.0000,0.0000,0.0000,0.0000,0.0000,0.0000,0.0000,0.0000,0.0000,0.0000,0.0000,0.0000,0.0000,0.0000,0.0000,0.0000,0.0000,0.0000,0.0000,0.0000,0.0000,0.0000,0.0000,0.0000,0.0000,0.0000,0.0000,0.0000,0.0000,0.0000,0.0000,0.0000,0.0000,0.0000,0.0000,0.0000,0.0000,0.0000,0.0000,0.0000,0.0000,0.0000,0.0000,0.0000,0.0000,0.0000,0.0000,0.0000,0.0000,0.0000,0.0000,0.0000,0.0000,0.0000,0.0000,0.0000,0.0000,0.0000,0.0000,0.0000,
Staphylococcus aureus subsp. aureus ST398,0.0209,0.0000,0.0200,0.0000,0.0000,0.6488,0.0801,0.0000,0.0000,0.1947,0.0000,0.0000,0.0000,0.0801,0.0000,0.0000,0.0000,0.0000,0.0000,0.0000,0.0000,0.0000,0.0000,0.0000,0.0000,13.7478,0.0000,0.3205,0.0000,10.9960,1.2821,0.0000,0.0191,4.8685,0.0000,0.0000,0.0000,0.0000,0.0000,2.0033,5.6827,0.1947,8.8344,0.0000,0.0000,0.0000,0.0000,0.0216,0.0801,0.0000,0.0000,0.0000,0.0000,0.0000,0.0000,15.0745,0.0000,0.0000,0.0000,0.0000,11.0431,0.0000,4.5073,0.7212,0.0000,0.0000,0.0000,6.5060,0.0000,0.3462,0.0000,0.0000,0.0000,0.0000,0.0000,0.0000,0.0000,0.0000,0.0000,0.0000,0.0000,0.0866,0.0000,0.0000,0.0000,0.0000,0.0000,0.0000,0.0000,0.0000,0.0000,0.0000,0.0000,0.0000,0.0000,0.5409,0.0000,0.2052,0.0000,0.0200,0.0216,0.0000,0.0000,0.0000,0.0000,0.0209,
Staphylococcus aureus subsp. aureus T0131,0.0209,0.0000,0.0000,0.0000,0.0000,0.1622,0.0200,0.0000,0.0000,0.0216,0.0000,0.0000,0.0000,0.0200,0.0000,0.0000,0.0000,0.0180,0.0000,0.0000,0.0000,0.0866,0.0000,0.0000,0.0000,5.6827,0.0000,0.0000,0.0000,1.9090,2.0033,1.7527,3.7417,3.6568,0.0000,0.0000,0.0000,0.0000,0.0000,2.8847,13.5237,0.0000,10.5973,0.0000,0.0000,0.0000,0.0000,0.0000,0.0801,0.0000,0.0000,0.0000,0.0000,0.0000,0.0000,0.0000,14.6914,0.0000,0.4635,0.0000,11.0431,0.0000,12.5204,0.0000,0.0000,0.0000,0.0000,7.2088,0.0000,1.0603,0.0000,0.0000,0.0000,0.0000,0.0180,0.0000,0.0000,0.0000,0.0000,0.0000,0.0000,0.0000,0.0000,0.0000,0.0216,0.0000,0.0000,0.0000,0.0000,0.0000,0.0000,0.0000,0.0191,0.0000,0.0216,0.0000,0.0000,0.0000,0.0000,0.0200,0.0000,0.0000,0.0000,0.0000,0.0000,0.0209,
Staphylococcus aureus subsp. aureus TCH60,0.0876,0.0200,0.0000,0.0000,0.0200,0.2884,0.0801,0.0000,1.7746,0.0943,0.0000,0.0000,0.0216,0.0000,0.0241,0.0000,0.0000,0.0000,0.0000,0.0000,0.2470,0.0682,0.0000,0.0000,0.0000,0.7994,0.1947,9.0086,0.0000,0.2430,7.3894,0.3373,9.2397,0.0904,3.6568,0.0000,0.5116,0.0000,0.0000,0.1133,0.0866,0.1947,0.0000,0.4342,0.0000,0.5116,0.0000,5.2035,0.0000,0.0000,0.0000,0.0000,0.0000,0.0000,0.0000,5.7645,0.0000,15.0867,0.0000,0.6393,1.3444,0.8683,0.0000,0.0000,3.9763,0.0000,0.0000,11.2033,0.0965,0.0813,0.0000,0.0200,0.0000,0.0216,0.0000,0.0000,0.0000,0.0000,0.0216,0.0200,0.0306,0.0682,0.0000,0.0000,0.0000,0.0000,0.0000,0.0000,0.0000,0.0000,0.0000,0.0000,0.0000,0.0000,0.0000,0.0000,0.0000,0.0801,0.0000,0.0000,0.0000,0.3512,0.1947,0.0866,0.0000,0.7887,
Staphylococcus aureus subsp. aureus TW20,0.0209,0.0000,0.0000,0.0000,0.0000,0.4506,0.0200,0.0000,0.0000,0.0216,0.0200,0.0000,0.0000,0.0200,0.0000,0.0000,0.0000,0.0000,0.0000,0.0000,0.0000,0.0866,0.0000,0.0000,0.0000,4.3665,0.0000,0.0000,0.0000,1.5463,2.0033,2.6182,4.2953,3.6568,0.0000,0.0000,0.0000,0.0000,0.0000,2.4239,13.5237,0.0000,9.6958,0.0000,0.0000,0.0000,0.0000,0.0000,0.0801,0.0000,0.0000,0.0000,0.0000,0.0000,0.0000,0.0000,13.0472,0.0000,13.0472,0.0000,12.0243,0.0000,12.5204,0.0000,0.0000,0.0000,0.0000,5.8392,0.0000,1.3848,0.0000,0.0000,0.0000,0.0000,0.0721,0.0000,0.0000,0.0000,0.0000,0.0000,0.0000,0.0000,0.0000,0.0000,0.0000,0.0000,0.0000,0.0000,0.0000,0.0000,0.0000,0.0000,0.0191,0.0000,0.0216,0.0000,0.0000,0.0200,0.0000,0.0200,0.0000,0.0000,0.0000,0.0000,0.0000,0.0000,
Staphylococcus aureus subsp. aureus USA300_FPR3757,0.0000,0.0000,0.0000,0.0000,0.0000,0.4506,0.0000,0.0000,0.0000,0.0000,0.0000,0.0000,0.0000,0.0000,0.0000,0.0000,0.0000,0.0000,0.0000,0.0000,0.0000,0.0000,0.0000,0.0000,0.0000,1.3848,13.5237,0.0000,0.0000,0.9354,12.5204,5.5393,6.1853,0.0000,0.0000,0.0200,0.0000,0.0241,0.0000,0.0000,0.0000,0.0000,11.5388,0.0000,0.0000,0.0000,0.0000,1.3350,0.0000,0.0000,0.0000,0.0000,0.0000,0.0000,0.0000,0.0000,0.0000,0.0000,0.0000,12.8309,13.0472,13.8927,0.0000,12.5204,0.0000,0.0000,0.0000,6.5060,0.0000,0.0000,0.0000,0.0000,0.0000,0.0216,0.0180,0.0000,0.0000,0.0000,0.0000,0.0000,0.0000,0.0000,0.0000,0.0000,0.0000,0.0000,0.0000,0.0000,0.0000,0.0000,0.0000,0.0000,0.0000,0.0000,0.0000,0.0000,0.0000,0.0000,0.0000,0.0000,0.0000,0.0000,0.0000,0.0000,0.0000,0.0000,
Staphylococcus aureus subsp. aureus USA300_TCH1516,0.0000,0.0000,0.0000,0.0000,0.0000,0.4506,0.0000,0.0000,0.0000,0.0000,0.0000,0.0000,0.0000,0.0000,0.0000,0.0000,0.0000,0.0000,0.0000,0.0000,0.0000,0.0000,0.0000,0.0000,0.0000,1.3848,13.5237,0.0000,0.0000,0.9354,12.5204,5.5393,6.1853,0.0000,0.0000,0.0200,0.0000,0.0241,0.0000,0.0000,0.0000,0.0000,11.5388,0.0000,0.0000,0.0000,0.0000,3.3347,0.0000,0.0000,0.0000,0.0000,0.0000,0.0000,0.0000,0.0000,0.0000,0.0000,0.0000,12.4292,13.0472,13.8927,0.0000,12.5204,0.0000,0.0000,0.0000,6.5060,0.0000,0.0000,0.0000,0.0000,0.0000,0.0216,0.0180,0.0000,0.0000,0.0000,0.0000,0.0000,0.0000,0.0000,0.0000,0.0000,0.0000,0.0000,0.0000,0.0000,0.0000,0.0000,0.0000,0.0000,0.0000,0.0000,0.0000,0.0000,0.0000,0.0000,0.0000,0.0000,0.0000,0.0000,0.0000,0.0000,0.0000,0.0000,
Staphylococcus aureus subsp. aureus VC40,0.0000,0.0000,0.0000,0.0000,0.0000,0.4506,0.0000,0.0000,0.0000,0.0000,0.0000,0.0000,0.0000,0.0000,0.0000,0.0000,0.0000,0.0000,0.0000,0.0000,0.0000,0.0000,0.0000,0.0000,0.0000,1.3848,13.5237,0.0000,0.0000,0.6873,12.5204,5.5393,6.8916,0.0000,0.0000,0.0000,0.0000,0.0000,0.0000,0.0000,0.0000,0.0000,11.5388,0.0000,0.0000,0.0000,0.0000,11.4964,0.0000,0.0000,0.0000,0.0000,0.0000,0.0000,0.0000,0.0000,0.0000,0.0200,0.0000,11.4964,13.0472,15.0745,0.0000,12.5204,0.0000,0.0000,0.0000,7.2088,0.0000,0.0000,0.0000,0.0000,0.0000,0.0216,0.0000,0.0000,0.0000,0.0000,0.0000,0.0000,0.0000,0.0000,0.0000,0.0000,0.0000,0.0000,0.0000,0.0000,0.0000,0.0000,0.0000,0.0000,0.0000,0.0000,0.0000,0.0000,0.0000,0.0000,0.0000,0.0000,0.0000,0.0000,0.0000,0.0000,0.0000,0.0000,
Staphylococcus aureus subsp. aureus str. JKD6008,0.0209,0.0000,0.0000,0.0000,0.0000,0.4506,0.0200,0.0000,0.0000,0.0216,0.0000,0.0000,0.0000,0.0200,0.0000,0.0000,0.0000,0.0000,0.0000,0.0000,0.0000,0.0216,0.0000,0.0000,0.0000,4.2410,0.0000,0.0000,0.0000,1.9090,2.0033,2.6182,3.7417,6.2534,0.0000,0.0000,0.0000,0.0000,0.0000,2.0033,13.5237,0.0000,11.5388,0.0000,0.0000,0.0000,0.0000,0.0000,0.1803,0.0000,0.0000,0.0000,0.0000,0.0000,0.0000,0.0000,13.0472,0.0000,13.0472,0.0000,12.0243,0.0000,12.5204,0.0000,0.0000,0.0000,0.0000,7.2088,0.0000,0.5409,0.0000,0.0000,0.0000,0.0000,0.0000,0.0000,0.0000,0.0000,0.0000,0.0000,0.0000,0.0000,0.0000,0.0000,0.0000,0.0000,0.0000,0.0000,0.0000,0.0000,0.0000,0.0000,0.0191,0.0000,0.0216,0.0000,0.0000,0.0200,0.0000,0.0000,0.0000,0.0000,0.0000,0.0000,0.0000,0.0000,
Staphylococcus aureus subsp. aureus str. Newman,0.0000,0.0000,0.0000,0.0000,0.0000,0.4506,0.0000,0.0000,0.0000,0.0249,0.0000,0.0000,0.0000,0.0000,0.0000,0.0000,0.0000,0.0000,0.0000,0.0000,0.0000,0.0000,0.0000,0.0000,0.0000,1.7527,11.4465,0.0000,0.0000,0.9354,12.5204,4.2410,6.1853,0.0000,0.0000,0.0000,0.0000,0.0000,0.0000,0.0000,0.0000,0.0216,11.5388,0.0000,0.0000,0.0000,0.0000,8.7046,0.0000,0.0000,0.0000,0.0000,0.0000,0.0000,0.0000,0.0000,0.0000,0.0200,0.0000,8.7046,13.0472,15.0745,0.0000,12.5204,0.0000,0.0000,0.0000,7.2088,0.0000,0.0000,0.0000,0.0000,0.0000,0.0216,0.0000,0.0000,0.0000,0.0000,0.0000,0.0000,0.0000,0.0000,0.0000,0.0000,0.0249,0.0000,0.0000,0.0000,0.0000,0.0000,0.0000,0.0000,0.0000,0.0000,0.0249,0.0000,0.0000,0.0000,0.0000,0.0000,0.0000,0.0000,0.0216,0.0216,0.0000,0.0000,
Staphylococcus carnosus subsp. carnosus TM300,1.0229,0.0801,0.0200,0.0000,0.0200,3.1428,2.4239,0.0000,1.0229,0.5409,0.1803,0.0000,0.0000,0.0200,0.6030,0.0721,0.0000,0.0000,0.0000,0.0180,0.6030,0.5409,0.0000,0.2470,0.0000,0.0000,0.0000,0.0200,0.0000,0.0191,0.0000,0.0000,0.3054,0.0216,0.0216,0.0000,0.0000,0.0000,0.0000,0.0801,0.0866,0.7790,0.0000,0.0216,0.0000,0.0000,0.0216,0.0000,0.0200,0.0000,0.0000,0.0000,0.0000,0.0000,0.0000,0.0965,0.0000,5.7894,0.0000,0.0000,0.0835,0.0000,0.0000,0.0000,13.5237,1.9090,0.0000,0.6488,0.6030,0.5409,0.2171,4.5073,0.5008,0.0000,0.0721,0.0000,0.0835,0.3054,0.1947,0.0200,0.0000,0.0216,1.6226,0.0209,0.0216,0.0209,0.0965,0.0209,0.0191,0.0801,0.0000,0.0191,0.3054,0.0000,0.3462,0.5409,0.3462,0.0801,0.0000,0.0200,0.0866,0.0866,0.0216,0.0000,0.0180,0.3340,
Staphylococcus epidermidis ATCC 12228,0.0000,0.0000,0.3537,0.0000,0.0801,0.4506,1.2821,0.0000,1.0229,0.1947,1.2821,0.0000,0.0866,0.3537,0.0241,0.0000,0.0000,0.0000,0.0216,0.0000,0.2171,0.0216,0.0000,0.2171,0.0000,0.0866,0.0000,0.0200,0.0216,0.0000,0.0801,0.0216,0.0000,0.0000,0.0866,0.0000,0.0000,0.0000,0.0000,0.2052,0.0000,2.1638,0.0200,0.0000,0.0000,0.0209,0.0000,0.0000,0.0000,0.0000,0.0000,0.0000,0.0000,0.0000,0.0000,0.0000,0.0000,0.7212,0.0965,0.0000,0.0835,0.0000,0.0000,0.0000,0.1045,11.9315,0.0000,5.8392,5.5767,7.1720,0.0241,0.0801,7.5471,4.8685,0.0000,0.0216,0.0209,0.0000,0.3462,0.0200,0.0000,0.0000,0.0801,0.0000,0.0000,0.1879,0.0000,0.3340,0.0000,0.0801,0.0000,0.0000,0.0000,0.0000,0.1947,0.3821,0.0866,0.9816,0.1803,0.0000,0.0216,0.0000,0.0216,0.0216,0.0721,1.0834,
Staphylococcus epidermidis RP62A,0.0835,0.0000,0.0200,0.0000,0.0000,1.1534,2.0862,0.0000,3.0061,1.8333,1.6226,0.0000,1.7527,0.3205,0.2171,0.0000,0.0000,0.0000,0.0000,0.0000,0.2171,0.1947,0.3462,0.0241,0.0000,0.1947,0.0000,0.0000,0.0000,0.0000,0.0801,0.0000,0.0000,0.0866,0.0216,0.0000,0.0000,0.0000,0.0000,0.3205,0.0000,0.5858,0.0200,0.0000,0.0000,0.0209,0.0216,0.0000,0.0000,0.0000,0.0000,0.0000,0.0000,0.0000,0.0000,0.0241,0.0000,0.7212,0.0241,0.3462,0.0835,0.0000,0.0000,0.0000,0.5409,0.0000,12.1292,6.1066,2.9184,0.0866,0.2171,12.7278,0.0000,0.0866,0.1622,0.0000,0.0835,0.0000,0.4328,0.0000,0.0000,0.0216,0.7212,0.0000,0.0000,0.0000,0.0965,0.0835,0.0000,0.0801,0.0000,0.0000,0.0000,0.0000,0.0866,1.4565,0.5858,0.1803,0.0000,0.0801,0.0000,0.0866,0.0216,0.0866,0.0000,0.3686,
Staphylococcus haemolyticus JCSC1435,0.0835,0.0200,0.0000,0.0000,0.0200,0.0000,1.4149,0.0000,0.8034,1.3848,1.6226,0.0200,1.4565,1.3485,0.0241,0.0000,0.0000,0.0000,0.0000,0.0000,0.0965,0.0000,0.0000,0.3859,0.0000,0.0866,0.0000,0.0000,0.0216,0.3054,0.0200,0.0216,0.0191,0.0000,0.0866,0.0000,0.0000,0.0000,0.0241,0.0200,0.0000,4.8685,0.0000,0.0216,0.0000,0.0000,0.0000,0.0216,0.0200,0.0000,0.0000,0.0000,0.0000,0.0000,0.0000,0.0000,0.0000,1.0397,0.0000,0.0000,0.0209,0.0000,0.0200,0.0000,0.0866,4.2953,0.0000,11.2638,4.0761,2.1638,0.2171,0.5008,5.1284,1.1230,0.0000,0.0000,0.0209,0.1718,0.0866,0.0000,0.0866,0.0216,0.1803,0.0835,0.0000,0.0835,0.0241,0.0209,0.0191,0.0200,0.0000,0.0191,0.0000,0.0000,0.0866,0.0216,0.1947,0.7212,0.5008,0.0000,0.0000,0.0866,0.0216,0.1947,0.0000,2.1740,
Staphylococcus lugdunensis HKU09-01,0.2138,0.1803,0.0801,0.0000,0.0200,2.2628,1.6973,0.0000,0.5219,0.0000,0.5008,0.1803,0.3462,1.3485,0.0000,0.0180,0.0216,0.0180,0.0216,0.0180,0.0000,0.0000,0.0000,0.0000,0.0000,0.0216,0.0216,0.0801,0.0000,0.3054,0.0200,0.0000,0.0000,0.0000,0.0000,0.0000,0.0000,0.0000,0.0000,0.1803,0.0866,1.0603,0.0000,0.0000,0.0200,0.0000,0.0000,0.0000,0.0000,0.0000,0.0000,0.0000,0.0000,0.0000,0.0000,0.0000,0.0000,1.2821,0.0000,0.0000,0.0000,0.0000,0.0200,0.0000,0.5409,3.7417,0.0000,2.1807,15.3243,13.7478,0.0000,0.3205,2.0033,1.3848,0.0000,0.0216,0.0835,0.0764,0.0866,0.0200,0.1947,0.0000,0.3205,0.0835,0.0000,0.0209,0.0000,0.0835,0.3054,0.0200,0.0000,0.0191,0.0000,0.0000,0.0000,1.0603,0.3462,0.9816,0.0200,0.0000,0.0866,0.0000,0.0000,0.0216,0.0000,2.0876,
Staphylococcus lugdunensis N920143,0.1879,0.1803,0.3205,0.0000,0.0000,0.2884,4.7563,0.0000,1.7687,0.0000,1.6226,0.0200,0.0866,0.9816,0.0000,0.0000,0.0000,0.0180,0.0866,0.0000,0.0000,0.0000,0.1947,0.0000,0.0000,0.0000,0.0000,0.0200,0.0000,0.0764,0.0000,0.0866,0.1718,0.0000,0.0866,0.0000,0.0000,0.0000,0.0000,0.0801,0.0000,1.7527,0.0200,0.0000,0.0000,0.0000,0.0216,0.0000,0.0200,0.0000,0.0000,0.0000,0.0000,0.0000,0.0000,0.0000,0.0000,0.1803,0.0000,0.0000,0.0209,0.0000,0.0200,0.0200,0.0216,7.3423,0.0000,7.2088,15.3243,13.7478,0.0000,0.0200,4.5073,3.6568,0.0000,0.0000,0.0835,0.0000,0.7790,0.0801,0.0866,0.0000,0.0801,0.0209,0.0000,0.0209,0.0000,0.3340,0.0191,0.0000,0.0000,0.0000,0.0000,0.0000,0.0000,0.5409,0.0216,0.3205,0.0200,0.0200,0.0216,0.0000,0.0000,0.0000,0.0000,0.3686,
Staphylococcus pseudintermedius ED99,0.1879,0.0000,0.5008,0.0000,0.0000,2.1807,2.0033,0.0000,1.6909,0.7790,2.9843,0.0801,0.1947,0.1803,0.0000,0.0180,0.0216,0.0721,0.0000,0.0000,0.0000,0.0866,0.1947,0.0000,0.0000,0.0216,0.0000,0.0200,0.0216,0.1718,0.0801,0.0216,0.0922,0.0000,0.0375,0.0000,0.0000,0.0000,0.0000,0.0801,0.0000,0.5858,0.0000,0.0000,0.0200,0.0209,0.0000,0.0000,0.0000,0.0000,0.0000,0.0000,0.0000,0.0000,0.0000,0.0000,0.0000,0.0801,0.0000,0.0000,0.0209,0.0000,0.0200,0.0283,0.0866,1.5463,0.0000,2.1807,0.0000,2.2534,15.3243,0.3205,1.6226,2.1638,0.0000,0.1947,0.0209,0.1718,2.1638,0.9816,0.0216,0.3462,0.3205,0.0000,0.0216,0.0209,0.0000,0.0209,0.3054,0.0200,0.0000,0.1718,0.0191,0.0000,0.0000,0.3462,0.0000,0.1803,0.3205,0.0200,0.0866,0.1045,0.0866,0.0000,0.0000,1.3360,
Staphylococcus pseudintermedius HKU10-03,0.0835,0.0000,0.5008,0.0000,0.0000,1.8022,2.0862,0.0000,0.7515,0.7790,0.0801,0.0000,0.0216,0.5008,0.2171,0.0180,0.0216,0.0000,0.0000,0.0180,0.3859,0.7790,0.0866,0.2171,0.0000,0.0000,0.0000,0.0000,0.0216,0.1718,0.0801,0.0000,0.4773,0.0216,0.0000,0.0000,0.0000,0.0241,0.0000,0.0200,0.0000,0.1947,0.0200,0.0000,0.0200,0.0209,0.0216,0.0000,0.0000,0.0000,0.0000,0.0000,0.0000,0.0000,0.0000,0.0000,0.0000,2.0033,0.0241,0.0216,0.0000,0.0000,0.0000,0.0000,3.6568,1.2850,0.0000,2.1807,0.3859,0.1947,0.3859,12.5204,0.0000,0.1947,0.0180,0.0216,0.0209,0.3054,0.0866,0.0000,0.1947,0.0866,0.1803,0.0209,0.1947,0.8034,0.6030,0.0835,0.3371,0.0200,0.0000,0.0191,0.0000,0.0000,0.0866,2.6182,0.8327,0.5008,0.3205,0.0000,0.0000,0.0216,0.0216,0.0216,0.0180,0.7515,
Staphylococcus saprophyticus subsp. saprophyticus ATCC 15305,0.0835,0.0000,0.0000,0.0000,0.0000,0.9876,5.1284,0.0000,1.7687,1.7527,1.2821,0.0000,0.5409,0.1803,0.0965,0.0000,0.0000,0.0000,0.0216,0.0180,0.0241,0.0216,0.0000,0.0241,0.0241,0.0000,0.0000,0.0000,0.0866,0.0191,0.0000,0.0866,0.0764,0.0000,0.0866,0.0000,0.0000,0.0000,0.2171,0.0200,0.0216,1.4565,0.0200,0.0000,0.0000,0.0209,0.0000,0.0000,0.0000,0.0000,0.0000,0.0000,0.0000,0.0000,0.0000,0.0241,0.0000,1.3485,0.0000,0.0216,0.0209,0.0000,0.0000,0.0000,0.1947,3.7417,0.0000,4.0550,2.4119,0.7790,0.3859,0.0000,12.5204,1.8333,0.0000,0.0216,0.0209,0.0764,0.1947,0.0000,0.0866,0.0216,0.1803,0.0209,0.1947,0.0835,0.0965,0.0209,0.3054,0.0801,0.0000,0.0764,0.0000,0.0000,0.1947,0.5858,0.1947,0.1803,0.0801,0.1803,0.0000,0.0216,0.0216,0.0866,0.0721,1.0834,
Staphylococcus warneri SG1,0.3340,0.0200,0.0000,0.0000,0.0200,0.4879,2.0033,0.0000,0.5219,0.5409,0.5008,0.1803,0.0000,0.9816,0.2171,0.0000,0.0000,0.0000,0.0000,0.0000,0.0000,0.0216,0.0000,0.0965,0.0000,0.0000,0.0000,0.1803,0.0000,0.0191,0.0000,0.0000,0.0000,0.0216,0.0216,0.0000,0.0000,0.0000,0.0000,0.1095,0.0216,0.7790,0.0200,0.0000,0.0000,0.0000,0.0000,0.0000,0.0000,0.0000,0.0000,0.0000,0.0000,0.0000,0.0000,0.0000,0.0000,1.6973,0.0000,0.0000,0.0209,0.0000,0.0967,0.0000,0.0000,7.0419,0.0000,4.7331,3.4732,3.1159,1.1818,0.7212,1.6226,13.5237,0.0180,0.0000,0.0835,0.0764,0.5409,0.0000,0.0000,0.0216,0.1803,0.5219,0.0866,0.0835,0.0241,0.0209,0.0764,0.0801,0.0000,0.0000,0.0191,0.0000,0.0866,1.3848,0.0866,1.6226,0.0200,0.0200,0.0000,0.0216,0.1045,0.0000,0.1622,0.5651,
Staphylothermus hellenicus DSM 12710,0.0835,0.0801,0.3205,0.0000,0.1803,0.0000,2.4239,0.0000,1.3360,1.7527,1.2821,0.0801,0.5409,0.9816,0.0965,0.0000,0.0216,0.0000,0.0216,0.0000,0.2171,0.3462,0.0216,0.4259,0.0000,0.0000,0.0000,0.0200,0.0000,0.0000,0.0000,0.0216,0.1718,0.0000,0.0000,0.0000,0.0000,0.0000,0.0000,0.0200,0.0216,0.7790,0.0200,0.0000,0.0000,0.0000,0.0000,0.0000,0.0000,0.0000,0.0000,0.0000,0.0000,0.0000,0.0000,0.0241,0.0241,0.1803,0.0000,0.0000,0.0000,0.0000,0.0200,0.0000,0.0216,3.7417,0.0000,0.0491,2.0436,0.3462,0.0965,0.9816,0.9816,1.4565,11.5587,0.3462,0.0209,0.0764,0.5409,0.0801,0.1947,0.0866,0.0801,0.0000,0.0000,0.1879,0.2171,0.3340,0.0764,0.0000,0.0000,0.1718,0.0191,0.0000,0.5858,1.0603,0.5409,0.5741,0.7212,0.0801,0.0216,0.0216,0.0000,0.0000,0.0000,1.0229,
Streptococcus agalactiae 2603V/R,0.0000,0.0203,0.0203,0.0000,0.0203,2.5952,2.0313,0.0000,0.0845,0.7879,0.8979,0.0000,0.0000,0.2694,0.0245,0.0721,0.0000,0.0000,0.0000,0.0721,0.2202,0.0219,0.0000,0.0245,0.0101,0.0109,0.0110,0.2894,0.0618,0.2863,0.0628,0.0109,0.1569,0.0135,0.0618,0.0090,0.0674,0.0101,0.0101,0.1490,0.0089,0.3512,0.1490,0.0096,0.0090,0.0126,0.0618,0.0708,0.0090,0.0000,0.0000,0.0000,0.0000,0.0000,0.0000,0.0775,0.0124,0.9953,0.0124,0.0166,0.1729,0.0101,0.0141,0.0636,0.0077,1.2214,0.0000,0.8831,0.2810,0.3864,0.0000,0.0811,0.6572,0.0000,0.0180,13.4276,1.7108,1.3619,1.0757,2.4535,0.0077,1.8543,0.7313,0.0845,0.0875,0.3379,5.5054,0.0000,0.3085,0.1828,0.0064,0.0000,0.0000,0.0064,0.0219,0.4707,0.5488,0.1828,0.0813,0.0813,0.0220,0.0000,0.0000,0.0000,0.0180,0.4669,
Streptococcus dysgalactiae subsp. equisimilis AC-2713,0.0000,0.1803,0.5008,0.0000,0.0000,3.0457,3.0838,0.0000,0.0000,0.0866,1.0397,0.0000,0.0216,0.5008,0.0241,0.0000,0.0000,0.0000,0.0000,0.0180,0.0241,0.1947,0.0866,0.0241,0.0000,0.0000,0.0216,0.2052,0.0000,0.1718,0.0000,0.0000,0.0000,0.0216,0.0000,0.0000,0.0000,0.0000,0.0241,0.0000,0.0000,1.7527,0.0000,0.0000,0.0000,0.0000,0.0000,0.0000,0.0000,0.0000,0.0000,0.0000,0.0000,0.0000,0.0000,0.0241,0.0000,0.1803,0.0000,0.0000,0.0000,0.0000,0.0200,0.0000,0.0306,0.4773,0.0000,1.4598,0.0241,0.1045,0.2171,0.0200,0.3205,0.0866,0.0000,1.1230,13.0472,2.7490,2.1638,3.3855,2.6182,0.5409,0.7212,0.0000,0.7790,0.0000,6.1745,0.0000,0.4773,0.1803,0.0000,0.0000,0.0000,0.0000,0.3462,0.3462,0.0216,0.3205,0.1803,0.0801,0.0000,0.0866,0.0000,0.0216,0.0721,0.0000,
Streptococcus equi subsp. zooepidemicus MGCS10565,0.0209,0.3205,0.0801,0.0000,0.0200,1.5270,0.9816,0.0000,0.5219,0.2216,0.9816,0.0000,0.8327,1.3994,0.0241,0.0721,0.1947,0.0000,0.0000,0.0721,0.0241,0.0216,0.0866,0.2171,0.0000,0.0000,0.0216,0.0000,0.0000,0.0000,0.0200,0.0000,0.0000,0.0000,0.0000,0.0000,0.0000,0.0000,0.0000,0.0200,0.0000,0.5858,0.0000,0.0216,0.0000,0.0000,0.0000,0.0000,0.0200,0.0000,0.0000,0.0000,0.0000,0.0000,0.0000,0.0241,0.0000,0.1803,0.0000,0.0000,0.0000,0.0000,0.0000,0.0200,0.1947,0.0000,0.0000,1.1534,0.3859,0.3462,0.0000,0.1803,0.1803,0.0216,0.0721,0.0866,2.0876,12.1292,1.3848,3.3855,1.0603,0.7790,1.2821,0.0835,1.7527,0.1879,5.4268,0.0835,0.0000,0.3205,0.0000,0.0000,0.0000,0.0000,0.0216,0.7790,0.3462,0.9816,0.0000,0.0200,0.0216,0.0000,0.0000,0.0216,0.0721,0.0835,
Streptococcus gallolyticus subsp. gallolyticus ATCC BAA-2069,0.0000,0.0200,0.0200,0.0000,0.0000,4.6137,2.4239,0.0000,1.3360,1.7527,0.7212,0.0200,0.0000,0.0200,0.0965,0.1622,0.0000,0.0000,0.0000,0.0180,0.2171,0.1947,0.0000,0.3859,0.0000,0.0000,0.0000,0.0200,0.0000,0.0764,0.0000,0.0000,0.0000,0.0866,0.0000,0.0000,0.0000,0.0000,0.0000,0.0000,0.0000,0.0000,0.0200,0.0000,0.0000,0.0000,0.0000,0.0000,0.0200,0.0000,0.0000,0.0000,0.0000,0.0000,0.0000,0.0241,0.0000,0.0200,0.0000,0.0000,0.0209,0.0000,0.0000,0.0000,0.0216,0.1718,0.0000,0.2884,0.3859,0.0866,0.0241,0.0801,0.0000,0.0000,0.0000,0.0216,1.0229,0.9354,13.5237,8.5996,11.4465,0.7790,0.1803,0.3340,0.0866,0.1253,2.5118,0.0209,2.3099,3.9264,0.0000,0.0191,0.0191,0.0000,0.0216,0.0000,0.0000,0.8207,0.3205,0.0200,0.0000,0.0000,0.0000,0.0000,0.0180,0.0835,
Streptococcus infantarius subsp. infantarius CJ18,0.0209,0.0000,0.0200,0.0000,0.0000,3.0457,1.6973,0.0000,0.5651,1.0603,0.3205,0.0000,0.0216,0.0801,0.0965,0.0180,0.0000,0.0180,0.0216,0.0180,0.2470,0.0216,0.5858,0.2171,0.0000,0.0000,0.0000,0.0000,0.0000,0.0764,0.0000,0.0000,0.0764,0.0000,0.0000,0.0000,0.0000,0.0000,0.0241,0.1803,0.0000,0.0216,0.0000,0.0000,0.0000,0.0000,0.0000,0.0000,0.0000,0.0000,0.0000,0.0000,0.0000,0.0000,0.0000,0.0241,0.0000,0.7212,0.0000,0.0000,0.0209,0.0000,0.0000,0.0000,0.0866,0.0191,0.0000,0.4506,0.3859,0.0000,0.2171,0.0000,0.0000,0.0216,0.0721,0.0000,0.5651,1.5463,8.8345,12.5204,4.2410,2.2534,1.3485,0.1879,0.3462,0.1879,1.5436,0.1879,1.9090,2.4239,0.0000,0.0000,0.0191,0.0000,0.0866,0.0866,0.0866,0.1803,0.0801,0.0200,0.0000,0.0216,0.0000,0.0216,0.0721,0.3340,
Streptococcus macedonicus ACA-DC 198,0.0000,0.0200,0.0801,0.0000,0.0000,4.1669,2.8847,0.0000,0.5219,1.0603,0.7212,0.0000,0.0000,0.0801,0.0965,0.1622,0.0000,0.0000,0.0000,0.0000,0.0965,0.1947,0.0000,0.0241,0.0000,0.0000,0.0000,0.0200,0.0000,0.0000,0.0000,0.0000,0.0191,0.0000,0.0000,0.0000,0.0000,0.0000,0.0000,0.0000,0.0000,0.0000,0.0000,0.0000,0.0000,0.0000,0.0000,0.0000,0.0000,0.0000,0.0000,0.0000,0.0000,0.0000,0.0000,0.0000,0.0000,0.0801,0.0000,0.0000,0.0000,0.0000,0.0000,0.0000,0.0000,0.3054,0.0000,0.6488,0.2171,0.0216,0.3859,0.0200,0.0801,0.0000,0.0000,0.0000,2.0876,1.5463,13.5237,8.0130,13.5237,1.0603,0.7212,0.0835,0.8740,0.1253,4.0761,0.0209,1.2218,3.4934,0.0000,0.0000,0.1718,0.0000,0.0216,0.0000,0.0000,0.5423,0.0801,0.0000,0.0000,0.0000,0.0000,0.0000,0.0180,0.5219,
Streptococcus mutans UA159,0.0835,0.0801,0.0200,0.0000,0.0801,1.1534,1.6226,0.0000,0.3340,0.0000,1.2821,0.7212,0.4179,0.3205,0.0000,0.0000,0.0000,0.0180,0.0000,0.0180,0.2171,0.0000,0.1947,0.0965,0.0000,0.0216,0.0216,0.0000,0.0000,0.0764,0.0000,0.0000,0.0764,0.0000,0.0000,0.0000,0.0209,0.2171,0.0241,0.0200,0.0216,0.5409,0.0200,0.0000,0.0000,0.0000,0.0216,0.0000,0.0000,0.0000,0.0000,0.0000,0.0000,0.0000,0.0000,0.0000,0.0000,0.0801,0.0241,0.0000,0.0000,0.0000,0.0200,0.0000,0.0866,0.9354,0.0191,0.8831,1.6236,0.0000,0.2171,0.1803,0.2052,1.0883,0.2884,0.1947,0.3340,0.0764,2.1638,1.2821,0.5409,13.5237,0.9816,0.3340,0.0000,0.1008,0.3859,0.0835,1.5463,0.7212,0.0000,0.0191,0.0191,0.0000,0.0000,0.5409,0.0216,1.3485,0.0000,0.1803,0.0216,0.0000,0.0000,0.0216,0.2884,0.7515,
Streptococcus oligofermentans AS 1.3089,0.0209,0.5008,0.1803,0.0000,0.0200,2.2628,0.0000,0.0000,0.0209,0.3462,1.2821,0.0000,0.0866,0.3205,0.2770,0.0180,0.0216,0.0000,0.0000,0.0180,0.2171,0.0866,0.5409,0.2171,0.0000,0.0216,0.0000,0.0801,0.0000,0.0764,0.0000,0.0216,0.0191,0.0866,0.0216,0.0000,0.0209,0.0241,0.0000,0.0000,0.0000,0.1947,0.0000,0.0000,0.0000,0.0000,0.0000,0.0216,0.0000,0.0000,0.0000,0.0000,0.0000,0.0000,0.0000,0.6030,0.0000,0.3205,0.0000,0.0000,0.0000,0.0000,0.0200,0.0000,0.3462,0.0191,0.0000,0.7280,0.3859,0.0216,0.0241,0.3205,0.3537,0.0866,0.2884,0.1947,0.0209,0.9354,2.7168,1.3994,0.5409,1.3848,12.5204,10.5956,0.5409,0.0000,0.6030,0.3340,1.5463,0.1803,0.0000,0.0764,0.1718,0.0000,0.0216,0.3462,1.0386,0.0000,0.0000,0.1803,0.0000,0.0216,0.0000,0.0216,0.0721,0.3951,
Streptococcus parasanguinis ATCC 15912,0.0000,0.5423,0.0801,0.0000,0.0200,2.1807,0.8671,0.0000,0.0000,1.0603,0.3205,0.1803,0.0866,0.5008,0.0965,0.0180,0.0866,0.0000,0.0216,0.0721,0.6030,0.0216,0.3462,0.2171,0.0000,0.0000,0.0000,0.0000,0.0000,0.0764,0.0000,0.0000,0.0191,0.0000,0.0000,0.0000,0.0000,0.0000,0.0000,0.0000,0.0216,0.3462,0.0000,0.0000,0.0000,0.0000,0.0000,0.0000,0.0000,0.0000,0.0000,0.0000,0.0000,0.0000,0.0000,0.0965,0.0000,0.0801,0.0000,0.0000,0.0000,0.0000,0.0200,0.0200,0.0000,0.4773,0.0000,0.7280,0.0241,0.0216,0.2171,0.3205,0.0000,0.1947,0.0721,0.3016,0.0000,0.3687,10.2102,4.6166,2.4774,0.7790,11.5689,13.5691,1.1230,0.0000,3.2561,0.0000,1.9854,3.2413,0.0000,0.1718,0.0764,0.0000,0.1947,0.0866,0.0000,0.0000,0.0200,0.0801,0.0000,0.0000,0.1947,0.0000,0.1846,0.0000,
Streptococcus pneumoniae 670-6B,0.7515,0.0000,0.9816,0.0000,0.0801,3.1428,4.5073,0.0000,0.1879,0.0000,0.9816,0.5008,0.1947,0.5008,1.1818,0.0180,0.0216,0.0721,0.0216,0.1622,0.8683,0.0000,0.1947,0.0965,0.0000,0.0000,0.0000,0.0000,0.0216,0.0764,0.0000,0.0216,0.0191,0.0000,0.0216,0.0000,0.0000,0.0000,0.0000,0.1803,0.0866,1.0603,0.0000,0.0000,0.0000,0.0000,0.0000,0.0000,0.0000,0.0000,0.0000,0.0000,0.0000,0.0000,0.0000,0.0000,0.0000,0.3537,0.0000,0.0000,0.0209,0.0000,0.0000,0.0000,0.0866,1.6175,0.0000,0.2884,0.0965,0.0000,0.3859,0.7212,0.9816,0.1947,0.0721,0.5409,0.5219,0.6873,1.0603,0.5008,0.8327,0.0000,0.7212,0.0835,13.9719,0.0835,0.3859,0.0000,0.7347,0.0000,0.0000,0.0191,0.0000,0.0000,0.0000,0.3821,0.1947,0.0000,0.0200,0.0801,0.0000,0.0000,0.0000,0.0000,0.0000,0.7515,
Streptococcus pneumoniae SPN032672,0.0000,0.3205,0.0967,0.0000,0.1803,1.4598,0.3205,0.0000,0.0000,0.7790,0.1803,0.0000,0.3462,0.0801,0.8683,0.0180,0.0000,0.0180,0.3462,0.0000,0.2171,0.1947,0.1947,0.2171,0.0000,0.0000,0.0216,0.0000,0.0000,0.0191,0.0000,0.0000,0.0764,0.0000,0.0866,0.0000,0.0000,0.0000,0.0000,0.0200,0.0000,0.3462,0.0000,0.0216,0.0200,0.0000,0.0000,0.0000,0.0000,0.0000,0.0000,0.0000,0.0000,0.0000,0.0000,0.0000,0.0000,0.0801,0.0000,0.0000,0.0000,0.0000,0.0000,0.0000,0.0216,1.5463,0.0000,0.8831,0.3859,0.1947,0.2171,0.5008,0.7212,0.0866,0.1622,0.1947,0.0000,0.9354,1.3848,0.9816,0.8327,0.3462,6.7893,0.0000,0.0866,13.0472,0.8683,0.0000,0.1718,3.6459,0.0000,0.0764,0.0191,0.0000,0.5409,0.3462,0.1947,0.0200,0.0200,0.0801,0.0866,0.0216,0.0216,0.0866,0.2884,0.0000,
Streptococcus pyogenes A20,0.0000,0.3205,0.3205,0.0000,0.0000,4.1669,3.0838,0.0000,0.1879,0.3462,0.9816,0.0200,0.0875,0.1803,0.0000,0.0180,0.0219,0.0000,0.0000,0.0180,0.0000,0.0216,0.0219,0.0000,0.0000,0.0000,0.0000,0.0200,0.0216,0.0000,0.0000,0.0000,0.0000,0.0000,0.0216,0.0000,0.0000,0.0000,0.0000,0.0801,0.0000,0.1947,0.1803,0.0866,0.0000,0.0000,0.0000,0.0000,0.0000,0.0000,0.0000,0.0000,0.0000,0.0000,0.0000,0.0000,0.0000,0.3205,0.0182,0.0000,0.0000,0.0000,0.0801,0.0200,0.0000,0.5168,0.0000,0.6488,0.0000,0.5858,0.0000,0.0801,0.0801,0.0000,0.0000,7.6688,5.3441,2.7490,2.6182,2.8847,0.3016,1.0603,2.4239,0.0209,0.5409,0.0209,15.9398,0.1879,1.2218,0.1803,0.0000,0.0000,0.0000,0.0000,0.0216,0.5409,0.0866,0.0000,0.0000,0.0200,0.0866,0.0000,0.0000,0.0000,0.0721,0.0209,
Streptococcus salivarius 57.I,0.0000,0.3205,0.0200,0.0000,0.0801,2.7535,2.0862,0.0000,0.0000,0.3462,0.1803,0.0000,0.7790,0.3205,0.2171,0.0721,0.0000,0.0721,0.0216,0.0000,0.2171,0.0866,0.0216,0.2171,0.0000,0.0000,0.0216,0.0801,0.0216,0.0191,0.0801,0.0000,0.0191,0.0000,0.0000,0.0000,0.0000,0.0241,0.0241,0.0200,0.1947,0.0866,0.0801,0.0000,0.0000,0.0000,0.0000,0.0216,0.0200,0.0000,0.0000,0.0000,0.0000,0.0000,0.0000,0.0000,0.0000,0.5008,0.0241,0.0000,0.0000,0.0000,0.0000,0.0200,0.0866,0.9354,0.0191,0.8831,0.6030,0.5409,0.6030,1.0397,0.1803,0.3821,0.0180,0.5409,0.0000,0.9354,1.0603,0.7710,0.3462,0.5409,0.0801,0.0000,0.0216,0.0000,0.2171,13.0472,0.4773,0.7212,0.0000,0.0764,0.0191,0.0000,0.5409,0.5409,0.8865,0.3205,0.5008,0.3205,0.0000,0.0866,0.0000,0.0866,0.0180,0.0000,
Streptococcus suis BM407,0.0209,0.1803,0.3205,0.0000,0.0200,1.2729,1.6973,0.0000,0.3686,0.3462,0.3205,0.0801,0.5409,0.7212,0.0965,0.2884,0.0866,0.0180,0.0000,0.0870,0.0965,0.0866,0.0866,0.2171,0.0000,0.0000,0.0000,0.0200,0.0866,0.0000,0.0801,0.1947,0.0000,0.0000,0.0000,0.0000,0.0000,0.0000,0.0000,0.0200,0.0000,0.1947,0.0000,0.0000,0.0000,0.0000,0.0000,0.0000,0.0000,0.0000,0.0000,0.0000,0.0000,0.0000,0.0000,0.0000,0.0241,0.7212,0.0000,0.0000,0.0209,0.0000,0.0000,0.0000,0.5409,0.0000,0.0000,0.6488,1.1818,0.3462,0.3859,0.5008,0.7212,0.0000,0.1622,0.0866,0.4372,0.0000,1.3848,0.9816,0.7790,1.3848,0.5008,0.0835,0.3462,0.1879,0.8683,0.0835,11.9315,0.5008,0.0000,0.0000,0.0000,0.0000,0.1947,0.7790,0.3821,0.5008,0.1803,0.0000,0.0216,0.0000,0.0216,0.0000,0.0180,1.4744,
Streptococcus thermophilus JIM 8232,0.0209,0.0200,0.0000,0.0000,0.0000,3.1428,0.7212,0.0000,0.5219,1.3848,0.0000,0.1803,0.1947,0.0000,0.2171,0.0000,0.0000,0.0000,0.0216,0.0180,0.0965,0.0000,0.0216,0.3859,0.0000,0.0216,0.0000,0.0801,0.0000,0.1729,0.0200,0.0000,0.0768,0.0866,0.0000,0.0000,0.0000,0.0000,0.0000,0.0000,0.0866,0.3462,0.0000,0.0000,0.0000,0.0000,0.0000,0.0000,0.0000,0.0000,0.0000,0.0000,0.0000,0.0000,0.0000,0.0000,0.0000,0.0000,0.0241,0.0000,0.0000,0.0000,0.0000,0.0000,0.0216,0.3074,0.0000,0.6488,0.3859,0.5409,0.4259,0.3205,0.0801,0.0866,0.0180,0.0216,0.5219,1.5023,6.4057,3.3855,3.1159,0.3462,2.8847,1.3360,0.1947,0.0209,1.2518,0.0209,0.8995,13.7651,0.0000,0.0000,0.0192,0.0000,0.0866,0.0866,0.0000,0.7212,0.0000,0.0000,0.0000,0.0216,0.0000,0.1947,0.2884,0.3340,
Thermoanaerobacter brockii subsp. finnii Ako-1,0.0209,0.5008,0.0000,0.0000,0.0801,4.7331,0.0000,0.0000,0.4372,0.0000,1.2821,0.0801,1.1230,1.2821,0.6030,0.0180,0.0000,0.0180,0.0000,0.0180,0.0965,0.0000,0.0866,0.2171,0.0000,0.0000,0.0000,0.0801,0.0000,0.0000,0.0000,0.0216,0.0191,0.0000,0.0000,0.0000,0.0000,0.0965,0.0241,0.0000,0.0000,0.0000,0.0000,0.0000,0.0000,0.0000,0.0000,0.0000,0.0000,0.0000,0.0000,0.0000,0.0000,0.0000,0.0000,0.0241,0.0000,0.7212,0.0241,0.0000,0.0000,0.0241,0.0000,0.0000,1.0603,0.0764,0.0000,0.3182,0.2171,0.0000,0.0965,0.1803,0.7212,0.0866,0.0721,0.1947,0.0835,0.1718,0.0000,0.5008,0.1947,0.0000,0.0000,0.2138,0.0000,0.0835,0.3859,0.0835,0.3054,0.0000,11.0981,0.9354,1.2218,5.1430,13.5237,13.5237,0.0000,0.0000,0.0000,0.1803,0.0000,0.0000,0.0000,0.0000,0.0000,2.5259,
Thermoanaerobacter italicus Ab9,0.0835,0.0801,0.0200,0.0000,0.0801,2.3449,0.7212,0.0000,0.3686,0.0216,0.5008,0.5008,0.3462,0.9816,0.0965,0.0180,0.0000,0.0180,0.0000,0.0000,0.3859,0.0000,0.4179,0.2171,0.0000,0.0216,0.0000,0.0200,0.0000,0.0000,0.0000,0.0216,0.0000,0.0000,0.0000,0.0000,0.0000,0.0965,0.0000,0.0000,0.0000,0.0000,0.0000,0.0000,0.0200,0.0000,0.0000,0.0000,0.0200,0.0000,0.0000,0.0000,0.0000,0.0000,0.0000,0.0000,0.0000,0.3205,0.0000,0.0000,0.0000,0.0000,0.0000,0.0200,0.3462,0.0000,0.0000,1.8022,0.8683,0.0866,0.6030,0.1803,1.2821,0.0216,0.0180,0.1947,0.0209,0.0000,0.0000,0.1803,0.7790,0.0000,0.0200,0.0209,0.0000,0.1879,0.2171,0.1879,0.0000,0.3205,0.0200,11.9315,0.0000,0.0000,10.4728,9.5424,0.1947,4.0426,0.0801,0.1803,0.0000,0.0000,0.0216,0.0216,0.0180,2.5259,
Thermoanaerobacter mathranii subsp. mathranii str. A3,0.0835,0.7212,0.0200,0.0000,0.0801,3.7414,0.3205,0.0000,1.9841,0.0216,0.9816,0.0000,2.6182,1.2821,0.2171,0.0000,0.0000,0.0000,0.0000,0.0000,0.0965,0.0216,0.0866,0.0241,0.0000,0.0216,0.0000,0.1803,0.0000,0.0000,0.0000,0.0216,0.0000,0.0000,0.0000,0.0000,0.0000,0.0241,0.0000,0.0000,0.0000,0.0216,0.0000,0.0000,0.0200,0.0000,0.0000,0.0000,0.0000,0.0000,0.0000,0.0000,0.0000,0.0000,0.0000,0.0965,0.0000,0.7710,0.0000,0.0000,0.0000,0.0000,0.0200,0.0200,0.0216,0.0000,0.0000,1.5270,1.9537,0.0216,0.6030,0.1803,0.5008,0.0866,0.0180,0.1947,0.0209,0.0000,0.0000,0.3205,0.1947,0.0000,0.5008,0.0835,0.0000,0.0209,0.0965,0.0835,0.0000,0.0200,0.0200,0.0000,11.9315,0.0000,10.4728,8.6552,0.1947,5.2541,0.0000,0.0200,0.0000,0.0000,0.0216,0.0216,0.0180,1.3360,
Thermoanaerobacter pseudethanolicus ATCC 33223,0.0209,0.5008,0.0801,0.0000,0.0801,4.1669,0.0000,0.0000,1.2035,0.0000,1.6226,0.3205,1.1230,0.7212,0.6030,0.1622,0.0000,0.0180,0.0000,0.0180,0.2171,0.0000,0.0866,0.0965,0.0000,0.0000,0.0000,0.0801,0.0000,0.0000,0.0000,0.0216,0.0191,0.0000,0.0000,0.0000,0.0000,0.0241,0.0000,0.0000,0.0000,0.0000,0.0000,0.0000,0.0000,0.0000,0.0000,0.0000,0.0000,0.0000,0.0000,0.0000,0.0000,0.0000,0.0000,0.0241,0.0000,0.7212,0.0241,0.0000,0.0209,0.0241,0.0000,0.0000,1.0603,0.0764,0.0000,0.3182,0.2171,0.0000,0.3859,0.3205,0.5008,0.0866,0.0180,0.1947,0.0209,0.3054,0.0000,0.1803,0.1947,0.0000,0.0000,0.3686,0.0000,0.0835,0.3859,0.0209,0.3054,0.0000,10.4931,1.2218,0.6873,10.4931,13.5237,13.5237,0.0000,0.0000,0.0000,0.0801,0.0000,0.0000,0.0000,0.0000,0.0000,1.3360,
Thermoanaerobacter sp. X513,0.0209,0.0801,0.0801,0.0000,0.1803,5.3353,0.0801,0.0000,1.3360,0.0000,0.7212,0.0801,1.1230,0.7212,0.6030,0.0721,0.0000,0.0000,0.0000,0.0180,0.2171,0.0000,0.0866,0.3859,0.0000,0.0000,0.0000,0.0801,0.0000,0.0000,0.0000,0.0216,0.0191,0.0000,0.0000,0.0000,0.0000,0.0965,0.0241,0.0000,0.0000,0.0000,0.0200,0.0000,0.0000,0.0000,0.0000,0.0000,0.0000,0.0000,0.0000,0.0000,0.0000,0.0000,0.0000,0.0000,0.0000,1.2821,0.0241,0.0000,0.0209,0.0241,0.0000,0.0000,0.7790,0.1718,0.0000,0.0870,0.0965,0.0000,0.2171,0.5008,1.0397,0.0866,0.0721,0.0866,0.0209,0.1718,0.0000,0.3205,0.5409,0.0000,0.0000,0.1879,0.0000,0.0209,0.2171,0.0209,0.3054,0.0000,0.7212,0.6873,1.2218,0.0000,13.5237,13.5237,0.0000,5.1284,0.0200,0.0801,0.0000,0.0000,0.0000,0.0000,0.0180,1.6909,
Thermoanaerobacter sp. X514,0.0209,0.1803,0.0200,0.0000,0.0200,4.7331,0.0801,0.0000,1.5425,0.0000,2.8847,0.3205,1.1230,0.5008,0.2171,0.1622,0.0000,0.0180,0.0000,0.0000,0.3859,0.0000,0.1947,0.0965,0.0000,0.0866,0.0000,0.0801,0.0000,0.0000,0.0000,0.0216,0.0191,0.0000,0.0000,0.0000,0.0000,0.2171,0.0000,0.0000,0.0000,0.0000,0.0000,0.0000,0.0000,0.0000,0.0000,0.0000,0.0000,0.0000,0.0000,0.0000,0.0000,0.0000,0.0000,0.0965,0.0000,0.7212,0.0965,0.0000,0.0000,0.0241,0.0000,0.0000,0.1947,0.4773,0.0000,0.1846,0.3859,0.0000,0.2171,0.0200,1.6973,0.0866,0.0721,0.0216,0.0835,0.3054,0.0000,0.5008,0.7790,0.0000,0.0000,0.0295,0.0000,0.0209,0.0241,0.0209,0.1718,0.0000,0.5008,0.6873,0.6873,0.0000,13.5237,13.7478,0.0000,6.4906,0.0000,0.0200,0.0000,0.0000,0.0000,0.0000,0.0000,2.5259,
Thermoanaerobacter tengcongensis MB4 (Caldanaerobacter subterraneus,0.0209,0.1803,0.0967,0.0000,0.1803,5.2084,0.5423,0.0000,1.3360,1.3848,2.0033,0.0801,1.0603,0.7212,0.3859,0.0180,0.0216,0.0000,0.0216,0.0180,0.2470,0.3462,0.0216,0.3859,0.0000,0.1947,0.0000,0.0000,0.0000,0.0764,0.0200,0.1947,0.0764,0.0000,0.0000,0.0000,0.0000,0.2171,0.0000,0.0200,0.0000,0.0000,0.0200,0.0000,0.0000,0.0000,0.0000,0.0000,0.0000,0.0000,0.0000,0.0000,0.0000,0.0000,0.0000,0.2171,0.0000,0.3205,0.0000,0.0216,0.0000,0.0241,0.0000,0.0000,0.5409,2.8439,0.0000,0.1622,0.2171,0.0000,0.0241,0.5008,0.7710,0.0216,0.0180,0.0216,0.0835,0.0764,0.0000,0.7212,0.0216,0.0216,0.7710,0.3686,0.0000,0.0209,0.2171,0.0835,0.3054,0.0801,0.0000,0.0191,0.0764,0.0000,2.6182,0.0000,13.5237,2.8847,0.0000,0.0000,0.0000,0.0000,0.0000,0.0216,0.0721,1.0229,
Thermoanaerobacter wiegelii Rt8.B1,0.0000,0.7212,0.0283,0.0000,0.0283,3.5323,0.0000,0.0000,0.6509,0.0000,1.6973,0.0200,1.1230,0.7212,0.3859,0.4506,0.0866,0.0000,0.0866,0.0255,0.0241,0.0000,0.3462,0.6030,0.0000,0.0000,0.0000,0.3205,0.0000,0.0191,0.0000,0.0216,0.0764,0.0000,0.0000,0.0000,0.0000,0.0000,0.0965,0.0000,0.0000,0.0000,0.0200,0.0000,0.0200,0.0000,0.0000,0.0000,0.0000,0.0000,0.0000,0.0000,0.0000,0.0000,0.0000,0.0241,0.0000,0.0801,0.0000,0.0000,0.0000,0.0000,0.0000,0.0000,0.0216,0.9354,0.0000,0.2884,1.2518,0.0000,0.0965,0.5008,0.3205,0.0866,0.0000,0.0866,0.0835,0.3054,0.0000,0.3537,0.3462,0.0000,0.0000,0.1008,0.0000,0.0209,0.2171,0.0835,0.0764,0.3537,0.0000,0.1718,0.6873,0.0000,13.5237,12.4635,0.0216,12.7278,0.0000,0.0200,0.0000,0.0000,0.0000,0.0000,0.0180,3.6404,
Vulcanisaeta distributa DSM 14429,1.0229,0.7212,0.0000,0.0000,0.0200,1.8022,0.0000,0.0000,0.5219,0.5858,0.0801,0.0200,0.5409,0.0801,0.8683,0.0180,0.0216,0.0721,0.1947,0.0000,0.0965,0.1045,0.0866,0.6030,0.0000,0.0000,0.0866,0.0200,0.0000,0.0191,0.0000,0.0000,0.1718,0.0000,0.0000,0.0000,0.0000,0.0000,0.0241,0.0000,0.0216,1.0603,0.0000,0.0000,0.0000,0.0000,0.0000,0.0000,0.0000,0.0000,0.0000,0.0000,0.0000,0.0000,0.0000,0.0000,0.0000,0.0801,0.0241,0.0216,0.0209,0.0000,0.0200,0.0000,0.3462,0.8288,0.0000,0.3604,1.7035,1.4565,0.0241,0.3205,0.7212,0.0216,1.1534,0.3462,0.0209,1.9881,0.5409,0.5008,0.5409,0.0866,0.0000,0.0835,0.0216,0.0835,0.0241,0.1008,0.3054,0.0200,0.0000,0.0191,0.0000,0.0000,0.5409,0.3462,0.5409,0.0000,12.5204,6.6399,0.0000,0.0216,0.0216,0.0000,0.0000,0.5219,
Vulcanisaeta moutnovskia 768-28,0.1879,0.0200,0.0000,0.0000,0.0200,0.1622,1.2821,0.0000,0.3340,1.0603,0.0000,0.0801,0.1947,0.0000,0.6030,0.0721,0.0000,0.1622,0.1947,0.0000,0.1165,0.0216,0.0000,0.9282,0.0000,0.0866,0.0000,0.4338,0.0000,0.0000,0.0000,0.0216,0.1718,0.0000,0.0866,0.0000,0.0000,0.0000,0.0000,0.0000,0.0000,1.0603,0.0000,0.0216,0.0000,0.0209,0.0000,0.0000,0.0000,0.0000,0.0000,0.0000,0.0000,0.0000,0.0000,0.0000,0.0000,0.0000,0.0000,0.0000,0.0000,0.0000,0.0000,0.0000,0.0866,1.6175,0.0000,0.4506,0.8683,0.7790,0.2171,0.7212,0.7710,0.3462,1.5785,0.7790,0.0835,0.4773,0.1947,0.5008,0.1947,0.5409,0.1803,0.1879,0.0216,0.3340,0.2171,0.1879,0.3054,0.0000,0.0000,0.0191,0.1955,0.0000,0.1947,0.1947,1.0603,0.1803,2.9559,12.5204,0.0866,0.0216,0.0216,0.0216,0.1622,0.5219,
Xylella fastidiosa 9a5c,0.0209,0.3205,0.5423,0.0000,0.1803,0.0000,3.9264,0.0000,1.6909,0.0000,0.3205,0.1803,0.0000,0.5008,0.2171,0.0000,0.0000,0.0000,0.0000,0.0000,0.2171,0.0000,0.0000,1.1818,0.0000,0.0000,0.0000,0.0000,0.0000,0.0191,0.0200,0.0000,0.1718,0.0000,0.0000,0.0000,0.0209,0.0000,0.0241,0.0801,0.0000,0.0000,0.0000,0.0000,0.0000,0.0000,0.0000,0.0000,0.0000,0.0000,0.0000,0.0000,0.0000,0.0000,0.0000,0.0000,0.0000,0.7212,0.0000,0.0000,0.0209,0.0000,0.0801,0.0000,0.0000,1.5463,0.0000,0.0000,0.3859,0.0000,0.0965,0.0801,0.7212,0.1947,0.0000,0.0000,0.1879,0.3818,0.0000,0.5008,0.0000,0.0000,0.0801,0.0000,0.0000,0.3340,0.6030,0.0000,0.4773,0.3205,0.0000,0.0191,0.0764,0.0000,0.0000,0.0000,0.0000,0.1803,0.2052,0.0200,14.5755,14.7118,0.5022,11.0643,11.8237,0.8553,
Xylella fastidiosa M12,0.0209,0.5008,0.5008,0.0000,0.0000,0.0000,6.6399,0.0000,0.3340,0.0000,1.6973,0.1803,0.0000,0.1803,0.8683,0.0000,0.0000,0.0000,0.0000,0.0000,0.0000,0.0000,0.0000,0.3859,0.0000,0.0000,0.0000,0.0000,0.0000,0.0764,0.0200,0.0000,0.3371,0.0000,0.0000,0.0000,0.0000,0.0241,0.0000,0.0200,0.0000,0.0000,0.0000,0.0000,0.0000,0.0000,0.0000,0.0000,0.0000,0.0000,0.0000,0.0000,0.0000,0.0000,0.0000,0.2171,0.0000,0.5008,0.0000,0.0000,0.0000,0.0000,0.0200,0.0000,0.0000,0.6873,0.0000,0.0000,0.2171,0.0000,0.2171,0.9816,0.3205,0.0216,0.0000,0.0000,0.0835,0.7077,0.0000,0.5008,0.0000,0.0000,0.0200,0.0209,0.0000,0.1879,0.6030,0.5219,0.0764,0.1803,0.0000,0.0764,0.3054,0.0000,0.0000,0.0000,0.0000,0.1803,0.0200,0.0000,3.1159,13.5237,3.6568,12.4635,11.2638,1.6909,
Xylella fastidiosa M23,0.0835,0.3205,0.3205,0.0000,0.0000,0.0000,3.3855,0.0000,1.0229,0.0000,0.5838,0.0200,0.0000,0.3205,0.2171,0.0000,0.0000,0.0000,0.0000,0.0000,0.3859,0.0216,0.0000,0.3859,0.0000,0.0000,0.0000,0.0000,0.0000,0.0000,0.0200,0.0000,0.1955,0.0000,0.0000,0.0000,0.0000,0.0241,0.0000,0.0200,0.0000,0.0000,0.0000,0.0000,0.0000,0.0000,0.0000,0.0000,0.0000,0.0000,0.0000,0.0000,0.0000,0.0000,0.0000,0.0241,0.0000,0.7212,0.0241,0.0000,0.0000,0.0000,0.0801,0.0200,0.0000,1.2850,0.0000,0.0000,0.0241,0.0000,0.2171,0.1803,2.4239,0.0000,0.0000,0.0000,0.0000,0.1145,0.0000,0.1803,0.0000,0.0000,0.0000,0.0000,0.0000,0.7515,1.1818,0.1879,0.3054,0.0801,0.0000,0.3054,0.3054,0.0000,0.0000,0.0000,0.0000,0.7212,0.3205,0.3205,0.0000,12.4635,13.5237,13.5237,11.2638,1.0834,
Xylella fastidiosa Temecula1,0.1879,0.7212,0.0801,0.0000,0.0000,0.0000,3.3855,0.0000,1.0229,0.0000,0.3537,0.0200,0.0000,1.2821,0.6030,0.0000,0.0000,0.0000,0.0000,0.0000,0.2171,0.0216,0.0000,1.2518,0.0000,0.0000,0.0000,0.0000,0.0000,0.0191,0.0200,0.0000,0.1955,0.0000,0.0000,0.0000,0.0000,0.0000,0.0000,0.0200,0.0000,0.0000,0.0000,0.0000,0.0000,0.0000,0.0000,0.0000,0.0000,0.0000,0.0000,0.0000,0.0000,0.0000,0.0000,0.0000,0.0000,0.7212,0.0000,0.0000,0.0000,0.0000,0.1803,0.0401,0.0000,0.9354,0.0000,0.0000,0.0965,0.0000,0.0965,0.1803,1.2821,0.0000,0.0000,0.0000,0.0000,0.0270,0.0000,0.1803,0.0000,0.0000,0.0801,0.0209,0.0000,0.5219,0.9282,0.0209,0.1718,0.1803,0.0000,0.4773,0.4773,0.0000,0.0000,0.0000,0.0000,0.5423,0.1803,0.0801,0.0000,12.4635,13.7478,13.5237,11.2638,1.4744,
Xylella fastidiosa subsp. fastidiosa GB514,0.7515,2.8847,0.7212,0.0000,0.0000,0.0000,2.0033,0.0000,0.0209,0.0000,0.5008,0.0000,0.0000,1.2821,0.8683,0.0000,0.0000,0.0000,0.0000,0.0000,0.2171,0.0000,0.0000,1.1818,0.0000,0.0000,0.0000,0.0200,0.0000,0.0191,0.0000,0.0000,0.1718,0.0000,0.0000,0.0000,0.0000,0.0241,0.0000,0.0801,0.0000,0.0000,0.0200,0.0000,0.0000,0.0000,0.0000,0.0000,0.0000,0.0000,0.0000,0.0000,0.0000,0.0000,0.0000,0.0000,0.0000,0.0801,0.0000,0.0000,0.0000,0.0000,0.0200,0.0000,0.0000,1.2218,0.0000,0.0000,0.0241,0.0000,0.6030,0.1803,0.5008,0.0000,0.0000,0.0000,0.1879,1.2218,0.0000,0.1803,0.0000,0.0000,0.9816,0.6089,0.0000,0.1879,0.0965,0.0835,0.4773,0.0801,0.0000,0.0000,0.0000,0.0000,0.0000,0.0000,0.0000,0.0200,0.5008,0.0200,0.0000,13.5237,14.1438,13.5237,11.2638,0.7515,
Zunongwangia profunda SM-A87,0.0000,0.5008,0.0801,0.0000,0.0200,2.6848,4.0426,0.0000,0.0000,0.5409,0.9816,0.0000,0.6202,1.4423,0.3859,0.0180,0.0866,0.0180,0.0216,0.0180,0.2171,0.0216,0.0216,1.5436,0.0000,0.0866,0.0000,0.0200,0.0216,0.3054,0.0000,0.0866,0.0000,0.0216,0.0000,0.0000,0.0000,0.0000,0.0965,0.0200,0.0866,0.7790,0.0801,0.0216,0.0000,0.0000,0.0000,0.0000,0.0000,0.0000,0.0000,0.0000,0.0000,0.0000,0.0000,0.0000,0.0000,0.1803,0.0000,0.0000,0.0000,0.0000,0.0000,0.0000,0.0866,1.5463,0.0000,0.4506,0.0965,1.0603,0.0241,0.5008,2.4239,0.3462,0.0721,0.0866,0.0000,0.0764,0.5409,0.0801,0.0866,0.0216,0.7212,0.0000,0.2216,0.0000,0.6030,0.0000,0.1718,0.1803,0.0000,0.3054,0.1718,0.0000,0.3462,0.3821,0.1947,0.3205,0.0000,0.0000,0.0866,0.0866,0.0866,0.0866,0.1622,13.2634,

