Depth: 1,77,65,65
Depth: 2,69,66,65
Depth: 3,69,68,74
Depth: 4,66,67,65
Depth: 5,66,63,70
Depth: 6,67,67,68
Depth: 7,66,69,76
Depth: 8,69,65,70
Depth: 9,67,75,69
Depth: 10,65,68,69
Depth: 11,77,69,70
Depth: 12,71,75,67
Depth: 13,66,68,76
Depth: 14,68,69,69
Depth: 15,72,71,69
Depth: 16,71,75,70
Depth: 17,70,75,74
Depth: 18,73,72,80
Depth: 19,72,70,74
Depth: 20,78,73,71
Depth: 21,76,73,68
Depth: 22,76,72,72
Depth: 23,77,68,67
Depth: 24,77,72,70
Depth: 25,79,71,73
Depth: 1,282,347,315
Depth: 2,326,417,314
Depth: 3,359,442,428
Depth: 4,382,452,470
Depth: 5,488,521,496
Depth: 6,549,525,565
Depth: 7,646,552,724
Depth: 8,704,686,634
Depth: 9,704,573,637
Depth: 10,729,850,825
Depth: 11,731,844,718
Depth: 12,1143,851,832
Depth: 13,981,942,723
Depth: 14,984,1020,998
Depth: 15,950,960,899
Depth: 16,979,1042,1113
Depth: 17,1167,1059,1074
Depth: 18,1319,1081,897
Depth: 19,1200,1255,1093
Depth: 20,1336,1123,1370
Depth: 21,1126,1451,1391
Depth: 22,1419,1448,1296
Depth: 23,1363,1197,1442
Depth: 24,1362,1493,1409
Depth: 25,1555,1530,1490
