Bacillus amyloliquefaciens DSM 7,9.7706,10.7422,7.3459,0.2040,0.5083,0.3043,0.3490,0.2040,0.2040,0.5197,5.1731,1.5182,0.6856,0.6838,9.3954,0.1875,0.5034,0.3249,0.2677,0.7623,2.0887,0.4163,0.5083,0.5720,0.0272,0.0076,0.0060,0.0208,0.0000,0.0000,0.0000,0.0060,0.0000,0.0000,0.0572,0.1251,0.0000,0.0049,0.0469,0.0225,0.0000,0.1092,0.0049,0.0000,0.0000,0.0060,0.0076,0.0000,0.0000,0.0000,0.0000,0.0000,0.0000,0.0000,0.0000,0.0083,0.0000,0.0000,0.0061,0.0000,0.0000,0.0000,0.0000,0.0000,0.0299,0.1676,0.0000,0.0214,0.4779,0.0398,0.2530,0.3380,0.2566,0.0299,0.0650,0.0856,0.1285,0.4401,0.0000,0.0715,1.2122,0.0000,0.0000,0.5555,1.2659,0.4712,0.8146,0.1809,0.2646,0.2235,0.0800,0.0508,0.1454,0.1127,0.2530,0.0235,0.0226,0.1007,0.1447,0.4631,1.1321,0.4163,6.1440,6.3366,6.7758,2.0735,
Bacillus amyloliquefaciens FZB42,7.5305,13.0412,9.6241,0.0547,0.1888,0.0771,0.3490,0.0547,0.0547,0.3534,4.1899,0.8930,0.3709,0.4522,9.0406,0.1389,0.7280,0.2235,0.0398,0.1888,2.6424,0.0547,0.1888,0.4525,0.0000,0.0073,0.0562,0.0206,0.0000,0.0000,0.0000,0.0060,0.0000,0.0000,0.0219,0.0894,0.0000,0.0000,0.0469,0.1490,0.0059,0.0000,0.0000,0.0000,0.0000,0.0060,0.0076,0.0000,0.0000,0.0000,0.0000,0.0000,0.0000,0.0000,0.0000,0.0079,0.0000,0.0000,0.0000,0.0000,0.0000,0.0000,0.0225,0.0000,0.0065,0.1659,0.0000,0.0057,0.0681,0.0398,0.0457,0.3345,0.4285,0.0295,0.1681,0.0057,0.0355,0.6487,0.0000,0.0000,0.3533,0.0000,0.0000,0.6108,0.9367,0.5741,0.7304,0.1809,0.0519,0.3533,0.0047,0.0508,0.0547,0.0083,0.0189,0.0941,0.0056,0.2147,0.1428,0.1151,3.5679,1.8425,6.8247,7.1328,7.6992,0.8829,
Bacillus amyloliquefaciens IT-45,2.8645,4.0609,12.2447,0.1190,0.2246,0.1981,1.0421,0.1190,0.1190,0.1981,4.1202,2.4920,1.4898,1.2922,8.6345,0.8569,1.8146,0.9084,0.8117,0.1422,1.3527,0.2569,0.0786,0.6985,0.0322,0.0000,0.0062,0.0277,0.0126,0.0000,0.0000,0.0077,0.1153,0.0000,0.2917,0.1244,0.0067,0.0000,0.4284,0.0282,0.1902,0.1422,0.0000,0.0080,0.0000,0.0062,0.0278,0.0000,0.0000,0.0000,0.0000,0.0000,0.0000,0.0000,0.0000,0.0000,0.0000,0.0623,0.0000,0.0000,0.0277,0.0000,0.0000,0.0000,0.3393,0.2397,0.0000,0.0065,0.2543,0.0716,1.1175,1.8367,0.1551,0.2482,0.0660,0.0285,0.1071,0.1625,0.1956,0.1071,0.3528,0.0716,0.8117,1.1615,0.5248,0.4365,1.2065,0.1423,0.4458,0.8981,0.0918,0.3288,0.1694,0.1525,0.1372,0.0660,0.0576,0.0060,0.1211,0.7908,1.3909,1.7597,5.1959,3.1684,4.3873,1.7591,
Bacillus anthracis str. 'Ames Ancestor',1.9273,1.6007,1.6597,8.8103,11.7069,10.6143,8.8750,8.8103,8.8103,6.3802,10.1037,9.3916,8.6142,1.6623,3.0543,0.3642,1.5390,0.9443,0.3458,0.1494,0.5219,0.8387,0.1494,0.8366,0.0000,0.0000,0.0000,0.0085,0.0000,0.0000,0.0000,0.0000,0.0835,0.0000,0.0209,0.4971,0.0000,0.2906,0.2058,0.0000,0.0000,0.0166,0.2906,0.0000,0.0000,0.0000,0.4912,0.0000,0.2906,0.0000,0.0000,0.0000,0.0000,0.0000,0.0000,0.0000,0.2906,0.0148,0.0000,0.0152,0.0085,0.0000,0.0000,0.0000,0.2615,0.0000,0.0000,0.2906,0.3340,0.0000,0.7228,0.1879,0.3129,0.0148,0.0249,0.3122,0.0000,0.2933,0.0183,0.0610,0.0000,0.0000,0.8990,1.3360,0.1879,0.6087,0.0209,0.1809,0.0681,0.0209,0.3054,0.1129,0.4831,0.2365,0.3054,0.3458,0.3245,0.4912,0.4952,0.3812,1.3880,0.2417,0.2067,3.3552,1.8554,3.4451,
Bacillus anthracis str. A0248,1.6834,1.5225,1.6597,9.1252,11.7069,10.6143,8.9574,9.1252,9.1252,7.0194,10.1037,9.6235,8.7553,2.0305,3.9786,0.3608,1.3180,0.7113,0.3458,0.1494,0.5219,0.6893,0.1494,0.8231,0.0000,0.0000,0.0000,0.0000,0.0000,0.0000,0.0000,0.0000,0.0835,0.0000,0.0209,0.5898,0.0000,0.1578,0.1381,0.0000,0.0000,0.0166,0.1578,0.0000,0.0000,0.0000,0.3821,0.0000,0.1578,0.0000,0.0000,0.0000,0.0000,0.0000,0.0000,0.0000,0.1578,0.0146,0.0000,0.0000,0.0000,0.0000,0.0000,0.0000,0.2831,0.0000,0.0000,0.3014,0.3340,0.0000,0.5898,0.1879,0.2297,0.0000,0.0249,0.1715,0.0000,0.2862,0.0183,0.0152,0.0000,0.0000,0.8990,1.3360,0.1879,0.6997,0.0209,0.1198,0.0665,0.0209,0.2239,0.0652,0.3014,0.1500,0.2239,0.3458,0.2367,0.3821,0.6742,0.2440,1.3656,0.1692,0.3200,2.8769,2.2432,3.1009,
Bacillus anthracis str. Ames,1.9273,1.6007,1.6597,8.8103,11.7069,10.6143,8.8750,8.8103,8.8103,6.3802,10.1037,9.3916,8.6142,1.6623,3.0543,0.3642,1.5390,0.9443,0.3458,0.1494,0.5219,0.8387,0.1494,0.8366,0.0000,0.0000,0.0000,0.0085,0.0000,0.0000,0.0000,0.0000,0.0835,0.0000,0.0209,0.4971,0.0000,0.2906,0.2058,0.0000,0.0000,0.0166,0.2906,0.0000,0.0000,0.0000,0.4912,0.0000,0.2906,0.0000,0.0000,0.0000,0.0000,0.0000,0.0000,0.0000,0.2906,0.0148,0.0000,0.0152,0.0085,0.0000,0.0000,0.0000,0.2615,0.0000,0.0000,0.2906,0.3340,0.0000,0.7228,0.1879,0.3129,0.0148,0.0249,0.3122,0.0000,0.2933,0.0183,0.0610,0.0000,0.0000,0.8990,1.3360,0.1879,0.6087,0.0209,0.1809,0.0681,0.0209,0.3054,0.1129,0.4831,0.2365,0.3054,0.3458,0.3245,0.4912,0.4952,0.3812,1.3880,0.2417,0.2067,3.3552,1.8554,3.4451,
Bacillus anthracis str. CDC 684,1.6834,1.5225,2.0082,9.1252,11.7069,10.6143,8.9574,9.1252,9.1252,7.0194,10.1037,9.6235,8.7553,2.0305,3.9786,0.3608,1.3180,0.9320,0.3458,0.1494,0.5219,0.6893,0.0664,0.8231,0.0000,0.0000,0.0000,0.0000,0.0000,0.0000,0.0000,0.0000,0.0835,0.0000,0.0209,0.3901,0.0000,0.1578,0.1381,0.0000,0.0000,0.0166,0.1578,0.0000,0.0000,0.0000,0.3821,0.0000,0.1578,0.0000,0.0000,0.0000,0.0000,0.0000,0.0000,0.0000,0.1578,0.0146,0.0000,0.0000,0.0000,0.0000,0.0000,0.0000,0.1685,0.0000,0.0000,0.3014,0.3340,0.0000,0.5898,0.1879,0.2297,0.0146,0.0249,0.1715,0.0000,0.2862,0.0183,0.0152,0.0000,0.0000,0.8990,1.3360,0.1879,0.4877,0.0209,0.1198,0.0665,0.0209,0.2239,0.0652,0.3014,0.1500,0.2239,0.3458,0.2367,0.3821,0.4888,0.2440,1.6867,0.1692,0.3200,2.8769,2.2432,3.5799,
Bacillus anthracis str. H9401 (Bacillus anthracis NCCP 12889),1.9273,1.6007,1.6597,8.8103,11.7069,10.6143,8.8750,8.8103,8.8103,6.3802,10.1037,9.3916,8.6142,1.6623,3.0543,0.3642,1.5390,0.9443,0.3458,0.1494,0.5219,0.8387,0.1494,0.8366,0.0000,0.0000,0.0000,0.0085,0.0000,0.0000,0.0000,0.0000,0.0835,0.0000,0.0209,0.4971,0.0000,0.2906,0.2058,0.0000,0.0000,0.0166,0.2906,0.0000,0.0000,0.0000,0.4912,0.0000,0.2906,0.0000,0.0000,0.0000,0.0000,0.0000,0.0000,0.0000,0.2906,0.0148,0.0000,0.0152,0.0085,0.0000,0.0000,0.0000,0.2615,0.0000,0.0000,0.2906,0.3340,0.0000,0.7228,0.1879,0.3129,0.0148,0.0249,0.3122,0.0000,0.2933,0.0183,0.0610,0.0000,0.0000,0.8990,1.3360,0.1879,0.6087,0.0209,0.1809,0.0681,0.0209,0.3054,0.1129,0.4831,0.2365,0.3054,0.3458,0.3245,0.4912,0.4952,0.3812,1.3880,0.2417,0.2067,3.3552,1.8554,3.4451,
Bacillus anthracis str. Sterne,1.5744,1.6007,2.0082,8.8103,11.7069,10.6143,8.8750,8.8103,8.8103,6.3802,10.1037,9.3916,8.6142,1.6623,3.0543,0.3642,1.5390,0.9443,0.3458,0.1494,0.5219,0.8387,0.0664,0.8366,0.0000,0.0000,0.0000,0.0085,0.0000,0.0000,0.0000,0.0000,0.0835,0.0000,0.0209,0.4971,0.0000,0.2906,0.2058,0.0000,0.0000,0.0166,0.2906,0.0000,0.0000,0.0000,0.4912,0.0000,0.2906,0.0000,0.0000,0.0000,0.0000,0.0000,0.0000,0.0000,0.2906,0.0148,0.0000,0.0152,0.0085,0.0000,0.0000,0.0000,0.2615,0.0000,0.0000,0.2906,0.3340,0.0000,0.7228,0.1879,0.3129,0.0148,0.0249,0.3122,0.0000,0.2933,0.0183,0.0610,0.0000,0.0000,0.8990,1.3360,0.1879,0.6087,0.0209,0.1809,0.0681,0.0209,0.3054,0.1129,0.4831,0.2365,0.3054,0.3458,0.3245,0.4912,0.4952,0.3812,1.3880,0.2417,0.2067,3.3552,1.8554,3.9547,
Bacillus cereus 03BB102,2.1941,4.4651,1.5894,4.4299,9.0074,6.7703,5.4705,4.4299,4.4299,10.1445,10.1037,7.6871,7.7189,3.5841,5.7051,0.3468,0.9834,0.4384,0.2799,0.1482,0.3340,1.3074,0.1680,1.4647,0.0000,0.0041,0.0000,0.0000,0.0000,0.0041,0.0412,0.0000,0.0835,0.0203,0.0000,0.6216,0.0189,0.3753,0.3881,0.0209,0.0000,0.0041,0.3753,0.0203,0.0189,0.0000,1.0034,0.0203,0.3753,0.0000,0.0000,0.0000,0.0000,0.0000,0.0000,0.0189,0.3753,0.1191,0.0041,0.0189,0.0377,0.0203,0.0189,0.0041,0.7756,0.1879,0.0000,0.5208,0.3340,0.0488,0.9874,0.1879,0.7418,0.0000,0.0262,0.6395,0.0047,0.7317,0.0193,0.0160,0.0000,0.0884,1.0095,0.7515,0.1879,0.6094,0.0209,0.1253,0.1638,0.0209,0.4034,0.1511,0.9749,0.0501,0.3021,0.2154,0.2975,0.3994,0.6141,0.2104,1.3522,0.7901,0.4860,2.9871,1.7966,2.8377,
Bacillus cereus AH187,2.1389,4.0341,2.4739,0.7361,3.5991,2.1855,1.6838,0.7361,0.7361,2.2381,12.7185,4.9750,6.3706,1.2723,5.3215,0.4061,0.3688,0.4942,0.3075,0.0438,1.8638,1.3205,0.4116,0.7228,0.0000,0.0094,0.0000,0.1219,0.0000,0.0094,0.0000,0.0000,0.1558,0.0000,0.0072,0.6094,0.0000,0.0448,0.3346,0.0072,0.0072,0.1517,0.0160,0.0000,0.0000,0.0000,0.5195,0.0000,0.0160,0.0000,0.0000,0.0000,0.0000,0.0000,0.0000,0.0348,0.0160,0.0929,0.0060,0.0000,0.0385,0.0000,0.0000,0.0000,0.7262,0.1461,0.0000,0.2382,0.6036,0.0431,1.0389,0.1088,0.3688,0.1061,0.2806,2.1609,0.2596,0.0160,0.0431,0.0496,0.0324,0.0514,1.2074,0.1461,0.4579,0.1643,0.0090,0.3444,0.5671,0.0090,0.1643,0.1244,0.7575,0.0534,0.2236,0.9342,0.4061,1.2992,0.3686,1.2535,3.2197,2.3110,1.4622,1.9122,1.8390,2.9381,
Bacillus cereus AH820,1.6834,1.3979,2.0082,8.9691,11.7069,10.6143,8.9574,8.9691,8.9691,6.3802,10.1037,9.5311,8.7553,1.6623,3.0543,0.3608,1.3308,0.9381,0.3458,0.1494,0.5219,0.7013,0.0664,0.8231,0.0000,0.0000,0.0000,0.0000,0.0000,0.0000,0.0000,0.0000,0.0835,0.0000,0.0209,0.3901,0.0000,0.2185,0.1381,0.0000,0.0000,0.0166,0.2185,0.0000,0.0000,0.0000,0.3858,0.0000,0.2185,0.0000,0.0000,0.0000,0.0000,0.0000,0.0000,0.0000,0.2185,0.0147,0.0000,0.0152,0.0000,0.0000,0.0000,0.0000,0.2850,0.0209,0.0000,0.2185,0.3340,0.0000,0.5898,0.1879,0.2319,0.0147,0.0249,0.2361,0.0000,0.2890,0.0183,0.0610,0.0000,0.0000,0.8990,1.3360,0.0835,0.4877,0.0209,0.1210,0.1663,0.0209,0.2239,0.0652,0.5879,0.1509,0.2239,0.3458,0.3608,0.3858,0.6785,0.3812,1.6867,0.2374,0.2048,3.3552,1.8432,3.5799,
Bacillus cereus biovar anthracis str. CI,2.0418,2.1985,1.7023,7.3829,10.8469,9.7701,7.5796,7.3829,7.3829,7.0787,10.1037,9.9227,8.7553,2.0305,4.0313,0.2344,0.9733,0.5164,0.3458,0.1473,0.5219,0.5813,0.0655,0.8231,0.0000,0.0000,0.0000,0.0145,0.0000,0.0000,0.0164,0.0000,0.0835,0.0000,0.0209,0.3901,0.0000,0.2161,0.0646,0.0000,0.0000,0.0000,0.2161,0.0000,0.0000,0.0000,0.2244,0.0000,0.2161,0.0000,0.0000,0.0000,0.0000,0.0000,0.0000,0.0000,0.2161,0.0145,0.0000,0.0000,0.0000,0.0000,0.0000,0.0000,0.1675,0.0835,0.0000,0.4144,0.3340,0.0000,0.5898,0.1879,0.2244,0.0145,0.0249,0.2335,0.0000,0.3365,0.0183,0.0152,0.0000,0.0000,0.8990,1.0229,0.0835,0.6997,0.0209,0.0751,0.0161,0.0209,0.2239,0.1368,0.6179,0.1490,0.2239,0.3458,0.3982,0.2244,0.4857,0.2427,1.3656,0.5064,0.4565,2.8769,2.2966,3.1009,
Bacillus sp. 1NLA3E,3.6923,4.4874,3.3402,0.0258,1.1373,0.0516,0.3025,0.0258,0.0258,0.0516,2.8098,2.2314,0.6926,11.2091,6.0251,0.1622,0.2253,0.1826,0.4616,0.5704,2.0300,0.8830,0.3543,0.8659,0.0566,0.0243,0.0239,0.0247,0.0566,0.0243,0.0566,0.0239,0.0239,0.0595,0.0566,0.6926,0.0516,0.0258,0.1622,0.0243,0.0566,0.1830,0.0258,0.1693,0.0516,0.0239,0.3062,0.0595,0.0258,0.0000,0.0000,0.0000,0.0000,0.0000,0.0000,0.0245,0.0258,0.1826,0.0243,0.0245,0.0247,0.0595,0.0245,0.0243,0.0247,0.4451,0.0243,0.4180,0.2605,0.1693,0.7021,0.2605,0.5205,0.1826,0.0275,0.6809,0.2850,0.3307,0.1878,0.1510,0.2649,0.0634,0.5730,0.4451,0.6738,1.2369,0.2649,0.4120,0.4293,2.3244,0.4887,0.0263,0.4180,0.8082,0.4192,0.3495,0.5647,0.5205,0.9260,2.2137,3.2256,4.4874,4.2189,5.1965,2.7110,1.4756,
Bacillus sp. JS,2.9812,7.3984,8.7291,0.0026,0.2130,0.0180,0.0769,0.0026,0.0026,0.0180,2.8812,1.3183,0.2326,0.1790,13.0844,0.1718,0.3380,0.0901,0.0000,0.0198,1.0604,0.1045,0.3436,0.0146,0.0208,0.0026,0.0170,0.0184,0.0032,0.0026,0.0026,0.0170,0.0906,0.0000,0.0208,0.0351,0.0180,0.0026,0.0769,0.2139,0.0208,0.0198,0.0026,0.0000,0.0180,0.0170,0.0169,0.0000,0.0026,0.0000,0.0000,0.0000,0.0000,0.0000,0.0000,0.0025,0.0026,0.0184,0.0026,0.0025,0.0027,0.0000,0.0025,0.0026,0.0346,0.1194,0.0000,0.0026,0.1381,0.0232,0.8564,0.6671,0.1915,0.0470,0.5301,0.3052,0.0180,0.2474,0.0000,0.0025,0.2711,0.0232,0.5793,0.8194,0.2710,0.1685,0.2711,0.1915,0.0448,0.5793,0.0351,0.2191,0.1164,0.0184,0.1965,0.0000,0.1124,0.6078,1.1872,0.0025,2.4510,1.4666,4.0135,3.2187,4.7120,0.7559,
Enterococcus faecalis 62,0.6475,2.0272,0.5302,0.0104,0.1747,0.0106,0.3866,0.0104,0.0104,0.3435,5.6228,0.2643,0.9982,1.0785,4.2424,8.7139,10.3543,10.5328,10.2753,7.5134,2.6606,0.4010,0.1747,9.3822,0.0127,0.0107,0.0104,0.0325,0.0127,0.0107,0.0107,0.0104,0.0806,0.1283,0.0127,0.3761,0.0297,0.0104,0.0630,0.0127,0.0127,0.0640,0.0104,0.0323,0.0297,0.0104,0.1104,0.0323,0.0104,0.0000,0.0000,0.0000,0.0000,0.0000,0.0000,0.1069,0.2208,0.0325,0.0640,0.0297,0.2214,0.0323,0.0297,0.0107,0.1102,0.0104,0.0000,0.0104,0.0104,0.5407,0.5640,0.3508,0.2643,0.0325,0.1757,0.0709,0.2823,0.0550,0.1757,0.3435,0.1984,0.0323,0.1283,1.7842,0.0806,0.6095,0.1984,0.1104,0.2010,0.5572,0.0620,0.0630,0.1946,0.0684,0.1569,0.3027,0.1874,0.1669,0.2813,0.6308,1.6850,4.9489,1.2808,2.7637,1.9363,1.7602,
Enterococcus faecalis D32,2.4141,5.9661,0.8183,0.0000,0.6415,0.0000,0.2508,0.0000,0.0000,0.0165,2.5259,0.0207,1.3215,0.1873,3.5378,8.2598,11.3964,8.4696,9.6874,9.7814,0.5219,0.1465,0.2172,7.4648,0.0000,0.0042,0.0209,0.0044,0.0835,0.0042,0.0042,0.0000,0.0000,0.0188,0.0000,0.9291,0.0066,0.0056,0.2508,0.0209,0.0000,0.0418,0.0056,0.0913,0.0066,0.0000,0.0484,0.0188,0.0056,0.0000,0.0000,0.0000,0.0000,0.0000,0.0000,0.0463,0.0056,0.0044,0.0042,0.0066,0.0533,0.0188,0.0066,0.0042,0.0401,0.0000,0.0000,0.0480,0.3340,0.3391,0.4893,0.5219,0.0233,0.0044,0.0774,0.0056,0.3955,0.0058,0.1402,0.3408,0.0209,0.1125,0.5478,0.5219,0.5219,0.9291,0.7515,0.0045,0.0484,0.3340,0.3877,0.1743,0.0610,0.0000,0.5581,0.0210,0.1498,0.0045,0.4003,1.2616,2.5404,4.0516,2.4745,4.6009,1.5603,1.6555,
Enterococcus faecalis OG1RF,2.4141,5.4312,1.0688,0.0000,0.2672,0.0000,0.3933,0.0000,0.0000,0.0784,2.5259,0.0057,1.3215,0.1892,3.5160,7.5120,11.5882,11.0399,11.4643,10.7685,0.5219,0.1439,0.2172,7.4648,0.0000,0.0042,0.0209,0.0045,0.0835,0.0042,0.0042,0.0000,0.0000,0.0190,0.0000,0.9291,0.0066,0.0055,0.2480,0.0209,0.0000,0.0418,0.0055,0.1892,0.0066,0.0000,0.0229,0.0190,0.0055,0.0000,0.0000,0.0000,0.0000,0.0000,0.0000,0.0460,0.0055,0.0045,0.0042,0.0066,0.0045,0.0190,0.0066,0.0042,0.0410,0.0000,0.0000,0.0471,0.3340,0.1892,0.4893,0.3340,0.0229,0.0045,0.0782,0.0055,0.2487,0.0057,0.0520,0.2047,0.0209,0.2177,0.5533,0.5219,0.7515,0.9291,0.7515,0.0000,0.0229,0.3340,0.3877,0.1724,0.1631,0.0000,0.5581,0.0000,0.1776,0.0000,0.3418,1.2539,2.5404,2.5319,2.0918,5.1402,1.9308,1.6555,
Enterococcus faecalis V583,2.4141,6.0400,1.3626,0.0000,0.2691,0.0000,0.2480,0.0000,0.0000,0.0662,2.5259,0.0207,1.0089,0.1892,4.0414,7.5120,11.3964,9.2816,11.4643,10.6848,0.5219,0.1456,0.2188,7.4648,0.0000,0.0042,0.0209,0.0045,0.0835,0.0042,0.0042,0.0000,0.0000,0.0190,0.0000,0.9291,0.0066,0.0056,0.2480,0.0209,0.0000,0.0421,0.0056,0.1892,0.0066,0.0000,0.0484,0.0190,0.0056,0.0000,0.0000,0.0000,0.0000,0.0000,0.0000,0.0066,0.0056,0.0045,0.0042,0.0066,0.0537,0.0190,0.0066,0.0042,0.0404,0.0000,0.0000,0.0477,0.5219,0.1892,0.4893,0.5219,0.0233,0.0045,0.0782,0.0477,0.3955,0.0058,0.0520,0.3408,0.0209,0.2177,0.5533,0.5219,0.3340,0.9291,0.7515,0.0045,0.0484,0.3340,0.3877,0.1724,0.0606,0.0000,0.7958,0.0000,0.1776,0.0045,0.2331,0.9881,2.5404,3.0141,2.4471,5.1402,1.9019,1.6555,
Enterococcus faecalis str. Symbioflor 1,2.9646,5.3931,0.5969,0.0000,0.4145,0.0000,0.2453,0.0000,0.0000,0.0164,3.0061,0.0057,0.9951,0.3176,4.1049,6.8086,11.5882,7.8144,9.7360,11.7183,0.3340,0.1456,0.1120,7.3627,0.0000,0.0042,0.0209,0.0045,0.0835,0.0042,0.0042,0.0000,0.0000,0.0189,0.0000,0.9164,0.0066,0.0056,0.2453,0.0209,0.0000,0.0415,0.0056,0.0917,0.0066,0.0000,0.0229,0.0189,0.0056,0.0000,0.0000,0.0000,0.0000,0.0000,0.0000,0.0460,0.0056,0.0045,0.0042,0.0066,0.0537,0.0189,0.0066,0.0042,0.0404,0.0000,0.0000,0.0477,0.7515,0.3408,0.4826,0.5219,0.0229,0.0045,0.0778,0.0477,0.2487,0.0057,0.0517,0.2047,0.0209,0.3532,0.3764,0.1879,0.7515,0.9164,0.7515,0.0000,0.0229,0.1879,0.3824,0.1705,0.0606,0.0000,0.5504,0.0000,0.1757,0.0000,0.5383,1.2539,2.0377,3.5023,2.5298,5.1932,1.9019,1.6329,
Enterococcus faecium Aus0004,0.6559,0.9351,0.3228,0.0200,0.1073,0.0000,0.0743,0.0200,0.0200,0.0000,6.6876,1.6510,1.2031,1.8684,2.6182,0.8972,0.8697,0.1449,0.2740,0.0155,13.0472,11.7824,9.5961,0.9883,0.0233,0.0048,0.0000,0.1696,0.0233,0.0048,0.0048,0.0000,0.0000,0.0213,0.0233,1.0514,0.0000,0.0200,0.1446,0.0994,0.0547,0.0048,0.0200,0.0213,0.0000,0.0000,0.0806,0.0213,0.0200,0.0000,0.0000,0.0000,0.0000,0.0000,0.0000,0.0000,0.0050,0.2268,0.0000,0.0000,0.1696,0.0213,0.0000,0.0048,0.0549,0.0000,0.0000,0.0482,0.0000,0.1014,0.1328,0.0000,0.3160,0.1075,0.1269,0.1295,0.3462,0.0790,0.0213,0.3462,0.0215,0.0213,0.3984,0.0000,0.0000,0.2061,0.0215,0.0510,0.2110,0.2186,0.0199,0.0000,0.0000,0.1449,0.0055,0.0187,0.0699,0.0075,0.0209,0.7790,0.7934,0.6025,3.7536,4.1304,2.8339,2.2754,
Enterococcus faecium DO,0.4555,0.9095,0.0632,0.0201,0.2090,0.0000,0.1690,0.0201,0.0201,0.0000,6.6876,1.3081,1.2031,2.2609,2.6182,1.1667,0.8697,0.1449,0.1494,0.0632,13.0472,12.6979,12.2986,0.9883,0.0233,0.0049,0.0000,0.1696,0.0233,0.0049,0.0049,0.0000,0.0000,0.0213,0.0233,1.0514,0.0000,0.0201,0.1446,0.0994,0.0547,0.0049,0.0201,0.0213,0.0000,0.0000,0.0806,0.0213,0.0201,0.0000,0.0000,0.0000,0.0000,0.0000,0.0000,0.0000,0.0050,0.2268,0.0000,0.0000,0.1696,0.0213,0.0000,0.0049,0.0549,0.0000,0.0000,0.0484,0.0000,0.3524,0.2550,0.0000,0.3160,0.2268,0.1269,0.1300,0.3462,0.0197,0.0213,0.1947,0.0215,0.0880,0.1269,0.0000,0.0000,0.2061,0.0861,0.2600,0.2110,0.0994,0.0199,0.0000,0.0000,0.1449,0.0055,0.0187,0.0699,0.0075,0.0209,1.0603,1.0526,0.5797,2.7987,3.5923,2.3681,1.8902,
Enterococcus faecium NRRL B-2354,0.4555,0.9095,0.0632,0.0201,0.2090,0.0000,0.1690,0.0201,0.0201,0.0000,6.6876,1.3081,1.2031,1.8684,2.6182,1.1667,0.8697,0.1449,0.1494,0.0632,13.0472,12.6979,12.2986,0.9883,0.0233,0.0049,0.0000,0.1696,0.0233,0.0049,0.0049,0.0000,0.0000,0.0213,0.0233,1.0514,0.0000,0.0201,0.1446,0.0994,0.0547,0.0049,0.0201,0.0213,0.0000,0.0000,0.0806,0.0213,0.0201,0.0000,0.0000,0.0000,0.0000,0.0000,0.0000,0.0000,0.0050,0.2268,0.0000,0.0000,0.1696,0.0213,0.0000,0.0049,0.0549,0.0000,0.0000,0.0484,0.0000,0.5340,0.2550,0.0000,0.3160,0.2268,0.1269,0.1300,0.3462,0.0197,0.0213,0.1947,0.0215,0.0880,0.2440,0.0000,0.0000,0.2061,0.0861,0.2600,0.2110,0.0994,0.0199,0.0000,0.0000,0.1449,0.0055,0.0187,0.0699,0.0075,0.0209,1.0603,1.0526,0.5797,2.7987,3.0916,2.3681,1.8902,
Enterococcus sp. 7L76,0.0440,2.7459,0.5346,0.0500,0.1211,0.0390,0.0054,0.0500,0.0500,0.0390,6.8169,0.0698,0.0175,1.1811,3.3578,10.3488,11.4875,11.3438,12.2706,7.7904,7.0912,4.2348,1.2654,12.4242,0.0268,0.0063,0.0866,0.0584,0.0060,0.3751,0.0211,0.0000,0.0059,0.0000,0.0060,0.0000,0.0000,0.0000,0.0000,0.0268,0.0268,0.0042,0.0068,0.0000,0.0000,0.0000,0.0000,0.0000,0.0000,0.0000,0.0000,0.0000,0.0000,0.0000,0.0000,0.0891,0.0255,0.0584,0.0042,0.0000,0.0584,0.0000,0.0000,0.0042,0.0317,0.0217,0.0000,0.0197,0.0059,0.0072,0.0039,0.0351,0.0000,0.0250,0.0994,0.0197,0.1819,0.0058,0.0706,0.1252,0.1362,0.0747,0.1667,0.2185,0.2584,0.0059,0.3556,0.0058,0.0266,0.5596,0.0440,0.0000,0.3635,0.2928,0.0175,0.2172,0.0054,0.0350,0.0317,1.0913,0.0440,1.2237,0.0054,1.5106,0.1452,0.0440,
Staphylococcus aureus 04-02981,3.4392,1.3844,1.8688,4.3760,3.0250,5.0571,2.1280,4.3760,4.3760,5.0571,4.4812,1.3688,3.4392,4.7049,4.2524,2.1280,0.9999,2.4105,4.7049,3.3905,3.3849,3.6334,3.1135,4.0435,5.5441,2.0845,4.9775,4.6080,5.5441,2.0845,2.0845,4.9775,4.9775,5.2070,4.4812,6.2426,5.0571,4.3760,4.9850,4.4812,4.4812,3.0250,5.4321,5.2070,5.0571,4.9775,7.9120,5.2070,5.4321,0.0000,0.0000,0.0000,0.0000,0.0000,0.0000,5.0571,5.4321,3.0898,2.0845,5.0571,5.7175,5.2070,5.0571,2.0845,2.4105,4.9775,0.0000,4.3760,3.9625,4.2682,1.8948,3.2056,1.7775,2.1466,2.6850,3.6873,2.2232,0.4239,4.3437,3.1533,4.0917,3.8916,1.9994,2.5192,3.2430,2.1472,3.2826,1.2283,0.8958,2.9500,3.9131,2.4023,3.9961,2.4105,2.5446,4.7476,1.6032,1.2068,1.2452,1.2888,0.4190,0.8852,0.2949,1.8501,0.5559,3.0816,
Staphylococcus aureus 08BA02176,1.6733,2.7404,2.2491,2.5088,4.2264,4.8923,1.5108,2.5088,2.5088,4.8923,5.3497,0.9930,2.3873,5.8559,4.8923,1.5108,0.6885,2.7431,4.8435,3.4148,1.6597,1.9958,3.1008,2.9453,3.2843,5.3162,2.5154,5.1359,3.2843,5.3162,3.4148,0.8114,2.5154,3.6861,3.2843,6.8673,4.8923,3.8100,6.2063,3.2843,4.1386,3.4148,4.6647,3.6861,4.8923,0.8114,8.2560,3.6861,4.6647,0.0000,0.0000,0.0000,0.0000,0.0000,0.0000,4.8923,4.6647,2.7431,3.4148,4.8923,6.3390,3.6861,4.8923,3.4148,2.7431,1.5779,0.0000,3.2565,0.8114,3.6861,2.6584,2.9949,1.7160,2.7431,1.7414,2.0332,2.4041,0.5195,3.3211,4.1248,3.2843,3.3211,1.9244,1.8105,3.2387,2.1335,3.3822,0.8742,0.7336,2.4827,2.5184,1.6497,3.1355,2.7431,1.6733,4.2178,1.0164,0.9930,0.7081,1.8753,0.8635,1.3733,0.5628,1.9682,0.8482,2.3873,
Staphylococcus aureus M1,2.0551,2.3630,2.8660,2.8275,4.0693,4.0656,1.0456,2.8275,2.8275,4.0656,2.8175,0.6552,2.8968,4.3728,5.0382,1.0456,0.4395,1.9716,4.3728,4.0693,2.0201,2.3432,3.3765,1.5134,3.6202,4.0693,5.5241,6.7007,3.6202,4.0693,4.9767,3.1062,3.8590,5.2794,2.8175,7.4200,4.0656,4.2602,6.1323,2.8175,2.8175,4.0693,6.0478,5.2794,4.0656,3.1062,9.4035,5.2794,5.1989,0.0000,0.0000,0.0000,0.0000,0.0000,0.0000,4.0656,5.1989,2.2229,4.0693,5.0382,6.7007,5.2794,4.0656,4.9767,2.2229,3.1062,0.0000,2.8275,3.1062,4.3728,2.7408,4.6649,0.3566,2.2229,1.4548,2.5606,3.7136,0.4395,4.3728,4.0656,4.1207,4.0164,3.3489,4.2671,2.8891,1.2194,3.6202,0.4395,0.3566,5.0070,1.0459,0.6023,2.2860,2.1898,1.0459,3.6195,0.8377,0.2911,0.4755,2.6271,0.9740,2.1567,1.0095,1.9454,0.7289,2.3880,
Staphylococcus aureus RF122,2.4913,3.3764,4.5204,3.7758,5.2182,3.8915,1.3264,3.7758,3.7758,3.1783,5.0933,1.2172,2.1827,5.8701,5.4712,2.0678,0.5458,2.8091,4.8591,2.5404,0.5711,3.0992,2.0470,3.8424,2.5233,2.5404,3.1646,6.1901,2.5233,2.5404,3.1961,0.8072,3.6035,3.7033,3.2377,5.0272,2.5162,3.7758,3.4518,2.5233,3.2377,2.5404,3.7758,3.7033,2.5162,0.8072,5.9718,3.7033,3.7758,0.0000,0.0000,0.0000,0.0000,0.0000,0.0000,3.1783,4.5924,2.8091,2.5404,2.5162,5.2594,3.7033,3.8915,3.1961,2.8091,1.9236,0.0000,3.7758,2.6914,4.6405,3.6628,1.1142,1.5622,2.8091,1.7372,3.5705,1.4474,0.4907,3.3381,3.2853,4.0081,3.3381,1.4894,1.1603,1.2407,1.9341,2.6015,0.9730,0.6652,1.6311,2.8881,1.3264,4.7498,2.8091,1.7463,3.3381,1.1598,0.5458,0.8686,1.3199,1.0620,1.7865,1.3580,2.2215,1.1326,2.7440,
Staphylococcus aureus subsp. aureus 11819-97,3.4126,1.3976,1.6567,4.3930,5.9749,5.0407,2.4903,4.3930,4.3930,5.0407,3.9410,1.3688,3.4126,4.4180,4.2359,2.4903,0.9999,2.7401,4.4180,4.9554,3.1996,3.6500,2.9962,4.0208,4.8996,2.6206,3.1786,4.1389,5.9237,2.6206,2.6206,2.5508,3.8540,4.4180,3.9410,6.2206,5.0407,4.3930,4.7338,3.9410,3.9410,3.2862,5.4474,4.4180,5.0407,2.5508,7.9120,4.4180,5.4474,0.0000,0.0000,0.0000,0.0000,0.0000,0.0000,5.0407,5.4474,2.1174,2.6206,5.0407,5.1641,4.4180,5.0407,2.6206,2.1174,3.8540,0.0000,4.3930,3.4750,4.0131,1.8716,3.4689,1.7775,1.8754,2.1361,3.3556,1.9512,0.4239,4.3539,3.1372,4.0875,4.3595,1.6144,1.2869,2.8702,2.4238,2.8579,1.2283,0.7655,2.2417,3.9269,2.7892,4.0130,2.4653,2.5201,4.0131,1.6593,1.3688,1.3899,1.7102,0.3006,0.8827,0.3052,1.2337,0.6063,3.4126,
Staphylococcus aureus subsp. aureus 71193,1.6733,2.8070,2.2491,2.4811,4.2264,4.1623,1.5108,2.4811,2.4811,4.1623,4.7585,0.9803,2.3873,5.0933,5.3280,1.5108,1.0904,2.7431,4.1852,3.4148,1.4555,2.6401,3.1008,2.9453,2.8680,5.3162,2.2518,5.1359,2.8680,5.3162,3.4148,0.6846,2.2518,3.1501,2.8680,6.8673,4.1623,3.1009,6.2063,2.8680,3.6487,3.4148,4.6132,3.1501,4.1623,0.6846,7.3743,3.1501,4.6132,0.0000,0.0000,0.0000,0.0000,0.0000,0.0000,4.1623,3.8932,2.7431,3.4148,4.1623,6.3390,3.1501,4.1623,3.4148,2.7431,1.7537,0.0000,3.2205,0.6846,3.1501,2.6584,3.1819,1.3185,2.7431,2.1436,2.0107,1.9785,0.5129,2.8246,3.4851,2.8680,2.8246,1.5882,1.5925,3.4064,2.1335,3.7189,0.8631,0.7243,2.7900,2.5184,1.6497,3.1009,2.7431,1.6733,3.6248,1.3317,0.9803,0.7081,2.2569,0.8635,1.4264,0.3791,2.5796,0.8482,2.3873,
Staphylococcus aureus subsp. aureus COL,1.9015,3.6272,3.5540,1.2288,3.7791,1.9683,1.0930,1.2288,1.2288,1.9683,6.3475,1.1526,2.1179,5.0625,3.6730,1.0930,0.8406,1.7629,5.0625,3.0223,1.4620,1.3265,2.7309,2.9478,2.7252,3.0223,7.9452,3.5919,2.7252,3.0223,5.4543,0.9634,3.2906,5.0625,2.0818,5.0100,1.1210,1.2288,3.1439,2.7252,2.0818,3.0223,1.6946,5.0625,1.1210,0.9634,7.6472,5.0625,1.6946,0.0000,0.0000,0.0000,0.0000,0.0000,0.0000,1.1210,2.3222,1.7629,3.0223,7.8860,7.2293,5.0625,1.6248,5.4543,1.7629,0.9634,0.0000,2.2062,0.9634,5.0625,2.1353,1.6927,1.5019,1.7629,2.5506,1.0796,0.7466,0.5087,4.6017,1.1210,2.0818,4.6017,2.5228,1.3699,1.1320,1.8782,2.4328,0.7308,0.6056,1.9484,2.7957,1.5363,1.2288,1.7629,1.6967,4.6017,1.3614,0.8406,0.6209,1.3257,1.0139,4.0245,1.0161,1.5998,1.0353,4.1692,
Staphylococcus aureus subsp. aureus ECT-R 2,3.4392,1.3844,1.8688,4.3760,3.0250,5.0571,2.1280,4.3760,4.3760,5.0571,4.4812,1.3688,3.4392,4.7049,4.2524,2.1280,0.9999,2.4105,4.7049,3.3905,3.3849,3.6334,3.1135,4.0435,5.5441,2.0845,4.9775,4.6080,5.5441,2.0845,2.0845,4.9775,4.9775,5.2070,4.4812,6.2426,5.0571,4.3760,4.9850,4.4812,4.4812,3.0250,5.4321,5.2070,5.0571,4.9775,7.9120,5.2070,5.4321,0.0000,0.0000,0.0000,0.0000,0.0000,0.0000,5.0571,5.4321,3.0898,2.0845,5.0571,5.7175,5.2070,5.0571,2.0845,2.4105,4.9775,0.0000,4.3760,3.9625,4.2682,1.8948,3.2056,1.7775,2.1466,2.6850,3.6873,2.2232,0.4239,4.3437,3.1533,4.0917,3.8916,1.9994,2.5192,3.2430,2.1472,3.2826,1.2283,0.8958,2.9500,3.9131,2.4023,3.9961,2.4105,2.5446,4.7476,1.6032,1.2068,1.2452,1.2888,0.4190,0.8852,0.2949,1.8501,0.5559,3.0816,
Staphylococcus aureus subsp. aureus ED133,2.2413,2.2083,2.6268,2.9009,5.0407,5.2263,1.7337,2.9009,2.9009,5.2263,5.5441,1.0165,2.4827,5.5568,5.2263,1.5397,0.5678,2.4786,5.5568,3.9139,1.5766,2.3343,3.5683,4.0533,4.4812,3.9139,5.3422,5.1577,5.5441,3.9139,3.9139,2.2965,6.3319,4.2837,4.4812,5.6806,4.2739,4.3290,6.0672,4.4812,4.4812,5.0407,5.2632,4.2837,4.2739,2.2965,7.4151,4.2837,5.2632,0.0000,0.0000,0.0000,0.0000,0.0000,0.0000,4.2739,5.2632,2.4786,3.9139,4.2739,6.3587,4.2837,4.2739,3.9139,2.7675,2.2965,0.0000,2.9009,3.0557,4.2837,3.0873,2.2965,2.2826,2.7675,2.0926,2.3758,2.0386,0.6454,3.5263,3.5810,4.0917,3.8797,1.5734,2.0616,2.0616,1.9877,3.6328,0.8935,0.3788,2.6350,3.2361,1.8841,3.5899,2.7675,2.2413,3.8797,1.1961,0.8435,0.7232,1.3574,0.6302,1.1462,0.4876,1.9344,1.0182,3.0825,
Staphylococcus aureus subsp. aureus ED98,3.4392,1.3844,1.8688,4.3760,3.0250,5.0571,2.1280,4.3760,4.3760,5.0571,4.4812,1.3688,3.4392,4.7049,4.2524,2.1280,0.9999,2.4105,4.7049,3.3905,3.3849,3.6334,3.1135,4.0435,5.5441,2.0845,4.9775,4.6080,5.5441,2.0845,2.0845,4.9775,4.9775,5.2070,4.4812,6.2426,5.0571,4.3760,4.9850,4.4812,4.4812,3.0250,5.4321,5.2070,5.0571,4.9775,7.9120,5.2070,5.4321,0.0000,0.0000,0.0000,0.0000,0.0000,0.0000,5.0571,5.4321,3.0898,2.0845,5.0571,5.7175,5.2070,5.0571,2.0845,2.4105,4.9775,0.0000,4.3760,3.9625,4.2682,1.8948,3.2056,1.7775,2.1466,2.6850,3.6873,2.2232,0.4239,4.3437,3.1533,4.0917,3.8916,1.9994,2.5192,3.2430,2.1472,3.2826,1.2283,0.8958,2.9500,3.9131,2.4023,3.9961,2.4105,2.5446,4.7476,1.6032,1.2068,1.2452,1.2888,0.4190,0.8852,0.2949,1.8501,0.5559,3.0816,
Staphylococcus aureus subsp. aureus HO 5096 0412,3.3909,0.8710,1.0655,3.1800,3.0644,2.7874,2.1194,3.1800,3.1800,3.4679,5.0933,1.3734,3.3909,5.6216,2.2648,1.4046,1.1682,3.3188,4.3580,3.2135,1.6724,3.5355,4.3594,4.0023,3.3275,1.9362,4.8498,4.5530,3.3275,1.9362,1.9362,2.1027,4.8498,4.3580,6.3738,6.2027,2.7874,3.1800,4.0107,3.3275,3.3275,5.7084,4.0178,4.3580,2.7874,2.1027,7.1773,4.3580,4.0178,0.0000,0.0000,0.0000,0.0000,0.0000,0.0000,2.7874,4.0178,3.3188,1.9362,3.4679,5.8201,4.3580,2.7874,1.9362,3.6672,2.1027,0.0000,4.2130,1.8338,3.9535,1.8526,2.6836,1.0130,3.3188,2.4323,2.6369,3.4755,0.4361,3.2611,2.9255,2.7183,3.2027,2.4116,1.4165,2.3754,2.1610,2.3713,0.9058,1.1429,2.1085,4.2655,1.8155,2.8799,3.6672,2.5002,3.9535,1.6200,1.1682,1.3182,1.3453,0.3961,1.9066,0.3595,1.6681,0.9444,3.3909,
Staphylococcus aureus subsp. aureus JH1,3.4177,1.5983,2.0740,4.3589,3.0086,4.9708,2.1280,4.3589,4.3589,4.9708,4.4087,1.3886,3.4177,4.7049,4.1660,2.1280,1.0143,2.4105,4.7049,3.3737,3.3849,3.6166,3.0973,4.3895,5.4790,2.0673,4.9775,4.6080,5.4790,2.0673,2.0673,4.9775,4.9775,5.2070,4.4087,6.2248,4.9708,4.3589,4.9850,4.4087,4.4087,3.0086,5.4167,5.2070,4.9708,4.9775,7.7993,5.2070,5.4167,0.0000,0.0000,0.0000,0.0000,0.0000,0.0000,4.9708,5.4167,3.0898,2.0673,4.9708,5.7175,5.2070,4.9708,2.0673,2.4105,4.9775,0.0000,4.0074,3.9625,4.2682,2.1277,3.2056,1.8031,2.1466,2.9801,4.0074,2.7319,0.6649,4.3437,3.7297,4.0198,3.8916,2.5258,2.5192,3.2430,2.1277,3.6048,1.2460,0.9087,3.6048,3.8929,2.4023,3.9791,2.4105,2.5248,4.7476,1.6032,1.2242,1.6181,1.4497,0.3127,0.8877,0.2949,1.2035,0.3481,3.0605,
Staphylococcus aureus subsp. aureus JH9,3.4177,1.5938,1.8688,4.3760,3.0250,5.0571,2.1280,4.3760,4.3760,5.0571,4.4312,1.3688,3.4177,4.7049,4.2524,2.1280,0.9999,2.4105,4.7049,3.3905,3.3849,3.6334,3.1135,4.3895,5.4992,2.0845,4.9775,4.6080,5.4992,2.0845,2.0845,4.9775,4.9775,5.2070,4.4312,6.2248,5.0571,4.3760,4.9850,4.4312,4.4312,3.0250,5.4321,5.2070,5.0571,4.9775,7.9120,5.2070,5.4321,0.0000,0.0000,0.0000,0.0000,0.0000,0.0000,5.0571,5.4321,3.0898,2.0845,5.0571,5.7175,5.2070,5.0571,2.0845,2.4105,4.9775,0.0000,4.3760,3.9625,4.2682,2.1277,3.2056,1.7775,2.1466,2.6850,3.6873,2.2232,0.4239,4.3437,3.1533,4.0422,3.8916,2.2549,2.5192,3.2430,2.1277,3.6270,1.2283,0.8958,3.2755,3.8929,2.4023,3.9961,2.4105,2.5248,4.7476,1.6032,1.2068,1.4256,1.2888,0.3127,0.7311,0.2949,1.6192,0.4459,3.0605,
Staphylococcus aureus subsp. aureus JKD6159,2.3683,2.9890,2.6172,4.2709,5.1939,4.1817,2.0425,4.2709,4.2709,5.1428,5.0931,1.0779,2.6111,5.4999,4.1817,1.0034,0.8071,2.1738,5.4999,3.5493,1.5627,3.1972,2.7763,1.7578,5.0931,2.2782,3.5104,4.8860,5.0931,2.2782,3.0508,1.2769,3.5104,4.2182,5.0931,6.0442,4.1817,5.1862,6.2326,5.0931,5.0931,3.5493,4.2709,4.2182,4.1817,1.2769,6.8523,4.2182,4.2709,0.0000,0.0000,0.0000,0.0000,0.0000,0.0000,4.1817,5.1862,2.6781,2.2782,4.1817,4.8860,4.2182,4.1817,2.2782,3.0336,1.7070,0.0000,4.2709,1.2769,4.2182,2.8836,1.7070,1.3833,2.1738,0.8800,3.5756,3.9440,0.3824,4.2182,4.3736,5.0931,4.2182,2.6255,4.2676,3.9522,2.3683,4.6074,0.4722,0.3824,3.8012,1.6054,0.3317,4.2709,2.1738,1.6054,4.2182,0.5070,0.2021,0.2953,1.5170,1.9522,3.0378,0.7353,2.1224,1.7438,2.6111,
Staphylococcus aureus subsp. aureus LGA251,2.2413,1.9777,3.2999,3.2962,5.6834,5.2263,1.7620,3.2962,3.2962,5.2263,6.5081,1.0165,2.4827,6.1945,5.2263,1.5648,0.5678,2.8531,5.2111,2.9286,2.4382,2.6781,3.3423,4.0533,3.2289,2.9286,3.8548,4.7093,3.2289,2.9286,2.9286,1.4966,4.6368,3.2384,3.2289,5.6806,4.2739,4.8487,6.8419,3.2289,3.2289,3.8480,4.9998,3.2384,4.2739,1.4966,7.4151,3.2384,4.9998,0.0000,0.0000,0.0000,0.0000,0.0000,0.0000,4.2739,5.8606,3.5668,2.9286,4.2739,4.7093,3.2384,4.2739,2.9286,2.4635,1.9547,0.0000,3.2962,2.0742,4.0905,3.0873,2.0742,2.2826,2.4635,1.4626,2.7236,2.0386,0.6454,2.6174,3.5810,2.9244,2.9065,1.2269,2.3042,1.3167,1.9877,3.3229,0.8935,0.3788,1.7994,3.2361,1.3902,3.2962,2.4635,2.2413,3.7192,1.2156,0.8435,0.7098,1.3574,0.6302,1.3703,0.7083,2.1224,1.2726,3.0825,
Staphylococcus aureus subsp. aureus M013,1.9200,1.4464,3.0130,1.5570,3.5537,2.3334,1.7148,1.5570,1.5570,2.3334,5.8047,2.0689,1.1908,4.0596,3.5599,2.4865,0.4279,2.0978,5.3401,2.5843,1.3291,1.7928,1.6920,2.8730,3.8006,1.0045,3.9163,4.1637,3.8006,1.0045,1.3741,0.6698,2.2474,2.0141,3.8006,3.8241,1.7903,2.0242,2.6359,5.8047,3.8006,1.6326,4.5317,2.0141,1.7903,1.2585,3.0721,2.0141,2.5331,0.0000,0.0000,0.0000,0.0000,0.0000,0.0000,1.7903,6.2410,2.7338,2.7098,3.7102,5.8038,2.0141,5.1378,1.3741,2.0978,1.3355,0.0056,2.7673,1.3355,2.7877,2.7364,0.8722,1.3393,2.0978,1.2174,2.3016,1.6295,0.7557,3.1591,1.7903,3.8006,2.5063,2.0124,0.9846,1.6018,2.0291,3.4086,0.7541,1.0354,2.4639,1.6893,0.9508,1.5570,2.0978,1.0359,2.3670,1.2082,0.4279,1.2754,2.3599,2.3026,2.2168,1.0324,0.8112,1.1952,2.0230,
Staphylococcus aureus subsp. aureus MRSA252,2.2413,1.9892,3.7252,3.3108,5.2035,3.2380,1.5345,3.3108,3.3108,4.0293,5.1815,1.1386,2.4827,5.5268,4.0293,2.3180,0.5589,2.8091,5.5268,3.4887,1.7428,2.6920,3.1679,4.0533,3.3671,3.4887,3.1190,5.2594,3.3671,3.4887,3.4887,1.1308,3.7887,4.2491,3.3671,5.6806,3.2380,4.0603,6.3035,3.3671,6.1831,3.4887,5.0128,4.2491,3.2380,1.1308,6.8160,4.2491,5.0128,0.0000,0.0000,0.0000,0.0000,0.0000,0.0000,3.2380,5.8728,2.8091,5.2035,3.2380,5.2594,4.2491,5.7799,3.4887,3.5689,1.5120,0.0000,3.3108,2.0362,4.2491,3.0873,2.4999,1.5997,2.8091,2.3363,3.4212,1.9616,0.3110,3.8453,2.6668,4.2429,3.8453,1.8032,1.9843,1.3196,2.2153,2.6738,0.9963,0.5982,1.8696,3.2361,1.1921,3.3108,2.8091,2.0123,3.8453,1.0323,1.1386,0.7251,2.9186,0.6302,1.1922,0.5716,1.6786,1.3110,3.0825,
Staphylococcus aureus subsp. aureus MSHR1132,3.2994,6.7714,3.2784,0.5106,1.5878,1.1142,1.3305,0.5106,0.5106,0.5414,6.8760,1.9583,3.6391,3.9128,5.1872,1.3305,1.5083,1.1203,1.0383,0.8713,1.6060,2.4023,1.9370,3.6391,0.8380,0.2443,0.1762,0.5592,0.8380,0.2443,0.2443,0.1762,0.5702,0.7056,1.2884,4.5844,0.3362,0.5106,0.9271,0.8380,0.8380,9.0530,0.5106,0.2669,0.3362,0.1762,2.1214,0.4676,0.5106,0.0000,0.0000,0.0000,0.0000,0.0000,0.0000,0.3362,0.5106,1.8312,0.2443,0.3362,0.5592,0.2669,0.3362,0.2443,1.2940,0.1762,0.0000,1.6847,0.5702,1.0959,4.5067,2.4380,2.7928,0.3348,0.6307,2.2633,2.0488,1.2762,0.6341,2.2303,1.2884,0.3730,0.8728,2.1874,2.0877,2.6624,0.3630,1.0068,1.8255,0.2735,4.1611,0.6478,1.5686,0.7726,2.1801,0.9708,1.5607,1.3293,1.1201,1.8232,0.6596,3.2521,2.6298,3.9291,2.4288,3.6391,
Staphylococcus aureus subsp. aureus MSSA476,1.9512,2.2227,2.7524,3.2792,2.9589,4.8203,1.3467,3.2792,3.2792,4.8203,4.4365,0.8406,2.1733,5.0625,4.8203,1.7068,0.5658,2.3872,5.0625,3.3229,3.1674,2.6619,3.0481,3.0250,5.5039,2.0153,4.7615,4.5864,5.5039,2.0153,2.0153,4.7615,4.7615,5.0625,4.4365,6.6865,4.8203,4.0300,5.3507,4.4365,4.4365,2.9589,5.8464,5.0625,4.8203,4.7615,8.4312,5.0625,5.8464,0.0000,0.0000,0.0000,0.0000,0.0000,0.0000,4.8203,4.9846,3.0669,2.0153,4.8203,5.6976,5.0625,4.8203,2.0153,2.3872,4.7615,0.0000,3.2792,4.7615,5.0625,2.7303,4.7615,1.5019,2.3872,2.5506,2.9865,2.9602,0.7399,4.6017,4.8203,4.4365,4.6017,2.5228,3.1282,3.5030,2.4518,3.5884,0.7308,0.6056,2.9070,2.8688,2.2562,4.0300,2.3872,1.7411,4.6017,1.1775,0.8406,1.2292,1.8370,0.8986,0.7992,0.4413,1.5998,0.5575,2.7270,
Staphylococcus aureus subsp. aureus MW2,1.9512,2.2227,2.7524,3.2792,2.9589,4.8203,1.3467,3.2792,3.2792,4.8203,4.4365,0.8406,2.1733,5.0625,4.8203,1.7068,0.5658,2.3872,5.0625,3.3229,3.1674,2.6619,3.0481,3.0250,5.5039,2.0153,4.7615,4.5864,5.5039,2.0153,2.0153,4.7615,4.7615,5.0625,4.4365,6.6865,4.8203,4.0300,5.3507,4.4365,4.4365,2.9589,5.8464,5.0625,4.8203,4.7615,8.4312,5.0625,5.8464,0.0000,0.0000,0.0000,0.0000,0.0000,0.0000,4.8203,4.9846,3.0669,2.0153,4.8203,5.6976,5.0625,4.8203,2.0153,2.3872,4.7615,0.0000,3.2792,4.7615,5.0625,2.7303,4.7615,1.5019,2.3872,2.5506,2.9865,2.9602,0.7399,4.6017,4.8203,4.4365,4.6017,2.5228,3.1282,3.5030,2.4518,3.5884,0.7308,0.6056,2.9070,2.8688,2.2562,4.0300,2.3872,1.7411,4.6017,1.1775,0.8406,1.2292,1.8370,0.8986,0.7992,0.4413,1.5998,0.5575,2.7270,
Staphylococcus aureus subsp. aureus Mu3,3.4392,1.3844,1.8688,4.3760,3.0250,5.0571,2.1280,4.3760,4.3760,5.0571,4.4812,1.3688,3.4392,4.7049,4.2524,2.1280,0.9999,2.4105,4.7049,3.3905,3.3849,3.6334,3.1135,4.0435,5.5441,2.0845,4.9775,4.6080,5.5441,2.0845,2.0845,4.9775,4.9775,5.2070,4.4812,6.2426,5.0571,4.3760,4.9850,4.4812,4.4812,3.0250,5.4321,5.2070,5.0571,4.9775,7.9120,5.2070,5.4321,0.0000,0.0000,0.0000,0.0000,0.0000,0.0000,5.0571,5.4321,3.0898,2.0845,5.0571,5.7175,5.2070,5.0571,2.0845,2.4105,4.9775,0.0000,4.3760,3.9625,4.2682,1.8948,3.2056,1.7775,2.1466,2.6850,3.6873,2.2232,0.4239,4.3437,3.1533,4.0917,3.8916,1.9994,2.5192,3.2430,2.1472,3.2826,1.2283,0.8958,2.9500,3.9131,2.4023,3.9961,2.4105,2.5446,4.7476,1.6032,1.2068,1.2452,1.2888,0.4190,0.8852,0.2949,1.8501,0.5559,3.0816,
Staphylococcus aureus subsp. aureus Mu50,3.4392,1.3844,1.8688,4.3760,3.0250,5.0571,2.1280,4.3760,4.3760,5.0571,4.4812,1.3688,3.4392,4.7049,4.2524,2.1280,0.9999,2.4105,4.7049,3.3905,3.3849,3.6334,3.1135,4.0435,5.5441,2.0845,4.9775,4.6080,5.5441,2.0845,2.0845,4.9775,4.9775,5.2070,4.4812,6.2426,5.0571,4.3760,4.9850,4.4812,4.4812,3.0250,5.4321,5.2070,5.0571,4.9775,7.9120,5.2070,5.4321,0.0000,0.0000,0.0000,0.0000,0.0000,0.0000,5.0571,5.4321,3.0898,2.0845,5.0571,5.7175,5.2070,5.0571,2.0845,2.4105,4.9775,0.0000,4.3760,3.9625,4.2682,1.8948,3.2056,1.7775,2.1466,2.6850,3.6873,2.2232,0.4239,4.3437,3.1533,4.0917,3.8916,1.9994,2.5192,3.2430,2.1472,3.2826,1.2283,0.8958,2.9500,3.9131,2.4023,3.9961,2.4105,2.5446,4.7476,1.6032,1.2068,1.2452,1.2888,0.4190,0.8852,0.2949,1.8501,0.5559,3.0816,
Staphylococcus aureus subsp. aureus N315,3.4392,1.3844,1.8688,4.3760,3.0250,5.0571,2.1280,4.3760,4.3760,5.0571,4.4812,1.3688,3.4392,4.7049,4.2524,2.1280,0.9999,2.4105,4.7049,3.3905,3.3849,3.6334,3.1135,4.0435,5.5441,2.0845,4.9775,4.6080,5.5441,2.0845,2.0845,4.9775,4.9775,5.2070,4.4812,6.2426,5.0571,4.3760,4.9850,4.4812,4.4812,3.0250,5.4321,5.2070,5.0571,4.9775,7.9120,5.2070,5.4321,0.0000,0.0000,0.0000,0.0000,0.0000,0.0000,5.0571,5.4321,3.0898,2.0845,5.0571,5.7175,5.2070,5.0571,2.0845,2.4105,4.9775,0.0000,4.3760,3.9625,4.2682,1.8948,3.2056,1.7775,2.1466,2.6850,3.6873,2.2232,0.4239,4.3437,3.1533,4.0917,3.8916,1.9994,2.5192,3.2430,2.1472,3.2826,1.2283,0.8958,2.9500,3.9131,2.4023,3.9961,2.4105,2.5446,4.7476,1.6032,1.2068,1.2452,1.2888,0.4190,0.8852,0.2949,1.8501,0.5559,3.0816,
Staphylococcus aureus subsp. aureus NCTC 8325,1.9015,3.6272,3.5540,1.2288,3.7791,1.9683,1.0930,1.2288,1.2288,1.9683,6.3831,1.1526,2.1179,5.0625,3.6730,1.0930,0.8406,1.7629,5.0625,3.0223,1.4620,1.3265,2.7309,2.9478,2.7668,3.0223,7.9452,3.5919,2.7668,3.0223,5.4543,0.9634,3.2906,5.0625,2.1237,5.0100,1.1210,1.2288,3.1439,2.7668,2.1237,3.0223,1.6946,5.0625,1.1210,0.9634,7.6472,5.0625,1.6946,0.0000,0.0000,0.0000,0.0000,0.0000,0.0000,1.1210,2.3222,1.7629,3.0223,7.8860,7.2293,5.0625,1.6248,5.4543,1.7629,0.9634,0.0000,2.2062,0.9634,5.0625,2.1353,1.6927,1.5019,1.7629,2.5506,1.0796,0.7466,0.5087,4.6017,1.1210,2.1237,4.6017,2.5228,1.3699,1.1320,1.8782,2.1956,0.7308,0.6056,1.7378,2.7957,1.5363,1.2288,1.7629,1.6967,4.6017,1.3614,0.8406,0.6209,1.3257,1.0139,4.0245,1.0161,1.5998,1.0353,4.1692,
Staphylococcus aureus subsp. aureus ST228,3.4392,1.3844,1.8688,4.3760,3.0250,5.0571,2.1280,4.3760,4.3760,5.0571,4.4812,1.3688,3.4392,4.7049,4.2524,2.1280,0.9999,2.4105,4.7049,3.3905,3.3849,3.6334,3.1135,4.0435,5.5441,2.0845,4.9775,4.6080,5.5441,2.0845,2.0845,4.9775,4.9775,5.2070,4.4812,6.2426,5.0571,4.3760,4.9850,4.4812,4.4812,3.0250,5.4321,5.2070,5.0571,4.9775,7.9120,5.2070,5.4321,0.0000,0.0000,0.0000,0.0000,0.0000,0.0000,5.0571,5.4321,3.0898,2.0845,5.0571,5.7175,5.2070,5.0571,2.0845,2.4105,4.9775,0.0000,4.3760,3.9625,4.2682,1.8948,3.2056,1.7775,2.1466,2.6850,3.6873,2.2232,0.4239,4.3437,3.1533,4.0917,3.8916,1.9994,2.5192,3.2430,2.1472,3.2826,1.2283,0.8958,2.9500,3.9131,2.4023,3.9961,2.4105,2.5446,4.7476,1.6032,1.2068,1.2452,1.2888,0.4190,0.8852,0.2949,1.8501,0.5559,3.0816,
Staphylococcus aureus subsp. aureus ST228,0.0000,0.0000,0.0000,0.0000,0.0000,0.0000,0.0000,0.0000,0.0000,0.0000,0.0000,0.0000,0.0000,0.0000,0.0000,0.0000,0.0000,0.0000,0.0000,0.0000,0.0000,0.0000,0.0000,0.0000,0.0000,0.0000,0.0000,0.0000,0.0000,0.0000,0.0000,0.0000,0.0000,0.0000,0.0000,0.0000,0.0000,0.0000,0.0000,0.0000,0.0000,0.0000,0.0000,0.0000,0.0000,0.0000,0.0000,0.0000,0.0000,0.0000,0.0000,0.0000,0.0000,0.0000,0.0000,0.0000,0.0000,0.0000,0.0000,0.0000,0.0000,0.0000,0.0000,0.0000,0.0000,0.0000,0.0000,0.0000,0.0000,0.0000,0.0000,0.0000,0.0000,0.0000,0.0000,0.0000,0.0000,0.0000,0.0000,0.0000,0.0000,0.0000,0.0000,0.0000,0.0000,0.0000,0.0000,0.0000,0.0000,0.0000,0.0000,0.0000,0.0000,0.0000,0.0000,0.0000,0.0000,0.0000,0.0000,0.0000,0.0000,0.0000,0.0000,0.0000,0.0000,0.0000,
Staphylococcus aureus subsp. aureus ST228,0.0000,0.0000,0.0000,0.0000,0.0000,0.0000,0.0000,0.0000,0.0000,0.0000,0.0000,0.0000,0.0000,0.0000,0.0000,0.0000,0.0000,0.0000,0.0000,0.0000,0.0000,0.0000,0.0000,0.0000,0.0000,0.0000,0.0000,0.0000,0.0000,0.0000,0.0000,0.0000,0.0000,0.0000,0.0000,0.0000,0.0000,0.0000,0.0000,0.0000,0.0000,0.0000,0.0000,0.0000,0.0000,0.0000,0.0000,0.0000,0.0000,0.0000,0.0000,0.0000,0.0000,0.0000,0.0000,0.0000,0.0000,0.0000,0.0000,0.0000,0.0000,0.0000,0.0000,0.0000,0.0000,0.0000,0.0000,0.0000,0.0000,0.0000,0.0000,0.0000,0.0000,0.0000,0.0000,0.0000,0.0000,0.0000,0.0000,0.0000,0.0000,0.0000,0.0000,0.0000,0.0000,0.0000,0.0000,0.0000,0.0000,0.0000,0.0000,0.0000,0.0000,0.0000,0.0000,0.0000,0.0000,0.0000,0.0000,0.0000,0.0000,0.0000,0.0000,0.0000,0.0000,0.0000,
Staphylococcus aureus subsp. aureus ST228,0.0000,0.0000,0.0000,0.0000,0.0000,0.0000,0.0000,0.0000,0.0000,0.0000,0.0000,0.0000,0.0000,0.0000,0.0000,0.0000,0.0000,0.0000,0.0000,0.0000,0.0000,0.0000,0.0000,0.0000,0.0000,0.0000,0.0000,0.0000,0.0000,0.0000,0.0000,0.0000,0.0000,0.0000,0.0000,0.0000,0.0000,0.0000,0.0000,0.0000,0.0000,0.0000,0.0000,0.0000,0.0000,0.0000,0.0000,0.0000,0.0000,0.0000,0.0000,0.0000,0.0000,0.0000,0.0000,0.0000,0.0000,0.0000,0.0000,0.0000,0.0000,0.0000,0.0000,0.0000,0.0000,0.0000,0.0000,0.0000,0.0000,0.0000,0.0000,0.0000,0.0000,0.0000,0.0000,0.0000,0.0000,0.0000,0.0000,0.0000,0.0000,0.0000,0.0000,0.0000,0.0000,0.0000,0.0000,0.0000,0.0000,0.0000,0.0000,0.0000,0.0000,0.0000,0.0000,0.0000,0.0000,0.0000,0.0000,0.0000,0.0000,0.0000,0.0000,0.0000,0.0000,0.0000,
Staphylococcus aureus subsp. aureus ST228,0.0000,0.0000,0.0000,0.0000,0.0000,0.0000,0.0000,0.0000,0.0000,0.0000,0.0000,0.0000,0.0000,0.0000,0.0000,0.0000,0.0000,0.0000,0.0000,0.0000,0.0000,0.0000,0.0000,0.0000,0.0000,0.0000,0.0000,0.0000,0.0000,0.0000,0.0000,0.0000,0.0000,0.0000,0.0000,0.0000,0.0000,0.0000,0.0000,0.0000,0.0000,0.0000,0.0000,0.0000,0.0000,0.0000,0.0000,0.0000,0.0000,0.0000,0.0000,0.0000,0.0000,0.0000,0.0000,0.0000,0.0000,0.0000,0.0000,0.0000,0.0000,0.0000,0.0000,0.0000,0.0000,0.0000,0.0000,0.0000,0.0000,0.0000,0.0000,0.0000,0.0000,0.0000,0.0000,0.0000,0.0000,0.0000,0.0000,0.0000,0.0000,0.0000,0.0000,0.0000,0.0000,0.0000,0.0000,0.0000,0.0000,0.0000,0.0000,0.0000,0.0000,0.0000,0.0000,0.0000,0.0000,0.0000,0.0000,0.0000,0.0000,0.0000,0.0000,0.0000,0.0000,0.0000,
Staphylococcus aureus subsp. aureus ST228,0.0000,0.0000,0.0000,0.0000,0.0000,0.0000,0.0000,0.0000,0.0000,0.0000,0.0000,0.0000,0.0000,0.0000,0.0000,0.0000,0.0000,0.0000,0.0000,0.0000,0.0000,0.0000,0.0000,0.0000,0.0000,0.0000,0.0000,0.0000,0.0000,0.0000,0.0000,0.0000,0.0000,0.0000,0.0000,0.0000,0.0000,0.0000,0.0000,0.0000,0.0000,0.0000,0.0000,0.0000,0.0000,0.0000,0.0000,0.0000,0.0000,0.0000,0.0000,0.0000,0.0000,0.0000,0.0000,0.0000,0.0000,0.0000,0.0000,0.0000,0.0000,0.0000,0.0000,0.0000,0.0000,0.0000,0.0000,0.0000,0.0000,0.0000,0.0000,0.0000,0.0000,0.0000,0.0000,0.0000,0.0000,0.0000,0.0000,0.0000,0.0000,0.0000,0.0000,0.0000,0.0000,0.0000,0.0000,0.0000,0.0000,0.0000,0.0000,0.0000,0.0000,0.0000,0.0000,0.0000,0.0000,0.0000,0.0000,0.0000,0.0000,0.0000,0.0000,0.0000,0.0000,0.0000,
Staphylococcus aureus subsp. aureus ST228,0.0000,0.0000,0.0000,0.0000,0.0000,0.0000,0.0000,0.0000,0.0000,0.0000,0.0000,0.0000,0.0000,0.0000,0.0000,0.0000,0.0000,0.0000,0.0000,0.0000,0.0000,0.0000,0.0000,0.0000,0.0000,0.0000,0.0000,0.0000,0.0000,0.0000,0.0000,0.0000,0.0000,0.0000,0.0000,0.0000,0.0000,0.0000,0.0000,0.0000,0.0000,0.0000,0.0000,0.0000,0.0000,0.0000,0.0000,0.0000,0.0000,0.0000,0.0000,0.0000,0.0000,0.0000,0.0000,0.0000,0.0000,0.0000,0.0000,0.0000,0.0000,0.0000,0.0000,0.0000,0.0000,0.0000,0.0000,0.0000,0.0000,0.0000,0.0000,0.0000,0.0000,0.0000,0.0000,0.0000,0.0000,0.0000,0.0000,0.0000,0.0000,0.0000,0.0000,0.0000,0.0000,0.0000,0.0000,0.0000,0.0000,0.0000,0.0000,0.0000,0.0000,0.0000,0.0000,0.0000,0.0000,0.0000,0.0000,0.0000,0.0000,0.0000,0.0000,0.0000,0.0000,0.0000,
Staphylococcus aureus subsp. aureus ST398,1.6733,2.7404,2.2491,2.5088,4.2264,4.8923,1.5108,2.5088,2.5088,4.8923,5.3497,0.9930,2.3873,5.8559,4.8923,1.5108,0.6885,2.7431,4.8435,3.4148,1.6597,1.9958,3.1008,2.9453,3.2843,5.3162,2.5154,5.1359,3.2843,5.3162,3.4148,0.8114,2.5154,3.6861,3.2843,6.8673,4.8923,3.8100,6.2063,3.2843,4.1386,3.4148,4.6647,3.6861,4.8923,0.8114,8.2560,3.6861,4.6647,0.0000,0.0000,0.0000,0.0000,0.0000,0.0000,4.8923,4.6647,2.7431,3.4148,4.8923,6.3390,3.6861,4.8923,3.4148,2.7431,1.5779,0.0000,3.2565,0.8114,3.6861,2.6584,2.9949,1.7160,2.7431,1.7414,2.0332,2.4041,0.5195,3.3211,4.1248,3.2843,3.3211,1.9244,1.8105,3.2387,2.1335,3.3822,0.8742,0.7336,2.4827,2.5184,1.6497,3.1355,2.7431,1.6733,4.2178,1.0164,0.9930,0.7081,1.8753,0.8635,1.3733,0.5628,1.9682,0.8482,2.3873,
Staphylococcus aureus subsp. aureus T0131,2.5865,1.9271,4.0987,3.2074,4.5371,3.2553,1.4479,3.2074,3.2074,4.0457,4.6101,1.5341,2.8494,5.8867,4.0457,2.3585,0.8321,2.1232,4.8772,3.0037,1.6069,2.6080,2.7170,4.5467,2.9547,3.0037,2.2804,4.1445,2.9547,3.0037,3.0037,0.7167,2.8237,3.7234,2.9547,5.4799,3.2553,3.2074,5.6475,2.9547,5.5275,2.7170,4.0736,3.7234,3.2553,0.7167,6.4683,3.7234,4.0736,0.0000,0.0000,0.0000,0.0000,0.0000,0.0000,3.2553,6.0620,2.7459,5.5944,3.2553,4.1445,3.7234,5.7943,3.0037,2.4361,0.8435,0.0000,3.2074,2.1884,3.7234,2.5788,2.1884,1.4650,2.1232,2.3889,3.3144,1.9751,0.5163,3.3579,2.6832,4.6101,3.3579,2.1396,2.4740,1.3141,2.5583,2.7484,0.8951,0.8806,1.5961,3.3348,1.0067,2.9231,1.8480,2.3364,3.0109,1.0830,1.3441,1.4228,2.6481,0.7992,2.0017,0.5574,1.5760,1.0166,2.8494,
Staphylococcus aureus subsp. aureus TCH60,1.2609,3.5842,3.1471,2.5601,4.4011,3.7243,0.6255,2.5601,2.5601,2.7340,4.3026,0.5433,0.4380,3.5017,6.5410,0.3239,0.9205,2.0798,3.2542,4.2225,0.8946,1.5671,2.0731,0.5168,2.1866,1.3518,1.0346,4.2737,2.1866,1.3518,1.3518,1.4019,1.4019,2.7989,2.1866,7.2762,1.7919,2.4719,8.2971,2.1866,3.0105,2.4021,2.4719,2.7989,1.7919,1.8064,7.7973,2.7989,2.4719,0.0000,0.0000,0.0000,0.0000,0.0000,0.0000,2.4260,2.4719,6.5342,1.3518,1.7919,4.2737,2.7989,1.7919,1.3518,2.5466,1.4019,0.0000,2.0726,5.3536,4.1436,3.1636,1.8064,0.8967,2.0512,1.0082,1.0251,1.7159,0.0710,1.3203,0.5089,2.0165,1.3038,2.0265,2.6993,1.8179,0.9739,2.3046,0.3234,0.1349,1.6612,0.1186,0.3085,1.3759,0.9789,0.2527,2.5122,0.3239,0.3247,0.8302,0.7705,1.2877,2.5315,0.7904,3.5295,2.0251,0.5584,
Staphylococcus aureus subsp. aureus TW20,2.5865,1.6954,4.0987,3.6480,4.5371,3.2553,1.6645,3.6480,3.6480,4.0457,4.6101,1.5341,2.8494,5.8867,4.0457,2.6444,0.8321,2.1232,4.8772,3.0037,1.6256,2.9943,2.7170,4.5467,2.9547,3.0037,2.3049,4.1445,2.9547,3.0037,3.0037,0.7380,2.8485,3.7234,2.9547,5.4799,3.2553,3.6480,5.5089,2.9547,5.5275,2.7170,4.5889,3.7234,3.2553,0.7380,6.4683,3.7234,4.5889,0.0000,0.0000,0.0000,0.0000,0.0000,0.0000,3.2553,5.8245,2.7459,5.5944,3.2553,4.1445,3.7234,5.7943,3.0037,2.4361,0.8644,0.0000,3.6480,2.2131,3.7234,2.5788,2.2131,1.4650,2.1232,2.3889,3.0423,1.9751,0.5163,3.3579,2.6832,4.6101,3.3579,2.1396,2.2468,1.1619,2.5583,2.7484,0.8951,0.8806,1.5961,3.3348,1.1842,3.3383,1.8480,2.3364,3.0109,1.2676,1.3441,1.6168,2.6481,0.7992,1.5932,0.3825,1.5760,0.8681,2.8494,
Staphylococcus aureus subsp. aureus USA300_FPR3757,1.9015,3.6272,3.5540,1.2288,3.7791,1.9683,1.0930,1.2288,1.2288,1.9683,6.3475,1.1526,2.1179,5.0625,3.6730,1.0930,0.8406,1.7629,5.0625,3.0223,1.4620,1.3265,2.7309,2.9478,2.7252,3.0223,7.9452,3.5919,2.7252,3.0223,5.4543,0.9634,3.2906,5.0625,2.0818,5.0100,1.1210,1.2288,3.1439,2.7252,2.0818,3.0223,1.6946,5.0625,1.1210,0.9634,7.6472,5.0625,1.6946,0.0000,0.0000,0.0000,0.0000,0.0000,0.0000,1.1210,2.3222,1.7629,3.0223,7.8860,7.2293,5.0625,1.6248,5.4543,1.7629,0.9634,0.0000,2.2062,0.9634,5.0625,2.1353,1.6927,1.5019,1.7629,2.5506,1.0796,0.7466,0.5087,4.6017,1.1210,2.0818,4.6017,2.5228,1.3699,1.1320,1.8782,2.4328,0.7308,0.6056,1.9484,2.7957,1.5363,1.2288,1.7629,1.6967,4.6017,1.3614,0.8406,0.6209,1.3257,1.0139,4.0245,1.0161,1.5998,1.0353,4.1692,
Staphylococcus aureus subsp. aureus USA300_TCH1516,1.9015,3.6272,4.1588,1.2288,4.4527,1.9683,0.9199,1.2288,1.2288,1.9683,6.8810,1.1526,2.1179,5.5418,3.6730,0.9199,0.8406,1.3074,4.2664,2.2593,1.6127,1.3265,2.6125,2.9478,2.1067,2.2593,7.3639,3.4679,2.1067,2.2593,4.2726,0.8227,3.4856,4.2664,1.5657,5.0100,1.1210,1.2288,2.8027,2.1067,1.5657,2.2593,1.6946,4.2664,1.1210,0.8227,7.6472,4.2664,1.6946,0.0000,0.0000,0.0000,0.0000,0.0000,0.0000,1.1210,2.3222,1.3074,2.2593,7.8860,7.6857,4.2664,1.6248,4.2726,1.3074,0.8227,0.0000,2.2062,0.8227,4.2664,2.1353,1.8805,1.5019,1.3074,2.0778,1.0796,0.7466,0.5087,3.8625,1.1210,2.1067,3.8625,2.9650,1.1885,0.9737,1.8782,1.8591,0.7308,0.6056,1.9480,2.7957,1.3231,1.2288,1.3074,1.6967,3.8625,1.3231,0.8406,0.7789,1.3257,1.0139,4.0245,1.1440,1.4614,0.8332,4.1692,
Staphylococcus aureus subsp. aureus VC40,1.9015,3.6272,3.5540,1.2288,3.7791,1.9683,1.0930,1.2288,1.2288,1.9683,6.3831,1.1526,2.1179,5.0625,3.6730,1.0930,0.8406,1.7629,5.0625,3.0223,1.4620,1.3265,2.7309,2.9478,2.7668,3.0223,7.9452,3.5919,2.7668,3.0223,5.4543,0.9634,3.2906,5.0625,2.1237,5.0100,1.1210,1.2288,3.1439,2.7668,2.1237,3.0223,1.6946,5.0625,1.1210,0.9634,7.6472,5.0625,1.6946,0.0000,0.0000,0.0000,0.0000,0.0000,0.0000,1.1210,2.3222,1.7629,3.0223,7.8860,7.2293,5.0625,1.6248,5.4543,1.7629,0.9634,0.0000,2.2062,0.9634,5.0625,2.1353,1.6927,1.5019,1.7629,2.5506,1.0796,0.7466,0.5087,4.6017,1.1210,2.1237,4.6017,2.5228,1.3699,1.1320,1.8782,2.1956,0.7308,0.6056,1.7378,2.7957,1.5363,1.2288,1.7629,1.6967,4.6017,1.3614,0.8406,0.6209,1.3257,1.0139,4.0245,1.0161,1.5998,1.0353,4.1692,
Staphylococcus aureus subsp. aureus str. JKD6008,2.1208,2.8010,3.1106,3.2498,5.2383,3.6613,1.0034,3.2498,3.2498,3.6613,5.8013,0.4611,2.3516,5.4848,4.5318,1.2802,0.2969,2.2200,5.4848,3.5293,1.6018,2.3716,3.2079,2.6370,3.7965,3.5293,3.9256,5.6846,3.7965,3.5293,3.5293,1.5101,3.9256,4.2007,3.7965,6.7237,3.6613,4.0018,7.0515,3.7965,5.8013,3.5293,4.1476,4.2007,3.6613,1.5101,7.3457,4.2007,4.1476,0.0000,0.0000,0.0000,0.0000,0.0000,0.0000,3.6613,5.8219,2.2200,5.2383,3.6613,5.6846,4.2007,5.4615,3.5293,2.8716,1.9791,0.0000,3.2498,1.9791,4.2007,3.2039,3.1800,0.8879,2.2200,1.2325,3.3653,3.4424,0.3702,4.2007,3.0353,3.7965,4.2007,2.3629,3.1553,2.0109,2.1208,3.4045,0.5466,0.1645,2.7580,1.8346,0.3317,3.2498,2.2200,1.6316,4.2007,0.5070,0.2969,0.3015,2.1344,1.3516,2.5675,0.9609,2.1077,1.8833,2.9123,
Staphylococcus aureus subsp. aureus str. Newman,2.1807,3.6272,3.3738,1.2288,4.3434,3.0966,1.0930,1.2288,1.2288,2.3914,7.5275,1.1526,2.4155,5.0625,2.7540,1.0930,0.8406,1.7788,5.0625,2.9297,1.2043,1.3265,2.0543,3.3150,1.6188,2.2968,5.5636,2.8590,1.6188,2.2968,4.3434,0.5733,2.4639,5.0625,1.1715,4.7896,0.5276,1.2288,3.1439,1.6188,1.1715,2.2968,1.6946,5.0625,0.5276,0.5733,7.6472,5.0625,1.6946,0.0000,0.0000,0.0000,0.0000,0.0000,0.0000,0.5276,2.3222,1.7788,2.2968,5.4605,6.0165,5.0625,0.8591,5.9545,1.3074,1.1214,0.0000,2.2062,0.5733,5.0625,1.9099,1.5237,1.5019,1.3074,2.5506,1.0796,0.3711,0.5087,4.6017,0.5276,1.1715,4.6017,2.5228,1.5063,1.3035,2.1554,1.6506,0.7308,0.6056,1.7012,3.1486,1.5363,1.2288,1.7788,1.9578,4.6017,1.3614,0.8406,0.4789,1.0171,1.0440,4.0245,1.0161,1.5998,1.1687,3.9399,
Staphylococcus carnosus subsp. carnosus TM300,2.4779,7.3064,3.0061,0.0100,2.0876,0.0629,0.7723,0.0100,0.0100,0.0629,2.0394,1.0755,1.4991,1.0543,6.8693,0.0227,0.0781,0.2422,0.4404,0.0209,0.4075,0.1456,0.0835,0.5171,0.0000,0.0000,0.0058,0.1954,0.0000,0.0000,0.0000,0.0058,0.0058,0.0217,0.0000,0.6540,0.0000,0.0193,0.2756,0.0000,0.0000,0.0000,0.0000,0.0217,0.0000,0.0543,0.0587,0.0217,0.0000,0.0000,0.0000,0.0000,0.0000,0.0000,0.0000,0.0000,0.0000,0.9169,0.0000,0.0000,0.0883,0.0217,0.0000,0.0000,10.3686,0.0000,0.0000,0.0585,0.7109,0.2205,2.9788,2.4166,0.1394,0.1590,0.0763,0.0000,0.1970,0.8722,0.1498,0.0000,0.3359,0.6888,0.7415,0.0856,0.1630,0.2371,0.3119,0.0195,0.1758,1.3438,0.3208,0.0346,0.4233,0.1454,0.2095,0.0763,0.0877,0.2252,0.0000,0.1600,2.9856,5.3733,4.4776,1.9079,0.7988,1.8365,
Staphylococcus epidermidis ATCC 12228,1.4265,3.8777,1.9717,0.0318,2.0423,0.4068,0.3855,0.0318,0.0318,0.9210,5.6228,2.2111,1.8278,4.5976,1.6210,0.2331,0.8360,0.7746,1.2654,0.3308,0.2435,1.7071,0.4420,1.3254,0.0127,0.0387,0.0615,0.3120,0.0127,0.0387,0.0108,0.0615,0.0615,0.0660,0.0127,2.3796,0.1051,0.0318,0.3855,0.0127,0.0839,0.1750,0.0118,0.0326,0.0639,0.0615,0.4726,0.0326,0.0118,0.0000,0.0000,0.0000,0.0000,0.0000,0.0000,0.2374,0.0118,0.2383,0.0833,0.0639,0.2181,0.0326,0.1726,0.0108,0.3120,10.6221,0.0000,0.5642,1.4525,0.3285,2.3796,0.4122,1.3001,1.7513,0.5337,1.0611,0.8861,0.8515,1.0993,0.1726,0.1984,0.1138,0.4286,0.8364,0.1255,2.4742,0.0839,1.1843,0.3444,0.5572,2.1418,0.0115,0.3855,0.6619,0.8640,0.0826,0.6576,0.4570,2.1754,3.2188,0.9718,5.6189,2.0412,4.5976,1.5825,3.3531,
Staphylococcus epidermidis RP62A,3.5913,4.0268,2.4137,0.2068,2.1508,0.7638,0.7174,0.2068,0.2068,0.8490,3.0618,1.4562,2.3864,4.2784,2.9032,0.7174,0.4423,0.6746,1.1413,0.6175,2.4517,1.3020,0.9090,2.0698,0.1951,0.0894,0.4253,0.5879,0.1951,0.0894,0.0894,0.2537,0.1924,0.4131,0.3990,1.6773,0.2659,0.3223,0.3819,0.2973,0.1951,0.1762,0.0957,0.0905,0.3612,0.6832,0.9200,0.2162,0.0957,0.0000,0.0000,0.0000,0.0000,0.0000,0.0000,0.2659,0.0957,0.2278,0.1552,0.2659,0.3004,0.2162,0.2659,0.0894,0.9017,0.6541,9.9581,1.8134,1.8515,0.5203,2.3864,1.8515,0.5614,0.2106,0.2214,0.3223,2.2578,1.8213,1.1100,1.2493,0.3990,0.9585,0.9072,2.1004,1.9294,2.3471,0.3990,1.6207,0.9200,0.3147,1.8797,0.2011,1.0233,1.2653,2.3864,1.0090,0.6006,1.8223,3.7456,2.6280,2.0032,2.8765,2.3840,2.3086,0.6746,3.5267,
Staphylococcus haemolyticus JCSC1435,2.8226,2.4191,2.4745,0.3976,3.1858,0.6701,0.9556,0.3976,0.3976,0.4597,6.6460,1.6520,1.3903,2.1361,5.2536,0.6915,2.3870,1.4511,1.5209,1.2617,0.8073,0.3199,0.0455,1.7606,0.0504,0.0455,0.0433,0.0881,0.0504,0.0455,0.0455,0.0433,0.0433,0.0499,0.0504,1.0547,0.0456,0.6575,0.2757,0.1754,0.0504,0.4814,0.3976,0.0499,0.0456,0.0433,0.5730,0.1731,0.3976,0.0000,0.0000,0.0000,0.0000,0.0000,0.0000,0.1475,0.3976,0.2483,0.0455,0.0456,0.0881,0.0499,0.0456,0.0455,0.5982,0.1667,0.0027,9.4858,0.1667,0.6915,2.0874,1.8532,0.7648,0.2483,0.1731,1.0927,0.2855,0.3989,0.8897,0.5569,0.1754,0.6526,1.0210,1.8532,0.1667,0.6392,0.3454,0.5007,0.5730,0.3454,0.5339,0.1240,1.8353,0.4407,1.1332,0.2822,0.4649,0.4790,0.5311,0.9167,2.3812,3.7491,2.3486,5.3324,4.3058,2.4512,
Staphylococcus lugdunensis HKU09-01,2.8163,4.6833,0.5526,0.0476,1.1156,0.1558,0.3910,0.0476,0.0476,0.5370,2.3150,1.6912,1.9039,1.5124,5.9536,0.5982,0.7965,0.8144,1.1297,1.4646,0.3907,0.4607,1.2884,1.5077,0.0528,0.1696,0.0919,0.3644,0.0528,0.0457,0.0457,0.0919,0.2226,0.0965,0.0528,0.6398,0.0482,0.0906,0.6107,0.3488,0.0528,0.0457,0.0906,0.0965,0.0482,0.3907,0.3550,0.0965,0.2302,0.0000,0.0000,0.0000,0.0000,0.0000,0.0000,0.0482,0.0906,0.7637,0.0457,0.0482,0.3644,0.0965,0.0482,0.0457,0.3644,0.0919,0.0000,0.5588,10.3815,10.7055,0.6653,0.1567,0.3550,0.5784,0.1554,0.9568,0.4856,0.6839,0.2222,0.0482,0.3488,0.2929,1.1297,1.5799,0.6998,1.2480,1.8750,0.8154,0.5435,0.3488,0.3233,0.2093,0.0906,0.2846,0.3233,0.0965,0.3910,0.9324,2.0570,6.5024,0.8127,3.0244,3.0512,2.4954,2.0348,0.8354,
Staphylococcus lugdunensis N920143,2.5929,4.2713,1.2734,0.0684,2.2865,0.3938,1.3488,0.0684,0.0684,0.5875,4.3125,2.3627,3.7721,1.5807,2.7919,0.1813,0.9598,0.6763,1.1084,1.5784,1.0704,1.1941,0.3576,2.4165,0.0127,0.0316,0.0319,0.1087,0.0127,0.0316,0.0110,0.0607,0.0607,0.1089,0.0127,3.1428,0.0323,0.0121,1.6931,0.0127,0.0839,0.2491,0.0121,0.0666,0.0323,0.0607,0.2886,0.0666,0.0121,0.0000,0.0000,0.0000,0.0000,0.0000,0.0000,0.1162,0.0121,0.0364,0.0656,0.0323,0.1087,0.0666,0.0323,0.0110,2.1331,0.6990,0.0000,0.8898,10.7632,10.6577,3.8670,0.4853,1.1266,0.3474,0.0666,1.2629,1.0366,0.3754,0.5258,0.1694,0.1984,0.3137,0.1724,0.1147,0.2336,2.1937,0.1984,0.2176,0.5510,0.8014,1.7012,0.0306,0.7274,0.2972,2.3203,0.2359,0.2358,0.1895,1.3144,2.8736,1.1390,4.8533,1.2861,4.2600,2.9870,2.9951,
Staphylococcus pseudintermedius ED99,3.1528,6.1168,5.3441,0.0000,0.3340,0.0659,0.1820,0.0000,0.0000,0.0659,3.0061,0.7681,1.0484,0.3718,6.0534,0.3138,0.3521,0.0200,1.1244,0.1879,0.2744,0.1661,0.0209,0.6115,0.0209,0.0000,0.0906,0.0000,0.0000,0.0000,0.0000,0.0172,0.0172,0.0056,0.0000,0.7219,0.0000,0.0000,0.1820,0.0000,0.0000,0.0209,0.0000,0.0056,0.0000,0.0172,0.5404,0.0056,0.0000,0.0000,0.0000,0.0000,0.0000,0.0000,0.0000,0.0165,0.0000,0.0000,0.0000,0.0000,0.0200,0.0056,0.0165,0.0000,0.0200,0.0526,0.0000,0.1661,0.3667,0.2949,8.9375,1.1046,0.8656,0.0200,0.0183,0.0185,0.0786,0.0229,0.1651,0.1483,0.1879,0.0864,0.0480,1.0573,0.1411,0.6455,0.5219,0.0786,0.0000,0.3340,0.2193,0.0173,0.0738,0.0000,0.3042,0.0249,0.0173,0.2588,1.2821,0.7072,1.9538,3.8942,4.0432,3.8738,3.3855,0.2864,
Staphylococcus pseudintermedius HKU10-03,4.4364,7.0316,5.4650,0.0317,0.2918,0.1514,0.6329,0.0317,0.0317,0.0453,2.9100,1.4149,0.5218,1.3285,1.3632,0.3359,1.0901,0.0794,0.1758,0.3552,0.0512,0.1201,0.4817,0.7721,0.0358,0.0105,0.0105,0.0108,0.1366,0.0105,0.0105,0.0105,0.0105,0.0647,0.0358,0.2298,0.0104,0.0110,0.3359,0.0358,0.0537,0.0435,0.0748,0.0647,0.0104,0.0105,0.2613,0.0647,0.0110,0.0000,0.0000,0.0000,0.0000,0.0000,0.0000,0.0104,0.0110,0.0361,0.0105,0.0104,0.0794,0.0647,0.0104,0.0105,0.0361,0.0512,0.0027,0.0317,0.0105,0.2754,0.7721,12.4543,0.5626,0.0361,0.1572,0.6668,0.5765,0.1347,0.0775,0.3028,0.9841,0.3252,0.3007,0.0105,0.0105,0.1615,0.2014,0.0778,0.1275,0.7474,0.1222,0.1720,0.0317,0.0794,0.2543,0.0107,0.3285,0.1853,0.9395,2.3068,4.4653,4.3239,3.1290,4.9164,5.2222,0.3306,
Staphylococcus saprophyticus subsp. saprophyticus ATCC 15305,2.3581,4.1532,4.3248,0.0818,2.0553,0.2246,0.3808,0.0818,0.0818,0.2670,4.9884,1.0079,1.8472,2.0733,5.9391,0.4684,0.4950,0.6304,0.5186,0.2357,0.8133,0.6293,0.3904,1.3829,0.0513,0.0809,0.1769,0.2054,0.0513,0.0809,0.0444,0.1769,0.4470,0.0916,0.0513,0.8030,0.0465,0.0818,0.2164,0.0950,0.0950,0.0809,0.1624,0.0916,0.0465,0.1769,0.5940,0.0916,0.0468,0.0000,0.0000,0.0000,0.0000,0.0000,0.0000,0.0949,0.0468,1.0836,0.0444,0.0465,0.1392,0.0916,0.0465,0.0444,0.3733,0.7446,0.0027,1.2758,1.2909,0.8805,3.0837,0.4186,9.0814,0.5758,0.5275,0.6884,0.8985,0.4179,0.1643,0.2246,0.7009,0.3047,0.3602,1.0604,1.5740,1.4341,0.7009,0.3048,0.8100,0.4532,0.5507,0.0887,0.2227,0.7422,1.4674,0.5369,0.3808,0.2785,1.3546,2.5851,2.7752,4.0350,3.7104,5.3572,2.7947,0.9650,
Staphylococcus warneri SG1,1.7457,5.4788,1.9383,0.0419,0.9105,0.1962,1.8588,0.0419,0.0419,0.3454,6.3673,1.4884,1.9883,2.8288,4.3691,0.0915,0.8531,0.4257,0.6777,0.4378,0.8473,2.2564,0.1352,0.9192,0.0169,0.0026,0.1381,0.6384,0.0169,0.0026,0.0026,0.0136,0.0354,0.0181,0.0169,0.8882,0.0336,0.1239,0.8069,0.2064,0.0169,0.2653,0.4510,0.0406,0.0336,0.0136,0.6790,0.0406,0.1239,0.0000,0.0000,0.0000,0.0000,0.0000,0.0000,0.3120,0.1239,0.4060,0.0026,0.0614,0.4060,0.0406,0.1469,0.0026,1.0409,0.3144,0.0026,0.4975,0.4800,0.4171,2.7506,0.5473,0.7906,9.4098,0.5702,0.6185,1.1533,0.1000,0.5437,0.5906,0.0026,0.0692,1.1501,1.7654,0.4018,0.8264,0.4446,0.2616,1.0385,0.0484,1.5286,0.0819,0.5245,0.4150,1.1156,0.0824,0.1321,0.9647,0.7453,0.8786,1.0982,4.7271,1.8042,1.3743,0.3424,4.3147,
Staphylothermus hellenicus DSM 12710,0.4061,1.4704,1.5532,0.0000,5.1415,0.0491,1.0755,0.0000,0.0000,0.0025,4.5074,1.1093,0.2623,0.1160,4.6644,0.6744,0.5988,0.2551,0.0412,0.0026,0.0476,0.0919,0.0476,0.3845,0.0487,0.0026,0.0026,0.0026,0.0031,0.0026,0.0026,0.0026,0.0476,0.0025,0.0487,0.5633,0.0025,0.0000,0.0421,0.1368,0.0487,0.0026,0.0000,0.0025,0.0025,0.0026,0.0027,0.0025,0.0000,0.0000,0.0000,0.0000,0.0000,0.0000,0.0000,0.1397,0.0230,0.0460,0.0026,0.0025,0.0026,0.0025,0.0025,0.0026,0.0026,0.4378,0.0000,0.0230,0.6529,0.0025,0.0896,0.4378,0.0442,0.0026,13.4713,0.0000,0.0491,0.5988,0.0025,0.0025,0.0487,0.0025,0.0412,1.2106,0.1352,0.4581,0.1368,0.2438,0.0442,0.1368,0.0358,0.1264,0.0230,0.0460,0.2056,0.1160,0.3059,0.1245,2.2717,0.9429,0.8920,3.3083,1.0074,0.1160,1.8613,0.8276,
Streptococcus agalactiae 2603V/R,0.1068,0.2993,0.0835,0.0049,1.6909,0.1483,0.3675,0.0049,0.0049,0.1673,4.0916,2.1924,1.7742,0.7877,2.7528,0.2259,0.6148,0.2907,0.4975,1.3360,0.0835,0.0472,0.7515,0.9172,0.0000,0.0000,0.0000,0.0086,0.0000,0.0000,0.0000,0.0000,0.0209,0.0000,0.0209,1.3992,0.0000,0.0049,0.2259,0.0835,0.0000,0.0000,0.0049,0.0000,0.0000,0.0000,0.1331,0.0000,0.0049,0.0000,0.0000,0.0000,0.0000,0.0000,0.0000,0.0000,0.0049,0.0000,0.0000,0.0165,0.0599,0.0000,0.0165,0.0000,0.0600,0.7515,0.0000,0.0187,0.0835,0.2972,0.3955,0.1879,0.0775,0.0471,0.1870,13.0087,0.1863,0.0194,0.3237,0.0000,0.0000,0.0875,0.1672,0.7515,0.5219,1.8780,0.3340,0.1331,0.0500,0.3340,0.2069,0.0000,0.0748,0.4701,0.2967,0.2972,0.1183,0.0194,1.6892,2.5508,1.0835,0.6733,2.4513,1.9899,1.8804,3.1377,
Streptococcus dysgalactiae subsp. equisimilis AC-2713,1.1247,3.6010,5.6096,0.0106,0.3508,0.1180,0.4965,0.0106,0.0106,0.0328,2.6714,1.7806,2.8371,1.7931,1.4097,0.0345,0.5225,0.0794,0.1184,0.3508,0.3508,0.2392,0.0806,1.0443,0.0127,0.0104,0.0104,0.0361,0.0127,0.0104,0.0104,0.0104,0.0104,0.0313,0.0839,0.7222,0.0328,0.0307,0.1177,0.0127,0.0127,0.0806,0.0307,0.0313,0.0328,0.0104,0.1981,0.0313,0.0307,0.0000,0.0000,0.0000,0.0000,0.0000,0.0000,0.0117,0.0307,0.0108,0.0104,0.0328,0.1324,0.0313,0.0117,0.0104,0.0361,0.7942,0.0000,0.0924,0.1940,0.0313,0.6536,0.7942,0.0399,0.0108,0.0942,0.1161,11.3825,0.3335,0.8506,0.2404,0.1984,0.1184,0.5337,0.5509,0.5509,0.7773,0.5572,0.4358,0.3599,1.0889,0.4957,0.2367,0.2726,0.1324,0.7222,0.1184,0.4965,0.1275,5.2222,1.2232,3.4595,4.7171,3.3970,3.8711,0.7756,1.2619,
Streptococcus equi subsp. zooepidemicus MGCS10565,3.2091,2.1470,1.9899,0.0050,0.6870,0.2813,0.3490,0.0050,0.0050,0.0043,2.1159,0.2906,1.5467,0.9213,3.4874,0.2626,0.5765,0.1023,0.1422,0.4669,0.8430,0.6061,0.1901,0.7987,0.0071,0.0211,0.0000,0.0593,0.0000,0.0000,0.0000,0.0058,0.0000,0.0052,0.0000,1.1740,0.0043,0.0237,0.0226,0.0071,0.0000,0.0600,0.0504,0.0469,0.0043,0.0058,0.4819,0.0209,0.1429,0.0000,0.0000,0.0000,0.0000,0.0000,0.0000,0.0000,0.0237,0.0066,0.0000,0.0000,0.0263,0.0209,0.0000,0.0211,0.0550,0.1505,0.0000,0.0189,0.3873,0.3507,0.4522,0.1933,0.1833,0.0209,0.3481,0.2732,0.2813,9.7498,0.1563,0.2813,0.4586,0.5828,0.9213,0.5937,1.1353,0.3689,0.4586,0.2507,0.1617,0.9383,0.8305,0.3233,0.5947,0.2200,0.8481,0.0502,0.3490,0.3287,1.6613,0.2813,2.4213,3.6965,2.8484,5.6231,2.3726,1.3565,
Streptococcus gallolyticus subsp. gallolyticus ATCC BAA-2069,1.2500,1.8932,2.5259,0.0000,0.5219,0.2678,0.9165,0.0000,0.0000,0.1130,0.5695,0.4773,1.1988,1.2495,3.6277,0.0173,1.2218,0.4431,0.1171,0.1879,1.0506,0.2505,0.3340,0.1853,0.0172,0.0000,0.0058,0.1926,0.0172,0.0000,0.0000,0.0058,0.0545,0.0856,0.0172,0.1366,0.0045,0.0630,0.0847,0.0172,0.0906,0.0835,0.0058,0.0856,0.0045,0.0058,0.0000,0.0856,0.0058,0.0000,0.0000,0.0000,0.0000,0.0000,0.0000,0.0045,0.0058,0.2021,0.0000,0.0045,0.1926,0.0856,0.0422,0.0000,0.1926,0.0735,0.0000,0.4751,0.0735,0.1270,0.2750,0.1930,0.0764,0.0717,0.1757,0.4414,0.2424,0.1718,11.1281,0.0790,5.6488,0.0495,0.5933,0.8981,0.6412,0.4413,0.0509,0.0764,0.3054,0.0863,0.1299,0.0055,0.0189,0.0481,0.2921,0.0950,0.1820,0.0191,0.6771,0.9456,2.7149,6.3830,3.2193,3.5670,4.7209,1.7938,
Streptococcus infantarius subsp. infantarius CJ18,1.5054,4.2879,1.8487,0.0217,0.5937,0.0196,1.3229,0.0217,0.0217,0.0196,4.4040,1.3979,0.5541,1.3905,1.2194,0.2226,1.5426,0.3276,0.6078,0.3873,0.6781,0.1294,0.8430,0.8539,0.0058,0.0000,0.0000,0.2156,0.0058,0.0215,0.0072,0.0058,0.0058,0.0299,0.0000,1.0552,0.0049,0.0000,0.3025,0.0858,0.0000,0.1463,0.0000,0.0050,0.0196,0.0296,0.1197,0.0050,0.0050,0.0000,0.0000,0.0000,0.0000,0.0000,0.0000,0.0000,0.0059,0.1505,0.0058,0.0000,0.0846,0.0050,0.0049,0.0000,0.9490,0.0090,0.0000,0.1960,0.5361,0.0484,0.8284,0.3958,0.0589,0.0955,0.2908,0.0898,0.4897,0.1838,0.2263,11.7762,0.1088,0.2634,0.7174,0.6036,0.7720,0.3626,1.4844,0.3024,0.4382,0.0296,0.7651,0.2859,0.6479,0.1607,0.3633,0.0975,0.2738,0.0077,0.6101,0.6971,4.7274,4.4860,2.0923,2.6469,1.9740,0.5551,
Streptococcus macedonicus ACA-DC 198,0.9983,1.9605,2.4304,0.0000,0.4593,0.2701,0.4896,0.0000,0.0000,0.1139,1.5976,0.4494,1.2836,0.9341,3.2968,0.1702,1.2146,1.6841,0.3816,0.8344,0.7604,0.2594,0.1465,0.7357,0.1542,0.0233,0.0211,0.5277,0.0412,0.0233,0.0058,0.0089,0.0000,0.3092,0.0721,0.4628,0.0254,0.1192,0.1610,0.0721,0.0721,0.0861,0.0698,0.3092,0.0254,0.0089,0.0446,0.1508,0.0698,0.0000,0.0000,0.0000,0.0000,0.0000,0.0000,0.0046,0.0263,0.2168,0.0058,0.0000,0.5929,0.1508,0.0000,0.0058,0.2746,0.0089,0.0000,0.2373,0.0000,0.1242,0.6959,0.7604,0.4229,0.1202,0.0431,1.3937,0.2102,0.2635,5.7719,0.0554,11.4610,0.0431,0.3824,1.0350,0.4669,0.8204,0.0171,0.3454,0.2583,0.0384,0.4619,0.0270,0.1480,0.0881,0.3638,0.1430,0.1224,0.0446,1.0660,2.2177,3.0916,5.2988,3.6354,4.5598,3.0816,2.2519,
Streptococcus mutans UA159,3.7510,3.2411,3.8488,0.0153,0.4808,0.0467,0.3400,0.0153,0.0153,0.1430,1.2416,0.5953,1.9009,1.6467,3.5619,0.3400,0.3509,0.6249,0.1873,0.2586,1.1122,0.2624,0.6712,1.3974,0.0000,0.0417,0.0508,0.2396,0.0212,0.0158,0.0040,0.0039,0.0039,0.0376,0.0565,1.2177,0.0000,0.0839,0.1814,0.0000,0.0000,0.1504,0.0000,0.0376,0.0000,0.0039,0.3282,0.0376,0.0153,0.0000,0.0000,0.0000,0.0000,0.0000,0.0000,0.0058,0.0699,0.4073,0.0158,0.0000,0.3130,0.0376,0.0000,0.0158,0.5184,0.0937,0.0000,0.1508,0.5755,0.6419,0.9243,0.6816,0.6449,0.4217,0.4975,0.0153,1.0302,0.2578,0.7688,0.5618,0.2823,10.6254,0.3621,0.2820,0.3718,1.5093,0.9383,0.9876,0.6359,0.9383,1.5947,0.1327,1.2091,0.7611,1.2177,0.1873,0.3400,2.1088,0.6964,3.1668,2.5249,4.4336,2.5667,3.4457,4.0146,2.4534,
Streptococcus oligofermentans AS 1.3089,2.3501,1.3734,4.2717,0.0307,1.4701,0.1361,0.3359,0.0307,0.0307,0.1361,7.2840,0.7304,0.5384,1.5808,5.2609,0.7649,0.3238,0.5781,0.4154,0.1727,0.2988,0.0236,0.4941,0.9748,0.0122,0.0388,0.0350,0.0381,0.0122,0.0388,0.0108,0.0110,0.0850,0.0373,0.0122,0.1765,0.0107,0.0000,0.0735,0.0470,0.1460,0.1003,0.0000,0.0119,0.0107,0.0850,0.0108,0.0119,0.0000,0.0000,0.0000,0.0000,0.0000,0.0000,0.0000,0.0364,0.0000,0.3217,0.0108,0.0107,0.0788,0.0119,0.0866,0.0108,0.2098,0.7638,0.0027,0.0945,0.5810,0.0119,0.3684,0.4627,0.1799,0.1398,0.3016,0.1607,0.3958,0.1799,0.0803,0.6370,0.4133,0.6435,11.5370,2.1632,0.5085,0.3816,0.7262,0.3238,1.2952,0.2712,0.3982,0.1181,0.2503,0.2580,0.1848,0.2295,0.5319,0.0756,1.2208,0.5198,2.4083,2.5071,3.5078,1.6266,2.5565,1.0676,
Streptococcus parasanguinis ATCC 15912,1.3650,3.8721,1.5532,0.0027,0.9105,0.2352,0.8980,0.0027,0.0027,0.0384,5.1478,1.4228,0.3508,3.1941,4.3864,0.1718,0.4019,0.1302,0.2402,0.6529,0.0026,1.1389,0.4378,0.3084,0.0031,0.0026,0.0026,0.0026,0.0031,0.0026,0.0026,0.0026,0.0026,0.0572,0.0031,0.1691,0.0026,0.0027,0.1718,0.0031,0.0487,0.0476,0.0027,0.0436,0.0026,0.0026,0.0027,0.0027,0.0027,0.0000,0.0000,0.0000,0.0000,0.0000,0.0000,0.0026,0.0027,0.0026,0.0026,0.0026,0.0026,0.0027,0.0026,0.0026,0.1302,0.0026,0.0000,0.2386,0.0026,0.0027,0.2702,0.0026,0.5988,0.0026,0.0436,0.1220,0.4089,0.1245,0.1228,0.1457,0.0487,0.1432,0.6305,12.8156,0.0026,1.0009,0.2674,0.0442,0.1245,0.4404,0.0148,0.0028,0.1220,0.0460,0.4829,0.0027,0.1124,0.1245,0.4208,1.1037,1.4902,3.7775,2.5854,4.2590,4.9356,0.9373,
Streptococcus pneumoniae 670-6B,1.0653,3.9687,3.4670,0.1300,1.9307,0.3262,2.1622,0.1300,0.1300,0.3262,6.4097,2.2337,1.2324,1.5712,3.6076,0.2300,0.2152,0.6629,0.3991,0.6745,0.0732,1.1804,0.3067,0.4509,0.0812,0.1224,0.0732,0.1490,0.0812,0.1224,0.0704,0.0732,0.1467,0.0779,0.0812,0.2693,0.0690,0.0769,0.4168,0.0812,0.0812,0.1224,0.0769,0.0779,0.0690,0.0732,0.6280,0.1470,0.1300,0.0000,0.0000,0.0000,0.0000,0.0000,0.0000,0.1341,0.0769,0.4237,0.0704,0.0690,0.0793,0.0779,0.1341,0.0704,0.1490,0.1051,0.0028,0.2586,0.1467,0.1470,0.4094,0.0732,0.2152,0.0456,0.4507,0.7304,0.9969,0.6280,0.6808,0.2283,0.4347,0.3165,0.7250,0.0732,11.6840,1.2324,0.9718,0.1359,0.7792,0.0812,0.7977,0.2346,0.4145,0.4237,0.0754,1.5387,0.6194,0.3077,1.5016,0.6922,0.3519,2.9354,1.8549,3.1122,2.1207,1.3115,
Streptococcus pneumoniae SPN032672,3.8457,2.3289,3.2185,0.0307,1.8245,0.2572,0.6687,0.0307,0.0307,0.0078,2.0656,0.8000,1.4329,1.7566,3.4248,0.7987,0.2153,0.0821,1.6644,0.0493,0.1562,1.1221,0.8213,1.2746,0.0059,0.0059,0.0000,0.0083,0.0059,0.0059,0.0000,0.0000,0.0000,0.0052,0.0059,0.9983,0.0000,0.0000,0.2783,0.0059,0.0426,0.0059,0.0000,0.0206,0.0000,0.0000,0.0270,0.0052,0.0000,0.0000,0.0000,0.0000,0.0000,0.0000,0.0000,0.0000,0.0000,0.1479,0.0000,0.0000,0.0083,0.0052,0.0000,0.0000,0.0576,0.5878,0.0000,0.1686,0.3823,0.1873,1.2459,0.9666,0.2724,0.0083,0.0052,0.0487,0.0599,0.3788,0.5379,0.0687,1.1299,0.8283,0.2569,1.5179,0.0860,7.9561,0.3065,0.1153,1.4974,0.7050,0.7190,0.0180,0.5315,0.0000,0.7673,0.0085,0.0180,0.0806,0.4519,1.6634,1.5385,2.6560,3.1490,3.8306,4.8628,1.2146,
Streptococcus pyogenes A20,1.1563,1.2693,1.2951,0.1163,2.2652,0.3055,1.2347,0.1163,0.1163,0.1604,0.4045,0.8555,0.8194,2.2497,3.6339,0.2639,0.7132,1.1673,0.4041,1.0963,1.3435,1.3748,1.2951,0.6899,0.0169,0.0156,0.0159,0.3010,0.0405,0.0028,0.0028,0.0159,0.1504,0.0708,0.0169,0.6380,0.0389,0.0371,0.3408,0.0169,0.0169,0.2256,0.0875,0.0708,0.0174,0.0159,0.6390,0.0708,0.0168,0.0000,0.0000,0.0000,0.0000,0.0000,0.0000,0.0389,0.0371,0.6887,0.1397,0.0174,0.6737,0.0708,0.0389,0.0028,0.5431,0.4417,0.0000,3.2336,0.4037,0.5973,0.3587,1.4787,0.4596,0.5449,0.8927,0.8866,2.3296,1.8141,0.7539,1.6361,0.4045,0.7867,1.4207,0.7011,1.1613,1.6172,11.8167,0.5501,0.6178,0.1646,0.6775,0.1260,0.8171,0.8080,0.9599,0.3898,0.2599,0.6780,1.9187,2.0498,3.3448,2.5545,3.1020,4.1619,1.6452,5.2473,
Streptococcus salivarius 57.I,0.7273,0.7432,1.0301,0.1012,1.2074,0.3442,0.5818,0.1012,0.1012,0.1700,4.8147,0.9076,0.9323,1.3045,0.5650,0.5818,0.9076,0.4865,0.9238,0.3575,1.4595,1.4086,2.6502,0.7273,0.0996,0.0471,0.0433,0.0986,0.1663,0.0471,0.0586,0.0433,0.1667,0.0572,0.0996,0.5993,0.0426,0.1012,0.4684,0.0996,0.0546,0.2687,0.0459,0.1031,0.0426,0.0433,0.7819,0.0572,0.1592,0.0000,0.0000,0.0000,0.0000,0.0000,0.0000,0.0426,0.0459,0.5768,0.2477,0.0426,0.2022,0.0572,0.0426,0.0903,0.1299,0.1667,0.0000,0.3566,0.1667,0.4314,1.3911,0.3352,0.9076,0.2022,0.5308,1.8531,1.5079,0.5022,0.6571,0.5650,1.0291,0.0789,0.7099,1.4595,0.8073,1.0746,0.7289,8.5404,0.7819,0.3566,0.1428,0.0477,0.7665,0.5412,0.0639,0.3422,0.3808,0.5439,2.3204,1.5079,2.4766,3.4659,2.5581,3.8233,1.7270,1.1506,
Streptococcus suis BM407,0.5012,2.2744,2.9177,0.0068,0.7003,0.2542,0.5431,0.0068,0.0068,0.2290,4.4040,1.1309,0.9808,2.0092,2.8675,0.3675,0.1760,0.1531,0.6322,0.4782,0.1890,0.3253,0.1896,0.1866,0.0058,0.0000,0.0000,0.0000,0.0058,0.0000,0.0000,0.0000,0.0000,0.0000,0.0058,0.3530,0.0000,0.0000,0.2259,0.0058,0.0545,0.0211,0.0000,0.0000,0.0000,0.0000,0.0391,0.0000,0.0000,0.0000,0.0000,0.0000,0.0000,0.0000,0.0000,0.0000,0.0000,0.0000,0.0000,0.0000,0.0000,0.0000,0.0000,0.0000,0.0000,0.0000,0.0000,0.2511,0.0210,0.3104,0.5204,0.1890,0.0706,0.0202,0.1953,1.5846,0.4628,0.2133,0.0555,0.3130,0.0609,0.2663,1.5343,2.4743,1.2956,1.3390,0.4740,0.1760,10.0750,0.4740,0.1265,0.1532,0.1880,0.0809,0.1853,0.0084,0.0449,0.1145,2.3413,0.6917,1.4877,2.3474,1.0895,2.3021,1.9262,2.2824,
Streptococcus thermophilus JIM 8232,1.2264,4.1442,1.7811,0.1038,1.1620,0.2645,0.3704,0.1038,0.1038,0.1188,0.0300,0.6052,0.9647,0.6144,2.4301,1.2057,1.8409,0.4243,1.3913,1.5148,0.5373,0.4611,0.4700,0.6371,0.0032,0.0933,0.0026,0.0490,0.0300,0.0027,0.0175,0.0026,0.0492,0.0167,0.0032,0.1751,0.0032,0.0452,0.0439,0.0300,0.0032,0.0027,0.0028,0.0167,0.0032,0.0026,0.0028,0.0464,0.0028,0.0000,0.0000,0.0000,0.0000,0.0000,0.0000,0.1488,0.0452,0.3710,0.0175,0.0528,0.0490,0.0167,0.0032,0.0933,0.1515,0.3380,0.0000,0.0934,0.2335,0.0939,0.9207,0.1396,0.2036,0.1104,0.0939,0.8416,0.2311,0.3556,0.1025,0.4567,0.0804,0.1234,0.9308,2.5334,0.5373,0.3420,0.0300,0.3974,0.0920,12.4503,1.2137,0.1321,0.3416,0.2458,0.1684,0.2104,0.4582,0.2537,0.3710,1.2623,4.2008,3.1683,2.5786,5.7621,2.7010,1.2137,
Thermoanaerobacter brockii subsp. finnii Ako-1,2.2904,1.9778,0.8161,0.1029,2.6696,0.2816,0.6915,0.1029,0.1029,0.1347,3.1844,2.0686,2.9193,2.8745,2.0399,0.2757,0.4155,0.4844,0.8707,0.7322,0.9916,0.1560,0.4813,2.3511,0.2710,0.0438,0.1694,0.3768,0.0511,0.0438,0.0438,0.0440,0.0933,0.2147,0.0511,2.6037,0.1347,0.0854,0.2757,0.0511,0.0511,0.3389,0.0854,0.1462,0.1347,0.0933,0.5823,0.1462,0.0854,0.0000,0.0000,0.0000,0.0000,0.0000,0.0000,0.0471,0.0854,0.3989,0.1686,0.0831,0.3768,0.1462,0.2472,0.0438,0.2929,0.1694,0.0027,0.2266,0.2493,0.3086,1.3789,0.3405,0.3903,0.3989,1.1645,2.1191,0.5510,0.6615,0.0994,0.5185,0.4756,0.3070,2.8745,1.4826,1.3306,2.9193,0.1778,0.9756,0.3262,2.1826,6.2108,0.9556,2.7836,9.5214,6.2108,8.3066,1.2571,2.3881,0.6248,2.4497,0.7979,2.7630,0.9520,1.7202,1.3434,3.9046,
Thermoanaerobacter italicus Ab9,1.3359,0.4981,3.1439,0.0450,0.4510,0.0910,2.1182,0.0450,0.0450,0.4598,3.7319,0.8912,1.3359,3.4346,1.3691,1.7006,0.6244,0.1968,0.7123,0.4510,1.7016,0.3071,1.3306,0.8203,0.0512,0.0440,0.1696,0.3208,0.1023,0.0440,0.0440,0.0441,0.0441,0.0475,0.0512,1.1698,0.0454,0.0450,1.8543,0.0512,0.0512,0.0933,0.0450,0.0475,0.0454,0.0441,0.0757,0.0475,0.0450,0.0000,0.0000,0.0000,0.0000,0.0000,0.0000,0.1755,0.0450,0.6147,0.1694,0.0454,0.1333,0.0475,0.1755,0.1694,0.8488,0.2407,0.0027,0.1561,0.4413,0.2365,1.3359,0.2407,0.2167,0.1968,1.2366,0.1916,0.2517,0.0459,0.2365,0.0910,0.2598,0.0918,0.7123,1.3178,0.9798,1.3359,0.7117,0.3996,0.3996,1.7321,0.9593,6.5014,10.1286,1.6695,0.9593,2.0794,2.5710,2.3776,1.8276,3.5332,1.6171,2.0520,0.3173,1.7524,0.7455,2.3578,
Thermoanaerobacter mathranii subsp. mathranii str. A3,1.7780,0.3189,3.0202,0.0110,0.4713,0.0368,1.6970,0.0110,0.0110,0.1403,3.5662,0.9042,1.7780,3.2910,2.1405,0.7861,0.9042,0.1046,0.7021,0.7036,1.2891,0.3189,0.4713,1.0148,0.0117,0.0106,0.0819,0.3605,0.0397,0.0106,0.0106,0.0106,0.0106,0.0114,0.0117,1.1583,0.0114,0.0110,0.8837,0.0117,0.0117,0.0379,0.0110,0.0114,0.0114,0.0106,0.0523,0.0114,0.0110,0.0000,0.0000,0.0000,0.0000,0.0000,0.0000,0.0855,0.0110,0.4131,0.0817,0.0114,0.0614,0.0114,0.0855,0.0817,0.4131,0.1329,0.0026,0.0747,0.4634,0.1290,1.7780,0.1329,0.2261,0.1046,1.2029,0.0747,0.1403,0.0282,0.1290,0.0368,0.1407,0.0359,0.4801,0.9699,0.9699,1.5968,0.4745,0.2261,0.6363,1.6691,1.3266,6.5530,12.5208,1.3279,0.9206,1.6115,1.6970,1.9590,1.6745,2.8446,1.3377,1.6094,0.6111,1.6798,0.5356,2.4297,
Thermoanaerobacter pseudethanolicus ATCC 33223,2.2904,1.9778,0.8161,0.1029,2.6696,0.2816,0.6915,0.1029,0.1029,0.1347,3.1844,2.0686,2.9193,2.8745,2.0399,0.2757,0.4155,0.4844,0.8707,0.7322,0.9916,0.1560,0.4813,2.3511,0.2710,0.0438,0.1694,0.3768,0.0511,0.0438,0.0438,0.0440,0.0933,0.2147,0.0511,2.6037,0.1347,0.0854,0.2757,0.0511,0.0511,0.3389,0.0854,0.1462,0.1347,0.0933,0.5823,0.1462,0.0854,0.0000,0.0000,0.0000,0.0000,0.0000,0.0000,0.0471,0.0854,0.3989,0.1686,0.0831,0.3768,0.1462,0.2472,0.0438,0.2929,0.1694,0.0027,0.2266,0.2493,0.3086,1.3789,0.3405,0.3903,0.3989,1.1645,2.1191,0.5510,0.6615,0.0994,0.5185,0.4756,0.3070,2.8745,1.4826,1.3306,2.9193,0.1778,0.9756,0.3262,2.1826,6.2108,0.9556,2.7836,9.5214,6.2108,8.3066,1.2571,2.3881,0.6248,2.4497,0.7979,2.7630,0.9520,1.7202,1.3434,3.9046,
Thermoanaerobacter sp. X513,2.2904,1.9778,0.8161,0.1029,2.6696,0.2816,0.6915,0.1029,0.1029,0.1347,3.1844,2.0686,2.9193,2.9665,2.0399,0.2757,0.4155,0.4844,0.7278,0.7322,0.9916,0.1560,0.4813,2.3511,0.2710,0.0438,0.1694,0.3768,0.0511,0.0438,0.0438,0.0440,0.0933,0.1502,0.0511,2.6037,0.1347,0.0854,0.2757,0.0511,0.0511,0.3389,0.0854,0.0939,0.1347,0.0933,0.5823,0.0939,0.0854,0.0000,0.0000,0.0000,0.0000,0.0000,0.0000,0.0471,0.0854,0.3989,0.1686,0.0831,0.3768,0.0939,0.2472,0.0438,0.2929,0.1694,0.0027,0.2266,0.2493,0.2298,1.3789,0.3405,0.3903,0.3989,0.7278,2.1191,0.5510,0.6615,0.0985,0.5185,0.4756,0.3040,2.0871,1.4826,1.3306,2.9193,0.1778,0.9756,0.3262,2.1826,6.2108,0.9556,2.7836,9.5214,6.2108,10.2019,1.2571,2.3881,0.6248,2.4497,0.7979,2.7630,0.9520,2.5082,1.3434,3.9046,
Thermoanaerobacter sp. X514,2.6150,2.2229,0.6700,0.1437,2.9762,0.3498,0.6817,0.1437,0.1437,0.1796,4.1425,2.1764,3.3004,2.7904,2.2825,0.2677,0.6130,0.5815,0.8585,1.1955,1.1539,0.2063,0.3485,2.6814,0.1575,0.0699,0.2246,0.4615,0.0823,0.0699,0.0699,0.0702,0.1313,0.2026,0.0823,2.9560,0.1796,0.1223,0.2677,0.0823,0.0823,0.4235,0.1223,0.1354,0.1796,0.1313,0.8221,0.1354,0.1223,0.0000,0.0000,0.0000,0.0000,0.0000,0.0000,0.0740,0.1223,0.4889,0.2234,0.1184,0.4615,0.1354,0.3130,0.0699,0.3672,0.2246,0.0028,0.2903,0.3168,0.2973,1.6161,0.4256,0.5865,0.4889,0.8585,2.3789,0.4534,0.9290,0.1410,0.4052,0.5823,0.3855,2.3388,1.6974,1.1539,3.3004,0.2384,0.9837,0.4122,1.9902,5.9767,0.9450,2.5841,9.3302,5.9767,10.0095,1.2457,2.3906,0.4985,2.7336,0.6382,2.5813,1.0899,2.3388,1.5298,4.3680,
Thermoanaerobacter tengcongensis MB4 (Caldanaerobacter subterraneus,0.2382,1.0839,3.0060,0.0326,2.0595,0.0820,0.0921,0.0326,0.0326,0.1877,5.2703,0.4395,0.6133,2.7742,2.1377,0.0921,0.4395,0.1874,0.4163,0.1329,0.1965,0.5917,0.0337,0.6133,0.0131,0.0106,0.0435,0.0782,0.0377,0.0106,0.0106,0.0105,0.1965,0.0110,0.0377,0.1174,0.0108,0.0104,0.0921,0.0131,0.0421,0.4634,0.0326,0.0962,0.0108,0.0816,0.1824,0.0110,0.0104,0.0000,0.0000,0.0000,0.0000,0.0000,0.0000,0.0108,0.0326,0.0782,0.0337,0.0411,0.0106,0.0110,0.1430,0.0106,0.1874,0.1965,0.0000,0.1172,0.2918,0.2490,0.5561,0.0816,0.3282,0.3381,0.6227,0.5917,0.5930,0.5142,0.2839,0.1230,0.3880,0.2490,0.2839,2.0890,0.7154,1.0959,0.0802,0.6532,0.1326,1.5388,0.4073,0.0921,0.9817,0.3381,0.4073,0.4163,9.6184,0.1824,1.3563,3.0546,1.8277,1.7271,0.0119,1.7556,0.5303,1.9852,
Thermoanaerobacter wiegelii Rt8.B1,2.7723,2.4314,3.0515,0.1805,1.2215,0.0663,1.2203,0.1805,0.1805,0.0663,2.4002,0.9474,2.1055,4.6842,1.8965,0.2785,0.8182,0.7631,0.8725,0.7426,0.7036,0.2497,0.0990,1.8542,0.2209,0.0107,0.0817,0.2212,0.0131,0.0107,0.0107,0.0106,0.0379,0.7125,0.0377,2.4830,0.0663,0.0646,0.5786,0.0131,0.0864,0.1399,0.0343,0.2763,0.0663,0.1385,0.2605,0.1124,0.0646,0.0000,0.0000,0.0000,0.0000,0.0000,0.0000,0.0121,0.0343,0.4080,0.1399,0.0121,0.2212,0.1124,0.0907,0.0107,0.4128,0.0817,0.0000,0.4899,0.2829,0.1169,1.0877,0.8058,0.1978,0.5198,0.9238,2.3706,1.5996,0.1437,0.3013,0.6917,0.2209,0.1344,1.0550,1.0967,0.2829,1.6328,0.7112,0.5662,0.5662,1.5549,3.4812,2.0271,2.4915,5.0982,4.2559,4.6488,2.7178,9.2822,0.7631,2.0524,1.6352,1.9750,0.3553,2.4860,1.3405,2.8970,
Vulcanisaeta distributa DSM 14429,0.6231,1.6892,2.4586,0.0063,1.0892,0.5431,0.3705,0.0063,0.0063,0.1816,3.9226,0.3032,0.7455,0.2079,0.6394,0.1418,0.7892,0.0302,0.0231,0.9023,1.0974,0.0938,0.1216,0.1023,0.1172,0.0000,0.1107,0.0000,0.0648,0.0000,0.0327,0.0600,0.1056,0.0000,0.1251,0.2250,0.0065,0.0000,0.1262,0.0062,0.2712,0.0000,0.0000,0.0000,0.0065,0.0600,0.1419,0.0000,0.0000,0.0000,0.0000,0.0000,0.0000,0.0000,0.0000,0.0000,0.0000,0.0266,0.0578,0.0065,0.0066,0.0000,0.0000,0.0091,0.0785,0.0306,0.0000,0.0000,1.5101,0.2079,0.0639,0.4401,0.2124,0.0000,0.0924,0.1595,0.0581,0.1789,0.0000,0.0260,0.3997,0.0231,0.3453,1.4268,0.0689,0.0221,1.3882,0.0996,0.5572,0.1668,0.2896,0.0519,0.0594,0.0302,0.1023,0.0924,1.2805,0.2688,11.8924,4.6431,0.5262,3.6591,2.8097,2.2490,0.0730,0.4293,
Vulcanisaeta moutnovskia 768-28,0.6120,1.5348,2.7863,0.1073,0.7395,0.1203,0.5783,0.1073,0.1073,0.1203,5.1061,0.7063,0.3185,1.3146,0.3198,0.3244,0.1766,0.4475,0.1010,0.7395,0.5996,0.4431,0.1216,0.1024,0.0226,0.0000,0.0000,0.0000,0.0342,0.0000,0.0000,0.0000,0.0306,0.0000,0.0161,0.0886,0.0000,0.0000,0.1287,0.0076,0.0643,0.6168,0.0000,0.0000,0.0000,0.0000,0.0196,0.0066,0.0000,0.0000,0.0000,0.0000,0.0000,0.0000,0.0000,0.0000,0.0000,0.0274,0.0625,0.0000,0.0068,0.0000,0.0000,0.0000,0.0729,0.1864,0.0000,0.2201,1.7530,0.1866,0.0591,0.9678,0.2583,0.0311,0.8414,0.5260,0.2251,1.0470,0.1705,0.1282,0.5789,0.0701,0.3558,0.7059,1.3441,0.1073,0.6555,0.0983,0.0983,0.5637,0.1073,0.3312,1.1276,0.3740,1.0526,0.1866,0.6794,0.2096,3.1232,12.4747,0.2897,1.4580,2.3629,1.2915,2.1866,0.3993,
Xylella fastidiosa 9a5c,2.3641,3.1579,6.1711,0.1259,1.1406,0.3268,0.4684,0.1259,0.1259,0.3268,2.5706,1.6436,0.2787,0.7073,2.7677,0.1268,0.1984,0.5298,0.3162,0.2249,1.9307,0.1259,0.3067,0.4040,0.0857,0.1224,0.0704,0.1282,0.3352,0.1224,0.0704,0.1224,0.1224,0.0685,0.0857,0.2091,0.0773,0.1259,0.1268,0.2226,0.5630,0.1224,0.1259,0.3162,0.0773,0.0704,0.6461,0.0685,0.1259,0.0000,0.0000,0.0000,0.0000,0.0000,0.0000,0.1347,0.0791,0.1282,0.0704,0.0773,0.0716,0.0685,0.0773,0.0704,0.1282,0.5379,0.0029,0.0791,0.3067,0.1810,0.6320,0.5379,0.2396,0.2204,0.1810,0.0482,0.3268,0.3062,0.3162,0.3268,1.6223,0.4178,0.1246,1.3115,0.6745,0.1428,1.8154,0.6461,0.9233,0.3067,0.1428,0.0760,0.4849,0.0716,0.1428,0.1810,0.0760,0.6469,0.4141,1.7697,9.8493,5.5194,7.8017,6.5029,6.7060,1.3649,
Xylella fastidiosa M12,1.3107,1.6109,4.1284,0.0326,0.4634,0.2893,0.2331,0.0326,0.0326,0.2893,2.8558,1.7643,1.0188,0.7957,0.8618,0.0340,0.0699,0.1324,0.1436,0.5597,1.0809,0.0326,0.2762,0.3145,0.0131,0.0337,0.0104,0.0361,0.1397,0.0337,0.0106,0.0104,0.0104,0.0107,0.0131,0.1728,0.0855,0.0326,0.2331,0.0378,0.2049,0.0337,0.0326,0.0929,0.0114,0.0104,0.5511,0.0107,0.0326,0.0000,0.0000,0.0000,0.0000,0.0000,0.0000,0.0368,0.0117,0.0361,0.0819,0.0114,0.0108,0.0107,0.0114,0.0106,0.0361,0.1940,0.0000,0.0751,0.0806,0.0685,0.2437,0.5509,0.4367,0.0794,0.3700,0.0751,0.0368,0.1278,0.0308,0.1403,0.3799,0.2138,0.5169,0.7942,0.7942,0.1162,2.3681,0.5511,0.3342,0.0745,0.0134,0.0115,0.0751,0.1902,0.0134,0.3296,0.0115,0.0780,0.5383,3.3330,6.6257,12.6918,6.9064,5.6117,5.2222,0.4920,
Xylella fastidiosa M23,1.5920,5.0117,4.5735,0.0714,0.5919,0.0745,0.0779,0.0714,0.0714,0.6170,3.8223,3.4706,1.2257,1.5960,1.5765,0.0344,0.1926,0.2329,0.1242,0.3624,0.9931,0.0714,0.3732,1.3944,0.0133,0.0343,0.0435,0.0726,0.0383,0.0343,0.0343,0.0105,0.0105,0.0113,0.0133,0.4086,0.0106,0.0321,0.0344,0.0383,0.5159,0.1992,0.0714,0.0356,0.0106,0.0105,0.3557,0.0356,0.0321,0.0000,0.0000,0.0000,0.0000,0.0000,0.0000,0.0359,0.0111,0.4748,0.0108,0.0359,0.0357,0.0356,0.0106,0.0343,0.1202,0.3552,0.0000,0.0757,0.0105,0.0729,0.6425,0.5579,0.0710,0.0664,0.0729,0.0111,0.2090,0.0710,0.0685,0.0359,0.5159,0.1221,1.2498,0.9931,0.9931,0.6425,1.4162,0.6886,0.4439,0.2076,0.5302,0.0116,0.0757,0.1658,0.2088,0.0729,0.0414,0.0793,0.6628,3.7355,4.9529,9.1138,9.8637,12.0978,10.6366,0.9001,
Xylella fastidiosa Temecula1,1.5920,4.4019,5.2396,0.0714,0.3732,0.0745,0.0779,0.0714,0.0714,0.6170,3.2505,3.4706,1.2257,1.5960,1.5765,0.0344,0.1926,0.1200,0.1242,0.3624,0.9931,0.0714,0.3732,1.3944,0.0133,0.0343,0.0435,0.0726,0.0383,0.0343,0.0343,0.0105,0.0105,0.0113,0.0133,0.4086,0.0106,0.0321,0.0344,0.0383,0.5159,0.1992,0.0714,0.0356,0.0106,0.0105,0.3557,0.0356,0.0321,0.0000,0.0000,0.0000,0.0000,0.0000,0.0000,0.0359,0.0111,0.4748,0.0108,0.0359,0.0357,0.0356,0.0106,0.0343,0.1202,0.5579,0.0000,0.0757,0.0105,0.0729,0.6425,0.5579,0.0710,0.0664,0.0729,0.0757,0.2090,0.0710,0.0685,0.0359,0.5159,0.1221,1.2498,0.7154,0.9931,0.6425,1.4162,0.6886,0.4439,0.3850,0.5302,0.0116,0.0757,0.2984,0.2088,0.0729,0.0414,0.0793,0.6628,3.7355,4.9529,9.1138,9.8637,12.0978,10.6366,0.9001,
Xylella fastidiosa subsp. fastidiosa GB514,2.2321,1.0894,3.3155,0.0307,1.1874,0.0329,0.1250,0.0307,0.0307,0.1174,3.5965,0.6919,0.3679,0.0091,7.2150,0.0515,1.3593,0.0000,0.0000,0.2918,1.2074,0.2497,0.2918,0.1289,0.0587,0.0000,0.0072,0.0082,0.0587,0.0000,0.0000,0.0072,0.0072,0.0091,0.0587,0.2882,0.0065,0.0065,0.0695,0.0587,0.0587,0.0115,0.0065,0.0091,0.0065,0.0072,0.2058,0.0091,0.0065,0.0000,0.0000,0.0000,0.0000,0.0000,0.0000,0.0065,0.0065,0.0000,0.0000,0.0065,0.0082,0.0091,0.0065,0.0000,0.0000,0.0214,0.0000,0.0000,0.0856,0.0000,0.1001,1.0492,0.0514,0.0000,0.0000,0.0077,0.0329,0.5582,0.0091,0.1558,0.4423,0.0403,0.0403,0.6972,0.1743,0.1479,0.2645,0.0076,0.4362,0.7265,0.4166,0.0000,0.0000,0.0107,0.0208,0.0111,0.0586,0.0232,0.0379,0.4550,9.5746,7.6330,9.7766,13.8402,12.2483,0.5814,
Zunongwangia profunda SM-A87,1.7291,2.1825,5.1415,0.0153,0.1352,0.0025,0.1352,0.0153,0.0153,0.0025,4.9910,1.3183,1.5883,2.4759,7.5826,0.0847,0.5239,0.2051,0.0372,0.0476,0.8274,0.3561,0.4378,0.5455,0.0032,0.0026,0.0171,0.0477,0.0494,0.0026,0.0026,0.0171,0.0915,0.0372,0.0494,0.3683,0.0025,0.0474,0.0168,0.0032,0.0208,0.1352,0.0217,0.0372,0.0025,0.0171,0.0169,0.0372,0.2219,0.0000,0.0000,0.0000,0.0000,0.0000,0.0000,0.0025,0.0217,0.0474,0.0026,0.0025,0.0477,0.0372,0.0025,0.0026,0.0027,0.7154,0.0000,0.0798,0.3717,0.0692,0.4522,0.2097,0.2474,0.4734,0.6122,0.3721,0.1397,0.1915,0.0150,0.0025,0.0958,0.2485,0.0692,1.1210,0.1457,0.5668,0.5793,0.0448,0.0845,0.2139,0.2197,0.1739,0.4764,0.0909,0.2854,0.1508,0.3050,0.6078,0.3614,0.4532,1.1936,3.2473,4.6525,3.1899,3.6575,9.3211,

