Depth: 1,7,3,2
Depth: 2,5,3,4
Depth: 3,4,9,3
Depth: 4,5,4,5
Depth: 5,5,4,4
Depth: 6,4,5,4
Depth: 7,5,5,6
Depth: 8,6,5,5
Depth: 9,13,6,5
Depth: 10,6,5,5
Depth: 11,6,5,5
Depth: 12,14,6,7
Depth: 13,6,7,6
Depth: 14,7,7,15
Depth: 15,6,6,6
Depth: 16,7,7,14
Depth: 17,8,7,7
Depth: 18,8,9,13
Depth: 19,8,8,7
Depth: 20,8,13,7
Depth: 21,8,8,7
Depth: 22,13,8,9
Depth: 23,8,12,8
Depth: 24,9,9,13
Depth: 25,8,9,9
Depth: 1,1,0,1
Depth: 2,1,1,1
Depth: 3,2,2,9
Depth: 4,1,2,3
Depth: 5,3,2,2
Depth: 6,3,3,3
Depth: 7,3,3,3
Depth: 8,3,4,3
Depth: 9,9,3,4
Depth: 10,5,4,4
Depth: 11,4,4,3
Depth: 12,4,9,5
Depth: 13,5,5,5
Depth: 14,5,7,10
Depth: 15,6,5,5
Depth: 16,5,6,6
Depth: 17,13,6,6
Depth: 18,6,7,10
Depth: 19,7,7,8
Depth: 20,7,12,7
Depth: 21,8,8,8
Depth: 22,14,7,8
Depth: 23,7,13,8
Depth: 24,8,8,9
Depth: 25,13,8,9
