Depth: 1,4,2,2
Depth: 2,12,2,3
Depth: 3,7,4,4
Depth: 4,4,4,5
Depth: 5,5,5,4
Depth: 6,5,6,6
Depth: 7,6,5,19
Depth: 8,6,6,5
Depth: 9,5,7,7
Depth: 10,7,7,15
Depth: 11,7,7,6
Depth: 12,8,9,7
Depth: 13,17,8,8
Depth: 14,10,8,18
Depth: 15,10,9,8
Depth: 16,10,14,8
Depth: 17,8,7,8
Depth: 18,17,9,8
Depth: 19,9,14,11
Depth: 20,9,12,19
Depth: 21,10,11,9
Depth: 22,17,10,11
Depth: 23,18,10,16
Depth: 24,11,18,10
Depth: 25,13,18,10
Depth: 1,1,1,1
Depth: 2,1,2,2
Depth: 3,3,12,2
Depth: 4,3,2,3
Depth: 5,3,2,3
Depth: 6,3,4,10
Depth: 7,4,4,4
Depth: 8,5,4,4
Depth: 9,12,4,5
Depth: 10,6,4,13
Depth: 11,5,7,5
Depth: 12,6,14,6
Depth: 13,7,6,16
Depth: 14,7,7,7
Depth: 15,13,7,7
Depth: 16,8,13,8
Depth: 17,8,13,8
Depth: 18,9,15,9
Depth: 19,9,14,10
Depth: 20,11,14,9
Depth: 21,10,16,10
Depth: 22,11,16,10
Depth: 23,16,10,10
Depth: 24,16,11,17
Depth: 25,11,18,11
