Depth: 1,6,3,2
Depth: 2,4,3,3
Depth: 3,5,3,3
Depth: 4,5,4,4
Depth: 5,4,14,3
Depth: 6,3,4,4
Depth: 7,4,4,6
Depth: 8,4,3,4
Depth: 9,4,5,5
Depth: 10,13,5,5
Depth: 11,5,5,5
Depth: 12,5,6,5
Depth: 13,6,15,6
Depth: 14,6,6,6
Depth: 15,7,7,14
Depth: 16,8,6,6
Depth: 17,6,7,8
Depth: 18,12,7,8
Depth: 19,6,7,6
Depth: 20,11,7,6
Depth: 21,9,8,12
Depth: 22,7,8,8
Depth: 23,7,12,7
Depth: 24,8,8,12
Depth: 25,8,8,8
Depth: 1,1,1,0
Depth: 2,1,1,1
Depth: 3,1,1,2
Depth: 4,3,10,2
Depth: 5,3,2,2
Depth: 6,2,2,2
Depth: 7,3,3,3
Depth: 8,3,3,3
Depth: 9,3,3,9
Depth: 10,5,5,3
Depth: 11,4,4,5
Depth: 12,6,4,4
Depth: 13,9,5,5
Depth: 14,4,5,5
Depth: 15,4,11,4
Depth: 16,5,5,5
Depth: 17,6,5,11
Depth: 18,6,6,6
Depth: 19,6,7,10
Depth: 20,6,7,6
Depth: 21,7,12,7
Depth: 22,6,7,9
Depth: 23,12,10,7
Depth: 24,7,7,13
Depth: 25,9,7,7
