Depth: 1,4,1,1,1,1,1,1,1,1,2,1,1,1,1,1,1,1,2,1,1
Depth: 2,2,2,2,1,2,6,1,1,2,4,1,2,1,1,1,1,1,1,1,1
Depth: 3,2,2,2,2,3,1,2,1,2,1,2,2,1,2,2,2,3,1,1,1
Depth: 4,2,1,1,1,2,1,1,1,1,1,1,1,1,1,2,1,1,1,1,1
Depth: 5,1,1,1,1,1,1,1,1,1,1,1,2,1,1,1,1,1,1,1,2
Depth: 6,2,1,2,1,2,2,2,2,1,1,1,1,2,2,2,2,1,1,2,2
Depth: 7,1,1,1,1,1,1,2,2,2,1,1,2,2,1,1,3,2,4,1,1
Depth: 8,2,2,2,1,1,1,1,1,1,1,1,2,1,2,2,1,1,2,2,1
Depth: 9,1,2,1,2,2,2,2,1,2,2,3,1,2,1,2,2,2,1,2,2
Depth: 10,1,2,2,1,2,2,1,1,2,1,1,2,1,2,2,2,2,2,1,2
Depth: 11,1,1,2,3,1,1,1,1,2,1,2,1,3,1,2,2,2,2,1,1
Depth: 12,1,1,2,2,2,3,2,1,2,2,2,2,2,2,2,2,3,1,2,2
Depth: 13,2,2,2,2,2,1,2,2,3,1,1,1,1,2,2,1,2,2,2,3
Depth: 14,2,2,1,2,2,2,2,1,2,2,2,2,2,1,1,2,2,2,2,2
Depth: 15,2,2,1,2,1,2,2,2,1,2,1,2,1,2,2,1,1,2,1,2
Depth: 16,2,2,2,2,2,2,3,2,4,2,2,2,2,1,2,2,2,3,2,2
Depth: 17,2,2,2,1,2,2,2,2,2,1,1,1,1,2,3,2,1,2,1,2
Depth: 18,2,2,2,1,2,2,2,2,1,2,3,2,2,2,2,2,2,2,3,1
Depth: 19,2,2,2,2,2,1,3,2,1,2,2,2,2,2,3,2,2,1,2,2
Depth: 20,1,3,2,2,2,2,2,1,2,2,2,2,2,2,2,1,3,1,2,2
Depth: 21,2,1,2,2,1,1,1,1,2,1,2,2,1,2,2,2,2,2,2,2
Depth: 22,2,2,2,2,3,2,2,2,2,2,2,2,2,2,2,1,2,3,2,2
Depth: 23,2,2,2,3,1,2,1,2,2,2,3,2,1,2,2,2,3,2,2,2
Depth: 24,2,3,5,2,2,2,2,2,2,2,2,2,3,2,3,2,3,2,2,2
Depth: 25,3,3,2,2,2,2,3,2,2,2,3,2,2,2,2,2,2,2,3,2
Depth: 1,4,4,3,3,3,4,3,3,3,3,3,3,3,3,3,3,3,3,3,3
Depth: 2,2,3,3,4,4,4,4,3,3,3,4,4,4,3,5,3,4,4,3,4
Depth: 3,3,4,4,3,4,4,4,5,4,5,6,5,4,4,5,4,5,4,4,4
Depth: 4,5,5,4,2,4,5,4,4,5,5,4,4,4,4,5,5,5,5,4,4
Depth: 5,5,4,6,5,5,4,5,5,4,5,5,6,5,1,5,5,5,4,5,4
Depth: 6,6,5,5,4,4,5,4,5,4,4,4,3,4,4,6,5,5,6,6,6
Depth: 7,6,7,7,5,7,7,6,6,6,6,6,6,6,6,7,6,5,6,6,6
Depth: 8,7,7,7,7,7,6,7,6,8,6,7,7,6,7,7,6,7,8,7,6
Depth: 9,1,7,6,7,7,8,7,8,8,7,7,7,8,1,6,7,6,7,7,8
Depth: 10,7,8,9,7,7,8,7,8,8,6,8,6,8,7,7,8,6,8,8,7
Depth: 11,8,8,9,7,9,5,6,8,9,7,8,8,9,8,9,8,9,8,9,9
Depth: 12,8,8,10,8,8,7,8,8,9,10,9,9,8,10,8,8,8,9,8,8
Depth: 13,9,10,11,9,10,9,11,8,9,11,9,9,10,9,9,1,10,10,9,10
Depth: 14,11,12,10,9,1,10,10,9,11,13,11,7,9,10,10,9,9,10,10,10
Depth: 15,7,8,11,9,7,2,11,10,10,8,9,9,9,12,11,12,10,9,10,11
Depth: 16,12,9,9,11,9,10,11,11,10,12,11,9,10,2,12,10,12,9,10,9
Depth: 17,10,12,12,10,11,10,12,10,10,10,12,3,11,12,12,1,10,9,10,10
Depth: 18,10,11,10,11,11,10,10,13,12,12,13,13,13,13,12,11,10,10,11,10
Depth: 19,9,11,12,11,12,7,10,11,12,9,15,13,14,12,12,11,12,11,13,14
Depth: 20,11,12,1,14,11,11,13,2,12,12,12,14,10,13,12,1,12,13,12,13
Depth: 21,12,13,14,13,12,11,12,13,13,11,15,13,13,13,15,10,14,14,1,12
Depth: 22,14,1,15,12,15,13,10,12,14,13,12,1,11,12,12,12,11,14,13,12
Depth: 23,12,1,12,12,14,12,14,14,16,2,12,15,1,13,14,15,15,13,14,14
Depth: 24,12,14,16,15,14,12,11,13,14,15,15,12,13,12,16,14,13,9,14,15
Depth: 25,15,15,14,17,14,15,15,15,16,16,16,17,2,15,3,15,13,12,14,13
Depth: 1,6,1,1,1,1,1,1,1,1,1,1,2,1,1,1,1,1,1,1,1
Depth: 2,2,2,2,2,2,2,2,2,2,1,2,1,1,1,1,2,1,1,1,1
Depth: 3,1,1,1,3,2,2,2,5,1,2,1,1,1,1,1,4,2,1,1,1
Depth: 4,1,2,2,2,2,2,2,2,2,2,1,1,2,1,2,1,1,1,1,1
Depth: 5,1,2,1,2,2,1,1,1,1,1,1,4,1,1,1,1,0,1,1,1
Depth: 6,1,1,1,2,2,2,1,3,2,1,1,1,3,1,1,1,1,1,2,2
Depth: 7,1,1,1,1,1,1,1,0,4,1,2,2,1,1,1,2,1,1,1,1
Depth: 8,1,2,4,1,1,1,2,3,1,1,1,1,1,2,1,2,1,1,2,1
Depth: 9,1,1,1,1,2,1,2,1,2,1,2,1,2,2,1,2,1,2,1,2
Depth: 10,2,2,2,1,2,2,2,1,2,2,1,2,2,1,1,2,1,1,2,1
Depth: 11,1,1,1,2,4,1,1,1,2,1,1,1,1,2,1,2,5,2,2,3
Depth: 12,2,1,1,2,2,3,1,1,1,1,1,1,2,2,2,2,1,2,1,1
Depth: 13,1,2,1,2,2,2,2,1,1,2,2,1,2,1,2,1,1,2,2,1
Depth: 14,2,2,2,2,1,1,2,1,2,2,1,2,1,1,1,1,1,1,1,1
Depth: 15,3,2,1,1,1,1,1,1,2,1,1,2,1,2,1,1,1,1,2,1
Depth: 16,1,2,2,2,1,1,1,1,2,2,2,1,3,1,1,1,1,1,2,1
Depth: 17,1,1,2,1,2,1,2,2,1,2,1,2,2,2,2,1,1,2,2,1
Depth: 18,1,1,1,2,1,2,1,1,1,1,2,1,1,1,2,1,2,1,1,4
Depth: 19,2,1,1,2,2,2,2,2,2,2,2,2,2,1,1,2,2,2,2,2
Depth: 20,1,2,1,2,2,2,2,2,2,1,2,2,3,2,2,1,2,2,2,2
Depth: 21,2,2,2,1,1,1,1,2,2,1,1,1,1,1,2,1,3,2,2,1
Depth: 22,2,2,1,3,2,2,2,2,1,2,2,2,2,2,2,2,1,2,2,2
Depth: 23,2,2,2,1,2,2,2,2,2,1,1,2,2,2,2,1,2,2,1,2
Depth: 24,1,2,1,1,1,1,2,2,2,1,2,2,2,3,2,1,2,2,1,2
Depth: 25,2,2,2,2,2,2,2,1,1,1,2,2,1,2,2,1,1,1,2,1
Depth: 1,3,2,3,1,2,2,2,2,2,2,2,2,2,2,2,2,2,2,2,2
Depth: 2,2,3,3,3,4,3,4,3,3,3,4,4,3,3,4,3,4,3,3,4
Depth: 3,4,4,4,4,4,4,4,5,4,4,4,4,4,4,6,4,5,4,4,4
Depth: 4,5,5,5,3,4,5,4,5,4,4,5,4,4,4,5,6,5,5,5,4
Depth: 5,3,5,6,6,5,5,5,5,5,6,5,6,5,1,6,5,5,5,5,4
Depth: 6,6,5,6,6,4,4,4,3,4,4,5,5,4,4,6,6,5,6,6,6
Depth: 7,6,7,7,6,7,6,6,8,6,6,6,6,6,5,6,6,5,5,6,6
Depth: 8,7,7,7,5,7,6,7,6,8,6,6,7,6,7,7,7,6,8,6,7
Depth: 9,1,7,7,8,7,8,8,8,7,8,6,7,8,1,7,7,6,7,7,7
Depth: 10,8,8,8,7,7,8,8,8,8,7,8,7,8,9,7,8,6,8,8,8
Depth: 11,8,9,8,7,8,8,7,8,8,7,8,9,9,7,7,8,9,7,9,9
Depth: 12,8,8,9,8,7,7,10,9,10,10,9,8,7,10,9,8,10,8,9,8
Depth: 13,8,11,10,9,9,9,11,8,9,10,9,8,9,9,8,1,11,10,8,10
Depth: 14,10,10,8,7,1,10,10,9,11,12,10,10,10,10,11,9,9,10,9,10
Depth: 15,9,9,10,6,10,1,10,10,9,10,9,11,12,11,10,10,10,9,9,10
Depth: 16,10,11,9,10,10,10,9,9,11,13,11,10,11,1,11,12,10,10,12,10
Depth: 17,13,12,11,10,9,8,12,10,10,10,9,1,8,12,10,2,11,12,12,12
Depth: 18,11,12,11,13,10,11,10,11,10,12,11,9,12,12,12,12,11,11,12,10
Depth: 19,11,11,12,11,12,12,12,12,11,12,15,14,12,12,11,11,12,12,15,12
Depth: 20,12,12,2,12,12,12,13,1,11,12,10,13,10,11,9,1,11,13,12,13
Depth: 21,14,11,13,13,13,11,13,13,11,13,14,14,10,11,14,8,13,11,2,14
Depth: 22,12,1,12,12,15,11,14,13,10,9,13,1,12,12,14,11,9,12,9,13
Depth: 23,13,1,14,11,14,12,14,16,14,1,13,11,1,13,13,14,13,15,11,13
Depth: 24,10,14,14,14,12,12,13,12,12,17,16,14,14,12,14,13,15,12,11,13
Depth: 25,10,14,9,12,14,15,13,17,13,16,15,16,1,14,1,11,12,13,13,13
