Depth: 1,123,461,70
Depth: 2,62,64,66
Depth: 3,67,66,62
Depth: 4,64,71,64
Depth: 5,63,66,64
Depth: 6,68,62,72
Depth: 7,67,64,66
Depth: 8,65,67,74
Depth: 9,64,64,68
Depth: 10,65,65,66
Depth: 11,71,64,66
Depth: 12,65,63,63
Depth: 13,71,67,68
Depth: 14,75,69,65
Depth: 15,72,72,66
Depth: 16,71,66,72
Depth: 17,73,67,71
Depth: 18,70,67,71
Depth: 19,74,68,71
Depth: 20,76,66,72
Depth: 21,68,73,69
Depth: 22,68,71,71
Depth: 23,72,69,68
Depth: 24,69,72,68
Depth: 25,71,68,76
Depth: 26,69,71,70
Depth: 27,69,78,70
Depth: 28,70,71,75
Depth: 29,73,73,67
Depth: 30,76,69,66
Depth: 31,69,74,72
Depth: 32,67,71,78
Depth: 33,73,70,69
Depth: 34,74,70,68
Depth: 35,74,68,69
Depth: 36,70,77,73
Depth: 37,72,71,76
Depth: 38,68,73,78
Depth: 39,69,70,74
Depth: 40,69,71,73
Depth: 41,81,70,68
Depth: 42,79,69,72
Depth: 43,78,69,70
Depth: 44,69,77,73
Depth: 45,71,76,74
Depth: 46,69,75,73
Depth: 47,69,74,71
Depth: 48,73,73,70
Depth: 49,74,75,69
Depth: 50,70,77,71
Depth: 1,282,1337,313
Depth: 2,321,265,298
Depth: 3,349,390,330
Depth: 4,334,345,377
Depth: 5,398,284,386
Depth: 6,351,492,423
Depth: 7,407,449,457
Depth: 8,391,466,404
Depth: 9,504,577,442
Depth: 10,504,498,521
Depth: 11,594,730,508
Depth: 12,469,529,550
Depth: 13,526,516,528
Depth: 14,727,603,532
Depth: 15,675,633,639
Depth: 16,736,621,846
Depth: 17,753,634,695
Depth: 18,733,704,707
Depth: 19,629,593,713
Depth: 20,810,686,719
Depth: 21,715,670,765
Depth: 22,690,709,803
Depth: 23,894,906,1030
Depth: 24,801,800,869
Depth: 25,844,998,923
Depth: 26,820,745,873
Depth: 27,1049,951,831
Depth: 28,1048,1065,815
Depth: 29,951,885,992
Depth: 30,900,1115,1046
Depth: 31,991,1199,986
Depth: 32,1016,962,1041
Depth: 33,997,1280,943
Depth: 34,1155,1017,1020
Depth: 35,1191,1018,1125
Depth: 36,991,1133,1219
Depth: 37,1175,1201,1122
Depth: 38,1228,1120,1167
Depth: 39,1107,1247,1351
Depth: 40,1268,1417,1277
Depth: 41,1098,1256,1172
Depth: 42,1325,1386,1239
Depth: 43,1144,1389,1452
Depth: 44,1345,1184,1392
Depth: 45,1294,1484,1474
Depth: 46,1331,1435,1215
Depth: 47,1505,1348,1346
Depth: 48,1663,1403,1615
Depth: 49,1441,1533,1661
Depth: 50,1485,1357,1531
