Depth: 1,61,66,63
Depth: 2,64,67,70
Depth: 3,65,62,64
Depth: 4,61,59,64
Depth: 5,63,62,73
Depth: 6,65,66,62
Depth: 7,62,64,64
Depth: 8,66,59,73
Depth: 9,63,62,65
Depth: 10,65,62,62
Depth: 11,63,61,75
Depth: 12,61,65,66
Depth: 13,66,61,65
Depth: 14,65,69,66
Depth: 15,63,62,59
Depth: 16,62,65,65
Depth: 17,72,62,60
Depth: 18,62,64,63
Depth: 19,64,66,64
Depth: 20,74,63,61
Depth: 21,63,62,64
Depth: 22,63,63,69
Depth: 23,62,66,58
Depth: 24,59,60,63
Depth: 25,63,73,64
Depth: 26,61,62,62
Depth: 27,66,61,66
Depth: 28,77,65,65
Depth: 29,59,65,65
Depth: 30,63,63,71
Depth: 31,64,64,63
Depth: 32,61,61,61
Depth: 33,73,63,62
Depth: 34,63,62,65
Depth: 35,69,65,74
Depth: 36,66,65,62
Depth: 37,60,63,66
Depth: 38,71,64,66
Depth: 39,63,62,66
Depth: 40,62,60,71
Depth: 41,65,66,61
Depth: 42,60,61,63
Depth: 43,70,65,66
Depth: 44,66,65,66
Depth: 45,61,75,67
Depth: 46,61,65,64
Depth: 47,64,62,76
Depth: 48,66,65,61
Depth: 49,63,65,64
Depth: 50,72,66,67
Depth: 1,2552,2101,2524
Depth: 2,2366,2455,2280
Depth: 3,2662,2476,2405
Depth: 4,2482,2880,2590
Depth: 5,2888,2881,2883
Depth: 6,2788,3003,3634
Depth: 7,3727,4226,2910
Depth: 8,4014,3842,3001
Depth: 9,3312,3737,3421
Depth: 10,4255,4133,3994
Depth: 11,3879,4145,3512
Depth: 12,3737,3007,4027
Depth: 13,3948,4842,3681
Depth: 14,4629,4120,4035
Depth: 15,4387,4965,4331
Depth: 16,4574,4082,5073
Depth: 17,4608,5760,5517
Depth: 18,5702,4358,4396
Depth: 19,4677,5531,5054
Depth: 20,5113,4614,5848
Depth: 21,5301,5307,5714
Depth: 22,4995,5069,6032
Depth: 23,6231,6306,5885
Depth: 24,5731,6380,6763
Depth: 25,6907,6971,5791
Depth: 26,5207,7164,6353
Depth: 27,6791,7506,5619
Depth: 28,6928,6837,6170
Depth: 29,7742,6982,7352
Depth: 30,8399,7479,7336
Depth: 31,6473,7615,7288
Depth: 32,7645,8360,8095
Depth: 33,7581,7785,7769
Depth: 34,8679,7381,8762
Depth: 35,7692,6796,8180
Depth: 36,7231,9449,8574
Depth: 37,8071,8263,8785
Depth: 38,9455,8866,9622
Depth: 39,8959,9377,9496
Depth: 40,8954,8804,9075
Depth: 41,11546,9649,9867
Depth: 42,9765,9230,9281
Depth: 43,10549,8846,11089
Depth: 44,9244,9898,9623
Depth: 45,10737,9206,9138
Depth: 46,11001,12408,10448
Depth: 47,12271,9767,9955
Depth: 48,10326,10851,9914
Depth: 49,10689,11727,10412
Depth: 50,11928,11544,10372
